{
"autoplayBgm":false,"autoplayBgs":false,"battleback1Name":"","battleback2Name":"","bgm":{"name":"","pan":0,"pitch":100,"volume":100},"bgs":{"name":"","pan":0,"pitch":100,"volume":80},"disableDashing":false,"displayName":"","encounterList":[],"encounterStep":30,"height":20,"note":"","parallaxLoopX":false,"parallaxLoopY":false,"parallaxName":"","parallaxShow":false,"parallaxSx":0,"parallaxSy":0,"scrollType":0,"specifyBattleback":false,"tilesetId":3,"width":19,
"data":[0,0,0,0,0,0,0,0,0,0,0,0,0,0,0,0,0,0,0,0,0,0,0,0,0,0,0,0,0,0,0,0,0,0,0,0,0,0,0,0,1544,0,5931,5921,5921,5911,5921,5921,5921,5911,5921,5921,5933,0,0,0,0,0,0,0,5934,6274,6274,6274,5932,6274,6274,6274,5932,6274,6274,6274,5934,0,0,0,0,0,5930,6278,6280,6280,6280,6279,6280,6280,6280,6279,6280,6280,6280,6275,5930,0,0,0,0,5920,6284,4002,3988,4004,6285,4002,3988,4004,6285,4002,3988,4004,6281,5920,0,0,0,0,5920,4002,3969,3968,3974,4001,3997,3996,3998,4001,3977,3968,3970,4004,5920,0,0,0,0,5920,3984,3968,3968,3992,4146,4132,4132,4132,4148,3984,3968,3968,3992,5920,0,0,0,0,5920,3984,3968,3968,3992,4128,4112,4112,4112,4136,3984,3968,3968,3992,5920,0,0,0,0,5920,3984,3968,3968,3992,4128,4112,4112,4112,4136,3984,3968,3968,3992,5920,0,0,0,0,5920,3984,3968,3968,3992,4128,4112,4112,4112,4136,3984,3968,3968,3992,5920,0,0,0,0,5920,3984,3968,3968,3992,4152,4140,4140,4140,4150,3984,3968,3968,3992,5920,0,0,0,0,5920,4008,3976,3968,3970,3988,3988,3988,3988,3988,3969,3968,3972,4006,5920,0,0,0,0,5929,5925,4008,3976,3968,3968,3968,3968,3968,3968,3968,3972,4006,5923,5927,0,0,0,0,6275,5929,5925,4008,3996,3996,3996,3996,3996,3996,3996,4006,5923,5927,6278,0,0,0,0,6281,6275,5929,5921,5921,5921,5921,5921,5921,5921,5921,5921,5927,6278,6284,0,0,0,0,0,6281,6275,6274,6274,6274,6274,6274,6274,6274,6274,6274,6278,6284,0,0,0,0,0,0,0,6281,6280,6280,6280,6280,6280,6280,6280,6280,6280,6284,0,0,0,0,0,0,0,0,0,0,0,0,0,0,0,0,0,0,0,0,0,0,0,0,0,0,0,0,0,0,0,0,0,0,0,0,0,0,0,0,0,0,0,0,0,0,0,0,0,0,0,0,0,0,0,0,0,0,0,0,0,0,0,0,0,0,0,0,0,0,0,0,0,0,0,0,0,0,0,0,0,0,0,0,0,0,0,0,0,0,0,0,0,0,0,0,0,0,0,0,0,0,0,0,0,0,0,0,0,0,0,0,0,0,0,0,0,0,0,0,0,0,0,0,0,0,0,0,0,0,0,0,0,0,0,0,0,0,0,0,0,0,0,0,0,0,0,0,0,0,0,0,0,0,0,0,0,0,0,0,0,0,0,0,0,0,0,0,0,0,0,0,0,0,0,0,0,0,0,0,0,0,0,0,0,0,0,0,0,0,0,0,0,0,0,0,0,0,0,0,0,0,0,0,0,0,0,0,0,0,0,0,0,0,0,0,0,0,0,0,0,0,0,0,0,0,0,3914,0,0,0,0,0,0,0,0,0,0,0,0,0,0,0,0,3915,3905,3887,3917,0,0,0,0,0,0,0,0,0,0,0,0,0,0,0,0,0,3904,0,0,0,0,0,0,0,0,0,0,0,0,0,0,0,0,0,0,3916,0,0,0,0,0,0,0,0,0,0,0,0,0,0,0,0,0,0,0,0,0,0,0,0,0,0,0,0,0,0,0,0,0,0,0,0,0,0,0,0,0,0,0,0,0,0,0,0,0,0,0,0,0,0,0,0,0,0,0,0,0,0,0,0,0,0,0,0,0,0,0,0,0,0,0,0,0,0,0,0,0,0,0,0,0,0,0,0,0,0,0,0,0,0,0,0,0,0,0,0,0,0,0,0,0,0,0,0,0,0,0,0,0,0,0,0,0,0,0,0,0,0,0,0,0,0,0,0,0,0,0,0,0,0,0,0,0,0,0,0,0,0,0,0,0,0,0,0,0,0,0,0,0,0,0,0,0,0,0,0,0,0,0,0,0,0,0,0,0,0,0,0,0,0,0,0,0,0,0,0,0,0,0,0,0,0,0,0,0,0,0,0,0,0,0,0,0,0,0,0,0,0,0,0,0,0,0,0,0,0,0,0,0,0,0,0,0,0,0,0,0,0,0,0,0,0,0,0,0,0,0,0,0,0,0,0,0,0,0,0,0,0,0,0,0,0,0,0,0,0,0,0,0,0,0,0,0,0,0,0,0,0,0,0,0,0,0,0,0,0,0,0,0,0,0,0,0,0,0,0,0,0,0,0,0,0,0,0,0,0,0,0,0,0,0,0,0,0,0,0,0,0,0,0,0,0,0,0,0,0,0,0,0,0,0,0,0,0,0,0,0,0,0,0,0,0,0,0,0,0,0,0,0,0,0,0,0,0,0,0,0,0,0,0,0,0,0,0,0,0,0,0,0,0,0,0,0,0,0,0,0,0,0,0,0,0,0,0,0,0,0,0,0,0,0,0,0,0,0,0,0,0,0,0,0,0,0,0,0,0,0,0,0,0,0,0,0,0,0,0,0,0,0,0,0,0,0,0,0,0,0,0,0,0,0,0,0,0,0,0,0,0,0,0,0,0,0,0,0,0,0,0,0,0,0,0,0,0,0,0,0,0,0,0,0,0,0,0,0,0,0,0,0,0,0,0,0,0,0,0,0,0,0,0,0,0,0,0,0,0,0,0,0,0,0,0,0,0,0,0,0,0,0,0,0,0,0,0,0,0,0,0,0,0,0,0,0,0,0,0,0,0,0,0,0,0,0,0,0,0,0,0,0,0,0,0,0,0,0,0,0,0,0,0,0,0,0,0,0,0,0,0,0,0,0,0,0,0,0,0,0,0,0,0,0,0,0,0,0,0,0,0,0,0,0,0,0,0,0,0,0,0,0,0,0,0,0,0,0,0,0,0,0,0,0,0,0,0,0,0,0,0,0,0,0,0,0,0,0,0,0,0,0,0,0,0,0,0,0,0,0,0,0,0,0,0,0,0,0,0,0,0,0,0,0,0,81,82,0,0,2,0,9,0,0,81,82,0,0,0,0,0,0,0,0,89,90,0,0,0,0,0,0,0,89,90,0,0,0,0,0,0,0,0,0,0,0,0,0,0,0,0,0,0,0,0,0,0,0,0,0,0,80,0,80,0,0,798,0,774,0,0,80,0,80,0,0,0,0,0,0,88,0,88,0,0,806,0,782,0,0,88,0,88,0,0,0,0,0,0,0,0,0,0,0,0,0,0,0,0,0,0,0,0,0,0,0,0,0,80,0,80,0,0,0,0,0,0,0,80,0,80,0,0,0,0,0,0,88,0,88,0,0,0,0,0,0,0,88,0,88,0,0,0,0,0,0,0,0,80,0,80,0,80,0,80,0,80,0,0,0,0,0,0,0,0,0,0,88,0,88,0,88,0,88,0,88,0,0,0,0,0,0,0,0,0,0,0,0,0,0,0,0,0,0,0,0,0,0,0,0,0,0,0,0,0,0,0,0,0,0,0,0,0,0,0,0,0,0,0,0,0,0,0,0,0,0,0,0,0,0,0,0,0,0,0,0,0,0,0,0,0,0,0,0,0,0,0,0,0,0,0,0,0,0,0,0,0,0,0,0,0,0,0,0,0,0,0,0,0,0,0,0,0,0,0,0,0,0,0,0,0,0,0,0,0,0,0,0,0,0,0,0,0,0,0,0,0,0,0,0,0,0,0,0,0,0,0,0,0,0,0,0,0,0,0,0,0,0,0,0,0,0,0,0,0,0,0,0,0,0,0,0,0,0,0,0,0,0,0,0,0,0,0,0,0,0,0,0,0,0,0,0,0,0,0,0,0,0,0,0,0,0,0,0,0,0,0,0,0,0,0,0,0,0,0,5,0,0,0,5,0,0,0,5,0,0,0,0,0,0,0,0,0,5,0,0,0,0,0,0,0,0,0,0,0,0,0,0,0,0,0,0,5,0,0,0,0,0,0,0,0,0,0,0,0,0,0,0,0,0,0,5,0,0,0,0,0,0,0,0,0,0,0,0,0,0,0,0,0,0,5,0,0,0,0,0,0,0,0,0,0,0,0,0,0,0,0,0,0,5,0,0,0,0,0,0,0,0,0,0,0,0,0,0,0,0,0,0,5,0,0,0,0,0,0,0,0,0,0,0,0,0,0,0,0,0,0,5,0,0,0,0,0,0,0,0,0,0,0,0,0,0,0,0,0,0,0,0,0,0,0,0,0,0,0,0,0,0,0,0,0,0,0,0,0,0,0,0,0,0,0,0,0,0,0,0,0,0,0,0,0,0,0,0,0,0,0,0,0,0,0,0,0,0,0,0,0,0,0,0,0,0,0,0,0,0,0,0,0,0,0,0,0,0,0,0,0,0,0,0,0,0,0,0,0,0,0,0,0,0,0,0,0,0,0,0,0,0,0,0,0,0,0,0,0,0,0,0,0,0,0,0,0,0,0,0,0,0,0,0,0,0,0,0,0,0,0,0,0,0,0,0,0,0,0,0,0,0,0,0,0,0,0,0,0,0,0,0,0,0,0,0,0,0,0,0,0,0,0,0,0,0,0,0,0,0,0,0,0,0,0,0,0,0,0,0,0,0,0,0,0,0,0,0,0,0,0,0,0,0,0,0,0,0,0,0,0,0,0,0,0,0,0,0,0,0,0,0,0,0,0,0,0,0,0,0,0,0,0,0,0,0,0,0,0,0,0,0,0,0,0,0,0,0,0,0,0,0,0,0,0,0,0,0,0,0,0,0,0,0,0,0,0,0,0,0,0,0,0,0,0,0,0,0,0,0,0,0,0,0,0,0,0,0,0,0,0,0,0,0,0,0,0,0,0,0,0,0,0,0,0,0,0,0,0,0,0,0,0,0,0,0,0,0,0,0,0,0,0,0,0,0,0,0,0,0,0,0,0,0,0,0,0,0,0,0,0,0,0,0,0,0,0,0,0,0,0,0,0,0,0,0,0,0,0,0,0,0,0,0,0,0,0,0,0,0,0,0,0,0,0,0,0,0,0,0,0,0,0,0,0,0,0,0,0,0,0,0,0,0,0,0,0,0,0,0,0,0,0,0,0,0,0,0,0,0,0,0,0,0,0,0,0,0,0,0,0,0,0,0,0,0,0,0,0,0,0,0,0,0,0,0,0,0,0,0,0,0,0,0,0,0,0,0,0,0,0,0,0,0,0,0,0,0,0,0,0,0,0,0,0,0,0,0,0,0,0,0,0,0,0,0,0,0,0,0,0,0,0,0,0,0,0,0,0,0,0,0,0,0,0,0,0,0,0,0,0,0,0,0,0,0,0,0,0,0,0,0,0,0,0,0,0,0,0,0,0,0,0,0,0,0,0,0,0,0],
"events":[
null,
{"id":1,"name":"EV001","note":"","pages":[{"conditions":{"actorId":1,"actorValid":false,"itemId":1,"itemValid":false,"selfSwitchCh":"A","selfSwitchValid":false,"switch1Id":1,"switch1Valid":false,"switch2Id":1,"switch2Valid":false,"variableId":1,"variableValid":false,"variableValue":0},"directionFix":false,"image":{"tileId":0,"characterName":"","direction":2,"pattern":0,"characterIndex":0},"moveFrequency":3,"moveRoute":{"list":[{"code":0,"indent":null,"parameters":[]}],"repeat":true,"skippable":false,"wait":false},"moveSpeed":3,"moveType":0,"priorityType":0,"stepAnime":false,"through":false,"trigger":1,"walkAnime":true,"list":[{"code":250,"indent":0,"parameters":[{"name":"Move","pan":0,"pitch":100,"volume":80}]},{"code":201,"indent":0,"parameters":[0,66,9,5,4,0]},{"code":0,"indent":0,"parameters":[]}]}],"x":10,"y":5},
{"id":2,"name":"EV002","note":"","pages":[{"conditions":{"actorId":1,"actorValid":false,"itemId":1,"itemValid":false,"selfSwitchCh":"A","selfSwitchValid":false,"switch1Id":1,"switch1Valid":false,"switch2Id":1,"switch2Valid":false,"variableId":1,"variableValid":false,"variableValue":0},"directionFix":false,"image":{"tileId":0,"characterName":"","direction":2,"pattern":0,"characterIndex":0},"moveFrequency":3,"moveRoute":{"list":[{"code":0,"indent":null,"parameters":[]}],"repeat":true,"skippable":false,"wait":false},"moveSpeed":3,"moveType":0,"priorityType":0,"stepAnime":false,"through":false,"trigger":1,"walkAnime":true,"list":[{"code":250,"indent":0,"parameters":[{"name":"Move","pan":0,"pitch":100,"volume":80}]},{"code":201,"indent":0,"parameters":[0,79,8,6,2,0]},{"code":0,"indent":0,"parameters":[]}]}],"x":8,"y":5},
{"id":3,"name":"Succubus ","note":"","pages":[{"conditions":{"actorId":1,"actorValid":false,"itemId":1,"itemValid":false,"selfSwitchCh":"A","selfSwitchValid":false,"switch1Id":1,"switch1Valid":false,"switch2Id":1,"switch2Valid":false,"variableId":1,"variableValid":false,"variableValue":0},"directionFix":true,"image":{"tileId":0,"characterName":"Monster2","direction":4,"pattern":1,"characterIndex":3},"moveFrequency":3,"moveRoute":{"list":[{"code":0,"indent":null,"parameters":[]}],"repeat":true,"skippable":false,"wait":false},"moveSpeed":3,"moveType":1,"priorityType":1,"stepAnime":false,"through":false,"trigger":0,"walkAnime":true,"list":[{"code":101,"indent":0,"parameters":["Succubus emo",5,0,2]},{"code":401,"indent":0,"parameters":["Mom, just... just five more cocks..."]},{"code":0,"indent":0,"parameters":[]}]},{"conditions":{"actorId":1,"actorValid":false,"itemId":1,"itemValid":false,"selfSwitchCh":"A","selfSwitchValid":false,"switch1Id":217,"switch1Valid":true,"switch2Id":1,"switch2Valid":false,"variableId":1,"variableValid":false,"variableValue":0},"directionFix":false,"image":{"tileId":0,"characterName":"","direction":2,"pattern":0,"characterIndex":0},"moveFrequency":3,"moveRoute":{"list":[{"code":0,"indent":null,"parameters":[]}],"repeat":true,"skippable":false,"wait":false},"moveSpeed":3,"moveType":0,"priorityType":0,"stepAnime":false,"through":false,"trigger":0,"walkAnime":true,"list":[{"code":0,"indent":0,"parameters":[]}]},{"conditions":{"actorId":1,"actorValid":false,"itemId":1,"itemValid":false,"selfSwitchCh":"A","selfSwitchValid":false,"switch1Id":2099,"switch1Valid":true,"switch2Id":1,"switch2Valid":false,"variableId":1,"variableValid":false,"variableValue":0},"directionFix":true,"image":{"tileId":0,"characterName":"Monster2","direction":4,"pattern":1,"characterIndex":3},"moveFrequency":3,"moveRoute":{"list":[{"code":0,"indent":null,"parameters":[]}],"repeat":true,"skippable":false,"wait":false},"moveSpeed":3,"moveType":1,"priorityType":1,"stepAnime":false,"through":false,"trigger":0,"walkAnime":true,"list":[{"code":101,"indent":0,"parameters":["Succubus emo",5,0,2]},{"code":401,"indent":0,"parameters":["Cute little humans... that's right, more..."]},{"code":0,"indent":0,"parameters":[]}]},{"conditions":{"actorId":1,"actorValid":false,"itemId":1,"itemValid":false,"selfSwitchCh":"A","selfSwitchValid":false,"switch1Id":3601,"switch1Valid":true,"switch2Id":1,"switch2Valid":false,"variableId":1,"variableValid":false,"variableValue":0},"directionFix":false,"image":{"tileId":0,"characterName":"","direction":2,"pattern":0,"characterIndex":0},"moveFrequency":3,"moveRoute":{"list":[{"code":0,"indent":null,"parameters":[]}],"repeat":true,"skippable":false,"wait":false},"moveSpeed":3,"moveType":0,"priorityType":0,"stepAnime":false,"through":false,"trigger":0,"walkAnime":true,"list":[{"code":0,"indent":0,"parameters":[]}]}],"x":5,"y":11},
{"id":4,"name":"Maid","note":"","pages":[{"conditions":{"actorId":1,"actorValid":false,"itemId":1,"itemValid":false,"selfSwitchCh":"A","selfSwitchValid":false,"switch1Id":2099,"switch1Valid":true,"switch2Id":1,"switch2Valid":false,"variableId":1,"variableValid":false,"variableValue":0},"directionFix":false,"image":{"tileId":0,"characterName":"People3","direction":2,"pattern":1,"characterIndex":5},"moveFrequency":3,"moveRoute":{"list":[{"code":0,"indent":null,"parameters":[]}],"repeat":true,"skippable":false,"wait":false},"moveSpeed":3,"moveType":0,"priorityType":1,"stepAnime":false,"through":false,"trigger":0,"walkAnime":true,"list":[{"code":101,"indent":0,"parameters":["People3",5,0,2]},{"code":401,"indent":0,"parameters":["Oh! If they let you in here, you must be allies..."]},{"code":101,"indent":0,"parameters":["Hilstara emo",4,0,2]},{"code":401,"indent":0,"parameters":["You were frightened to see us?"]},{"code":101,"indent":0,"parameters":["People3",5,0,2]},{"code":401,"indent":0,"parameters":["Not you in particular, I was just afraid the tower had been invaded. Not sure if people are still looking for us."]},{"code":101,"indent":0,"parameters":["Robin blond emo",0,0,2]},{"code":401,"indent":0,"parameters":["That's a Gilded Lily uniform, isn't it?"]},{"code":101,"indent":0,"parameters":["People3",5,0,2]},{"code":401,"indent":0,"parameters":["Yes. I don't know if you're aware, but the maids there are... used by clients. Often quite harshly."]},{"code":101,"indent":0,"parameters":["People3",5,0,2]},{"code":401,"indent":0,"parameters":["Things went poorly for me after the war, so I worked for them and became trapped. And I wasn't the only one."]},{"code":101,"indent":0,"parameters":["People3",5,0,2]},{"code":401,"indent":0,"parameters":["But the succubi have been kidnapping - that is, rescuing - us."]},{"code":213,"indent":0,"parameters":[5,4,true]},{"code":101,"indent":0,"parameters":["Succubus emo",1,0,2]},{"code":401,"indent":0,"parameters":["All of you are too cute to be hurt!"]},{"code":101,"indent":0,"parameters":["People3",5,0,2]},{"code":401,"indent":0,"parameters":["In exchange for some sexual energy while we sleep, they provide for us here."]},{"code":101,"indent":0,"parameters":["Hilstara emo",1,0,2]},{"code":401,"indent":0,"parameters":["Ah. And if you're fine with that arrangement, then you give them something they need as well."]},{"code":101,"indent":0,"parameters":["People3",5,0,2]},{"code":401,"indent":0,"parameters":["I hope to find another life eventually, but for now, this is a welcome relief."]},{"code":123,"indent":0,"parameters":["A",0]},{"code":0,"indent":0,"parameters":[]}]},{"conditions":{"actorId":1,"actorValid":false,"itemId":1,"itemValid":false,"selfSwitchCh":"A","selfSwitchValid":true,"switch1Id":2099,"switch1Valid":true,"switch2Id":1,"switch2Valid":false,"variableId":1,"variableValid":false,"variableValue":0},"directionFix":false,"image":{"tileId":0,"characterName":"People3","direction":2,"pattern":1,"characterIndex":5},"moveFrequency":3,"moveRoute":{"list":[{"code":0,"indent":null,"parameters":[]}],"repeat":true,"skippable":false,"wait":false},"moveSpeed":3,"moveType":0,"priorityType":1,"stepAnime":false,"through":false,"trigger":0,"walkAnime":true,"list":[{"code":101,"indent":0,"parameters":["People3",5,0,2]},{"code":401,"indent":0,"parameters":["Honestly, my biggest problem is deciding what to do with myself. Days seem really long without all my work."]},{"code":0,"indent":0,"parameters":[]}]},{"conditions":{"actorId":1,"actorValid":false,"itemId":1,"itemValid":false,"selfSwitchCh":"A","selfSwitchValid":true,"switch1Id":3601,"switch1Valid":true,"switch2Id":1,"switch2Valid":false,"variableId":1,"variableValid":false,"variableValue":0},"directionFix":false,"image":{"tileId":0,"characterName":"People3","direction":2,"pattern":1,"characterIndex":5},"moveFrequency":3,"moveRoute":{"list":[{"code":0,"indent":null,"parameters":[]}],"repeat":true,"skippable":false,"wait":false},"moveSpeed":3,"moveType":0,"priorityType":1,"stepAnime":false,"through":false,"trigger":0,"walkAnime":true,"list":[{"code":101,"indent":0,"parameters":["People3",5,0,2]},{"code":401,"indent":0,"parameters":["As welcoming as everyone has been here, I'd like to live in Stineford again eventually."]},{"code":0,"indent":0,"parameters":[]}]},{"conditions":{"actorId":1,"actorValid":false,"itemId":1,"itemValid":false,"selfSwitchCh":"A","selfSwitchValid":false,"switch1Id":3761,"switch1Valid":true,"switch2Id":1,"switch2Valid":false,"variableId":1,"variableValid":false,"variableValue":0},"directionFix":false,"image":{"tileId":0,"characterName":"People3","direction":2,"pattern":1,"characterIndex":5},"moveFrequency":3,"moveRoute":{"list":[{"code":0,"indent":null,"parameters":[]}],"repeat":true,"skippable":false,"wait":false},"moveSpeed":3,"moveType":0,"priorityType":1,"stepAnime":false,"through":false,"trigger":0,"walkAnime":true,"list":[{"code":111,"indent":0,"parameters":[0,3762,0]},{"code":101,"indent":1,"parameters":["People3",5,0,2]},{"code":401,"indent":1,"parameters":["As welcoming as everyone has been here, I'd like to live in Stineford again eventually."]},{"code":0,"indent":1,"parameters":[]},{"code":411,"indent":0,"parameters":[]},{"code":101,"indent":1,"parameters":["People3",5,0,2]},{"code":401,"indent":1,"parameters":["Now that the Gilded Lily is gone, I intend to move back to Stineford, but I'll need time to prepare."]},{"code":0,"indent":1,"parameters":[]},{"code":412,"indent":0,"parameters":[]},{"code":0,"indent":0,"parameters":[]}]}],"x":12,"y":5},
{"id":5,"name":"Succubus TARGET","note":"","pages":[{"conditions":{"actorId":1,"actorValid":false,"itemId":1,"itemValid":false,"selfSwitchCh":"A","selfSwitchValid":false,"switch1Id":2099,"switch1Valid":true,"switch2Id":1,"switch2Valid":false,"variableId":1,"variableValid":false,"variableValue":0},"directionFix":false,"image":{"tileId":0,"characterName":"Monster2","direction":4,"pattern":1,"characterIndex":3},"moveFrequency":3,"moveRoute":{"list":[{"code":0,"indent":null,"parameters":[]}],"repeat":true,"skippable":false,"wait":false},"moveSpeed":3,"moveType":0,"priorityType":1,"stepAnime":false,"through":false,"trigger":0,"walkAnime":true,"list":[{"code":101,"indent":0,"parameters":["Succubus emo",0,0,2]},{"code":401,"indent":0,"parameters":["Poor humans, mistreated by their own kind. We have to be kind to them..."]},{"code":0,"indent":0,"parameters":[]}]},{"conditions":{"actorId":1,"actorValid":false,"itemId":1,"itemValid":false,"selfSwitchCh":"A","selfSwitchValid":false,"switch1Id":3601,"switch1Valid":true,"switch2Id":1,"switch2Valid":false,"variableId":1,"variableValid":false,"variableValue":0},"directionFix":false,"image":{"tileId":0,"characterName":"Monster2","direction":4,"pattern":1,"characterIndex":3},"moveFrequency":3,"moveRoute":{"list":[{"code":0,"indent":null,"parameters":[]}],"repeat":true,"skippable":false,"wait":false},"moveSpeed":3,"moveType":0,"priorityType":1,"stepAnime":false,"through":false,"trigger":0,"walkAnime":true,"list":[{"code":101,"indent":0,"parameters":["Succubus emo",0,0,2]},{"code":401,"indent":0,"parameters":["We can't help all the humans, especially with more attention on us. Any way you can help with that?"]},{"code":0,"indent":0,"parameters":[]}]},{"conditions":{"actorId":1,"actorValid":false,"itemId":1,"itemValid":false,"selfSwitchCh":"A","selfSwitchValid":false,"switch1Id":3761,"switch1Valid":true,"switch2Id":1,"switch2Valid":false,"variableId":1,"variableValid":false,"variableValue":0},"directionFix":false,"image":{"tileId":0,"characterName":"Monster2","direction":4,"pattern":1,"characterIndex":3},"moveFrequency":3,"moveRoute":{"list":[{"code":0,"indent":null,"parameters":[]}],"repeat":true,"skippable":false,"wait":false},"moveSpeed":3,"moveType":0,"priorityType":1,"stepAnime":false,"through":false,"trigger":0,"walkAnime":true,"list":[{"code":111,"indent":0,"parameters":[0,3666,0]},{"code":101,"indent":1,"parameters":["Succubus emo",5,0,2]},{"code":401,"indent":1,"parameters":["We only wanted to help, yet now they're blaming us for the Gilded Lily..."]},{"code":0,"indent":1,"parameters":[]},{"code":411,"indent":0,"parameters":[]},{"code":111,"indent":1,"parameters":[0,3667,0]},{"code":101,"indent":2,"parameters":["Succubus emo2",1,0,2]},{"code":401,"indent":2,"parameters":["I don't want to lose our new friends, but I'm glad the Gilded Lily is closed."]},{"code":0,"indent":2,"parameters":[]},{"code":411,"indent":1,"parameters":[]},{"code":111,"indent":2,"parameters":[0,3668,0]},{"code":101,"indent":3,"parameters":["Succubus emo",4,0,2]},{"code":401,"indent":3,"parameters":["With the Gilded Lily closed and succubi in the open, maybe we can soon do more in Stineford!"]},{"code":0,"indent":3,"parameters":[]},{"code":411,"indent":2,"parameters":[]},{"code":101,"indent":3,"parameters":["Succubus emo",0,0,2]},{"code":401,"indent":3,"parameters":["We can't help all the humans, especially with more attention on us. Any way you can help with that?"]},{"code":0,"indent":3,"parameters":[]},{"code":412,"indent":2,"parameters":[]},{"code":0,"indent":2,"parameters":[]},{"code":412,"indent":1,"parameters":[]},{"code":0,"indent":1,"parameters":[]},{"code":412,"indent":0,"parameters":[]},{"code":0,"indent":0,"parameters":[]}]}],"x":15,"y":6},
null,
null,
{"id":8,"name":"Succubus Alt","note":"","pages":[{"conditions":{"actorId":1,"actorValid":false,"itemId":1,"itemValid":false,"selfSwitchCh":"A","selfSwitchValid":false,"switch1Id":1,"switch1Valid":false,"switch2Id":1,"switch2Valid":false,"variableId":1,"variableValid":false,"variableValue":0},"directionFix":false,"image":{"tileId":0,"characterName":"Monster2","direction":6,"pattern":1,"characterIndex":7},"moveFrequency":3,"moveRoute":{"list":[{"code":0,"indent":null,"parameters":[]}],"repeat":true,"skippable":false,"wait":false},"moveSpeed":3,"moveType":1,"priorityType":1,"stepAnime":false,"through":false,"trigger":0,"walkAnime":true,"list":[{"code":101,"indent":0,"parameters":["Succubus2 emo",2,0,2]},{"code":401,"indent":0,"parameters":["Ugh, all the sex going on in here makes this mold just impervious to brushes."]},{"code":111,"indent":0,"parameters":[0,130,0]},{"code":101,"indent":1,"parameters":["Robin blond emo",0,0,2]},{"code":401,"indent":1,"parameters":["Oh! Your magic has seeped into the mold... yes, yes, this will do."]},{"code":101,"indent":1,"parameters":["Succubus2 emo",0,0,2]},{"code":401,"indent":1,"parameters":["This is useful to anyone?"]},{"code":101,"indent":1,"parameters":["Robin blond emo",0,0,2]},{"code":401,"indent":1,"parameters":["I'll clean up the infestation if you let me keep some of it."]},{"code":101,"indent":1,"parameters":["Succubus2 emo",6,0,2]},{"code":401,"indent":1,"parameters":["Take care of my problem AND take it away? Deal."]},{"code":126,"indent":1,"parameters":[57,0,0,1]},{"code":356,"indent":1,"parameters":["Quest 16 Complete Objective 3"]},{"code":101,"indent":1,"parameters":["",0,0,2]},{"code":401,"indent":1,"parameters":["Received Thaumaturgic Mold."]},{"code":101,"indent":1,"parameters":["Robin blond emo",5,0,2]},{"code":401,"indent":1,"parameters":["..."]},{"code":101,"indent":1,"parameters":["Robin blond emo",0,0,2]},{"code":401,"indent":1,"parameters":["You should be able to scrub away the mold now."]},{"code":101,"indent":1,"parameters":["Succubus2 emo",6,0,2]},{"code":401,"indent":1,"parameters":["Thanks! You're a cute little thing, too, do you want-"]},{"code":101,"indent":1,"parameters":["Robin blond emo",0,0,2]},{"code":401,"indent":1,"parameters":["I'm fine, thanks."]},{"code":123,"indent":1,"parameters":["A",0]},{"code":0,"indent":1,"parameters":[]},{"code":412,"indent":0,"parameters":[]},{"code":0,"indent":0,"parameters":[]}]},{"conditions":{"actorId":1,"actorValid":false,"itemId":1,"itemValid":false,"selfSwitchCh":"A","selfSwitchValid":true,"switch1Id":1,"switch1Valid":false,"switch2Id":1,"switch2Valid":false,"variableId":1,"variableValid":false,"variableValue":0},"directionFix":false,"image":{"tileId":0,"characterName":"Monster2","direction":4,"pattern":1,"characterIndex":7},"moveFrequency":3,"moveRoute":{"list":[{"code":0,"indent":null,"parameters":[]}],"repeat":true,"skippable":false,"wait":false},"moveSpeed":3,"moveType":0,"priorityType":1,"stepAnime":false,"through":false,"trigger":0,"walkAnime":true,"list":[{"code":101,"indent":0,"parameters":["Succubus2 emo",0,0,2]},{"code":401,"indent":0,"parameters":["I still have to clean the rest of this up, though..."]},{"code":0,"indent":0,"parameters":[]}]},{"conditions":{"actorId":1,"actorValid":false,"itemId":1,"itemValid":false,"selfSwitchCh":"A","selfSwitchValid":false,"switch1Id":217,"switch1Valid":true,"switch2Id":1,"switch2Valid":false,"variableId":1,"variableValid":false,"variableValue":0},"directionFix":false,"image":{"tileId":0,"characterName":"Monster2","direction":4,"pattern":1,"characterIndex":7},"moveFrequency":3,"moveRoute":{"list":[{"code":0,"indent":null,"parameters":[]}],"repeat":true,"skippable":false,"wait":false},"moveSpeed":3,"moveType":0,"priorityType":1,"stepAnime":false,"through":false,"trigger":0,"walkAnime":true,"list":[{"code":101,"indent":0,"parameters":["Succubus2 emo",2,0,2]},{"code":401,"indent":0,"parameters":["This fucking mold! Every time I think I've gotten rid of it..."]},{"code":101,"indent":0,"parameters":["Yarra emo",7,0,2]},{"code":401,"indent":0,"parameters":["Ooh, is it really Fu-"]},{"code":101,"indent":0,"parameters":["Succubus2 emo",4,0,2]},{"code":401,"indent":0,"parameters":["No, sadly it's not Fucking Mold. Just mold I hate."]},{"code":0,"indent":0,"parameters":[]}]},{"conditions":{"actorId":1,"actorValid":false,"itemId":1,"itemValid":false,"selfSwitchCh":"A","selfSwitchValid":false,"switch1Id":2099,"switch1Valid":true,"switch2Id":1,"switch2Valid":false,"variableId":1,"variableValid":false,"variableValue":0},"directionFix":false,"image":{"tileId":0,"characterName":"Monster2","direction":4,"pattern":1,"characterIndex":7},"moveFrequency":3,"moveRoute":{"list":[{"code":0,"indent":null,"parameters":[]}],"repeat":true,"skippable":false,"wait":false},"moveSpeed":3,"moveType":0,"priorityType":1,"stepAnime":false,"through":false,"trigger":0,"walkAnime":true,"list":[{"code":101,"indent":0,"parameters":["Succubus2 emo",0,0,2]},{"code":401,"indent":0,"parameters":["Eventually I think I'm going to have to give up on this mold..."]},{"code":0,"indent":0,"parameters":[]}]},{"conditions":{"actorId":1,"actorValid":false,"itemId":1,"itemValid":false,"selfSwitchCh":"A","selfSwitchValid":false,"switch1Id":3601,"switch1Valid":true,"switch2Id":1,"switch2Valid":false,"variableId":1,"variableValid":false,"variableValue":0},"directionFix":false,"image":{"tileId":0,"characterName":"Monster2","direction":4,"pattern":1,"characterIndex":7},"moveFrequency":3,"moveRoute":{"list":[{"code":0,"indent":null,"parameters":[]}],"repeat":true,"skippable":false,"wait":false},"moveSpeed":3,"moveType":0,"priorityType":1,"stepAnime":false,"through":false,"trigger":0,"walkAnime":true,"list":[{"code":101,"indent":0,"parameters":["Succubus2 emo",2,0,2]},{"code":401,"indent":0,"parameters":["Fucking mold! I will never surrender!"]},{"code":0,"indent":0,"parameters":[]}]}],"x":14,"y":10},
null,
null,
{"id":11,"name":"Succubus YarraTalk","note":"","pages":[{"conditions":{"actorId":1,"actorValid":false,"itemId":1,"itemValid":false,"selfSwitchCh":"A","selfSwitchValid":false,"switch1Id":1,"switch1Valid":false,"switch2Id":1,"switch2Valid":false,"variableId":1,"variableValid":false,"variableValue":0},"directionFix":false,"image":{"tileId":0,"characterName":"Monster2","direction":2,"pattern":1,"characterIndex":3},"moveFrequency":3,"moveRoute":{"list":[{"code":0,"indent":null,"parameters":[]}],"repeat":true,"skippable":false,"wait":false},"moveSpeed":3,"moveType":0,"priorityType":1,"stepAnime":false,"through":false,"trigger":0,"walkAnime":true,"list":[{"code":123,"indent":0,"parameters":["A",0]},{"code":101,"indent":0,"parameters":["Succubus emo",3,0,2]},{"code":401,"indent":0,"parameters":["Yarra? Is that really you?"]},{"code":101,"indent":0,"parameters":["Yarra emo",1,0,2]},{"code":401,"indent":0,"parameters":["You look really familiar, but I can't place you."]},{"code":101,"indent":0,"parameters":["Succubus emo",1,0,2]},{"code":401,"indent":0,"parameters":["I'm not surprised. Back in the succubus brigades, I used to watch you shyly from around a corner."]},{"code":101,"indent":0,"parameters":["Yarra emo",6,0,2]},{"code":401,"indent":0,"parameters":["I'm willing to bet you did more than just watch."]},{"code":101,"indent":0,"parameters":["Succubus emo",6,0,2]},{"code":401,"indent":0,"parameters":["Fuck yes, I crammed all my fingers in there! If you'd ever invited me to your bed, I'd have come on the spot."]},{"code":101,"indent":0,"parameters":["Yarra emo",1,0,2]},{"code":401,"indent":0,"parameters":["Sorry to disappoint, but I'm part of a harem now. So unless you want to join us..."]},{"code":101,"indent":0,"parameters":["Succubus emo",1,0,2]},{"code":401,"indent":0,"parameters":["No, that's alright. You're still hot as hell, but I'm looking for something a little different."]},{"code":101,"indent":0,"parameters":["Succubus emo",1,0,2]},{"code":401,"indent":0,"parameters":["Back then, I didn't know myself that well, though. If I didn't have your example, I might never have learned."]},{"code":101,"indent":0,"parameters":["Aka emo",0,0,2]},{"code":401,"indent":0,"parameters":["So... sorry to intrude, but I wish I understood this. Clearly there's more to succubus culture than I thought."]},{"code":101,"indent":0,"parameters":["Succubus emo",1,0,2]},{"code":401,"indent":0,"parameters":["What, you thought we just fucked all the time? It's maybe half the time."]},{"code":101,"indent":0,"parameters":["Yarra emo",6,0,2]},{"code":401,"indent":0,"parameters":["More like 60%..."]},{"code":101,"indent":0,"parameters":["Succubus emo",6,0,2]},{"code":401,"indent":0,"parameters":["75%, maybe?"]},{"code":101,"indent":0,"parameters":["Aka emo",7,0,2]},{"code":401,"indent":0,"parameters":["Let's just say a large percentage of the time."]},{"code":101,"indent":0,"parameters":["Succubus emo",1,0,2]},{"code":401,"indent":0,"parameters":["The problem is, the Incubus King's hordes want us all to be identical sex kittens. There's not a lot of room for individuality."]},{"code":101,"indent":0,"parameters":["Yarra emo",1,0,2]},{"code":401,"indent":0,"parameters":["Even now, all of you are wearing regulation uniforms."]},{"code":101,"indent":0,"parameters":["Succubus emo",5,0,2]},{"code":401,"indent":0,"parameters":["What can I say? It's comfortable."]},{"code":101,"indent":0,"parameters":["Succubus emo",1,0,2]},{"code":401,"indent":0,"parameters":["Anyway, we can't all be as independent-minded as Yarra."]},{"code":101,"indent":0,"parameters":["Succubus emo",1,0,2]},{"code":401,"indent":0,"parameters":["I slipped out while near Stineford, but she managed to escape from the heart of the Incubus King's territory."]},{"code":101,"indent":0,"parameters":["Yarra emo",1,0,2]},{"code":401,"indent":0,"parameters":["It wasn't easy, let me tell you. But I think we can be more than we are under this Incubus King."]},{"code":101,"indent":0,"parameters":["Yarra emo2",6,0,2]},{"code":401,"indent":0,"parameters":["With a better master, who knows what we might become?"]},{"code":101,"indent":0,"parameters":["Succubus emo",1,0,2]},{"code":401,"indent":0,"parameters":["So you still have grand visions? I've taken a much simpler path, but I'm enjoying it."]},{"code":101,"indent":0,"parameters":["Yarra emo2",0,0,2]},{"code":401,"indent":0,"parameters":["No, no, I really want to talk to you about what independent succubi can be. Simon, can we talk for a while?"]},{"code":101,"indent":0,"parameters":["face002b",0,0,2]},{"code":401,"indent":0,"parameters":["I don't know why you'd have to ask."]},{"code":101,"indent":0,"parameters":["Qum D'umpe emo",7,0,2]},{"code":401,"indent":0,"parameters":["Ooh, ooh! Can Cumdump come too?"]},{"code":101,"indent":0,"parameters":["Succubus emo",1,0,2]},{"code":401,"indent":0,"parameters":["And who is this?"]},{"code":101,"indent":0,"parameters":["Yarra emo",6,0,2]},{"code":401,"indent":0,"parameters":["Speaking of different ways of being succubi..."]},{"code":221,"indent":0,"parameters":[]},{"code":230,"indent":0,"parameters":[120]},{"code":222,"indent":0,"parameters":[]},{"code":101,"indent":0,"parameters":["Succubus emo",1,0,2]},{"code":401,"indent":0,"parameters":["Thanks for waiting so long for us!"]},{"code":101,"indent":0,"parameters":["Yarra emo2",0,0,2]},{"code":401,"indent":0,"parameters":["Yes, this has been fascinating."]},{"code":101,"indent":0,"parameters":["Qum D'umpe emo",6,0,2]},{"code":401,"indent":0,"parameters":["No one was mean to Cumdump even when she didn't understand!"]},{"code":101,"indent":0,"parameters":["Yarra emo",6,0,2]},{"code":401,"indent":0,"parameters":["But don't worry, Simon. I'm still committed to making you an Incubus King over an army of sluts."]},{"code":101,"indent":0,"parameters":["face002b",0,0,2]},{"code":401,"indent":0,"parameters":["I was on the edge of my seat wondering about that."]},{"code":101,"indent":0,"parameters":["Aka emo",0,0,2]},{"code":401,"indent":0,"parameters":["How does that all fit together, though? You talk about independence, but you've wanted Simon to rape practically everyone we've met."]},{"code":101,"indent":0,"parameters":["Yarra emo",6,0,2]},{"code":401,"indent":0,"parameters":["No, no, it's not the same at all."]},{"code":101,"indent":0,"parameters":["Yarra emo",1,0,2]},{"code":401,"indent":0,"parameters":["The current Incubus King wants to own a world filled with identical sex slaves. All succubi would be utterly dependent on him."]},{"code":101,"indent":0,"parameters":["Yarra emo",1,0,2]},{"code":401,"indent":0,"parameters":["I'd like us to be independent enough to create our own nations - I've heard it's been done, but not here on Arclent."]},{"code":101,"indent":0,"parameters":["Yarra emo",6,0,2]},{"code":401,"indent":0,"parameters":["But all the self-actualized succubi in those nations? They'd be much happier with a good master to fuck them."]},{"code":101,"indent":0,"parameters":["Aka emo",0,0,2]},{"code":401,"indent":0,"parameters":["Huh."]},{"code":101,"indent":0,"parameters":["Yarra emo",1,0,2]},{"code":401,"indent":0,"parameters":["You don't like the idea?"]},{"code":101,"indent":0,"parameters":["Aka emo",0,0,2]},{"code":401,"indent":0,"parameters":["Still seems contradictory to me."]},{"code":101,"indent":0,"parameters":["Yarra emo",2,0,2]},{"code":401,"indent":0,"parameters":["That's because you're thinking like a human. Excuse me for being a succubus!"]},{"code":101,"indent":0,"parameters":["Qum D'umpe emo",6,0,2]},{"code":401,"indent":0,"parameters":["Excuse you!"]},{"code":101,"indent":0,"parameters":["face002b",0,0,2]},{"code":401,"indent":0,"parameters":["Let's... just move on for now."]},{"code":122,"indent":0,"parameters":[103,103,1,0,10]},{"code":122,"indent":0,"parameters":[105,105,1,0,5]},{"code":111,"indent":0,"parameters":[1,103,0,50,1]},{"code":122,"indent":1,"parameters":[104,104,0,4,"\"Happy Little Succubus\""]},{"code":0,"indent":1,"parameters":[]},{"code":412,"indent":0,"parameters":[]},{"code":111,"indent":0,"parameters":[1,105,0,50,1]},{"code":122,"indent":1,"parameters":[106,106,0,4,"\"Willing Holes\""]},{"code":0,"indent":1,"parameters":[]},{"code":412,"indent":0,"parameters":[]},{"code":356,"indent":0,"parameters":["Quest 17 Complete Objective 2"]},{"code":356,"indent":0,"parameters":["Quest Set Completed 17"]},{"code":0,"indent":0,"parameters":[]}]},{"conditions":{"actorId":1,"actorValid":false,"itemId":1,"itemValid":false,"selfSwitchCh":"A","selfSwitchValid":true,"switch1Id":1,"switch1Valid":false,"switch2Id":1,"switch2Valid":false,"variableId":1,"variableValid":false,"variableValue":0},"directionFix":false,"image":{"tileId":0,"characterName":"Monster2","direction":2,"pattern":1,"characterIndex":3},"moveFrequency":3,"moveRoute":{"list":[{"code":0,"indent":null,"parameters":[]}],"repeat":true,"skippable":false,"wait":false},"moveSpeed":3,"moveType":0,"priorityType":1,"stepAnime":false,"through":false,"trigger":0,"walkAnime":true,"list":[{"code":101,"indent":0,"parameters":["Succubus emo",1,0,2]},{"code":401,"indent":0,"parameters":["Stop by and visit whenever you can!"]},{"code":0,"indent":0,"parameters":[]}]},{"conditions":{"actorId":1,"actorValid":false,"itemId":1,"itemValid":false,"selfSwitchCh":"A","selfSwitchValid":false,"switch1Id":217,"switch1Valid":true,"switch2Id":1,"switch2Valid":false,"variableId":1,"variableValid":false,"variableValue":0},"directionFix":false,"image":{"tileId":0,"characterName":"Monster2","direction":2,"pattern":1,"characterIndex":3},"moveFrequency":3,"moveRoute":{"list":[{"code":0,"indent":null,"parameters":[]}],"repeat":true,"skippable":false,"wait":false},"moveSpeed":3,"moveType":0,"priorityType":1,"stepAnime":false,"through":false,"trigger":0,"walkAnime":true,"list":[{"code":123,"indent":0,"parameters":["B",0]},{"code":101,"indent":0,"parameters":["Succubus emo",1,0,2]},{"code":401,"indent":0,"parameters":["Yarra! How wonderful to see you here!"]},{"code":101,"indent":0,"parameters":["Yarra emo",4,0,2]},{"code":401,"indent":0,"parameters":["Things don't look so good. Is everything okay?"]},{"code":101,"indent":0,"parameters":["Succubus emo",0,0,2]},{"code":401,"indent":0,"parameters":["We'll manage. But it isn't the kind of life we wanted. Something has to change."]},{"code":101,"indent":0,"parameters":["Succubus emo",0,0,2]},{"code":401,"indent":0,"parameters":["Frankly, following a strong leader is starting to look better and better..."]},{"code":101,"indent":0,"parameters":["Yarra emo",6,0,2]},{"code":401,"indent":0,"parameters":["Up for it, Simon?"]},{"code":101,"indent":0,"parameters":["face002b",0,0,2]},{"code":401,"indent":0,"parameters":["..."]},{"code":0,"indent":0,"parameters":[]}]},{"conditions":{"actorId":1,"actorValid":false,"itemId":1,"itemValid":false,"selfSwitchCh":"B","selfSwitchValid":true,"switch1Id":1,"switch1Valid":false,"switch2Id":1,"switch2Valid":false,"variableId":1,"variableValid":false,"variableValue":0},"directionFix":false,"image":{"tileId":0,"characterName":"Monster2","direction":2,"pattern":1,"characterIndex":3},"moveFrequency":3,"moveRoute":{"list":[{"code":0,"indent":null,"parameters":[]}],"repeat":true,"skippable":false,"wait":false},"moveSpeed":3,"moveType":0,"priorityType":1,"stepAnime":false,"through":false,"trigger":0,"walkAnime":true,"list":[{"code":101,"indent":0,"parameters":["Succubus emo",1,0,2]},{"code":401,"indent":0,"parameters":["We really should talk about old times again soon."]},{"code":0,"indent":0,"parameters":[]}]},{"conditions":{"actorId":1,"actorValid":false,"itemId":1,"itemValid":false,"selfSwitchCh":"B","selfSwitchValid":false,"switch1Id":2099,"switch1Valid":true,"switch2Id":1,"switch2Valid":false,"variableId":1,"variableValid":false,"variableValue":0},"directionFix":false,"image":{"tileId":0,"characterName":"","direction":2,"pattern":1,"characterIndex":3},"moveFrequency":3,"moveRoute":{"list":[{"code":0,"indent":null,"parameters":[]}],"repeat":true,"skippable":false,"wait":false},"moveSpeed":3,"moveType":0,"priorityType":0,"stepAnime":false,"through":false,"trigger":0,"walkAnime":true,"list":[{"code":0,"indent":0,"parameters":[]}]}],"x":6,"y":5},
null,
null,
{"id":14,"name":"Succubus ","note":"","pages":[{"conditions":{"actorId":1,"actorValid":false,"itemId":1,"itemValid":false,"selfSwitchCh":"A","selfSwitchValid":false,"switch1Id":1,"switch1Valid":false,"switch2Id":1,"switch2Valid":false,"variableId":1,"variableValid":false,"variableValue":0},"directionFix":false,"image":{"tileId":0,"characterName":"Monster2","direction":2,"pattern":1,"characterIndex":7},"moveFrequency":3,"moveRoute":{"list":[{"code":0,"indent":null,"parameters":[]}],"repeat":true,"skippable":false,"wait":false},"moveSpeed":3,"moveType":0,"priorityType":1,"stepAnime":false,"through":false,"trigger":0,"walkAnime":true,"list":[{"code":123,"indent":0,"parameters":["A",0]},{"code":101,"indent":0,"parameters":["Succubus2 emo",5,0,2]},{"code":401,"indent":0,"parameters":["Just... stay back, please. I'm not under control right now."]},{"code":101,"indent":0,"parameters":["Aka emo",0,0,2]},{"code":401,"indent":0,"parameters":["Not under control?"]},{"code":101,"indent":0,"parameters":["Yarra emo",1,0,2]},{"code":401,"indent":0,"parameters":["The community can't drain too many men without drawing suspicion, so some of them must be low on energy."]},{"code":101,"indent":0,"parameters":["Succubus2 emo",5,0,2]},{"code":401,"indent":0,"parameters":["That's true for many. But in my case I'm trying to see how long I can abstain."]},{"code":101,"indent":0,"parameters":["Yarra emo",1,0,2]},{"code":401,"indent":0,"parameters":["Why do that to yourself? That's torture for no reason."]},{"code":101,"indent":0,"parameters":["Succubus2 emo",5,0,2]},{"code":401,"indent":0,"parameters":["..."]},{"code":101,"indent":0,"parameters":["face002b",0,0,2]},{"code":401,"indent":0,"parameters":["That's her choice. Let's leave her alone like she asked."]},{"code":0,"indent":0,"parameters":[]}]},{"conditions":{"actorId":1,"actorValid":false,"itemId":1,"itemValid":false,"selfSwitchCh":"A","selfSwitchValid":true,"switch1Id":1,"switch1Valid":false,"switch2Id":1,"switch2Valid":false,"variableId":1,"variableValid":false,"variableValue":0},"directionFix":false,"image":{"tileId":0,"characterName":"Monster2","direction":2,"pattern":1,"characterIndex":7},"moveFrequency":3,"moveRoute":{"list":[{"code":0,"indent":null,"parameters":[]}],"repeat":true,"skippable":false,"wait":false},"moveSpeed":3,"moveType":0,"priorityType":1,"stepAnime":false,"through":false,"trigger":0,"walkAnime":true,"list":[{"code":101,"indent":0,"parameters":["Succubus2 emo",5,0,2]},{"code":401,"indent":0,"parameters":["I'll be fine. Just let me keep meditating."]},{"code":0,"indent":0,"parameters":[]}]},{"conditions":{"actorId":1,"actorValid":false,"itemId":1,"itemValid":false,"selfSwitchCh":"A","selfSwitchValid":false,"switch1Id":217,"switch1Valid":true,"switch2Id":1,"switch2Valid":false,"variableId":1,"variableValid":false,"variableValue":0},"directionFix":false,"image":{"tileId":0,"characterName":"Monster2","direction":2,"pattern":1,"characterIndex":7},"moveFrequency":3,"moveRoute":{"list":[{"code":0,"indent":null,"parameters":[]}],"repeat":true,"skippable":false,"wait":false},"moveSpeed":3,"moveType":0,"priorityType":1,"stepAnime":false,"through":false,"trigger":0,"walkAnime":true,"list":[{"code":101,"indent":0,"parameters":["Succubus2 emo",5,0,2]},{"code":401,"indent":0,"parameters":["The new restrictions are hitting everyone hard, but those who indulged more than the rest..."]},{"code":0,"indent":0,"parameters":[]}]},{"conditions":{"actorId":1,"actorValid":false,"itemId":1,"itemValid":false,"selfSwitchCh":"A","selfSwitchValid":false,"switch1Id":2099,"switch1Valid":true,"switch2Id":1,"switch2Valid":false,"variableId":1,"variableValid":false,"variableValue":0},"directionFix":false,"image":{"tileId":0,"characterName":"Monster2","direction":2,"pattern":1,"characterIndex":7},"moveFrequency":3,"moveRoute":{"list":[{"code":0,"indent":null,"parameters":[]}],"repeat":true,"skippable":false,"wait":false},"moveSpeed":3,"moveType":0,"priorityType":1,"stepAnime":false,"through":false,"trigger":0,"walkAnime":true,"list":[{"code":101,"indent":0,"parameters":["Succubus2 emo",5,0,2]},{"code":401,"indent":0,"parameters":["Things are no longer quite as grim as they once were, but I will continue to meditate..."]},{"code":0,"indent":0,"parameters":[]}]},{"conditions":{"actorId":1,"actorValid":false,"itemId":1,"itemValid":false,"selfSwitchCh":"A","selfSwitchValid":false,"switch1Id":3281,"switch1Valid":true,"switch2Id":1,"switch2Valid":false,"variableId":1,"variableValid":false,"variableValue":0},"directionFix":false,"image":{"tileId":0,"characterName":"Monster2","direction":2,"pattern":1,"characterIndex":7},"moveFrequency":3,"moveRoute":{"list":[{"code":0,"indent":null,"parameters":[]}],"repeat":true,"skippable":false,"wait":false},"moveSpeed":3,"moveType":0,"priorityType":1,"stepAnime":false,"through":false,"trigger":0,"walkAnime":true,"list":[{"code":101,"indent":0,"parameters":["Succubus2 emo",5,0,2]},{"code":401,"indent":0,"parameters":["Sorry, but I'm not involved with Church affairs."]},{"code":0,"indent":0,"parameters":[]}]},{"conditions":{"actorId":1,"actorValid":false,"itemId":1,"itemValid":false,"selfSwitchCh":"A","selfSwitchValid":false,"switch1Id":3601,"switch1Valid":true,"switch2Id":1,"switch2Valid":false,"variableId":1,"variableValid":false,"variableValue":0},"directionFix":false,"image":{"tileId":0,"characterName":"Monster2","direction":2,"pattern":1,"characterIndex":7},"moveFrequency":3,"moveRoute":{"list":[{"code":0,"indent":null,"parameters":[]}],"repeat":true,"skippable":false,"wait":false},"moveSpeed":3,"moveType":0,"priorityType":1,"stepAnime":false,"through":false,"trigger":0,"walkAnime":true,"list":[{"code":101,"indent":0,"parameters":["Succubus2 emo",5,0,2]},{"code":401,"indent":0,"parameters":["Though most are focused on the High Priestess, I believe we have as much to fear from the Duke of Stineford."]},{"code":0,"indent":0,"parameters":[]}]},{"conditions":{"actorId":1,"actorValid":false,"itemId":1,"itemValid":false,"selfSwitchCh":"A","selfSwitchValid":false,"switch1Id":3761,"switch1Valid":true,"switch2Id":1,"switch2Valid":false,"variableId":1,"variableValid":false,"variableValue":0},"directionFix":false,"image":{"tileId":0,"characterName":"Monster2","direction":2,"pattern":1,"characterIndex":7},"moveFrequency":3,"moveRoute":{"list":[{"code":0,"indent":null,"parameters":[]}],"repeat":true,"skippable":false,"wait":false},"moveSpeed":3,"moveType":0,"priorityType":1,"stepAnime":false,"through":false,"trigger":0,"walkAnime":true,"list":[{"code":101,"indent":0,"parameters":["Succubus2 emo",5,0,2]},{"code":401,"indent":0,"parameters":["What will happen now that we've achieved limited acceptance... I truly cannot say."]},{"code":0,"indent":0,"parameters":[]}]}],"x":9,"y":10}
]
}