{
"autoplayBgm":false,"autoplayBgs":false,"battleback1Name":"","battleback2Name":"","bgm":{"name":"","pan":0,"pitch":100,"volume":100},"bgs":{"name":"","pan":0,"pitch":100,"volume":80},"disableDashing":false,"displayName":"","encounterList":[],"encounterStep":30,"height":15,"note":"","parallaxLoopX":false,"parallaxLoopY":false,"parallaxName":"","parallaxShow":false,"parallaxSx":0,"parallaxSy":0,"scrollType":0,"specifyBattleback":false,"tilesetId":3,"width":20,
"data":[0,0,0,0,0,0,0,0,0,0,0,0,0,0,0,0,0,0,0,0,0,0,0,0,0,0,0,0,0,0,0,0,0,0,0,0,0,0,0,0,0,0,5923,5921,5921,5921,5921,5921,5921,5921,5921,5921,5921,5921,5921,5921,5921,5925,0,0,0,0,5920,6274,6274,6274,6274,6274,6274,6274,6274,6274,6274,6274,6274,6274,6274,5920,0,0,0,0,5920,6280,6280,6280,6280,6280,6280,6280,6280,6280,6280,6280,6280,6280,6280,5920,0,0,0,0,5920,2850,2836,2836,2836,2852,4011,3990,3988,3988,3988,3988,3988,3988,4004,5920,0,0,0,0,5920,2832,2816,2816,2816,2840,5930,3984,3968,3968,3968,3968,3968,3968,3992,5920,0,0,0,0,5920,2832,2816,2816,2816,2840,5920,3984,3968,3968,3968,3968,3968,3968,3992,5920,0,0,0,0,5920,2832,2816,2816,2816,2840,5920,3984,3968,3968,3968,3968,3968,3968,3992,5920,0,0,0,0,5920,2856,2844,2828,2844,2854,5920,4008,3996,3996,3996,3996,3996,3996,4006,5920,0,0,0,0,5929,5921,5933,2860,5931,5921,5919,5921,5921,5921,5921,5921,5921,5921,5921,5927,0,0,0,0,6275,6274,6274,6274,6274,6274,6274,6274,6274,6274,6274,6274,6274,6274,6274,6278,0,0,0,0,6281,6280,6280,6280,6280,6280,6280,6280,6280,6280,6280,6280,6280,6280,6280,6284,0,0,0,0,0,0,0,0,0,0,0,0,0,0,0,0,0,0,0,0,0,0,0,0,0,0,0,0,0,0,0,0,0,0,0,0,0,0,0,0,0,0,0,0,0,0,0,0,0,0,0,0,0,0,0,0,0,0,0,0,0,0,0,0,0,0,0,0,0,0,0,0,0,0,0,0,0,0,0,0,0,0,0,0,0,0,0,0,0,0,0,0,0,0,0,0,0,0,0,0,0,0,0,0,0,0,0,0,0,0,0,0,0,0,0,0,0,0,0,0,0,0,0,0,0,0,0,0,0,0,0,0,0,0,0,0,0,0,0,0,0,0,0,0,0,0,3194,0,3194,0,0,0,0,0,0,0,0,0,0,0,0,0,0,0,0,0,3193,3185,3191,0,0,0,0,0,0,0,0,0,0,0,0,0,0,0,0,0,0,0,0,0,0,0,0,0,0,0,0,0,0,0,0,0,0,0,0,3194,0,0,0,3194,0,0,0,0,0,0,0,0,0,0,0,0,0,0,0,3196,0,0,0,3196,0,0,0,0,0,0,0,0,0,0,0,0,0,0,0,0,0,0,0,0,0,0,0,0,0,0,0,0,0,0,0,0,0,0,0,0,0,0,0,0,0,0,0,0,0,0,0,0,0,0,0,0,0,0,0,0,0,0,0,0,0,0,0,0,0,0,0,0,0,0,0,0,0,0,0,0,0,0,0,0,0,0,0,0,0,0,0,0,0,0,0,0,0,0,0,0,0,0,0,0,0,0,0,0,0,0,0,0,0,0,0,0,0,0,0,0,0,0,0,0,0,0,0,0,0,0,0,0,0,0,0,0,0,0,0,0,0,0,0,0,0,0,0,0,0,0,0,0,0,0,0,0,0,0,0,0,0,0,0,0,0,0,0,0,0,0,0,0,0,0,0,0,0,0,0,0,0,0,0,0,0,0,0,0,0,0,0,0,0,0,0,0,0,0,0,0,0,0,0,0,0,0,0,0,0,0,0,0,0,0,0,0,0,0,0,0,0,0,0,0,0,0,0,0,0,0,0,0,0,0,0,0,0,0,0,0,0,0,0,0,0,0,0,0,0,0,0,0,0,0,0,0,0,0,0,0,0,0,0,0,0,0,0,0,0,0,0,0,0,0,0,0,0,0,0,0,0,0,0,0,0,0,0,0,0,0,0,0,0,0,0,0,0,0,0,0,0,0,0,0,0,0,0,0,0,0,0,0,0,0,0,0,0,0,0,0,0,0,0,0,0,0,0,0,0,0,0,0,0,0,0,0,0,0,0,0,0,0,0,0,0,0,0,0,0,0,0,0,0,0,0,0,0,0,0,0,0,0,0,0,0,0,0,0,0,0,0,0,0,0,0,0,0,0,0,0,0,0,0,0,0,0,0,0,0,0,0,0,0,0,0,0,0,0,0,0,0,0,0,0,0,0,0,0,0,0,0,0,0,0,0,0,0,0,0,0,0,0,0,0,0,0,0,0,0,0,0,0,0,0,0,0,0,0,0,0,0,0,0,0,0,0,0,0,0,0,0,0,0,0,0,0,0,0,0,0,0,0,0,0,0,0,0,0,0,0,0,0,0,0,0,0,0,0,0,0,386,0,386,0,0,0,0,0,0,0,0,0,0,0,0,0,0,0,0,431,0,0,0,388,389,0,0,0,0,0,402,402,0,0,0,0,0,0,0,439,0,0,0,0,0,0,0,0,0,406,0,0,407,0,0,0,0,0,0,0,0,0,0,0,0,0,0,0,0,0,0,0,407,0,0,0,0,0,0,0,0,0,0,0,0,0,0,404,0,0,405,0,0,0,0,0,0,0,0,387,0,0,0,391,0,430,430,0,0,0,0,0,431,0,0,0,0,0,0,403,0,0,0,385,0,438,438,0,0,0,0,0,439,0,0,0,0,0,0,0,0,0,0,0,0,0,0,0,0,0,0,0,0,0,0,0,0,0,0,0,0,0,0,0,0,0,0,0,0,0,0,0,0,0,0,0,0,0,0,0,0,0,0,0,0,0,0,0,0,0,0,0,0,0,0,0,0,0,0,0,0,0,0,0,0,0,0,0,0,0,0,0,0,0,0,0,0,0,0,0,0,0,0,0,0,0,0,0,0,0,0,0,0,0,0,0,0,0,0,0,0,0,0,0,0,0,0,0,0,0,0,0,0,0,0,0,0,0,0,0,0,0,0,0,0,0,0,0,0,0,0,0,0,0,0,0,0,0,0,0,0,0,0,0,0,0,0,0,0,0,0,0,0,0,0,0,0,0,0,0,0,0,0,0,0,0,0,0,0,0,0,0,0,0,0,0,0,0,0,0,0,0,0,0,0,0,0,0,0,0,0,0,0,0,0,0,0,0,0,5,0,0,0,0,0,0,0,0,0,0,0,0,0,0,0,0,0,0,0,5,0,0,0,0,0,0,0,0,0,0,0,0,0,0,0,0,0,0,0,5,0,0,0,0,0,5,0,0,0,0,0,0,0,0,0,0,0,0,0,5,0,0,0,0,0,5,0,0,0,0,0,0,0,0,0,0,0,0,0,5,0,0,0,0,0,5,0,0,0,0,0,0,0,0,0,0,0,0,0,0,0,0,0,0,0,0,0,0,0,0,0,0,0,0,0,0,0,0,0,0,0,0,0,0,0,0,0,0,0,0,0,0,0,0,0,0,0,0,0,0,0,0,0,0,0,0,0,0,0,0,0,0,0,0,0,0,0,0,0,0,0,0,0,0,0,0,0,0,0,0,0,0,0,0,0,0,0,0,0,0,0,0,0,0,0,0,0,0,0,0,0,0,0,0,0,0,0,0,0,0,0,0,0,0,0,0,0,0,0,0,0,0,0,0,0,0,0,0,0,0,0,0,0,0,0,0,0,0,0,0,0,0,0,0,0,0,0,0,0,0,0,0,0,0,0,0,0,0,0,0,0,0,0,0,0,0,0,0,0,0,0,0,0,0,0,0,0,0,0,0,0,0,0,0,0,0,0,0,0,0,0,0,0,0,0,0,0,0,0,0,0,0,0,0,0,0,0,0,0,0,0,0,0,0,0,0,0,0,0,0,0,0,0,0,0,0,0,0,0,0,0,0,0,0,0,0,0,0,0,0,0,0,0,0,0,0,0,0,0,0,0,0,0,0,0,0,0,0,0,0,0,0,0,0,0,0,0,0,0,0,0,0,0,0,0,0,0,0,0,0,0,0,0,0,0,0,0,0,0,0,0,0,0,0,0,0,0,0,0,0,0,0,0,0,0,0,0,0,0,0,0,0,0,0,0,0,0,0,0,0,0,0,0,0,0,0,0,0,0,0,0,0,0,0,0,0,0,0,0,0,0,0,0,0,0,0,0,0,0,0,0,0,0,0,0,0,0,0,0,0,0,0,0,0,0,0,0,0,0,0,0,0,0,0,0,0,0,0,0,0,0,0,0,0,0,0,0,0,0,0,0,0,0,0,0,0,0,0,0,0,0,0,0,0,0,0],
"events":[
null,
{"id":1,"name":"EV001","note":"","pages":[{"conditions":{"actorId":1,"actorValid":false,"itemId":1,"itemValid":false,"selfSwitchCh":"A","selfSwitchValid":false,"switch1Id":1,"switch1Valid":false,"switch2Id":1,"switch2Valid":false,"variableId":1,"variableValid":false,"variableValue":0},"directionFix":false,"image":{"tileId":0,"characterName":"","direction":2,"pattern":0,"characterIndex":0},"moveFrequency":3,"moveRoute":{"list":[{"code":0,"indent":null,"parameters":[]}],"repeat":true,"skippable":false,"wait":false},"moveSpeed":3,"moveType":0,"priorityType":0,"stepAnime":false,"through":false,"trigger":1,"walkAnime":true,"list":[{"code":250,"indent":0,"parameters":[{"name":"Move","pan":0,"pitch":100,"volume":80}]},{"code":201,"indent":0,"parameters":[0,44,28,24,0,0]},{"code":0,"indent":0,"parameters":[]}]}],"x":5,"y":10},
{"id":2,"name":"EV002","note":"","pages":[{"conditions":{"actorId":1,"actorValid":false,"itemId":1,"itemValid":false,"selfSwitchCh":"A","selfSwitchValid":false,"switch1Id":1,"switch1Valid":false,"switch2Id":1,"switch2Valid":false,"variableId":1,"variableValid":false,"variableValue":0},"directionFix":false,"image":{"tileId":0,"characterName":"People1","direction":2,"pattern":1,"characterIndex":0},"moveFrequency":3,"moveRoute":{"list":[{"code":0,"indent":null,"parameters":[]}],"repeat":true,"skippable":false,"wait":false},"moveSpeed":3,"moveType":0,"priorityType":1,"stepAnime":false,"through":false,"trigger":0,"walkAnime":true,"list":[{"code":123,"indent":0,"parameters":["A",0]},{"code":101,"indent":0,"parameters":["People1",0,0,2]},{"code":401,"indent":0,"parameters":["You wanna buy some weapons, mister?"]},{"code":101,"indent":0,"parameters":["Yarra emo",4,0,2]},{"code":401,"indent":0,"parameters":["Are you supposed to be behind the counter?"]},{"code":101,"indent":0,"parameters":["People1",0,0,2]},{"code":401,"indent":0,"parameters":["Daddy's busy making weapons, so it's up to me!"]},{"code":101,"indent":0,"parameters":["Yarra emo",1,0,2]},{"code":401,"indent":0,"parameters":["There's no one else to work the store?"]},{"code":101,"indent":0,"parameters":["People1",0,0,2]},{"code":401,"indent":0,"parameters":["Nope! Everyone else is dead!"]},{"code":101,"indent":0,"parameters":["Aka emo",7,0,2]},{"code":401,"indent":0,"parameters":["You're a creepy kid."]},{"code":101,"indent":0,"parameters":["People1",0,0,2]},{"code":401,"indent":0,"parameters":["So you want to buy some pointy death?"]},{"code":302,"indent":0,"parameters":[1,11,0,0,false]},{"code":605,"indent":0,"parameters":[1,12,0,0]},{"code":605,"indent":0,"parameters":[1,13,0,0]},{"code":605,"indent":0,"parameters":[1,14,0,0]},{"code":605,"indent":0,"parameters":[1,15,0,0]},{"code":605,"indent":0,"parameters":[1,16,0,0]},{"code":605,"indent":0,"parameters":[1,17,0,0]},{"code":605,"indent":0,"parameters":[1,18,0,0]},{"code":605,"indent":0,"parameters":[1,19,0,0]},{"code":605,"indent":0,"parameters":[1,20,0,0]},{"code":605,"indent":0,"parameters":[1,21,0,0]},{"code":605,"indent":0,"parameters":[2,138,0,0]},{"code":0,"indent":0,"parameters":[]}]},{"conditions":{"actorId":1,"actorValid":false,"itemId":1,"itemValid":false,"selfSwitchCh":"A","selfSwitchValid":true,"switch1Id":1,"switch1Valid":false,"switch2Id":1,"switch2Valid":false,"variableId":1,"variableValid":false,"variableValue":0},"directionFix":false,"image":{"tileId":0,"characterName":"People1","direction":2,"pattern":1,"characterIndex":0},"moveFrequency":3,"moveRoute":{"list":[{"code":0,"indent":null,"parameters":[]}],"repeat":true,"skippable":false,"wait":false},"moveSpeed":3,"moveType":0,"priorityType":1,"stepAnime":false,"through":false,"trigger":0,"walkAnime":true,"list":[{"code":101,"indent":0,"parameters":["People1",0,0,2]},{"code":401,"indent":0,"parameters":["How do you want to kill people today?"]},{"code":302,"indent":0,"parameters":[1,11,0,0,false]},{"code":605,"indent":0,"parameters":[1,12,0,0]},{"code":605,"indent":0,"parameters":[1,13,0,0]},{"code":605,"indent":0,"parameters":[1,14,0,0]},{"code":605,"indent":0,"parameters":[1,15,0,0]},{"code":605,"indent":0,"parameters":[1,16,0,0]},{"code":605,"indent":0,"parameters":[1,17,0,0]},{"code":605,"indent":0,"parameters":[1,18,0,0]},{"code":605,"indent":0,"parameters":[1,19,0,0]},{"code":605,"indent":0,"parameters":[1,20,0,0]},{"code":605,"indent":0,"parameters":[1,21,0,0]},{"code":605,"indent":0,"parameters":[2,138,0,0]},{"code":0,"indent":0,"parameters":[]}]},{"conditions":{"actorId":1,"actorValid":false,"itemId":1,"itemValid":false,"selfSwitchCh":"A","selfSwitchValid":true,"switch1Id":92,"switch1Valid":true,"switch2Id":1,"switch2Valid":false,"variableId":1,"variableValid":false,"variableValue":0},"directionFix":false,"image":{"tileId":0,"characterName":"People1","direction":2,"pattern":1,"characterIndex":0},"moveFrequency":3,"moveRoute":{"list":[{"code":0,"indent":null,"parameters":[]}],"repeat":true,"skippable":false,"wait":false},"moveSpeed":3,"moveType":0,"priorityType":1,"stepAnime":false,"through":false,"trigger":0,"walkAnime":true,"list":[{"code":101,"indent":0,"parameters":["People1",0,0,2]},{"code":401,"indent":0,"parameters":["How do you want to kill people today?"]},{"code":102,"indent":0,"parameters":[["Shop","Ask about ore","Leave"],1,0,2,0]},{"code":402,"indent":0,"parameters":[0,"Shop"]},{"code":302,"indent":1,"parameters":[1,11,0,0,false]},{"code":605,"indent":1,"parameters":[1,12,0,0]},{"code":605,"indent":1,"parameters":[1,13,0,0]},{"code":605,"indent":1,"parameters":[1,14,0,0]},{"code":605,"indent":1,"parameters":[1,15,0,0]},{"code":605,"indent":1,"parameters":[1,16,0,0]},{"code":605,"indent":1,"parameters":[1,17,0,0]},{"code":605,"indent":1,"parameters":[1,18,0,0]},{"code":605,"indent":1,"parameters":[1,19,0,0]},{"code":605,"indent":1,"parameters":[1,20,0,0]},{"code":605,"indent":1,"parameters":[1,21,0,0]},{"code":605,"indent":1,"parameters":[2,138,0,0]},{"code":0,"indent":1,"parameters":[]},{"code":402,"indent":0,"parameters":[1,"Ask about ore"]},{"code":101,"indent":1,"parameters":["People1",0,0,2]},{"code":401,"indent":1,"parameters":["What? You can't kill people with that... well, maybe if you clubbed them enough..."]},{"code":0,"indent":1,"parameters":[]},{"code":402,"indent":0,"parameters":[2,"Leave"]},{"code":0,"indent":1,"parameters":[]},{"code":404,"indent":0,"parameters":[]},{"code":0,"indent":0,"parameters":[]}]},{"conditions":{"actorId":1,"actorValid":false,"itemId":1,"itemValid":false,"selfSwitchCh":"A","selfSwitchValid":false,"switch1Id":93,"switch1Valid":true,"switch2Id":1,"switch2Valid":false,"variableId":1,"variableValid":false,"variableValue":0},"directionFix":false,"image":{"tileId":0,"characterName":"People1","direction":2,"pattern":1,"characterIndex":0},"moveFrequency":3,"moveRoute":{"list":[{"code":0,"indent":null,"parameters":[]}],"repeat":true,"skippable":false,"wait":false},"moveSpeed":3,"moveType":0,"priorityType":1,"stepAnime":false,"through":false,"trigger":0,"walkAnime":true,"list":[{"code":101,"indent":0,"parameters":["People1",0,0,2]},{"code":401,"indent":0,"parameters":["How do you want to kill people today?"]},{"code":302,"indent":0,"parameters":[1,11,0,0,false]},{"code":605,"indent":0,"parameters":[1,12,0,0]},{"code":605,"indent":0,"parameters":[1,13,0,0]},{"code":605,"indent":0,"parameters":[1,14,0,0]},{"code":605,"indent":0,"parameters":[1,15,0,0]},{"code":605,"indent":0,"parameters":[1,16,0,0]},{"code":605,"indent":0,"parameters":[1,17,0,0]},{"code":605,"indent":0,"parameters":[1,18,0,0]},{"code":605,"indent":0,"parameters":[1,19,0,0]},{"code":605,"indent":0,"parameters":[1,20,0,0]},{"code":605,"indent":0,"parameters":[1,21,0,0]},{"code":605,"indent":0,"parameters":[2,138,0,0]},{"code":0,"indent":0,"parameters":[]}]},{"conditions":{"actorId":1,"actorValid":false,"itemId":1,"itemValid":false,"selfSwitchCh":"A","selfSwitchValid":false,"switch1Id":217,"switch1Valid":true,"switch2Id":1,"switch2Valid":false,"variableId":1,"variableValid":false,"variableValue":0},"directionFix":false,"image":{"tileId":0,"characterName":"People1","direction":2,"pattern":1,"characterIndex":0},"moveFrequency":3,"moveRoute":{"list":[{"code":0,"indent":null,"parameters":[]}],"repeat":true,"skippable":false,"wait":false},"moveSpeed":3,"moveType":0,"priorityType":1,"stepAnime":false,"through":false,"trigger":0,"walkAnime":true,"list":[{"code":101,"indent":0,"parameters":["People1",0,0,2]},{"code":401,"indent":0,"parameters":["Our prices are falling like decapitated bodies, splattering value over everything!"]},{"code":302,"indent":0,"parameters":[1,11,0,0,false]},{"code":605,"indent":0,"parameters":[1,12,0,0]},{"code":605,"indent":0,"parameters":[1,13,0,0]},{"code":605,"indent":0,"parameters":[1,14,0,0]},{"code":605,"indent":0,"parameters":[1,15,0,0]},{"code":605,"indent":0,"parameters":[1,16,0,0]},{"code":605,"indent":0,"parameters":[1,17,0,0]},{"code":605,"indent":0,"parameters":[1,18,0,0]},{"code":605,"indent":0,"parameters":[1,19,0,0]},{"code":605,"indent":0,"parameters":[1,20,0,0]},{"code":605,"indent":0,"parameters":[1,21,0,0]},{"code":605,"indent":0,"parameters":[2,138,0,0]},{"code":0,"indent":0,"parameters":[]}]},{"conditions":{"actorId":1,"actorValid":false,"itemId":1,"itemValid":false,"selfSwitchCh":"A","selfSwitchValid":false,"switch1Id":2099,"switch1Valid":true,"switch2Id":1,"switch2Valid":false,"variableId":1,"variableValid":false,"variableValue":0},"directionFix":false,"image":{"tileId":0,"characterName":"People1","direction":2,"pattern":1,"characterIndex":0},"moveFrequency":3,"moveRoute":{"list":[{"code":0,"indent":null,"parameters":[]}],"repeat":true,"skippable":false,"wait":false},"moveSpeed":3,"moveType":0,"priorityType":1,"stepAnime":false,"through":false,"trigger":0,"walkAnime":true,"list":[{"code":101,"indent":0,"parameters":["People1",0,0,2]},{"code":401,"indent":0,"parameters":["The war was a glorious slaughter, a revelry of bloodshed! But we sell weapons to cause even more!"]},{"code":302,"indent":0,"parameters":[1,11,0,0,false]},{"code":605,"indent":0,"parameters":[1,12,0,0]},{"code":605,"indent":0,"parameters":[1,13,0,0]},{"code":605,"indent":0,"parameters":[1,14,0,0]},{"code":605,"indent":0,"parameters":[1,15,0,0]},{"code":605,"indent":0,"parameters":[1,16,0,0]},{"code":605,"indent":0,"parameters":[1,17,0,0]},{"code":605,"indent":0,"parameters":[1,18,0,0]},{"code":605,"indent":0,"parameters":[1,19,0,0]},{"code":605,"indent":0,"parameters":[1,20,0,0]},{"code":605,"indent":0,"parameters":[1,21,0,0]},{"code":605,"indent":0,"parameters":[2,138,0,0]},{"code":0,"indent":0,"parameters":[]}]},{"conditions":{"actorId":1,"actorValid":false,"itemId":1,"itemValid":false,"selfSwitchCh":"A","selfSwitchValid":false,"switch1Id":2544,"switch1Valid":true,"switch2Id":1,"switch2Valid":false,"variableId":1,"variableValid":false,"variableValue":0},"directionFix":false,"image":{"tileId":0,"characterName":"People1","direction":2,"pattern":1,"characterIndex":0},"moveFrequency":3,"moveRoute":{"list":[{"code":0,"indent":null,"parameters":[]}],"repeat":true,"skippable":false,"wait":false},"moveSpeed":3,"moveType":0,"priorityType":1,"stepAnime":false,"through":false,"trigger":0,"walkAnime":true,"list":[{"code":101,"indent":0,"parameters":["People1",0,0,2]},{"code":401,"indent":0,"parameters":["Thanks for funding our carnival of bloodshed!"]},{"code":302,"indent":0,"parameters":[1,11,0,0,false]},{"code":605,"indent":0,"parameters":[1,12,0,0]},{"code":605,"indent":0,"parameters":[1,13,0,0]},{"code":605,"indent":0,"parameters":[1,14,0,0]},{"code":605,"indent":0,"parameters":[1,15,0,0]},{"code":605,"indent":0,"parameters":[1,16,0,0]},{"code":605,"indent":0,"parameters":[1,17,0,0]},{"code":605,"indent":0,"parameters":[1,18,0,0]},{"code":605,"indent":0,"parameters":[1,19,0,0]},{"code":605,"indent":0,"parameters":[1,20,0,0]},{"code":605,"indent":0,"parameters":[1,21,0,0]},{"code":605,"indent":0,"parameters":[2,138,0,0]},{"code":0,"indent":0,"parameters":[]}]}],"x":5,"y":5},
{"id":3,"name":"EV003","note":"","pages":[{"conditions":{"actorId":1,"actorValid":false,"itemId":1,"itemValid":false,"selfSwitchCh":"A","selfSwitchValid":false,"switch1Id":1,"switch1Valid":false,"switch2Id":1,"switch2Valid":false,"variableId":1,"variableValid":false,"variableValue":0},"directionFix":false,"image":{"tileId":0,"characterName":"People2","direction":2,"pattern":1,"characterIndex":4},"moveFrequency":3,"moveRoute":{"list":[{"code":0,"indent":null,"parameters":[]}],"repeat":true,"skippable":false,"wait":false},"moveSpeed":3,"moveType":0,"priorityType":1,"stepAnime":false,"through":false,"trigger":0,"walkAnime":true,"list":[{"code":111,"indent":0,"parameters":[8,52]},{"code":111,"indent":1,"parameters":[0,93,0]},{"code":101,"indent":2,"parameters":["People2",4,0,2]},{"code":401,"indent":2,"parameters":["I don't like making weapons, but that's what sells, and I can take pleasure in a job well done."]},{"code":101,"indent":2,"parameters":["Aka emo",0,0,2]},{"code":401,"indent":2,"parameters":["Have you... talked to your son lately?"]},{"code":101,"indent":2,"parameters":["People2",4,0,2]},{"code":401,"indent":2,"parameters":["He's a good boy, isn't he?"]},{"code":0,"indent":2,"parameters":[]},{"code":411,"indent":1,"parameters":[]},{"code":101,"indent":2,"parameters":["face002b",0,0,2]},{"code":401,"indent":2,"parameters":["Could you forge this ore into a knife?"]},{"code":101,"indent":2,"parameters":["Aka emo",1,0,2]},{"code":401,"indent":2,"parameters":["Specifically one like these plans."]},{"code":101,"indent":2,"parameters":["People2",4,0,2]},{"code":401,"indent":2,"parameters":["I could, and a damn fine one. But if you need it any time soon, that will be 500 Sx."]},{"code":102,"indent":2,"parameters":[["Yes","No"],1,0,2,0]},{"code":402,"indent":2,"parameters":[0,"Yes"]},{"code":111,"indent":3,"parameters":[7,500,0]},{"code":125,"indent":4,"parameters":[1,0,500]},{"code":101,"indent":4,"parameters":["People2",4,0,2]},{"code":401,"indent":4,"parameters":["I'll get to work right away!"]},{"code":221,"indent":4,"parameters":[]},{"code":230,"indent":4,"parameters":[60]},{"code":250,"indent":4,"parameters":[{"name":"Hammer","pan":0,"pitch":100,"volume":80}]},{"code":230,"indent":4,"parameters":[15]},{"code":250,"indent":4,"parameters":[{"name":"Hammer","pan":0,"pitch":100,"volume":80}]},{"code":230,"indent":4,"parameters":[15]},{"code":250,"indent":4,"parameters":[{"name":"Hammer","pan":0,"pitch":100,"volume":80}]},{"code":230,"indent":4,"parameters":[60]},{"code":222,"indent":4,"parameters":[]},{"code":126,"indent":4,"parameters":[52,1,0,1]},{"code":126,"indent":4,"parameters":[53,0,0,1]},{"code":101,"indent":4,"parameters":["People2",4,0,2]},{"code":401,"indent":4,"parameters":["Here you go, made to order. You'll have a hard time doing much damage with a blade that small, though..."]},{"code":101,"indent":4,"parameters":["Aka emo",0,0,2]},{"code":401,"indent":4,"parameters":["That's why it needs to be enchanted before it's finished..."]},{"code":356,"indent":4,"parameters":["Quest 13 Complete Objective 2"]},{"code":0,"indent":4,"parameters":[]},{"code":411,"indent":3,"parameters":[]},{"code":101,"indent":4,"parameters":["People2",4,0,2]},{"code":401,"indent":4,"parameters":["Shame. That would be an interesting weapon."]},{"code":0,"indent":4,"parameters":[]},{"code":412,"indent":3,"parameters":[]},{"code":0,"indent":3,"parameters":[]},{"code":402,"indent":2,"parameters":[1,"No"]},{"code":101,"indent":3,"parameters":["People2",4,0,2]},{"code":401,"indent":3,"parameters":["Shame. That would be an interesting weapon."]},{"code":0,"indent":3,"parameters":[]},{"code":404,"indent":2,"parameters":[]},{"code":0,"indent":2,"parameters":[]},{"code":412,"indent":1,"parameters":[]},{"code":0,"indent":1,"parameters":[]},{"code":411,"indent":0,"parameters":[]},{"code":101,"indent":1,"parameters":["People2",4,0,2]},{"code":401,"indent":1,"parameters":["I don't like making weapons, but that's what sells, and I can take pleasure in a job well done."]},{"code":101,"indent":1,"parameters":["Aka emo",0,0,2]},{"code":401,"indent":1,"parameters":["Have you... talked to your son lately?"]},{"code":101,"indent":1,"parameters":["People2",4,0,2]},{"code":401,"indent":1,"parameters":["He's a good boy, isn't he?"]},{"code":0,"indent":1,"parameters":[]},{"code":412,"indent":0,"parameters":[]},{"code":0,"indent":0,"parameters":[]}]},{"conditions":{"actorId":1,"actorValid":false,"itemId":1,"itemValid":false,"selfSwitchCh":"A","selfSwitchValid":false,"switch1Id":217,"switch1Valid":true,"switch2Id":1,"switch2Valid":false,"variableId":1,"variableValid":false,"variableValue":0},"directionFix":false,"image":{"tileId":0,"characterName":"People2","direction":2,"pattern":1,"characterIndex":4},"moveFrequency":3,"moveRoute":{"list":[{"code":0,"indent":null,"parameters":[]}],"repeat":true,"skippable":false,"wait":false},"moveSpeed":3,"moveType":0,"priorityType":1,"stepAnime":false,"through":false,"trigger":0,"walkAnime":true,"list":[{"code":101,"indent":0,"parameters":["People2",4,0,2]},{"code":401,"indent":0,"parameters":["Lots of travelers needing serious equipment these days."]},{"code":0,"indent":0,"parameters":[]}]},{"conditions":{"actorId":1,"actorValid":false,"itemId":1,"itemValid":false,"selfSwitchCh":"A","selfSwitchValid":false,"switch1Id":2099,"switch1Valid":true,"switch2Id":1,"switch2Valid":false,"variableId":1,"variableValid":false,"variableValue":0},"directionFix":false,"image":{"tileId":0,"characterName":"People2","direction":2,"pattern":1,"characterIndex":4},"moveFrequency":3,"moveRoute":{"list":[{"code":0,"indent":null,"parameters":[]}],"repeat":true,"skippable":false,"wait":false},"moveSpeed":3,"moveType":0,"priorityType":1,"stepAnime":false,"through":false,"trigger":0,"walkAnime":true,"list":[{"code":101,"indent":0,"parameters":["People2",4,0,2]},{"code":401,"indent":0,"parameters":["Lots of our goods were seized for the defense of Stineford. We were compensated some, but... takes a while to get back to normal."]},{"code":0,"indent":0,"parameters":[]}]},{"conditions":{"actorId":1,"actorValid":false,"itemId":1,"itemValid":false,"selfSwitchCh":"A","selfSwitchValid":false,"switch1Id":2099,"switch1Valid":true,"switch2Id":2309,"switch2Valid":true,"variableId":1,"variableValid":false,"variableValue":0},"directionFix":false,"image":{"tileId":0,"characterName":"People2","direction":2,"pattern":1,"characterIndex":4},"moveFrequency":3,"moveRoute":{"list":[{"code":0,"indent":null,"parameters":[]}],"repeat":true,"skippable":false,"wait":false},"moveSpeed":3,"moveType":0,"priorityType":1,"stepAnime":false,"through":false,"trigger":0,"walkAnime":true,"list":[{"code":101,"indent":0,"parameters":["People2",4,0,2]},{"code":401,"indent":0,"parameters":["Lots of our goods were seized for the defense of Stineford. We were compensated some, but... takes a while to get back to normal."]},{"code":101,"indent":0,"parameters":["1 Simon dark",0,0,2]},{"code":401,"indent":0,"parameters":["Not by Yhilini soldiers, I hope."]},{"code":101,"indent":0,"parameters":["People2",4,0,2]},{"code":401,"indent":0,"parameters":["Oh no, all of yours were quite polite. But Ardoheim is still recovering, so..."]},{"code":101,"indent":0,"parameters":["People2",4,0,2]},{"code":401,"indent":0,"parameters":["Honestly, we need to make up the gap somehow. We were thinking of asking for a new funder... I don't suppose you're interested?"]},{"code":101,"indent":0,"parameters":["Megail emo2",0,0,2]},{"code":401,"indent":0,"parameters":["As it so happens, this is exactly the kind of thing we're interested in. Are you actually offering a stake in your store?"]},{"code":101,"indent":0,"parameters":["People2",4,0,2]},{"code":401,"indent":0,"parameters":["For a big enough investment, yes."]},{"code":101,"indent":0,"parameters":["Megail emo2",4,0,2]},{"code":401,"indent":0,"parameters":["Simon, this store is in a prime location in the Market District. This is worth considering."]},{"code":123,"indent":0,"parameters":["A",0]},{"code":0,"indent":0,"parameters":[]}]},{"conditions":{"actorId":1,"actorValid":false,"itemId":1,"itemValid":false,"selfSwitchCh":"A","selfSwitchValid":true,"switch1Id":2099,"switch1Valid":true,"switch2Id":1,"switch2Valid":false,"variableId":1,"variableValid":false,"variableValue":0},"directionFix":false,"image":{"tileId":0,"characterName":"People2","direction":2,"pattern":1,"characterIndex":4},"moveFrequency":3,"moveRoute":{"list":[{"code":0,"indent":null,"parameters":[]}],"repeat":true,"skippable":false,"wait":false},"moveSpeed":3,"moveType":0,"priorityType":1,"stepAnime":false,"through":false,"trigger":0,"walkAnime":true,"list":[{"code":101,"indent":0,"parameters":["People2",4,0,2]},{"code":401,"indent":0,"parameters":["You want a stake in our store?"]},{"code":102,"indent":0,"parameters":[["Not now","Invest (200,000)"],0,0,2,0]},{"code":402,"indent":0,"parameters":[0,"Not now"]},{"code":0,"indent":1,"parameters":[]},{"code":402,"indent":0,"parameters":[1,"Invest (200,000)"]},{"code":111,"indent":1,"parameters":[1,10,0,200000,1]},{"code":121,"indent":2,"parameters":[2544,2544,0]},{"code":122,"indent":2,"parameters":[111,111,1,0,3]},{"code":122,"indent":2,"parameters":[81,81,1,0,2]},{"code":122,"indent":2,"parameters":[17,17,1,0,2]},{"code":122,"indent":2,"parameters":[10,10,2,0,200000]},{"code":101,"indent":2,"parameters":["People2",4,0,2]},{"code":401,"indent":2,"parameters":["Good, good. This will help us get back to business as usual soon. Show the nice people out, would you, son?"]},{"code":101,"indent":2,"parameters":["People1",0,0,2]},{"code":401,"indent":2,"parameters":["Yess, yessss~! Now we can spread implements of death throughout the land again!"]},{"code":101,"indent":2,"parameters":["People2",4,0,2]},{"code":401,"indent":2,"parameters":["He's a good boy."]},{"code":0,"indent":2,"parameters":[]},{"code":411,"indent":1,"parameters":[]},{"code":101,"indent":2,"parameters":["People2",4,0,2]},{"code":401,"indent":2,"parameters":["..."]},{"code":0,"indent":2,"parameters":[]},{"code":412,"indent":1,"parameters":[]},{"code":0,"indent":1,"parameters":[]},{"code":404,"indent":0,"parameters":[]},{"code":0,"indent":0,"parameters":[]}]},{"conditions":{"actorId":1,"actorValid":false,"itemId":1,"itemValid":false,"selfSwitchCh":"A","selfSwitchValid":false,"switch1Id":2099,"switch1Valid":true,"switch2Id":2544,"switch2Valid":true,"variableId":1,"variableValid":false,"variableValue":0},"directionFix":false,"image":{"tileId":0,"characterName":"People2","direction":2,"pattern":1,"characterIndex":4},"moveFrequency":3,"moveRoute":{"list":[{"code":0,"indent":null,"parameters":[]}],"repeat":true,"skippable":false,"wait":false},"moveSpeed":3,"moveType":0,"priorityType":1,"stepAnime":false,"through":false,"trigger":0,"walkAnime":true,"list":[{"code":101,"indent":0,"parameters":["People2",4,0,2]},{"code":401,"indent":0,"parameters":["You should be getting a steady stream of profits from us."]},{"code":0,"indent":0,"parameters":[]}]},{"conditions":{"actorId":1,"actorValid":false,"itemId":1,"itemValid":false,"selfSwitchCh":"A","selfSwitchValid":false,"switch1Id":3601,"switch1Valid":true,"switch2Id":2544,"switch2Valid":true,"variableId":1,"variableValid":false,"variableValue":0},"directionFix":false,"image":{"tileId":0,"characterName":"People2","direction":2,"pattern":1,"characterIndex":4},"moveFrequency":3,"moveRoute":{"list":[{"code":0,"indent":null,"parameters":[]}],"repeat":true,"skippable":false,"wait":false},"moveSpeed":3,"moveType":0,"priorityType":1,"stepAnime":false,"through":false,"trigger":0,"walkAnime":true,"list":[{"code":111,"indent":0,"parameters":[0,3681,0]},{"code":101,"indent":1,"parameters":["People2",4,0,2]},{"code":401,"indent":1,"parameters":["So... I was always happy just to make what sold and build a better life for my son. But he wants more."]},{"code":101,"indent":1,"parameters":["Aka emo2",5,0,2]},{"code":401,"indent":1,"parameters":["You don't say."]},{"code":101,"indent":1,"parameters":["People2",4,0,2]},{"code":401,"indent":1,"parameters":["Actually, he was very impressed with you in particular. I think he might have a crush on you."]},{"code":101,"indent":1,"parameters":["Aka emo2",3,0,2]},{"code":401,"indent":1,"parameters":["Uh... he's a CHILD, you know..."]},{"code":101,"indent":1,"parameters":["People2",4,0,2]},{"code":401,"indent":1,"parameters":["Oh, I raised him right. He knows that it won't go anywhere. But he keeps saying that he'd like us to forge a weapon worthy of you."]},{"code":101,"indent":1,"parameters":["Aka emo2",1,0,2]},{"code":401,"indent":1,"parameters":["Provided this doesn't get weird, I'm actually in the market for a new knife."]},{"code":101,"indent":1,"parameters":["People2",4,0,2]},{"code":401,"indent":1,"parameters":["The thing is, you've become an elite warrior, and we're lacking in tools that could work high grade materials."]},{"code":101,"indent":1,"parameters":["People2",4,0,2]},{"code":401,"indent":1,"parameters":["The old mine used to have rare ores that could be used to make tools, but it's been closed for so long..."]},{"code":111,"indent":1,"parameters":[0,3648,0]},{"code":101,"indent":2,"parameters":["Aka emo2",1,0,2]},{"code":401,"indent":2,"parameters":["As it happens, we just got it cleared out. Maybe we can figure out something."]},{"code":0,"indent":2,"parameters":[]},{"code":411,"indent":1,"parameters":[]},{"code":101,"indent":2,"parameters":["Aka emo2",1,0,2]},{"code":401,"indent":2,"parameters":["It's just possible that we might be able to do something about that."]},{"code":0,"indent":2,"parameters":[]},{"code":412,"indent":1,"parameters":[]},{"code":123,"indent":1,"parameters":["B",0]},{"code":0,"indent":1,"parameters":[]},{"code":411,"indent":0,"parameters":[]},{"code":101,"indent":1,"parameters":["People2",4,0,2]},{"code":401,"indent":1,"parameters":["Lately we've been wanting to take on something more difficult... but sorry, didn't mean to blabber about our own stuff."]},{"code":0,"indent":1,"parameters":[]},{"code":412,"indent":0,"parameters":[]},{"code":0,"indent":0,"parameters":[]}]},{"conditions":{"actorId":1,"actorValid":false,"itemId":1,"itemValid":false,"selfSwitchCh":"B","selfSwitchValid":true,"switch1Id":3601,"switch1Valid":true,"switch2Id":2544,"switch2Valid":true,"variableId":1,"variableValid":false,"variableValue":0},"directionFix":false,"image":{"tileId":0,"characterName":"People2","direction":2,"pattern":1,"characterIndex":4},"moveFrequency":3,"moveRoute":{"list":[{"code":0,"indent":null,"parameters":[]}],"repeat":true,"skippable":false,"wait":false},"moveSpeed":3,"moveType":0,"priorityType":1,"stepAnime":false,"through":false,"trigger":0,"walkAnime":true,"list":[{"code":111,"indent":0,"parameters":[0,3648,0]},{"code":356,"indent":1,"parameters":["Quest 91 Complete Objective 2"]},{"code":101,"indent":1,"parameters":["People2",4,0,2]},{"code":401,"indent":1,"parameters":["If you can clear the mine, we might be able to create tools that could forge a new weapon for you."]},{"code":101,"indent":1,"parameters":["Aka emo2",0,0,2]},{"code":401,"indent":1,"parameters":["We've got that taken care of, but I'm not sure what needs to happen next in the process."]},{"code":101,"indent":1,"parameters":["Riala emo",0,0,2]},{"code":401,"indent":1,"parameters":["Actually, Aka... I was thinking that perhaps we should give them refined materials from... deeper in the mine."]},{"code":101,"indent":1,"parameters":["Aka emo2",0,0,2]},{"code":401,"indent":1,"parameters":["That wouldn't be harmful in any way, would it?"]},{"code":101,"indent":1,"parameters":["Riala emo",1,0,2]},{"code":401,"indent":1,"parameters":["No, I don't think so. And then they could help make a knife worthy of you."]},{"code":101,"indent":1,"parameters":["People2",4,0,2]},{"code":401,"indent":1,"parameters":["If you get us ores we can work, we'll create a new set of tools for truly high end weapons."]},{"code":101,"indent":1,"parameters":["Riala emo",1,0,2]},{"code":401,"indent":1,"parameters":["Don't worry, I'll set everything up."]},{"code":101,"indent":1,"parameters":["People2",4,0,2]},{"code":401,"indent":1,"parameters":["In that case, I hope we'll have our tools ready by the time you have the other ingredients you need."]},{"code":101,"indent":1,"parameters":["Aka emo2",1,0,2]},{"code":401,"indent":1,"parameters":["That sounds great, thank you."]},{"code":123,"indent":1,"parameters":["C",0]},{"code":0,"indent":1,"parameters":[]},{"code":411,"indent":0,"parameters":[]},{"code":101,"indent":1,"parameters":["People2",4,0,2]},{"code":401,"indent":1,"parameters":["If you can clear the mine, we might be able to create tools that could forge a new weapon for you."]},{"code":0,"indent":1,"parameters":[]},{"code":412,"indent":0,"parameters":[]},{"code":0,"indent":0,"parameters":[]}]},{"conditions":{"actorId":1,"actorValid":false,"itemId":1,"itemValid":false,"selfSwitchCh":"C","selfSwitchValid":true,"switch1Id":3601,"switch1Valid":true,"switch2Id":2544,"switch2Valid":true,"variableId":1,"variableValid":false,"variableValue":0},"directionFix":false,"image":{"tileId":0,"characterName":"People2","direction":2,"pattern":1,"characterIndex":4},"moveFrequency":3,"moveRoute":{"list":[{"code":0,"indent":null,"parameters":[]}],"repeat":true,"skippable":false,"wait":false},"moveSpeed":3,"moveType":0,"priorityType":1,"stepAnime":false,"through":false,"trigger":0,"walkAnime":true,"list":[{"code":101,"indent":0,"parameters":["People2",4,0,2]},{"code":401,"indent":0,"parameters":["We should be ready by the time you have everything for your knife."]},{"code":0,"indent":0,"parameters":[]}]}],"x":14,"y":6}
]
}