{
"autoplayBgm":true,"autoplayBgs":false,"battleback1Name":"Castle","battleback2Name":"Castle2","bgm":{"name":"Dungeon6","pan":0,"pitch":100,"volume":100},"bgs":{"name":"","pan":0,"pitch":100,"volume":80},"disableDashing":false,"displayName":"Incubus King's Castle","encounterList":[],"encounterStep":30,"height":30,"note":"","parallaxLoopX":false,"parallaxLoopY":false,"parallaxName":"","parallaxShow":false,"parallaxSx":0,"parallaxSy":0,"scrollType":0,"specifyBattleback":true,"tilesetId":3,"width":30,"data":[0,0,0,0,0,0,0,0,0,0,0,0,0,0,0,0,0,0,0,0,0,0,0,0,0,0,0,0,0,0,0,0,0,0,0,0,0,0,0,0,0,0,0,0,0,0,0,0,0,0,0,0,0,0,0,0,0,0,0,0,0,0,0,0,0,0,0,0,0,0,0,0,0,0,0,0,0,0,0,0,0,0,0,0,0,0,0,0,0,0,0,0,0,0,0,0,0,0,0,0,0,0,0,0,0,0,0,0,0,0,0,0,0,0,0,0,0,0,0,0,0,0,0,0,0,0,0,0,0,0,0,0,0,0,0,0,0,0,0,0,0,0,0,0,0,0,0,0,0,0,0,0,0,0,0,0,0,0,0,0,0,0,0,0,0,0,0,0,0,0,0,0,0,0,0,0,0,0,0,0,0,0,0,0,6883,6881,6881,6881,6881,6881,6881,6881,6870,6868,6868,6868,6869,6881,6881,6881,6881,6881,6881,6881,6885,0,0,0,0,0,0,0,0,0,6880,6514,6514,6514,6514,6514,6514,6514,6866,6876,6876,6876,6873,6514,6514,6514,6514,6514,6514,6514,6880,0,0,0,0,0,0,0,0,0,6880,6520,6520,6520,6520,6520,6520,6520,6880,6514,6514,6514,6880,6520,6520,6520,6520,6520,6520,6520,6880,0,0,0,0,0,0,0,0,0,6880,1557,1557,1557,1557,4014,1557,1557,6880,6520,6520,6520,6880,1557,1557,4146,4132,4148,1557,1557,6880,0,0,0,0,0,0,0,0,0,6880,1557,1557,1557,1557,1557,1557,1557,6880,1557,1557,1557,6880,1557,1557,4128,4112,4136,1557,1557,6880,0,0,0,0,0,0,0,0,0,6880,4014,1557,4014,1557,4014,6883,6881,6887,1557,1557,1557,6889,6881,6885,4128,4112,4136,1557,1557,6880,0,0,0,0,0,0,0,0,0,6880,1557,1557,1557,1557,1557,6880,6514,6518,1557,1557,1557,6515,6514,6880,4152,4140,4150,1557,1557,6880,0,0,0,0,0,0,0,0,0,6867,6881,6893,1557,6891,6881,6887,6520,6524,1557,1557,1557,6521,6520,6889,6881,6893,1557,6891,6881,6875,0,0,0,0,0,0,0,0,0,6880,6514,6518,1557,6515,6514,6518,1557,1557,1557,1557,1557,1557,1557,6515,6514,6518,1557,6515,6514,6880,0,0,0,0,0,0,0,0,0,6880,6520,6524,1557,6521,6520,6524,1557,4146,4132,4132,4132,4148,1557,6521,6520,6524,1557,6521,6520,6880,0,0,0,0,0,0,0,0,0,6880,1557,1557,1557,1557,1557,1557,1557,4152,4140,4140,4140,4150,1557,1557,1557,1557,1557,1557,1557,6880,0,0,0,0,0,0,0,0,0,6880,1557,1557,1557,1557,1557,1557,1557,1557,1557,1557,1557,1557,1557,1557,1557,1557,1557,1557,1557,6880,0,0,0,0,0,0,0,0,0,6867,6881,6893,1557,6891,6881,6881,6881,6885,1557,1557,1557,6883,6881,6881,6881,6893,1557,6891,6881,6875,0,0,0,0,0,0,0,0,0,6880,6514,6518,1557,6515,6514,6514,6514,6880,1557,1557,1557,6880,6514,6514,6514,6518,1557,6515,6514,6880,0,0,0,0,0,0,0,0,0,6880,6520,6524,1557,6521,6520,6520,6520,6880,1557,1557,1557,6880,6520,6520,6520,6524,1557,6521,6520,6880,0,0,0,0,0,0,0,0,0,6880,1557,1557,1557,1557,1557,1557,1557,6880,1557,1557,1557,6880,1557,1557,1557,1557,1557,1557,1557,6880,0,0,0,0,0,0,0,0,0,6880,1557,1557,1557,1557,1557,1557,1557,6880,1557,1557,1557,6880,1557,1557,1557,1557,1557,1557,1557,6880,0,0,0,0,0,0,0,0,0,6880,1557,1557,1557,1557,1557,1557,1557,6880,1557,1557,1557,6880,1557,1557,1557,1557,1557,1557,1557,6880,0,0,0,0,0,0,0,0,0,6889,6881,6881,6881,6881,6881,6881,6881,6879,6893,1557,6891,6879,6881,6881,6881,6881,6881,6881,6881,6887,0,0,0,0,0,0,0,0,0,6515,6514,6514,6514,6514,6514,6514,6514,6514,6518,1557,6515,6514,6514,6514,6514,6514,6514,6514,6514,6518,0,0,0,0,0,0,0,0,0,6521,6520,6520,6520,6520,6520,6520,6520,6520,6524,1611,6521,6520,6520,6520,6520,6520,6520,6520,6520,6524,0,0,0,0,0,0,0,0,0,0,0,0,0,0,0,0,0,0,0,0,0,0,0,0,0,0,0,0,0,0,0,0,0,0,0,0,0,0,0,0,0,0,0,0,0,0,0,0,0,0,0,0,0,0,0,0,0,0,0,0,0,0,0,0,0,0,0,0,0,0,0,0,0,0,0,0,0,0,0,0,0,0,0,0,0,0,0,0,0,0,0,0,0,0,0,0,0,0,0,0,0,0,0,0,0,0,0,0,0,0,0,0,0,0,0,0,0,0,0,0,0,0,0,0,0,0,0,0,0,0,0,0,0,0,0,0,0,0,0,0,0,0,0,0,0,0,0,0,0,0,0,0,0,0,0,0,0,0,0,0,0,0,0,0,0,0,0,0,0,0,0,0,0,0,0,0,0,0,0,0,0,0,0,0,0,0,0,0,0,0,0,0,0,0,0,0,0,0,0,0,0,0,0,0,0,0,0,0,0,0,0,0,0,0,0,0,0,0,0,0,0,0,0,0,0,0,0,0,0,0,0,0,0,0,0,0,0,0,0,0,0,0,0,0,0,0,0,0,0,0,0,0,0,0,0,0,0,0,0,0,0,0,0,0,0,0,0,0,0,0,0,0,0,0,0,0,0,0,0,0,0,0,0,0,0,0,0,0,0,0,0,0,0,0,0,0,0,0,0,0,0,0,0,0,0,0,0,0,0,0,0,0,0,0,0,0,0,0,0,0,0,0,0,0,0,0,0,0,0,0,0,0,0,0,0,0,0,0,0,0,0,0,0,0,0,0,0,0,0,0,0,0,0,0,0,0,0,0,0,0,0,0,0,0,0,0,0,0,0,0,0,0,0,0,0,0,0,0,0,0,0,0,0,0,0,0,0,0,0,0,0,0,0,0,0,0,0,0,0,0,0,0,0,0,0,0,0,0,0,0,0,0,0,0,0,0,0,0,0,0,0,0,0,0,0,0,0,0,0,0,0,0,0,0,0,0,0,0,0,0,0,0,0,0,0,0,0,0,0,0,0,0,0,0,0,0,0,0,0,0,0,0,0,0,0,0,0,0,0,0,0,0,0,0,0,0,0,0,0,0,0,0,0,0,0,0,0,0,0,0,0,0,0,0,0,0,0,0,0,0,0,0,0,0,0,0,0,0,0,0,0,0,0,0,0,0,0,0,0,0,0,0,0,0,0,0,0,0,0,0,0,0,0,0,0,0,0,0,0,0,0,0,0,0,0,0,0,0,0,0,0,0,0,0,0,0,0,0,0,0,0,0,0,0,0,0,0,0,0,0,0,0,0,0,0,0,0,0,0,0,0,0,0,0,0,0,0,0,0,0,0,0,0,0,0,0,0,0,0,0,0,0,0,0,0,0,0,0,0,0,0,0,0,0,0,0,0,0,0,0,0,0,0,0,0,0,0,0,0,0,0,0,0,0,0,0,0,0,0,0,0,0,0,0,0,0,0,0,0,0,0,0,0,0,0,0,0,0,0,0,0,0,0,0,0,0,0,0,0,0,0,0,0,0,0,0,0,0,0,0,0,0,0,0,0,0,0,0,0,0,0,0,0,0,0,0,0,0,0,0,0,0,0,0,0,0,0,0,0,0,0,0,0,0,0,0,0,0,0,0,0,0,0,0,0,0,0,0,0,0,0,0,0,0,0,0,0,0,0,0,0,0,0,0,0,0,0,0,0,0,0,0,0,0,0,0,0,0,0,0,0,0,0,0,0,0,0,0,0,0,0,0,0,0,0,0,0,0,0,0,0,0,0,0,0,0,0,0,0,0,0,0,0,0,0,0,0,0,0,0,0,0,0,0,0,0,0,0,0,0,0,0,0,0,0,0,0,0,0,0,0,0,0,0,0,0,0,0,0,0,0,0,0,0,0,0,0,0,0,0,0,0,0,0,0,0,0,0,0,0,0,0,0,0,0,0,0,0,0,0,0,0,0,0,0,0,0,0,0,0,0,0,0,0,0,0,0,0,0,0,0,0,0,0,0,0,0,0,0,0,0,0,0,0,0,0,0,0,0,0,0,0,0,0,0,0,0,0,0,0,0,0,0,0,0,0,0,0,0,0,0,0,0,0,0,0,0,0,0,0,0,0,0,0,0,0,0,0,0,0,0,0,0,0,0,0,0,0,0,0,0,0,0,0,0,0,0,0,0,0,0,0,0,0,0,0,0,0,0,0,0,0,0,0,0,0,0,0,0,0,0,0,0,0,0,0,0,0,0,0,0,0,0,0,0,0,0,0,0,0,0,0,0,0,0,0,0,0,0,0,0,0,0,0,0,0,0,0,0,0,0,0,0,0,0,0,0,0,0,0,0,0,0,0,0,0,0,0,0,0,0,0,0,0,0,0,0,0,0,0,0,0,0,0,0,0,0,0,0,0,0,0,0,0,0,0,0,0,0,0,0,0,0,0,0,0,0,0,0,0,0,0,0,0,0,0,0,0,0,0,0,0,0,0,0,0,0,0,0,0,0,0,0,0,0,0,0,0,0,0,0,0,0,0,0,0,0,0,0,0,0,0,0,0,0,0,0,0,0,0,0,0,0,0,0,0,0,0,0,0,0,0,0,0,0,0,0,0,0,0,0,0,0,0,0,0,0,0,0,0,0,0,0,0,0,0,0,0,0,0,0,0,0,0,0,0,0,0,0,0,0,0,0,0,0,0,0,0,0,0,0,0,0,0,0,0,0,0,0,0,0,0,0,0,0,0,0,0,0,0,0,0,0,0,0,0,0,0,0,0,0,0,0,0,0,0,0,0,0,0,0,0,0,0,0,0,0,0,0,0,0,0,0,0,0,0,0,0,0,0,0,0,0,0,0,0,0,0,0,0,0,0,0,0,0,0,0,0,0,0,0,0,0,0,0,0,0,0,0,0,0,0,0,0,0,0,0,0,0,0,0,0,0,0,0,0,0,0,0,0,0,0,0,0,0,0,0,0,0,0,0,0,0,0,0,0,0,0,0,0,0,0,0,0,0,0,0,0,0,0,0,0,0,0,0,0,0,0,0,0,0,0,0,0,0,0,0,0,0,0,0,0,0,0,0,0,0,0,0,0,0,0,0,0,0,0,0,0,0,0,0,0,0,0,0,0,0,0,0,0,0,0,0,0,0,0,0,0,0,0,0,0,0,0,0,0,0,0,0,0,0,0,0,0,0,0,0,0,0,0,0,0,0,0,0,0,0,0,0,0,0,0,0,0,0,0,0,0,0,0,0,0,0,0,0,0,0,0,0,0,0,0,0,0,0,0,0,0,0,0,0,0,0,0,0,0,0,0,0,0,0,0,0,0,0,0,0,0,0,0,0,0,0,0,0,0,0,0,0,0,0,0,0,0,0,0,0,0,0,0,0,0,0,0,0,0,0,0,0,0,0,0,0,0,0,0,0,0,0,0,0,0,0,0,0,0,0,0,0,0,0,0,0,0,0,0,0,0,0,0,0,0,0,0,0,0,0,0,0,0,0,0,0,0,0,0,0,0,0,0,0,0,0,0,0,0,0,0,0,0,0,0,0,0,0,0,0,0,0,0,0,0,0,0,0,0,0,0,0,0,0,0,0,0,0,0,0,0,0,0,0,0,0,0,0,0,0,0,0,0,0,0,0,0,0,0,0,0,0,0,0,0,0,0,0,0,0,0,0,0,0,0,0,0,0,0,0,0,0,0,0,0,0,0,0,0,0,0,0,0,0,0,0,0,0,0,0,0,0,0,0,0,0,0,0,0,0,0,0,0,0,0,0,0,0,0,0,0,0,0,0,0,0,0,0,0,0,0,0,0,0,0,0,0,0,0,0,0,0,0,0,0,0,0,0,0,0,0,0,0,0,0,0,0,0,0,0,0,0,0,0,0,0,0,0,0,0,0,0,0,0,0,0,0,0,0,0,0,0,0,0,0,0,0,0,0,0,0,0,0,0,0,0,0,0,0,0,0,0,0,0,0,0,0,0,0,0,0,0,0,0,0,0,0,0,0,0,0,0,0,0,0,0,0,0,0,0,0,0,0,0,0,0,0,0,0,0,0,0,0,0,0,0,0,0,0,0,0,0,0,0,0,0,0,0,0,0,0,0,0,0,0,0,0,0,0,0,0,0,0,0,0,0,0,0,0,0,0,0,0,0,0,0,0,0,0,0,0,0,0,0,0,0,0,0,0,0,0,0,0,0,0,0,0,0,0,0,0,0,0,0,0,0,0,0,0,0,0,0,0,0,0,0,0,0,0,0,0,0,0,0,0,0,0,0,0,0,0,0,0,0,0,0,0,0,0,0,0,0,0,0,0,0,0,0,0,0,0,0,0,0,0,0,0,0,0,0,0,0,0,0,0,0,0,0,0,0,0,0,0,0,0,0,0,0,0,0,0,0,0,0,0,0,0,0,0,0,0,0,0,0,0,0,0,0,0,0,0,0,0,0,0,0,0,0,0,0,0,0,0,0,0,0,0,0,0,0,0,0,0,0,0,0,0,0,0,0,0,0,0,0,0,0,0,0,0,0,0,0,0,0,0,0,0,0,0,0,0,0,0,0,0,0,0,0,0,0,0,0,0,0,0,0,0,0,0,0,0,0,0,0,0,0,0,0,0,0,0,0,0,0,0,0,0,0,0,0,0,0,0,0,0,0,0,0,0,0,0,0,0,0,0,0,0,0,0,0,0,0,0,0,0,0,0,0,0,0,0,0,0,0,0,0,0,0,0,0,0,0,0,0,0,0,0,0,0,0,0,0,0,0,0,0,0,0,0,0,0,0,0,0,0,0,0,0,0,0,0,0,0,0,0,0,0,0,0,0,0,0,0,0,0,0,0,0,0,0,0,0,0,0,51,0,50,0,0,0,0,0,0,0,0,69,0,0,121,0,0,0,0,0,0,0,0,0,0,0,0,0,0,84,59,84,58,84,116,80,0,0,196,0,0,77,108,0,116,0,81,82,0,0,0,0,0,0,0,0,0,0,0,92,0,92,0,92,0,88,0,0,0,0,0,0,0,0,0,0,89,90,0,0,0,0,0,0,0,0,0,0,0,0,0,0,0,0,0,0,0,0,0,0,0,0,0,0,0,0,0,0,0,0,0,0,0,0,0,0,0,0,0,0,0,0,0,0,0,0,0,0,0,0,0,0,0,0,0,0,0,0,0,0,0,0,0,0,0,0,0,0,0,0,0,0,0,0,0,0,0,0,0,0,0,0,0,0,0,0,0,0,0,0,0,0,0,0,0,0,0,0,0,0,0,0,0,0,0,0,0,0,0,0,0,0,0,0,0,0,0,0,0,0,0,0,0,0,0,0,0,0,0,0,0,0,0,0,0,0,0,0,0,0,0,0,0,0,0,0,0,0,0,0,0,0,0,0,0,0,0,0,0,0,0,0,0,0,0,0,0,0,0,0,0,0,0,0,0,0,0,0,0,0,0,0,0,0,0,0,0,0,0,0,0,0,0,0,0,0,0,0,0,0,0,0,0,0,0,0,0,0,0,0,0,0,0,0,0,0,0,0,0,0,0,0,0,0,0,0,0,0,0,0,0,0,0,0,0,0,0,0,0,0,0,0,0,0,0,0,0,0,0,0,0,0,0,0,0,0,0,0,0,0,0,0,0,0,0,0,0,0,0,0,0,0,0,0,0,0,0,0,0,0,427,0,427,0,0,0,0,0,0,0,0,243,243,0,0,0,226,227,0,0,0,0,0,0,0,0,0,0,0,0,435,0,435,0,0,0,0,0,0,0,0,251,251,224,0,0,234,235,0,0,0,0,0,0,0,0,0,0,0,0,0,0,0,0,1,0,0,0,0,0,0,0,2,0,0,0,0,0,0,0,0,0,0,0,0,0,0,0,0,0,0,0,0,0,0,0,0,0,0,0,0,0,0,0,243,243,243,243,0,0,0,0,0,0,0,0,0,0,0,0,0,0,0,0,0,0,0,0,0,0,0,0,0,0,0,0,0,0,0,0,0,0,0,0,0,0,0,0,0,0,0,0,0,0,0,0,0,0,0,0,0,0,0,0,0,0,0,0,0,0,0,0,0,0,0,0,0,0,0,0,0,0,0,0,0,0,0,0,0,0,0,0,0,0,0,0,0,0,0,0,0,0,0,0,0,0,0,0,0,0,0,0,0,0,0,0,0,0,0,0,0,0,0,0,0,0,0,0,0,0,0,0,0,0,0,0,0,0,0,0,0,0,0,0,0,0,0,0,0,0,0,0,0,0,0,0,0,0,0,0,0,0,0,0,0,0,0,0,0,0,0,0,0,0,0,0,0,0,0,0,0,0,0,0,0,0,0,0,0,0,0,0,0,0,0,0,0,0,0,0,0,0,0,0,0,0,0,0,0,0,0,0,0,0,0,0,0,0,0,0,0,0,0,0,0,0,0,0,0,0,0,0,0,0,0,0,0,0,0,0,0,0,0,0,0,0,0,0,0,0,0,0,0,0,0,0,0,0,0,0,0,0,0,0,0,0,0,0,0,0,0,0,0,0,0,0,0,0,0,0,0,0,0,0,0,0,0,0,0,0,0,0,0,0,0,0,0,0,0,0,0,0,0,0,0,0,0,0,0,0,0,0,0,0,0,0,0,0,0,0,0,0,0,0,0,0,0,0,0,0,0,0,0,0,0,0,0,0,0,0,0,0,0,0,0,0,0,0,0,0,0,0,0,0,0,0,0,0,0,0,0,0,0,0,0,0,0,0,0,0,0,0,0,0,0,0,0,0,0,0,0,0,0,0,0,0,0,0,0,0,0,0,0,0,0,0,0,0,0,0,0,0,0,0,0,0,0,0,0,0,0,0,0,0,0,0,0,0,0,0,0,0,0,0,0,0,0,0,0,0,0,0,0,0,0,0,0,0,0,0,0,0,0,0,0,0,0,0,0,0,0,0,0,0,0,0,0,0,0,0,0,0,0,0,0,0,0,0,0,5,0,0,0,0,0,0,0,0,0,0,0,5,0,0,0,0,0,0,0,0,0,0,0,0,0,0,0,0,0,5,0,0,0,0,0,0,0,5,0,0,0,5,0,0,0,0,0,0,0,0,0,0,0,0,0,0,0,0,0,5,0,0,0,0,0,0,0,5,0,0,0,0,0,0,0,0,0,0,0,0,0,0,0,0,0,0,0,0,0,5,0,0,0,0,0,0,0,5,0,0,0,0,0,5,0,0,0,0,0,0,0,0,0,0,0,0,0,0,0,0,0,0,0,0,0,0,0,5,0,0,0,0,0,0,0,0,0,0,0,0,0,0,0,0,0,0,0,0,0,0,0,5,0,0,0,5,0,0,0,0,0,0,0,0,0,5,0,0,0,0,0,0,0,0,0,0,0,0,0,0,0,5,0,0,0,5,0,0,0,0,0,0,0,0,0,5,0,0,0,0,0,0,0,0,0,0,0,0,0,5,0,0,0,0,0,0,0,0,0,0,0,0,0,0,0,0,0,0,0,0,0,0,0,0,0,0,0,0,0,5,0,0,0,0,0,0,0,0,0,0,0,0,0,0,0,0,0,0,0,0,0,0,0,0,0,0,0,0,0,0,0,0,0,0,0,0,0,0,0,0,0,0,0,0,0,0,0,0,0,0,0,0,0,0,0,0,0,0,0,0,0,5,0,0,0,0,0,5,0,0,0,0,0,0,0,5,0,0,0,0,0,0,0,0,0,0,0,0,0,0,0,5,0,0,0,0,0,5,0,0,0,0,0,0,0,5,0,0,0,0,0,0,0,0,0,0,0,0,0,5,0,0,0,0,0,0,0,5,0,0,0,5,0,0,0,0,0,0,0,0,0,0,0,0,0,0,0,0,0,5,0,0,0,0,0,0,0,5,0,0,0,5,0,0,0,0,0,0,0,0,0,0,0,0,0,0,0,0,0,5,0,0,0,0,0,0,0,5,0,0,0,5,0,0,0,0,0,0,0,0,0,0,0,0,0,0,0,0,0,0,0,0,0,0,0,0,0,0,0,0,0,0,0,0,0,0,0,0,0,0,0,0,0,0,0,0,0,0,0,0,0,0,0,0,0,0,0,0,5,0,0,0,0,0,0,0,0,0,0,0,0,0,0,0,0,0,0,0,0,0,0,0,0,0,0,0,0,0,5,0,0,0,0,0,0,0,0,0,0,0,0,0,0,0,0,0,0,0,0,0,0,0,0,0,0,0,0,0,0,0,0,0,0,0,0,0,0,0,0,0,0,0,0,0,0,0,0,0,0,0,0,0,0,0,0,0,0,0,0,0,0,0,0,0,0,0,0,0,0,0,0,0,0,0,0,0,0,0,0,0,0,0,0,0,0,0,0,0,0,0,0,0,0,0,0,0,0,0,0,0,0,0,0,0,0,0,0,0,0,0,0,0,0,0,0,0,0,0,0,0,0,0,0,0,0,0,0,0,0,0,0,0,0,0,0,0,0,0,0,0,0,0,0,0,0,0,0,0,0,0,0,0,0,0,0,0,0,0,0,0,0,0,0,0,0,0,0,0,0,0,0,0,0,0,0,0,0,0,0,0,0,0,0,0,0,0,0,0,0,0,0,0,0,0,0,0,0,0,0,0,0,0,0,0,0,0,0,0,0,0,0,0,0,0,0,0,0,0,0,0,0,0,0,0,0,0,0,0,0,0,0,0,0,0,0,0,0,0,0,0,0,0,0,0,0,0,0,0,0,0,0,0,0,0,0,0,0,0,0,0,0,0,0,0,0,0,0,0,0,0,0,0,0,0,0,0,0,0,0,0,0,0,0,0,0,0,0,0,0,0,0,0,0,0,0,0,0,0,0,0,0,0,0,0,0,0,0,0,0,0,0,0,0,0,0,0,0,0,0,0,0,0,0,0,0,0,0,0,0,0,0,0,0,0,0,0,0,0,0,0,0,0,0,0,0,0,0,0,0,0,0,0,0,0,0,0,0,0,0,0,0,0,0,0,0,0,0,0,0,0,0,0,0,0,0,0,0,0,0,0,0,0,0,0,0,0,0,0,0,0,0,0,0,0,0,0,0,0,0,0,0,0,0,0,0,0,0,0,0,0,0,0,0,0,0,0,0,0,0,0,0,0,0,0,0,0,0,0,0,0,0,0,0,0,0,0,0,0,0,0,0,0,0,0,0,0,0,0,0,0,0,0,0,0,0,0,0,0,0,0,0,0,0,0,0,0,0,0,0,0,0,0,0,0,0,0,0,0,0,0,0,0,0,0,0,0,0,0,0,0,0,0,0,0,0,0,0,0,0,0,0,0,0,0,0,0,0,0,0,0,0,0,0,0,0,0,0,0,0,0,0,0,0,0,0,0,0,0,0,0,0,0,0,0,0,0,0,0,0,0,0,0,0,0,0,0,0,0,0,0,0,0,0,0,0,0,0,0,0,0,0,0,0,0,0,0,0,0,0,0,0,0,0,0,0,0,0,0,0,0,0,0,0,0,0,0,0,0,0,0,0,0,0,0,0,0,0,0,0,0,0,0,0,0,0,0,0,0,0,0,0,0,0,0,0,0,0,0,0,0,0,0,0,0,0,0,0,0,0,0,0,0,0,0,0,0,0,0,0,0,0,0,0,0,0,0,0,0,0,0,0,0,0,0,0,0,0,0,0,0,0,0,0,0,0,0,0,0,0,0,0,0,0,0,0,0,0,0,0,0,0,0,0,0,0,0,0,0,0,0,0,0,0,0,0,0,0,0,0,0,0,0,0,0,0,0,0,0,0,0,0,0,0,0,0,0,0,0,0,0,0,0,0,0,0,0,0,0,0,0,0,0,0,0,0,0,0,0,0,0,0,0,0,0,0,0,0,0,0,0,0,0,0,0,0,0,0,0,0,0,0,0,0,0,0,0,0,0,0,0,0,0,0,0,0,0,0,0,0,0,0,0,0,0,0,0,0,0,0,0,0,0,0,0,0,0,0,0,0,0,0,0,0,0,0,0,0,0,0,0,0,0,0,0,0,0,0,0,0,0,0,0,0,0,0,0,0,0,0,0,0,0,0,0,0,0,0,0,0,0,0,0,0,0,0,0,0,0,0,0,0,0,0,0,0,0,0,0,0,0,0,0,0,0,0,0,0,0,0,0,0,0,0,0,0,0,0,0,0,0,0,0,0,0,0,0,0,0,0,0,0,0,0,0,0,0,0,0,0,0,0,0,0,0,0,0,0,0,0,0,0,0,0,0,0,0,0,0,0,0,0,0,0,0,0,0,0,0,0,0,0,0,0,0,0,0,0,0,0,0,0,0,0,0,0,0,0,0,0,0,0,0,0,0,0,0,0,0,0,0,0,0,0,0,0,0,0,0,0,0,0,0,0,0,0,0,0,0,0,0,0,0,0,0,0,0,0,0,0,0,0,0,0,0,0,0,0,0,0,0,0,0,0,0],"events":[null,{"id":1,"name":"EV001","note":"","pages":[{"conditions":{"actorId":1,"actorValid":false,"itemId":1,"itemValid":false,"selfSwitchCh":"A","selfSwitchValid":false,"switch1Id":1,"switch1Valid":false,"switch2Id":1,"switch2Valid":false,"variableId":1,"variableValid":false,"variableValue":0},"directionFix":true,"image":{"tileId":0,"characterName":"!Door2","direction":2,"pattern":0,"characterIndex":0},"moveFrequency":3,"moveRoute":{"list":[{"code":0,"indent":null,"parameters":[]}],"repeat":true,"skippable":false,"wait":false},"moveSpeed":3,"moveType":0,"priorityType":1,"stepAnime":false,"through":false,"trigger":0,"walkAnime":false,"list":[{"code":111,"indent":0,"parameters":[0,245,0]},{"code":250,"indent":1,"parameters":[{"name":"Close2","pan":0,"pitch":100,"volume":80}]},{"code":123,"indent":1,"parameters":["A",0]},{"code":205,"indent":1,"parameters":[-1,{"list":[{"code":37,"indent":null,"parameters":[]},{"code":4,"indent":null,"parameters":[]},{"code":4,"indent":null,"parameters":[]},{"code":4,"indent":null,"parameters":[]},{"code":38,"indent":null,"parameters":[]},{"code":0,"indent":null,"parameters":[]}],"repeat":false,"skippable":false,"wait":true}]},{"code":505,"indent":1,"parameters":[{"code":37,"indent":null,"parameters":[]}]},{"code":505,"indent":1,"parameters":[{"code":4,"indent":null,"parameters":[]}]},{"code":505,"indent":1,"parameters":[{"code":4,"indent":null,"parameters":[]}]},{"code":505,"indent":1,"parameters":[{"code":4,"indent":null,"parameters":[]}]},{"code":505,"indent":1,"parameters":[{"code":38,"indent":null,"parameters":[]}]},{"code":205,"indent":1,"parameters":[24,{"list":[{"code":16,"indent":null,"parameters":[]},{"code":0,"indent":null,"parameters":[]}],"repeat":false,"skippable":false,"wait":false}]},{"code":505,"indent":1,"parameters":[{"code":16,"indent":null,"parameters":[]}]},{"code":205,"indent":1,"parameters":[25,{"list":[{"code":16,"indent":null,"parameters":[]},{"code":0,"indent":null,"parameters":[]}],"repeat":false,"skippable":false,"wait":false}]},{"code":505,"indent":1,"parameters":[{"code":16,"indent":null,"parameters":[]}]},{"code":205,"indent":1,"parameters":[26,{"list":[{"code":16,"indent":null,"parameters":[]},{"code":0,"indent":null,"parameters":[]}],"repeat":false,"skippable":false,"wait":false}]},{"code":505,"indent":1,"parameters":[{"code":16,"indent":null,"parameters":[]}]},{"code":213,"indent":1,"parameters":[24,1,false]},{"code":213,"indent":1,"parameters":[25,1,false]},{"code":213,"indent":1,"parameters":[26,1,true]},{"code":101,"indent":1,"parameters":["Succubus emo",3,0,2]},{"code":401,"indent":1,"parameters":["Humans? In here?"]},{"code":101,"indent":1,"parameters":["Succubus2 emo",4,0,2]},{"code":401,"indent":1,"parameters":["Please let us fuck you! We won't kill you or anything!"]},{"code":250,"indent":1,"parameters":[{"name":"Stare","pan":0,"pitch":50,"volume":80}]},{"code":101,"indent":1,"parameters":["face002b dark",0,0,2]},{"code":401,"indent":1,"parameters":["..."]},{"code":101,"indent":1,"parameters":["Succubus2 emo",3,0,2]},{"code":401,"indent":1,"parameters":["Whoa!"]},{"code":101,"indent":1,"parameters":["Succubus emo",0,0,2]},{"code":401,"indent":1,"parameters":["Then Riala's plan worked. I'm... surprised."]},{"code":101,"indent":1,"parameters":["face002b",0,0,2]},{"code":401,"indent":1,"parameters":["Would you agree to fight for me if I asked?"]},{"code":101,"indent":1,"parameters":["Succubus2 emo",1,0,2]},{"code":401,"indent":1,"parameters":["Why not? We're basically helpless without a leader."]},{"code":101,"indent":1,"parameters":["Succubus emo",0,0,2]},{"code":401,"indent":1,"parameters":["I'm not convinced... but I'd vote to give it a try."]},{"code":101,"indent":1,"parameters":["face002b",0,0,2]},{"code":401,"indent":1,"parameters":["Thank you."]},{"code":101,"indent":1,"parameters":["Aka emo",0,0,2]},{"code":401,"indent":1,"parameters":["Who knew just TALKING to succubi could be so effective?"]},{"code":101,"indent":1,"parameters":["Yarra emo2",0,0,2]},{"code":401,"indent":1,"parameters":["Well, the \"soul of a fallen god of lust\" thing helps."]},{"code":122,"indent":1,"parameters":[30,30,1,0,3]},{"code":0,"indent":1,"parameters":[]},{"code":411,"indent":0,"parameters":[]},{"code":250,"indent":1,"parameters":[{"name":"Close2","pan":0,"pitch":100,"volume":80}]},{"code":0,"indent":1,"parameters":[]},{"code":412,"indent":0,"parameters":[]},{"code":0,"indent":0,"parameters":[]}]},{"conditions":{"actorId":1,"actorValid":false,"itemId":1,"itemValid":false,"selfSwitchCh":"A","selfSwitchValid":true,"switch1Id":1,"switch1Valid":false,"switch2Id":1,"switch2Valid":false,"variableId":1,"variableValid":false,"variableValue":0},"directionFix":false,"image":{"tileId":0,"characterName":"","direction":2,"pattern":0,"characterIndex":0},"moveFrequency":3,"moveRoute":{"list":[{"code":0,"indent":null,"parameters":[]}],"repeat":true,"skippable":false,"wait":false},"moveSpeed":3,"moveType":0,"priorityType":0,"stepAnime":false,"through":false,"trigger":0,"walkAnime":true,"list":[{"code":0,"indent":0,"parameters":[]}]}],"x":7,"y":15},{"id":2,"name":"EV002","note":"","pages":[{"conditions":{"actorId":1,"actorValid":false,"itemId":1,"itemValid":false,"selfSwitchCh":"A","selfSwitchValid":false,"switch1Id":1,"switch1Valid":false,"switch2Id":1,"switch2Valid":false,"variableId":1,"variableValid":false,"variableValue":0},"directionFix":false,"image":{"tileId":0,"characterName":"","direction":2,"pattern":0,"characterIndex":0},"moveFrequency":3,"moveRoute":{"list":[{"code":0,"indent":null,"parameters":[]}],"repeat":true,"skippable":false,"wait":false},"moveSpeed":3,"moveType":0,"priorityType":0,"stepAnime":false,"through":false,"trigger":1,"walkAnime":true,"list":[{"code":250,"indent":0,"parameters":[{"name":"Move","pan":0,"pitch":100,"volume":80}]},{"code":201,"indent":0,"parameters":[0,6,33,9,2,0]},{"code":0,"indent":0,"parameters":[]}]},{"conditions":{"actorId":1,"actorValid":false,"itemId":1,"itemValid":false,"selfSwitchCh":"A","selfSwitchValid":false,"switch1Id":248,"switch1Valid":true,"switch2Id":1,"switch2Valid":false,"variableId":1,"variableValid":false,"variableValue":0},"directionFix":false,"image":{"tileId":0,"characterName":"","direction":2,"pattern":0,"characterIndex":0},"moveFrequency":3,"moveRoute":{"list":[{"code":0,"indent":null,"parameters":[]}],"repeat":true,"skippable":false,"wait":false},"moveSpeed":3,"moveType":0,"priorityType":0,"stepAnime":false,"through":false,"trigger":1,"walkAnime":true,"list":[{"code":101,"indent":0,"parameters":["face002b",0,0,2]},{"code":401,"indent":0,"parameters":["We have Altina, but are we done here?"]},{"code":102,"indent":0,"parameters":[["Yes", "No"],1,0,2,0]},{"code":402,"indent":0,"parameters":[0,"Yes"]},{"code":250,"indent":1,"parameters":[{"name":"Move","pan":0,"pitch":100,"volume":80}]},{"code":201,"indent":1,"parameters":[0,6,33,9,2,0]},{"code":0,"indent":1,"parameters":[]},{"code":402,"indent":0,"parameters":[1,"No"]},{"code":205,"indent":1,"parameters":[-1,{"list":[{"code":4,"indent":null,"parameters":[]},{"code":0,"indent":null,"parameters":[]}],"repeat":false,"skippable":false,"wait":true}]},{"code":505,"indent":1,"parameters":[{"code":4,"indent":null,"parameters":[]}]},{"code":0,"indent":1,"parameters":[]},{"code":404,"indent":0,"parameters":[]},{"code":0,"indent":0,"parameters":[]}]}],"x":14,"y":24},{"id":3,"name":"EV003","note":"","pages":[{"conditions":{"actorId":1,"actorValid":false,"itemId":1,"itemValid":false,"selfSwitchCh":"A","selfSwitchValid":false,"switch1Id":1,"switch1Valid":false,"switch2Id":1,"switch2Valid":false,"variableId":1,"variableValid":false,"variableValue":0},"directionFix":false,"image":{"tileId":0,"characterName":"Monster1","direction":2,"pattern":1,"characterIndex":2},"moveFrequency":3,"moveRoute":{"list":[{"code":0,"indent":null,"parameters":[]}],"repeat":true,"skippable":false,"wait":false},"moveSpeed":5,"moveType":1,"priorityType":1,"stepAnime":false,"through":false,"trigger":0,"walkAnime":true,"list":[{"code":301,"indent":0,"parameters":[0,4,false,false]},{"code":123,"indent":0,"parameters":["A",0]},{"code":101,"indent":0,"parameters":["",0,0,2]},{"code":401,"indent":0,"parameters":["The blessing of Ivala grants you 2000 "]},{"code":401,"indent":0,"parameters":["extra experience!"]},{"code":315,"indent":0,"parameters":[0,1,0,0,2000,true]},{"code":101,"indent":0,"parameters":["",0,0,2]},{"code":401,"indent":0,"parameters":["Altina received 500. <br>"]},{"code":401,"indent":0,"parameters":["Simon received 2."]},{"code":315,"indent":0,"parameters":[0,3,0,0,500,true]},{"code":315,"indent":0,"parameters":[0,2,0,0,2,true]},{"code":0,"indent":0,"parameters":[]}]},{"conditions":{"actorId":1,"actorValid":false,"itemId":1,"itemValid":false,"selfSwitchCh":"A","selfSwitchValid":true,"switch1Id":1,"switch1Valid":false,"switch2Id":1,"switch2Valid":false,"variableId":1,"variableValid":false,"variableValue":0},"directionFix":false,"image":{"tileId":0,"characterName":"","direction":2,"pattern":0,"characterIndex":0},"moveFrequency":3,"moveRoute":{"list":[{"code":0,"indent":null,"parameters":[]}],"repeat":true,"skippable":false,"wait":false},"moveSpeed":3,"moveType":0,"priorityType":0,"stepAnime":false,"through":false,"trigger":0,"walkAnime":true,"list":[{"code":0,"indent":0,"parameters":[]}]},{"conditions":{"actorId":1,"actorValid":false,"itemId":1,"itemValid":false,"selfSwitchCh":"A","selfSwitchValid":false,"switch1Id":217,"switch1Valid":true,"switch2Id":1,"switch2Valid":false,"variableId":1,"variableValid":false,"variableValue":0},"directionFix":false,"image":{"tileId":0,"characterName":"","direction":2,"pattern":0,"characterIndex":0},"moveFrequency":3,"moveRoute":{"list":[{"code":0,"indent":null,"parameters":[]}],"repeat":true,"skippable":false,"wait":false},"moveSpeed":3,"moveType":0,"priorityType":0,"stepAnime":false,"through":false,"trigger":0,"walkAnime":true,"list":[{"code":0,"indent":0,"parameters":[]}]}],"x":16,"y":15},{"id":4,"name":"Torch","note":"","pages":[{"conditions":{"actorId":1,"actorValid":false,"itemId":1,"itemValid":false,"selfSwitchCh":"A","selfSwitchValid":false,"switch1Id":1,"switch1Valid":false,"switch2Id":1,"switch2Valid":false,"variableId":1,"variableValid":false,"variableValue":0},"directionFix":true,"image":{"tileId":0,"characterName":"!Other2","direction":6,"pattern":0,"characterIndex":7},"moveFrequency":3,"moveRoute":{"list":[{"code":0,"indent":null,"parameters":[]}],"repeat":true,"skippable":false,"wait":false},"moveSpeed":3,"moveType":0,"priorityType":1,"stepAnime":true,"through":false,"trigger":0,"walkAnime":true,"list":[{"code":0,"indent":0,"parameters":[]}]}],"x":15,"y":11},{"id":5,"name":"Torch","note":"","pages":[{"conditions":{"actorId":1,"actorValid":false,"itemId":1,"itemValid":false,"selfSwitchCh":"A","selfSwitchValid":false,"switch1Id":1,"switch1Valid":false,"switch2Id":1,"switch2Valid":false,"variableId":1,"variableValid":false,"variableValue":0},"directionFix":true,"image":{"tileId":0,"characterName":"!Other2","direction":6,"pattern":0,"characterIndex":7},"moveFrequency":3,"moveRoute":{"list":[{"code":0,"indent":null,"parameters":[]}],"repeat":true,"skippable":false,"wait":false},"moveSpeed":3,"moveType":0,"priorityType":1,"stepAnime":true,"through":false,"trigger":0,"walkAnime":true,"list":[{"code":0,"indent":0,"parameters":[]}]}],"x":13,"y":11},{"id":6,"name":"Torch","note":"","pages":[{"conditions":{"actorId":1,"actorValid":false,"itemId":1,"itemValid":false,"selfSwitchCh":"A","selfSwitchValid":false,"switch1Id":1,"switch1Valid":false,"switch2Id":1,"switch2Valid":false,"variableId":1,"variableValid":false,"variableValue":0},"directionFix":true,"image":{"tileId":0,"characterName":"!Other2","direction":6,"pattern":0,"characterIndex":7},"moveFrequency":3,"moveRoute":{"list":[{"code":0,"indent":null,"parameters":[]}],"repeat":true,"skippable":false,"wait":false},"moveSpeed":3,"moveType":0,"priorityType":1,"stepAnime":true,"through":false,"trigger":0,"walkAnime":true,"list":[{"code":0,"indent":0,"parameters":[]}]}],"x":15,"y":19},{"id":7,"name":"Torch","note":"","pages":[{"conditions":{"actorId":1,"actorValid":false,"itemId":1,"itemValid":false,"selfSwitchCh":"A","selfSwitchValid":false,"switch1Id":1,"switch1Valid":false,"switch2Id":1,"switch2Valid":false,"variableId":1,"variableValid":false,"variableValue":0},"directionFix":true,"image":{"tileId":0,"characterName":"!Other2","direction":6,"pattern":0,"characterIndex":7},"moveFrequency":3,"moveRoute":{"list":[{"code":0,"indent":null,"parameters":[]}],"repeat":true,"skippable":false,"wait":false},"moveSpeed":3,"moveType":0,"priorityType":1,"stepAnime":true,"through":false,"trigger":0,"walkAnime":true,"list":[{"code":0,"indent":0,"parameters":[]}]}],"x":13,"y":19},{"id":8,"name":"Torch","note":"","pages":[{"conditions":{"actorId":1,"actorValid":false,"itemId":1,"itemValid":false,"selfSwitchCh":"A","selfSwitchValid":false,"switch1Id":1,"switch1Valid":false,"switch2Id":1,"switch2Valid":false,"variableId":1,"variableValid":false,"variableValue":0},"directionFix":true,"image":{"tileId":0,"characterName":"!Other2","direction":6,"pattern":0,"characterIndex":7},"moveFrequency":3,"moveRoute":{"list":[{"code":0,"indent":null,"parameters":[]}],"repeat":true,"skippable":false,"wait":false},"moveSpeed":3,"moveType":0,"priorityType":1,"stepAnime":true,"through":false,"trigger":0,"walkAnime":true,"list":[{"code":0,"indent":0,"parameters":[]}]}],"x":9,"y":16},{"id":9,"name":"Torch","note":"","pages":[{"conditions":{"actorId":1,"actorValid":false,"itemId":1,"itemValid":false,"selfSwitchCh":"A","selfSwitchValid":false,"switch1Id":1,"switch1Valid":false,"switch2Id":1,"switch2Valid":false,"variableId":1,"variableValid":false,"variableValue":0},"directionFix":true,"image":{"tileId":0,"characterName":"!Other2","direction":6,"pattern":0,"characterIndex":7},"moveFrequency":3,"moveRoute":{"list":[{"code":0,"indent":null,"parameters":[]}],"repeat":true,"skippable":false,"wait":false},"moveSpeed":3,"moveType":0,"priorityType":1,"stepAnime":true,"through":false,"trigger":0,"walkAnime":true,"list":[{"code":0,"indent":0,"parameters":[]}]}],"x":19,"y":16},{"id":10,"name":"EV010","note":"","pages":[{"conditions":{"actorId":1,"actorValid":false,"itemId":1,"itemValid":false,"selfSwitchCh":"A","selfSwitchValid":false,"switch1Id":1,"switch1Valid":false,"switch2Id":1,"switch2Valid":false,"variableId":1,"variableValid":false,"variableValue":0},"directionFix":true,"image":{"tileId":0,"characterName":"!Door2","direction":2,"pattern":0,"characterIndex":0},"moveFrequency":3,"moveRoute":{"list":[{"code":0,"indent":null,"parameters":[]}],"repeat":true,"skippable":false,"wait":false},"moveSpeed":3,"moveType":0,"priorityType":1,"stepAnime":false,"through":false,"trigger":0,"walkAnime":false,"list":[{"code":111,"indent":0,"parameters":[0,245,0]},{"code":250,"indent":1,"parameters":[{"name":"Close2","pan":0,"pitch":100,"volume":80}]},{"code":123,"indent":1,"parameters":["A",0]},{"code":0,"indent":1,"parameters":[]},{"code":411,"indent":0,"parameters":[]},{"code":250,"indent":1,"parameters":[{"name":"Close2","pan":0,"pitch":100,"volume":80}]},{"code":0,"indent":1,"parameters":[]},{"code":412,"indent":0,"parameters":[]},{"code":0,"indent":0,"parameters":[]}]},{"conditions":{"actorId":1,"actorValid":false,"itemId":1,"itemValid":false,"selfSwitchCh":"A","selfSwitchValid":true,"switch1Id":1,"switch1Valid":false,"switch2Id":1,"switch2Valid":false,"variableId":1,"variableValid":false,"variableValue":0},"directionFix":false,"image":{"tileId":0,"characterName":"","direction":2,"pattern":0,"characterIndex":0},"moveFrequency":3,"moveRoute":{"list":[{"code":0,"indent":null,"parameters":[]}],"repeat":true,"skippable":false,"wait":false},"moveSpeed":3,"moveType":0,"priorityType":0,"stepAnime":false,"through":false,"trigger":0,"walkAnime":true,"list":[{"code":0,"indent":0,"parameters":[]}]}],"x":21,"y":20},{"id":11,"name":"EV011","note":"","pages":[{"conditions":{"actorId":1,"actorValid":false,"itemId":1,"itemValid":false,"selfSwitchCh":"A","selfSwitchValid":false,"switch1Id":1,"switch1Valid":false,"switch2Id":1,"switch2Valid":false,"variableId":1,"variableValid":false,"variableValue":0},"directionFix":false,"image":{"tileId":0,"characterName":"$nunorc","direction":2,"pattern":0,"characterIndex":0},"moveFrequency":5,"moveRoute":{"list":[{"code":15,"indent":null,"parameters":[5]},{"code":16,"indent":null,"parameters":[]},{"code":15,"indent":null,"parameters":[5]},{"code":17,"indent":null,"parameters":[]},{"code":15,"indent":null,"parameters":[5]},{"code":18,"indent":null,"parameters":[]},{"code":15,"indent":null,"parameters":[5]},{"code":19,"indent":null,"parameters":[]},{"code":0,"indent":null,"parameters":[]}],"repeat":true,"skippable":false,"wait":false},"moveSpeed":3,"moveType":3,"priorityType":1,"stepAnime":false,"through":false,"trigger":0,"walkAnime":true,"list":[{"code":0,"indent":0,"parameters":[]}]},{"conditions":{"actorId":1,"actorValid":false,"itemId":1,"itemValid":false,"selfSwitchCh":"A","selfSwitchValid":false,"switch1Id":247,"switch1Valid":true,"switch2Id":1,"switch2Valid":false,"variableId":1,"variableValid":false,"variableValue":0},"directionFix":false,"image":{"tileId":0,"characterName":"Monster1","direction":6,"pattern":1,"characterIndex":2},"moveFrequency":3,"moveRoute":{"list":[{"code":0,"indent":null,"parameters":[]}],"repeat":true,"skippable":false,"wait":false},"moveSpeed":3,"moveType":1,"priorityType":1,"stepAnime":false,"through":false,"trigger":0,"walkAnime":true,"list":[{"code":101,"indent":0,"parameters":["Monster1",2,0,2]},{"code":401,"indent":0,"parameters":["Obey... Master..."]},{"code":0,"indent":0,"parameters":[]}]}],"x":7,"y":22},{"id":12,"name":"EV012","note":"","pages":[{"conditions":{"actorId":1,"actorValid":false,"itemId":1,"itemValid":false,"selfSwitchCh":"A","selfSwitchValid":false,"switch1Id":1,"switch1Valid":false,"switch2Id":1,"switch2Valid":false,"variableId":1,"variableValid":false,"variableValue":0},"directionFix":true,"image":{"tileId":0,"characterName":"!Chest","direction":2,"pattern":0,"characterIndex":0},"moveFrequency":3,"moveRoute":{"list":[{"code":0,"indent":null,"parameters":[]}],"repeat":true,"skippable":false,"wait":false},"moveSpeed":3,"moveType":0,"priorityType":1,"stepAnime":false,"through":false,"trigger":0,"walkAnime":false,"list":[{"code":250,"indent":0,"parameters":[{"name":"Chest","pan":0,"pitch":100,"volume":80}]},{"code":205,"indent":0,"parameters":[0,{"list":[{"code":36,"indent":null,"parameters":[]},{"code":17,"indent":null,"parameters":[]},{"code":15,"indent":null,"parameters":[3]},{"code":18,"indent":null,"parameters":[]},{"code":15,"indent":null,"parameters":[3]},{"code":0,"indent":null,"parameters":[]}],"repeat":false,"skippable":false,"wait":true}]},{"code":505,"indent":0,"parameters":[{"code":36,"indent":null,"parameters":[]}]},{"code":505,"indent":0,"parameters":[{"code":17,"indent":null,"parameters":[]}]},{"code":505,"indent":0,"parameters":[{"code":15,"indent":null,"parameters":[3]}]},{"code":505,"indent":0,"parameters":[{"code":18,"indent":null,"parameters":[]}]},{"code":505,"indent":0,"parameters":[{"code":15,"indent":null,"parameters":[3]}]},{"code":123,"indent":0,"parameters":["A",0]},{"code":101,"indent":0,"parameters":["",0,0,2]},{"code":401,"indent":0,"parameters":["You find a Magic Orb!"]},{"code":128,"indent":0,"parameters":[20,0,0,1,false]},{"code":0,"indent":0,"parameters":[]}]},{"conditions":{"actorId":1,"actorValid":false,"itemId":1,"itemValid":false,"selfSwitchCh":"A","selfSwitchValid":true,"switch1Id":1,"switch1Valid":false,"switch2Id":1,"switch2Valid":false,"variableId":1,"variableValid":false,"variableValue":0},"directionFix":true,"image":{"tileId":0,"characterName":"!Chest","direction":8,"pattern":0,"characterIndex":0},"moveFrequency":3,"moveRoute":{"list":[{"code":0,"indent":null,"parameters":[]}],"repeat":true,"skippable":false,"wait":false},"moveSpeed":3,"moveType":0,"priorityType":1,"stepAnime":false,"through":false,"trigger":0,"walkAnime":false,"list":[{"code":0,"indent":0,"parameters":[]}]},{"conditions":{"actorId":1,"actorValid":false,"itemId":1,"itemValid":false,"selfSwitchCh":"A","selfSwitchValid":false,"switch1Id":217,"switch1Valid":true,"switch2Id":1,"switch2Valid":false,"variableId":1,"variableValid":false,"variableValue":0},"directionFix":false,"image":{"tileId":0,"characterName":"","direction":2,"pattern":0,"characterIndex":0},"moveFrequency":3,"moveRoute":{"list":[{"code":0,"indent":null,"parameters":[]}],"repeat":true,"skippable":false,"wait":false},"moveSpeed":3,"moveType":0,"priorityType":0,"stepAnime":false,"through":false,"trigger":0,"walkAnime":true,"list":[{"code":0,"indent":0,"parameters":[]}]}],"x":21,"y":9},{"id":13,"name":"Succubus","note":"","pages":[{"conditions":{"actorId":1,"actorValid":false,"itemId":1,"itemValid":false,"selfSwitchCh":"A","selfSwitchValid":false,"switch1Id":1,"switch1Valid":false,"switch2Id":1,"switch2Valid":false,"variableId":1,"variableValid":false,"variableValue":0},"directionFix":false,"image":{"tileId":0,"characterName":"Monster2","direction":8,"pattern":1,"characterIndex":3},"moveFrequency":3,"moveRoute":{"list":[{"code":0,"indent":null,"parameters":[]}],"repeat":true,"skippable":false,"wait":false},"moveSpeed":3,"moveType":0,"priorityType":1,"stepAnime":false,"through":false,"trigger":0,"walkAnime":true,"list":[{"code":101,"indent":0,"parameters":["Succubus emo",6,0,2]},{"code":401,"indent":0,"parameters":["Aww, are you here to play with me?"]},{"code":301,"indent":0,"parameters":[0,5,false,false]},{"code":121,"indent":0,"parameters":[22,22,0]},{"code":123,"indent":0,"parameters":["A",0]},{"code":101,"indent":0,"parameters":["",0,0,2]},{"code":401,"indent":0,"parameters":["The blessing of Ivala grants you 2000 "]},{"code":401,"indent":0,"parameters":["extra experience!"]},{"code":315,"indent":0,"parameters":[0,1,0,0,2000,true]},{"code":101,"indent":0,"parameters":["",0,0,2]},{"code":401,"indent":0,"parameters":["Altina received 500. <br>"]},{"code":401,"indent":0,"parameters":["Simon received 2."]},{"code":315,"indent":0,"parameters":[0,3,0,0,500,true]},{"code":315,"indent":0,"parameters":[0,2,0,0,2,true]},{"code":0,"indent":0,"parameters":[]}]},{"conditions":{"actorId":1,"actorValid":false,"itemId":1,"itemValid":false,"selfSwitchCh":"A","selfSwitchValid":false,"switch1Id":22,"switch1Valid":true,"switch2Id":1,"switch2Valid":false,"variableId":1,"variableValid":false,"variableValue":0},"directionFix":false,"image":{"tileId":0,"characterName":"","direction":2,"pattern":0,"characterIndex":0},"moveFrequency":3,"moveRoute":{"list":[{"code":0,"indent":null,"parameters":[]}],"repeat":true,"skippable":false,"wait":false},"moveSpeed":3,"moveType":0,"priorityType":0,"stepAnime":false,"through":false,"trigger":0,"walkAnime":true,"list":[{"code":0,"indent":0,"parameters":[]}]},{"conditions":{"actorId":1,"actorValid":false,"itemId":1,"itemValid":false,"selfSwitchCh":"A","selfSwitchValid":false,"switch1Id":217,"switch1Valid":true,"switch2Id":1,"switch2Valid":false,"variableId":1,"variableValid":false,"variableValue":0},"directionFix":false,"image":{"tileId":0,"characterName":"","direction":2,"pattern":0,"characterIndex":0},"moveFrequency":3,"moveRoute":{"list":[{"code":0,"indent":null,"parameters":[]}],"repeat":true,"skippable":false,"wait":false},"moveSpeed":3,"moveType":0,"priorityType":0,"stepAnime":false,"through":false,"trigger":0,"walkAnime":true,"list":[{"code":0,"indent":0,"parameters":[]}]}],"x":20,"y":10},{"id":14,"name":"EV014","note":"","pages":[{"conditions":{"actorId":1,"actorValid":false,"itemId":1,"itemValid":false,"selfSwitchCh":"A","selfSwitchValid":false,"switch1Id":1,"switch1Valid":false,"switch2Id":1,"switch2Valid":false,"variableId":1,"variableValid":false,"variableValue":0},"directionFix":false,"image":{"tileId":0,"characterName":"","direction":2,"pattern":0,"characterIndex":0},"moveFrequency":3,"moveRoute":{"list":[{"code":0,"indent":null,"parameters":[]}],"repeat":true,"skippable":false,"wait":false},"moveSpeed":3,"moveType":0,"priorityType":0,"stepAnime":false,"through":false,"trigger":1,"walkAnime":true,"list":[{"code":205,"indent":0,"parameters":[13,{"list":[{"code":18,"indent":null,"parameters":[]},{"code":0,"indent":null,"parameters":[]}],"repeat":false,"skippable":false,"wait":true}]},{"code":505,"indent":0,"parameters":[{"code":18,"indent":null,"parameters":[]}]},{"code":101,"indent":0,"parameters":["Succubus emo",6,0,2]},{"code":401,"indent":0,"parameters":["Aww, are you here to play with my toys?"]},{"code":301,"indent":0,"parameters":[0,5,false,false]},{"code":121,"indent":0,"parameters":[22,22,0]},{"code":123,"indent":0,"parameters":["A",0]},{"code":101,"indent":0,"parameters":["",0,0,2]},{"code":401,"indent":0,"parameters":["The blessing of Ivala grants you 2000 "]},{"code":401,"indent":0,"parameters":["extra experience!"]},{"code":315,"indent":0,"parameters":[0,1,0,0,2000,true]},{"code":101,"indent":0,"parameters":["",0,0,2]},{"code":401,"indent":0,"parameters":["Altina received 500. <br>"]},{"code":401,"indent":0,"parameters":["Simon received 2."]},{"code":315,"indent":0,"parameters":[0,3,0,0,500,true]},{"code":315,"indent":0,"parameters":[0,2,0,0,2,true]},{"code":314,"indent":0,"parameters":[0,1]},{"code":0,"indent":0,"parameters":[]}]},{"conditions":{"actorId":1,"actorValid":false,"itemId":1,"itemValid":false,"selfSwitchCh":"A","selfSwitchValid":false,"switch1Id":22,"switch1Valid":true,"switch2Id":1,"switch2Valid":false,"variableId":1,"variableValid":false,"variableValue":0},"directionFix":false,"image":{"tileId":0,"characterName":"","direction":2,"pattern":0,"characterIndex":0},"moveFrequency":3,"moveRoute":{"list":[{"code":0,"indent":null,"parameters":[]}],"repeat":true,"skippable":false,"wait":false},"moveSpeed":3,"moveType":0,"priorityType":0,"stepAnime":false,"through":false,"trigger":0,"walkAnime":true,"list":[{"code":0,"indent":0,"parameters":[]}]},{"conditions":{"actorId":1,"actorValid":false,"itemId":1,"itemValid":false,"selfSwitchCh":"A","selfSwitchValid":false,"switch1Id":217,"switch1Valid":true,"switch2Id":1,"switch2Valid":false,"variableId":1,"variableValid":false,"variableValue":0},"directionFix":false,"image":{"tileId":0,"characterName":"","direction":2,"pattern":0,"characterIndex":0},"moveFrequency":3,"moveRoute":{"list":[{"code":0,"indent":null,"parameters":[]}],"repeat":true,"skippable":false,"wait":false},"moveSpeed":3,"moveType":0,"priorityType":0,"stepAnime":false,"through":false,"trigger":0,"walkAnime":true,"list":[{"code":0,"indent":0,"parameters":[]}]}],"x":21,"y":10},{"id":15,"name":"EV015","note":"","pages":[{"conditions":{"actorId":1,"actorValid":false,"itemId":1,"itemValid":false,"selfSwitchCh":"A","selfSwitchValid":false,"switch1Id":1,"switch1Valid":false,"switch2Id":1,"switch2Valid":false,"variableId":1,"variableValid":false,"variableValue":0},"directionFix":false,"image":{"tileId":0,"characterName":"","direction":2,"pattern":0,"characterIndex":0},"moveFrequency":3,"moveRoute":{"list":[{"code":0,"indent":null,"parameters":[]}],"repeat":true,"skippable":false,"wait":false},"moveSpeed":3,"moveType":0,"priorityType":0,"stepAnime":false,"through":false,"trigger":1,"walkAnime":true,"list":[{"code":123,"indent":0,"parameters":["A",0]},{"code":101,"indent":0,"parameters":["MainActor1-1fs",3,0,2]},{"code":401,"indent":0,"parameters":["Oh! Oh my!"]},{"code":101,"indent":0,"parameters":["MainActor1-3fs",2,0,2]},{"code":401,"indent":0,"parameters":["Is the entire tower filled with sex slaves?"]},{"code":101,"indent":0,"parameters":["face002b",0,0,2]},{"code":401,"indent":0,"parameters":["They usually have a place for weaker soldiers to slake their lusts, yes."]},{"code":101,"indent":0,"parameters":["MainActor1-3fs",0,0,2]},{"code":401,"indent":0,"parameters":["..."]},{"code":102,"indent":0,"parameters":[["Not my problem.", "Is there anything we can do to help them?", "Let's join in!"],-1,0,2,0]},{"code":402,"indent":0,"parameters":[0,"Not my problem."]},{"code":101,"indent":1,"parameters":["MainActor1-1fs",7,0,2]},{"code":401,"indent":1,"parameters":["You don't want to help them?"]},{"code":101,"indent":1,"parameters":["face002b",0,0,2]},{"code":401,"indent":1,"parameters":["It sounds heartless, but the most important thing we can do for them is take down this castle."]},{"code":101,"indent":1,"parameters":["MainActor1-3fs",0,0,2]},{"code":401,"indent":1,"parameters":["..."]},{"code":0,"indent":1,"parameters":[]},{"code":402,"indent":0,"parameters":[1,"Is there anything we can do to help them?"]},{"code":101,"indent":1,"parameters":["face002b",0,0,2]},{"code":401,"indent":1,"parameters":["It would be foolish to walk in there with only three of us. If we slay the leaders, however, we can scatter the rest and rescue the women later."]},{"code":0,"indent":1,"parameters":[]},{"code":402,"indent":0,"parameters":[2,"Let's join in!"]},{"code":101,"indent":1,"parameters":["MainActor1-1fs",3,0,2]},{"code":401,"indent":1,"parameters":["!!!"]},{"code":101,"indent":1,"parameters":["face002b",0,0,2]},{"code":401,"indent":1,"parameters":["I see you're not joking. That's a very bad idea."]},{"code":101,"indent":1,"parameters":["MainActor1-3fs",4,0,2]},{"code":401,"indent":1,"parameters":["Who's the Chosen here, you or me?"]},{"code":101,"indent":1,"parameters":["face002b",2,0,2]},{"code":401,"indent":1,"parameters":["..."]},{"code":101,"indent":1,"parameters":["MainActor1-3fs",1,0,2]},{"code":401,"indent":1,"parameters":["Fuck yeah, let's do this!"]},{"code":101,"indent":1,"parameters":["MainActor1-1fs",3,0,2]},{"code":401,"indent":1,"parameters":["Kai, no! You can't!"]},{"code":101,"indent":1,"parameters":["MainActor1-3fs",7,0,2]},{"code":401,"indent":1,"parameters":["...fine."]},{"code":0,"indent":1,"parameters":[]},{"code":404,"indent":0,"parameters":[]},{"code":205,"indent":0,"parameters":[-1,{"list":[{"code":4,"indent":null,"parameters":[]},{"code":0,"indent":null,"parameters":[]}],"repeat":false,"skippable":false,"wait":true}]},{"code":505,"indent":0,"parameters":[{"code":4,"indent":null,"parameters":[]}]},{"code":0,"indent":0,"parameters":[]}]},{"conditions":{"actorId":1,"actorValid":false,"itemId":1,"itemValid":false,"selfSwitchCh":"A","selfSwitchValid":true,"switch1Id":1,"switch1Valid":false,"switch2Id":1,"switch2Valid":false,"variableId":1,"variableValid":false,"variableValue":0},"directionFix":false,"image":{"tileId":0,"characterName":"","direction":2,"pattern":0,"characterIndex":0},"moveFrequency":3,"moveRoute":{"list":[{"code":0,"indent":null,"parameters":[]}],"repeat":true,"skippable":false,"wait":false},"moveSpeed":3,"moveType":0,"priorityType":0,"stepAnime":false,"through":false,"trigger":1,"walkAnime":true,"list":[{"code":101,"indent":0,"parameters":["face002b",0,0,2]},{"code":401,"indent":0,"parameters":["We're done here."]},{"code":205,"indent":0,"parameters":[-1,{"list":[{"code":4,"indent":null,"parameters":[]},{"code":0,"indent":null,"parameters":[]}],"repeat":false,"skippable":false,"wait":true}]},{"code":505,"indent":0,"parameters":[{"code":4,"indent":null,"parameters":[]}]},{"code":0,"indent":0,"parameters":[]}]},{"conditions":{"actorId":1,"actorValid":false,"itemId":1,"itemValid":false,"selfSwitchCh":"A","selfSwitchValid":false,"switch1Id":217,"switch1Valid":true,"switch2Id":1,"switch2Valid":false,"variableId":1,"variableValid":false,"variableValue":0},"directionFix":false,"image":{"tileId":0,"characterName":"","direction":2,"pattern":0,"characterIndex":0},"moveFrequency":3,"moveRoute":{"list":[{"code":0,"indent":null,"parameters":[]}],"repeat":true,"skippable":false,"wait":false},"moveSpeed":3,"moveType":0,"priorityType":0,"stepAnime":false,"through":false,"trigger":0,"walkAnime":true,"list":[{"code":0,"indent":0,"parameters":[]}]}],"x":7,"y":19},{"id":16,"name":"EV016","note":"","pages":[{"conditions":{"actorId":1,"actorValid":false,"itemId":1,"itemValid":false,"selfSwitchCh":"A","selfSwitchValid":false,"switch1Id":1,"switch1Valid":false,"switch2Id":1,"switch2Valid":false,"variableId":1,"variableValid":false,"variableValue":0},"directionFix":false,"image":{"tileId":0,"characterName":"!Door1","direction":2,"pattern":0,"characterIndex":6},"moveFrequency":3,"moveRoute":{"list":[{"code":0,"indent":null,"parameters":[]}],"repeat":true,"skippable":false,"wait":false},"moveSpeed":3,"moveType":0,"priorityType":1,"stepAnime":false,"through":false,"trigger":1,"walkAnime":false,"list":[{"code":250,"indent":0,"parameters":[{"name":"Open1","pan":0,"pitch":100,"volume":80}]},{"code":205,"indent":0,"parameters":[0,{"list":[{"code":17,"indent":null,"parameters":[]},{"code":15,"indent":null,"parameters":[3]},{"code":18,"indent":null,"parameters":[]},{"code":15,"indent":null,"parameters":[3]},{"code":19,"indent":null,"parameters":[]},{"code":37,"indent":null,"parameters":[]},{"code":0,"indent":null,"parameters":[]}],"repeat":false,"skippable":false,"wait":true}]},{"code":505,"indent":0,"parameters":[{"code":17,"indent":null,"parameters":[]}]},{"code":505,"indent":0,"parameters":[{"code":15,"indent":null,"parameters":[3]}]},{"code":505,"indent":0,"parameters":[{"code":18,"indent":null,"parameters":[]}]},{"code":505,"indent":0,"parameters":[{"code":15,"indent":null,"parameters":[3]}]},{"code":505,"indent":0,"parameters":[{"code":19,"indent":null,"parameters":[]}]},{"code":505,"indent":0,"parameters":[{"code":37,"indent":null,"parameters":[]}]},{"code":250,"indent":0,"parameters":[{"name":"Heal1","pan":0,"pitch":100,"volume":80}]},{"code":101,"indent":0,"parameters":["",0,0,2]},{"code":401,"indent":0,"parameters":["The blessing of Ivala heals you and your allies!"]},{"code":314,"indent":0,"parameters":[0,0]},{"code":205,"indent":0,"parameters":[-1,{"list":[{"code":12,"indent":null,"parameters":[]},{"code":0,"indent":null,"parameters":[]}],"repeat":false,"skippable":true,"wait":true}]},{"code":505,"indent":0,"parameters":[{"code":12,"indent":null,"parameters":[]}]},{"code":250,"indent":0,"parameters":[{"name":"Move","pan":0,"pitch":100,"volume":80}]},{"code":201,"indent":0,"parameters":[0,4,8,15,0,0]},{"code":0,"indent":0,"parameters":[]}]},{"conditions":{"actorId":1,"actorValid":false,"itemId":1,"itemValid":false,"selfSwitchCh":"A","selfSwitchValid":false,"switch1Id":217,"switch1Valid":true,"switch2Id":1,"switch2Valid":false,"variableId":1,"variableValid":false,"variableValue":0},"directionFix":false,"image":{"tileId":0,"characterName":"!Door1","direction":2,"pattern":0,"characterIndex":6},"moveFrequency":3,"moveRoute":{"list":[{"code":0,"indent":null,"parameters":[]}],"repeat":true,"skippable":false,"wait":false},"moveSpeed":3,"moveType":0,"priorityType":1,"stepAnime":false,"through":false,"trigger":1,"walkAnime":false,"list":[{"code":250,"indent":0,"parameters":[{"name":"Open1","pan":0,"pitch":100,"volume":80}]},{"code":205,"indent":0,"parameters":[0,{"list":[{"code":17,"indent":null,"parameters":[]},{"code":15,"indent":null,"parameters":[3]},{"code":18,"indent":null,"parameters":[]},{"code":15,"indent":null,"parameters":[3]},{"code":19,"indent":null,"parameters":[]},{"code":37,"indent":null,"parameters":[]},{"code":0,"indent":null,"parameters":[]}],"repeat":false,"skippable":false,"wait":true}]},{"code":505,"indent":0,"parameters":[{"code":17,"indent":null,"parameters":[]}]},{"code":505,"indent":0,"parameters":[{"code":15,"indent":null,"parameters":[3]}]},{"code":505,"indent":0,"parameters":[{"code":18,"indent":null,"parameters":[]}]},{"code":505,"indent":0,"parameters":[{"code":15,"indent":null,"parameters":[3]}]},{"code":505,"indent":0,"parameters":[{"code":19,"indent":null,"parameters":[]}]},{"code":505,"indent":0,"parameters":[{"code":37,"indent":null,"parameters":[]}]},{"code":205,"indent":0,"parameters":[-1,{"list":[{"code":12,"indent":null,"parameters":[]},{"code":0,"indent":null,"parameters":[]}],"repeat":false,"skippable":true,"wait":true}]},{"code":505,"indent":0,"parameters":[{"code":12,"indent":null,"parameters":[]}]},{"code":250,"indent":0,"parameters":[{"name":"Move","pan":0,"pitch":100,"volume":80}]},{"code":201,"indent":0,"parameters":[0,4,8,15,0,0]},{"code":0,"indent":0,"parameters":[]}]}],"x":14,"y":9},{"id":17,"name":"EV017","note":"","pages":[{"conditions":{"actorId":1,"actorValid":false,"itemId":1,"itemValid":false,"selfSwitchCh":"A","selfSwitchValid":false,"switch1Id":1,"switch1Valid":false,"switch2Id":1,"switch2Valid":false,"variableId":1,"variableValid":false,"variableValue":0},"directionFix":false,"image":{"tileId":0,"characterName":"orc doggy","direction":2,"pattern":1,"characterIndex":1},"moveFrequency":5,"moveRoute":{"list":[{"code":15,"indent":null,"parameters":[10]},{"code":16,"indent":null,"parameters":[]},{"code":15,"indent":null,"parameters":[10]},{"code":17,"indent":null,"parameters":[]},{"code":15,"indent":null,"parameters":[10]},{"code":18,"indent":null,"parameters":[]},{"code":15,"indent":null,"parameters":[10]},{"code":19,"indent":null,"parameters":[]},{"code":0,"indent":null,"parameters":[]}],"repeat":true,"skippable":false,"wait":false},"moveSpeed":3,"moveType":3,"priorityType":1,"stepAnime":false,"through":false,"trigger":0,"walkAnime":true,"list":[{"code":0,"indent":0,"parameters":[]}]},{"conditions":{"actorId":1,"actorValid":false,"itemId":1,"itemValid":false,"selfSwitchCh":"A","selfSwitchValid":false,"switch1Id":247,"switch1Valid":true,"switch2Id":1,"switch2Valid":false,"variableId":1,"variableValid":false,"variableValue":0},"directionFix":false,"image":{"tileId":0,"characterName":"Monster1","direction":2,"pattern":1,"characterIndex":2},"moveFrequency":3,"moveRoute":{"list":[{"code":0,"indent":null,"parameters":[]}],"repeat":true,"skippable":false,"wait":false},"moveSpeed":3,"moveType":0,"priorityType":1,"stepAnime":false,"through":false,"trigger":0,"walkAnime":true,"list":[{"code":101,"indent":0,"parameters":["Monster1",2,0,2]},{"code":401,"indent":0,"parameters":["Obey... Master..."]},{"code":0,"indent":0,"parameters":[]}]}],"x":10,"y":21},{"id":18,"name":"EV018","note":"","pages":[{"conditions":{"actorId":1,"actorValid":false,"itemId":1,"itemValid":false,"selfSwitchCh":"A","selfSwitchValid":false,"switch1Id":1,"switch1Valid":false,"switch2Id":1,"switch2Valid":false,"variableId":1,"variableValid":false,"variableValue":0},"directionFix":false,"image":{"tileId":0,"characterName":"$orc missionary","direction":2,"pattern":1,"characterIndex":0},"moveFrequency":5,"moveRoute":{"list":[{"code":15,"indent":null,"parameters":[10]},{"code":16,"indent":null,"parameters":[]},{"code":15,"indent":null,"parameters":[10]},{"code":17,"indent":null,"parameters":[]},{"code":15,"indent":null,"parameters":[10]},{"code":18,"indent":null,"parameters":[]},{"code":15,"indent":null,"parameters":[10]},{"code":19,"indent":null,"parameters":[]},{"code":0,"indent":null,"parameters":[]}],"repeat":true,"skippable":false,"wait":false},"moveSpeed":3,"moveType":3,"priorityType":1,"stepAnime":false,"through":false,"trigger":0,"walkAnime":true,"list":[{"code":0,"indent":0,"parameters":[]}]},{"conditions":{"actorId":1,"actorValid":false,"itemId":1,"itemValid":false,"selfSwitchCh":"A","selfSwitchValid":false,"switch1Id":247,"switch1Valid":true,"switch2Id":1,"switch2Valid":false,"variableId":1,"variableValid":false,"variableValue":0},"directionFix":false,"image":{"tileId":0,"characterName":"Monster1","direction":8,"pattern":1,"characterIndex":2},"moveFrequency":3,"moveRoute":{"list":[{"code":0,"indent":null,"parameters":[]}],"repeat":true,"skippable":false,"wait":false},"moveSpeed":3,"moveType":0,"priorityType":1,"stepAnime":false,"through":false,"trigger":0,"walkAnime":true,"list":[{"code":101,"indent":0,"parameters":["Monster1",2,0,2]},{"code":401,"indent":0,"parameters":["Obey... Master..."]},{"code":0,"indent":0,"parameters":[]}]}],"x":9,"y":23},{"id":19,"name":"EV019","note":"","pages":[{"conditions":{"actorId":1,"actorValid":false,"itemId":1,"itemValid":false,"selfSwitchCh":"A","selfSwitchValid":false,"switch1Id":1,"switch1Valid":false,"switch2Id":1,"switch2Valid":false,"variableId":1,"variableValid":false,"variableValue":0},"directionFix":false,"image":{"tileId":0,"characterName":"$elf down","direction":2,"pattern":1,"characterIndex":0},"moveFrequency":3,"moveRoute":{"list":[{"code":0,"indent":null,"parameters":[]}],"repeat":true,"skippable":false,"wait":false},"moveSpeed":3,"moveType":0,"priorityType":1,"stepAnime":false,"through":false,"trigger":0,"walkAnime":true,"list":[{"code":0,"indent":0,"parameters":[]}]},{"conditions":{"actorId":1,"actorValid":false,"itemId":1,"itemValid":false,"selfSwitchCh":"A","selfSwitchValid":false,"switch1Id":247,"switch1Valid":true,"switch2Id":1,"switch2Valid":false,"variableId":1,"variableValid":false,"variableValue":0},"directionFix":false,"image":{"tileId":0,"characterName":"","direction":2,"pattern":0,"characterIndex":0},"moveFrequency":3,"moveRoute":{"list":[{"code":0,"indent":null,"parameters":[]}],"repeat":true,"skippable":false,"wait":false},"moveSpeed":3,"moveType":0,"priorityType":0,"stepAnime":false,"through":false,"trigger":0,"walkAnime":true,"list":[{"code":0,"indent":0,"parameters":[]}]}],"x":5,"y":21},{"id":20,"name":"EV020","note":"","pages":[{"conditions":{"actorId":1,"actorValid":false,"itemId":1,"itemValid":false,"selfSwitchCh":"A","selfSwitchValid":false,"switch1Id":1,"switch1Valid":false,"switch2Id":1,"switch2Valid":false,"variableId":1,"variableValid":false,"variableValue":0},"directionFix":false,"image":{"tileId":0,"characterName":"$goblin spit","direction":2,"pattern":1,"characterIndex":0},"moveFrequency":5,"moveRoute":{"list":[{"code":15,"indent":null,"parameters":[5]},{"code":16,"indent":null,"parameters":[]},{"code":15,"indent":null,"parameters":[5]},{"code":17,"indent":null,"parameters":[]},{"code":15,"indent":null,"parameters":[5]},{"code":18,"indent":null,"parameters":[]},{"code":15,"indent":null,"parameters":[5]},{"code":19,"indent":null,"parameters":[]},{"code":0,"indent":null,"parameters":[]}],"repeat":true,"skippable":false,"wait":false},"moveSpeed":3,"moveType":3,"priorityType":1,"stepAnime":false,"through":false,"trigger":0,"walkAnime":true,"list":[{"code":0,"indent":0,"parameters":[]}]},{"conditions":{"actorId":1,"actorValid":false,"itemId":1,"itemValid":false,"selfSwitchCh":"A","selfSwitchValid":false,"switch1Id":247,"switch1Valid":true,"switch2Id":1,"switch2Valid":false,"variableId":1,"variableValid":false,"variableValue":0},"directionFix":false,"image":{"tileId":0,"characterName":"","direction":8,"pattern":1,"characterIndex":2},"moveFrequency":3,"moveRoute":{"list":[{"code":0,"indent":null,"parameters":[]}],"repeat":true,"skippable":false,"wait":false},"moveSpeed":3,"moveType":0,"priorityType":0,"stepAnime":false,"through":false,"trigger":0,"walkAnime":true,"list":[{"code":0,"indent":0,"parameters":[]}]}],"x":6,"y":23},{"id":21,"name":"EV021","note":"","pages":[{"conditions":{"actorId":1,"actorValid":false,"itemId":1,"itemValid":false,"selfSwitchCh":"A","selfSwitchValid":false,"switch1Id":217,"switch1Valid":true,"switch2Id":1,"switch2Valid":false,"variableId":1,"variableValid":false,"variableValue":0},"directionFix":true,"image":{"tileId":0,"characterName":"!Other1","direction":4,"pattern":1,"characterIndex":1},"moveFrequency":3,"moveRoute":{"list":[{"code":0,"indent":null,"parameters":[]}],"repeat":true,"skippable":false,"wait":false},"moveSpeed":3,"moveType":0,"priorityType":1,"stepAnime":false,"through":false,"trigger":0,"walkAnime":true,"list":[{"code":101,"indent":0,"parameters":["face002b",0,0,2]},{"code":401,"indent":0,"parameters":["Let's not waste energy on this until we're sure there's no other way."]},{"code":0,"indent":0,"parameters":[]}]}],"x":7,"y":20},{"id":22,"name":"EV022","note":"","pages":[{"conditions":{"actorId":1,"actorValid":false,"itemId":1,"itemValid":false,"selfSwitchCh":"A","selfSwitchValid":false,"switch1Id":1,"switch1Valid":false,"switch2Id":1,"switch2Valid":false,"variableId":1,"variableValid":false,"variableValue":0},"directionFix":false,"image":{"tileId":0,"characterName":"","direction":2,"pattern":0,"characterIndex":0},"moveFrequency":3,"moveRoute":{"list":[{"code":0,"indent":null,"parameters":[]}],"repeat":true,"skippable":false,"wait":false},"moveSpeed":3,"moveType":0,"priorityType":0,"stepAnime":false,"through":false,"trigger":1,"walkAnime":true,"list":[{"code":250,"indent":0,"parameters":[{"name":"Move","pan":0,"pitch":100,"volume":80}]},{"code":201,"indent":0,"parameters":[0,120,11,32,6,0]},{"code":0,"indent":0,"parameters":[]}]}],"x":10,"y":22},{"id":23,"name":"EV023","note":"","pages":[{"conditions":{"actorId":1,"actorValid":false,"itemId":1,"itemValid":false,"selfSwitchCh":"A","selfSwitchValid":false,"switch1Id":1,"switch1Valid":false,"switch2Id":1,"switch2Valid":false,"variableId":1,"variableValid":false,"variableValue":0},"directionFix":false,"image":{"tileId":0,"characterName":"","direction":2,"pattern":0,"characterIndex":0},"moveFrequency":3,"moveRoute":{"list":[{"code":0,"indent":null,"parameters":[]}],"repeat":true,"skippable":false,"wait":false},"moveSpeed":3,"moveType":0,"priorityType":0,"stepAnime":false,"through":false,"trigger":1,"walkAnime":true,"list":[{"code":250,"indent":0,"parameters":[{"name":"Move","pan":0,"pitch":100,"volume":80}]},{"code":201,"indent":0,"parameters":[0,120,17,32,4,0]},{"code":0,"indent":0,"parameters":[]}]}],"x":18,"y":22},{"id":24,"name":"Succubus ","note":"","pages":[{"conditions":{"actorId":1,"actorValid":false,"itemId":1,"itemValid":false,"selfSwitchCh":"A","selfSwitchValid":false,"switch1Id":217,"switch1Valid":true,"switch2Id":1,"switch2Valid":false,"variableId":1,"variableValid":false,"variableValue":0},"directionFix":false,"image":{"tileId":0,"characterName":"Monster2","direction":2,"pattern":1,"characterIndex":3},"moveFrequency":3,"moveRoute":{"list":[{"code":0,"indent":null,"parameters":[]}],"repeat":true,"skippable":false,"wait":false},"moveSpeed":3,"moveType":0,"priorityType":1,"stepAnime":false,"through":false,"trigger":0,"walkAnime":true,"list":[{"code":101,"indent":0,"parameters":["Succubus emo",1,0,2]},{"code":401,"indent":0,"parameters":["Really, I just wanna fuck something!"]},{"code":0,"indent":0,"parameters":[]}]}],"x":6,"y":11},{"id":25,"name":"Succubus ","note":"","pages":[{"conditions":{"actorId":1,"actorValid":false,"itemId":1,"itemValid":false,"selfSwitchCh":"A","selfSwitchValid":false,"switch1Id":217,"switch1Valid":true,"switch2Id":1,"switch2Valid":false,"variableId":1,"variableValid":false,"variableValue":0},"directionFix":false,"image":{"tileId":0,"characterName":"Monster2","direction":6,"pattern":1,"characterIndex":3},"moveFrequency":3,"moveRoute":{"list":[{"code":0,"indent":null,"parameters":[]}],"repeat":true,"skippable":false,"wait":false},"moveSpeed":3,"moveType":0,"priorityType":1,"stepAnime":false,"through":false,"trigger":0,"walkAnime":true,"list":[{"code":101,"indent":0,"parameters":["Succubus2 emo",0,0,2]},{"code":401,"indent":0,"parameters":["I haven't supported the Incubus King ever since he just abandoned us here."]},{"code":0,"indent":0,"parameters":[]}]}],"x":8,"y":10},{"id":26,"name":"Succubus ","note":"","pages":[{"conditions":{"actorId":1,"actorValid":false,"itemId":1,"itemValid":false,"selfSwitchCh":"A","selfSwitchValid":false,"switch1Id":217,"switch1Valid":true,"switch2Id":1,"switch2Valid":false,"variableId":1,"variableValid":false,"variableValue":0},"directionFix":false,"image":{"tileId":0,"characterName":"Monster2","direction":8,"pattern":1,"characterIndex":3},"moveFrequency":3,"moveRoute":{"list":[{"code":0,"indent":null,"parameters":[]}],"repeat":true,"skippable":false,"wait":false},"moveSpeed":3,"moveType":0,"priorityType":1,"stepAnime":false,"through":false,"trigger":0,"walkAnime":true,"list":[{"code":101,"indent":0,"parameters":["Succubus emo",1,0,2]},{"code":401,"indent":0,"parameters":["To be honest, it's getting really boring here. Glad you showed up."]},{"code":0,"indent":0,"parameters":[]}]}],"x":5,"y":10},{"id":27,"name":"EV027","note":"","pages":[{"conditions":{"actorId":1,"actorValid":false,"itemId":1,"itemValid":false,"selfSwitchCh":"A","selfSwitchValid":false,"switch1Id":217,"switch1Valid":true,"switch2Id":1,"switch2Valid":false,"variableId":1,"variableValid":false,"variableValue":0},"directionFix":false,"image":{"tileId":0,"characterName":"Monster1","direction":2,"pattern":1,"characterIndex":2},"moveFrequency":3,"moveRoute":{"list":[{"code":0,"indent":null,"parameters":[]}],"repeat":true,"skippable":false,"wait":false},"moveSpeed":5,"moveType":1,"priorityType":1,"stepAnime":false,"through":false,"trigger":0,"walkAnime":true,"list":[{"code":123,"indent":0,"parameters":["A",0]},{"code":101,"indent":0,"parameters":["Monster1",2,0,2]},{"code":401,"indent":0,"parameters":["Kill! Fuck!"]},{"code":250,"indent":0,"parameters":[{"name":"Stare","pan":0,"pitch":50,"volume":80}]},{"code":101,"indent":0,"parameters":["face002b dark",0,0,2]},{"code":401,"indent":0,"parameters":["..."]},{"code":101,"indent":0,"parameters":["Monster1",2,0,2]},{"code":401,"indent":0,"parameters":["Not kill? Not fuck?"]},{"code":101,"indent":0,"parameters":["face002b",0,0,2]},{"code":401,"indent":0,"parameters":["...good enough for now."]},{"code":122,"indent":0,"parameters":[30,30,1,0,2]},{"code":0,"indent":0,"parameters":[]}]},{"conditions":{"actorId":1,"actorValid":false,"itemId":1,"itemValid":false,"selfSwitchCh":"A","selfSwitchValid":true,"switch1Id":217,"switch1Valid":true,"switch2Id":1,"switch2Valid":false,"variableId":1,"variableValid":false,"variableValue":0},"directionFix":false,"image":{"tileId":0,"characterName":"Monster1","direction":2,"pattern":1,"characterIndex":2},"moveFrequency":3,"moveRoute":{"list":[{"code":0,"indent":null,"parameters":[]}],"repeat":true,"skippable":false,"wait":false},"moveSpeed":5,"moveType":1,"priorityType":1,"stepAnime":false,"through":false,"trigger":0,"walkAnime":true,"list":[{"code":101,"indent":0,"parameters":["Monster1",2,0,2]},{"code":401,"indent":0,"parameters":["Master confusing."]},{"code":0,"indent":0,"parameters":[]}]}],"x":13,"y":16},{"id":28,"name":"EV028","note":"","pages":[{"conditions":{"actorId":1,"actorValid":false,"itemId":1,"itemValid":false,"selfSwitchCh":"A","selfSwitchValid":false,"switch1Id":1,"switch1Valid":false,"switch2Id":1,"switch2Valid":false,"variableId":1,"variableValid":false,"variableValue":0},"directionFix":false,"image":{"tileId":0,"characterName":"","direction":2,"pattern":0,"characterIndex":0},"moveFrequency":3,"moveRoute":{"list":[{"code":0,"indent":null,"parameters":[]}],"repeat":true,"skippable":false,"wait":false},"moveSpeed":3,"moveType":0,"priorityType":1,"stepAnime":false,"through":false,"trigger":0,"walkAnime":true,"list":[{"code":101,"indent":0,"parameters":["MainActor1-3fs",4,0,2]},{"code":401,"indent":0,"parameters":["Who gives a shit about what orcs read?"]},{"code":0,"indent":0,"parameters":[]}]},{"conditions":{"actorId":1,"actorValid":false,"itemId":1,"itemValid":false,"selfSwitchCh":"A","selfSwitchValid":false,"switch1Id":217,"switch1Valid":true,"switch2Id":1,"switch2Valid":false,"variableId":1,"variableValid":false,"variableValue":0},"directionFix":false,"image":{"tileId":0,"characterName":"","direction":2,"pattern":0,"characterIndex":0},"moveFrequency":3,"moveRoute":{"list":[{"code":0,"indent":null,"parameters":[]}],"repeat":true,"skippable":false,"wait":false},"moveSpeed":3,"moveType":0,"priorityType":1,"stepAnime":false,"through":false,"trigger":0,"walkAnime":true,"list":[{"code":101,"indent":0,"parameters":["face002b",0,0,2]},{"code":401,"indent":0,"parameters":["These books seem to be philosophies and theologies of lust. I should become familiar with them if I'm going to lead succubi."]},{"code":0,"indent":0,"parameters":[]}]}],"x":17,"y":9},{"id":29,"name":"Succubus","note":"","pages":[{"conditions":{"actorId":1,"actorValid":false,"itemId":1,"itemValid":false,"selfSwitchCh":"A","selfSwitchValid":false,"switch1Id":217,"switch1Valid":true,"switch2Id":1,"switch2Valid":false,"variableId":1,"variableValid":false,"variableValue":0},"directionFix":false,"image":{"tileId":0,"characterName":"Monster2","direction":8,"pattern":1,"characterIndex":3},"moveFrequency":3,"moveRoute":{"list":[{"code":0,"indent":null,"parameters":[]}],"repeat":true,"skippable":false,"wait":false},"moveSpeed":3,"moveType":1,"priorityType":1,"stepAnime":false,"through":false,"trigger":0,"walkAnime":true,"list":[{"code":101,"indent":0,"parameters":["Succubus emo",2,0,2]},{"code":401,"indent":0,"parameters":["Oh, it's you again."]},{"code":101,"indent":0,"parameters":["face002b",0,0,2]},{"code":401,"indent":0,"parameters":["Some things have changed."]},{"code":101,"indent":0,"parameters":["Succubus emo",2,0,2]},{"code":401,"indent":0,"parameters":["I really doubt it. I never saw why Riala liked you - you've always been just another crusader with a stick up his ass."]},{"code":101,"indent":0,"parameters":["Aka emo",2,0,2]},{"code":401,"indent":0,"parameters":["Hey!"]},{"code":101,"indent":0,"parameters":["face002b",0,0,2]},{"code":401,"indent":0,"parameters":["That's... not entirely unfair."]},{"code":101,"indent":0,"parameters":["Yarra emo2",5,0,2]},{"code":401,"indent":0,"parameters":["The ache in my pussy says otherwise."]},{"code":101,"indent":0,"parameters":["Succubus emo",2,0,2]},{"code":401,"indent":0,"parameters":["I'll make you beg for more! Girls, get in here!"]},{"code":301,"indent":0,"parameters":[0,169,false,false]},{"code":101,"indent":0,"parameters":["Succubus emo",2,0,2]},{"code":401,"indent":0,"parameters":["Finish it, bastard!"]},{"code":101,"indent":0,"parameters":["Succubus2 emo",0,0,2]},{"code":401,"indent":0,"parameters":["Is... is he really that bad? The succubi with him seem well-fed... and happy..."]},{"code":101,"indent":0,"parameters":["Succubus emo",2,0,2]},{"code":401,"indent":0,"parameters":["Shut up! What are you doing with us?"]},{"code":101,"indent":0,"parameters":["face002b",0,0,2]},{"code":401,"indent":0,"parameters":["Nothing. I want to make a world where succubi can live in balance with others, and I'd like you to fight with me, but I won't force you."]},{"code":101,"indent":0,"parameters":["Succubus emo",2,0,2]},{"code":401,"indent":0,"parameters":["Then get out!"]},{"code":123,"indent":0,"parameters":["A",0]},{"code":122,"indent":0,"parameters":[30,30,1,0,2]},{"code":0,"indent":0,"parameters":[]}]},{"conditions":{"actorId":1,"actorValid":false,"itemId":1,"itemValid":false,"selfSwitchCh":"A","selfSwitchValid":true,"switch1Id":217,"switch1Valid":true,"switch2Id":1,"switch2Valid":false,"variableId":1,"variableValid":false,"variableValue":0},"directionFix":false,"image":{"tileId":0,"characterName":"Monster2","direction":8,"pattern":1,"characterIndex":3},"moveFrequency":3,"moveRoute":{"list":[{"code":0,"indent":null,"parameters":[]}],"repeat":true,"skippable":false,"wait":false},"moveSpeed":3,"moveType":1,"priorityType":1,"stepAnime":false,"through":false,"trigger":0,"walkAnime":true,"list":[{"code":101,"indent":0,"parameters":["Succubus emo",2,0,2]},{"code":401,"indent":0,"parameters":["..."]},{"code":0,"indent":0,"parameters":[]}]}],"x":22,"y":11},{"id":30,"name":"EV030","note":"","pages":[{"conditions":{"actorId":1,"actorValid":false,"itemId":1,"itemValid":false,"selfSwitchCh":"A","selfSwitchValid":false,"switch1Id":247,"switch1Valid":true,"switch2Id":1,"switch2Valid":false,"variableId":1,"variableValid":false,"variableValue":0},"directionFix":false,"image":{"tileId":0,"characterName":"$elf down","direction":2,"pattern":1,"characterIndex":0},"moveFrequency":3,"moveRoute":{"list":[{"code":0,"indent":null,"parameters":[]}],"repeat":true,"skippable":false,"wait":false},"moveSpeed":3,"moveType":0,"priorityType":1,"stepAnime":false,"through":false,"trigger":0,"walkAnime":true,"list":[{"code":0,"indent":0,"parameters":[]}]}],"x":11,"y":10},{"id":31,"name":"EV031","note":"","pages":[{"conditions":{"actorId":1,"actorValid":false,"itemId":1,"itemValid":false,"selfSwitchCh":"A","selfSwitchValid":false,"switch1Id":1,"switch1Valid":false,"switch2Id":1,"switch2Valid":false,"variableId":1,"variableValid":false,"variableValue":0},"directionFix":false,"image":{"tileId":0,"characterName":"","direction":2,"pattern":0,"characterIndex":0},"moveFrequency":3,"moveRoute":{"list":[{"code":0,"indent":null,"parameters":[]}],"repeat":true,"skippable":false,"wait":false},"moveSpeed":3,"moveType":0,"priorityType":1,"stepAnime":false,"through":false,"trigger":0,"walkAnime":true,"list":[{"code":108,"indent":0,"parameters":["BLOCKER"]},{"code":0,"indent":0,"parameters":[]}]}],"x":18,"y":9}]
}
