{
"autoplayBgm":false,"autoplayBgs":false,"battleback1Name":"","battleback2Name":"","bgm":{"name":"","pan":0,"pitch":100,"volume":100},"bgs":{"name":"","pan":0,"pitch":100,"volume":80},"disableDashing":false,"displayName":"","encounterList":[],"encounterStep":30,"height":13,"note":"","parallaxLoopX":false,"parallaxLoopY":false,"parallaxName":"","parallaxShow":false,"parallaxSx":0,"parallaxSy":0,"scrollType":0,"specifyBattleback":false,"tilesetId":5,"width":17,
"data":[0,0,0,0,0,0,0,0,0,0,0,0,0,0,0,0,0,0,0,0,0,0,0,0,0,0,0,0,0,0,0,0,0,0,0,0,0,0,0,0,0,0,0,0,0,0,0,0,0,0,0,0,0,0,0,0,0,0,0,0,0,0,0,0,0,0,0,0,0,0,0,0,0,1544,2946,2932,2932,2932,2948,1544,0,0,0,0,0,0,0,0,0,0,1544,2928,2912,2912,2912,2936,1544,0,0,0,0,0,0,0,0,0,0,1544,2928,2912,2912,2912,2936,1544,0,0,0,0,0,0,0,0,0,0,1544,2952,2940,2940,2940,2950,1544,0,0,0,0,0,0,0,0,0,0,0,0,0,0,0,0,1544,0,0,0,0,0,0,0,0,0,0,0,0,0,0,0,0,0,0,0,0,0,0,0,0,0,0,0,0,0,0,0,0,0,0,0,0,0,0,0,0,0,0,0,0,0,0,0,0,0,0,0,0,0,0,0,0,0,0,0,0,0,0,0,0,0,0,0,0,0,0,0,0,0,0,0,0,0,0,0,0,0,0,0,0,0,0,0,0,0,0,0,0,0,0,0,0,0,0,0,0,0,0,0,0,0,0,0,0,0,0,0,0,0,0,0,0,0,0,0,0,0,0,0,0,0,0,0,0,0,0,0,0,0,0,0,0,0,0,0,0,0,0,0,0,0,0,0,0,0,0,0,0,0,0,0,0,0,0,0,0,0,0,0,0,0,0,0,0,0,0,0,0,0,0,0,0,0,0,0,0,0,0,0,3198,0,0,0,0,0,0,0,0,0,0,0,0,0,0,0,0,0,0,0,0,0,0,0,0,0,0,0,0,0,0,0,0,0,0,0,0,0,0,0,0,0,0,0,0,0,0,0,0,0,0,0,0,0,0,0,0,0,0,0,0,0,0,0,0,0,0,0,0,0,0,0,0,0,0,0,0,0,0,0,0,0,0,0,0,0,0,0,0,0,0,0,0,0,0,0,0,0,0,0,0,0,0,0,0,0,0,0,0,0,0,512,512,512,512,512,512,512,512,512,512,512,512,512,512,512,512,512,512,512,512,512,512,512,512,512,512,512,512,512,512,512,512,512,512,512,512,512,512,512,512,512,512,512,512,512,512,512,512,512,512,512,512,512,512,512,512,512,768,768,768,768,768,512,512,512,512,512,512,512,512,512,512,512,512,768,768,768,768,768,512,512,512,512,512,512,512,512,512,512,512,512,768,768,768,768,768,512,512,512,512,512,512,512,512,512,512,512,512,768,768,0,768,768,512,512,512,512,512,512,512,512,512,512,512,512,768,809,810,811,768,512,512,512,512,512,512,512,512,512,512,512,512,512,768,768,768,512,512,512,512,512,512,512,512,512,512,512,512,512,512,512,512,512,512,512,512,512,512,512,512,512,512,512,512,512,512,512,512,512,512,512,512,512,512,512,512,512,512,512,512,512,512,512,512,512,512,512,512,512,512,512,512,512,512,512,512,512,512,512,512,512,512,512,512,512,512,512,512,512,512,512,768,768,768,768,768,768,768,768,768,768,768,768,768,768,768,768,768,768,768,768,768,768,768,768,768,768,768,768,768,768,768,768,768,768,768,768,768,768,768,768,768,768,768,768,768,768,768,768,768,768,768,768,768,768,768,768,768,776,777,778,779,780,768,768,768,768,768,768,768,768,768,768,768,768,784,785,786,787,788,768,768,768,768,768,768,768,768,768,768,768,768,792,793,794,795,796,768,768,768,768,768,768,768,768,768,768,768,768,800,801,0,803,804,768,768,768,768,768,768,768,768,768,768,768,768,808,781,782,783,812,768,768,768,768,768,768,768,768,768,768,768,768,768,789,790,791,768,768,768,768,768,768,768,768,768,768,768,768,768,768,768,768,768,768,768,768,768,768,768,768,768,768,768,768,768,768,768,768,768,768,768,768,768,768,768,768,768,768,768,768,768,768,768,768,768,768,768,768,768,768,768,768,768,768,768,768,768,768,768,768,768,768,768,768,768,768,768,768,768,768,768,0,0,0,0,0,0,0,0,0,0,0,0,0,0,0,0,0,0,0,0,0,0,0,0,0,0,0,0,0,0,0,0,0,0,0,0,0,0,0,0,0,0,0,0,0,0,0,0,0,0,0,0,0,0,0,0,0,0,0,0,0,0,0,0,0,0,0,0,0,0,0,0,0,0,0,0,0,0,0,0,0,0,0,0,0,0,0,0,0,0,0,0,0,0,0,0,0,0,0,0,0,0,0,0,0,0,0,0,0,0,0,0,0,0,0,0,0,0,0,0,0,0,0,0,0,0,0,0,0,0,0,0,0,0,0,0,0,0,0,0,0,0,0,0,0,0,0,0,0,0,0,0,0,0,0,0,0,0,0,0,0,0,0,0,0,0,0,0,0,0,0,0,0,0,0,0,0,0,0,0,0,0,0,0,0,0,0,0,0,0,0,0,0,0,0,0,0,0,0,0,0,0,0,0,0,0,0,0,0,0,0,0,0,0,0,0,0,0,0,0,0,0,0,0,0,0,0,0,0,0,0,0,0,0,0,0,0,0,0,0,0,0,0,0,0,0,0,0,0,0,0,0,0,0,0,0,0,0,0,0,0,0,0,0,0,0,0,0,0,0,0,0,0,0,0,0,0,0,0,0,0,0,0,0,0,0,0,0,0,0,0,0,0,0,0,0,0,0,0,0,0,0,0,0,0,0,0,0,0,0,0,0,0,0,0,0,0,0,0,0,0,0,0,0,0,0,0,0,0,0,0,0,0,0,0,0,0,0,0,0,0,0,0,0,0,0,0,0,0,0,0,0,0,0,0,0,0,0,0,0,0,0,0,0,0,0,0,0,0,0,0,0,0,0,0,0,0,0,0,0,0,0,0,0,0,0,0,0,0,0,0,0,0,0,0,0,0,0,0,0,0,0,0,0,0,0,0,0,0,0,0,0,0,0,0,0,0,0,0,0,0,0,0,0,0,0,0,0,0,0,0,0,0,0,0,0,0,0,0,0,0,0],
"events":[
null,
{"id":1,"name":"Megail","note":"","pages":[{"conditions":{"actorId":1,"actorValid":false,"itemId":1,"itemValid":false,"selfSwitchCh":"A","selfSwitchValid":false,"switch1Id":1,"switch1Valid":false,"switch2Id":1,"switch2Valid":false,"variableId":1,"variableValid":false,"variableValue":0},"directionFix":false,"image":{"tileId":0,"characterName":"Megail char","direction":2,"pattern":1,"characterIndex":0},"moveFrequency":3,"moveRoute":{"list":[{"code":0,"indent":null,"parameters":[]}],"repeat":true,"skippable":false,"wait":false},"moveSpeed":3,"moveType":0,"priorityType":1,"stepAnime":false,"through":false,"trigger":0,"walkAnime":true,"list":[{"code":123,"indent":0,"parameters":["A",0]},{"code":231,"indent":0,"parameters":[1,"Megail",0,0,0,10,100,100,255,0]},{"code":101,"indent":0,"parameters":["Megail emo2",0,0,2]},{"code":401,"indent":0,"parameters":["Do you have some business with me?"]},{"code":235,"indent":0,"parameters":[1]},{"code":101,"indent":0,"parameters":["Yarra emo",1,0,2]},{"code":401,"indent":0,"parameters":["We're looking for a partner in a little business venture..."]},{"code":101,"indent":0,"parameters":["Megail emo2",0,0,2]},{"code":401,"indent":0,"parameters":["No offense intended, but unless you're dealing in extremely large or rare quantities, you should probably just speak to my people."]},{"code":101,"indent":0,"parameters":["face002b",0,0,2]},{"code":401,"indent":0,"parameters":["Excuse us."]},{"code":205,"indent":0,"parameters":[-1,{"list":[{"code":1,"indent":null,"parameters":[]},{"code":1,"indent":null,"parameters":[]},{"code":0,"indent":null,"parameters":[]}],"repeat":false,"skippable":false,"wait":true}]},{"code":505,"indent":0,"parameters":[{"code":1,"indent":null,"parameters":[]}]},{"code":505,"indent":0,"parameters":[{"code":1,"indent":null,"parameters":[]}]},{"code":101,"indent":0,"parameters":["Yarra emo",1,0,2]},{"code":401,"indent":0,"parameters":["You know, Simon, you could just solve this problem the easy way and take her."]},{"code":101,"indent":0,"parameters":["face002b",0,0,2]},{"code":401,"indent":0,"parameters":["The Incubus King and the Chosen solve all their problems the easy way. Look where it's gotten them."]},{"code":0,"indent":0,"parameters":[]}]},{"conditions":{"actorId":1,"actorValid":false,"itemId":1,"itemValid":false,"selfSwitchCh":"A","selfSwitchValid":true,"switch1Id":1,"switch1Valid":false,"switch2Id":1,"switch2Valid":false,"variableId":1,"variableValid":false,"variableValue":0},"directionFix":false,"image":{"tileId":0,"characterName":"Megail char","direction":2,"pattern":1,"characterIndex":0},"moveFrequency":3,"moveRoute":{"list":[{"code":0,"indent":null,"parameters":[]}],"repeat":true,"skippable":false,"wait":false},"moveSpeed":3,"moveType":0,"priorityType":1,"stepAnime":false,"through":false,"trigger":0,"walkAnime":true,"list":[{"code":101,"indent":0,"parameters":["Megail emo2",0,0,2]},{"code":401,"indent":0,"parameters":["Please let me finish my negotiations."]},{"code":0,"indent":0,"parameters":[]}]},{"conditions":{"actorId":1,"actorValid":false,"itemId":1,"itemValid":false,"selfSwitchCh":"A","selfSwitchValid":false,"switch1Id":51,"switch1Valid":true,"switch2Id":1,"switch2Valid":false,"variableId":1,"variableValid":false,"variableValue":0},"directionFix":false,"image":{"tileId":0,"characterName":"Megail char","direction":2,"pattern":1,"characterIndex":0},"moveFrequency":3,"moveRoute":{"list":[{"code":0,"indent":null,"parameters":[]}],"repeat":true,"skippable":false,"wait":false},"moveSpeed":3,"moveType":0,"priorityType":1,"stepAnime":false,"through":false,"trigger":0,"walkAnime":true,"list":[{"code":101,"indent":0,"parameters":["Megail emo2",1,0,2]},{"code":401,"indent":0,"parameters":["I heard you were involved in uncovering those slavers in our midst. Perhaps I misjudged you."]},{"code":101,"indent":0,"parameters":["Megail emo2",0,0,2]},{"code":401,"indent":0,"parameters":["That aside, I've heard you're looking for a partner. What do you really need?"]},{"code":101,"indent":0,"parameters":["face002b",0,0,2]},{"code":401,"indent":0,"parameters":["I would like to know why so much trade to Ardoheim has been cut off."]},{"code":101,"indent":0,"parameters":["Megail emo2",0,0,2]},{"code":401,"indent":0,"parameters":["Don't say it like I'm responsible. We'd all like to trade with Ardoheim - it's profitable - but for complex reasons it's becoming difficult."]},{"code":101,"indent":0,"parameters":["Yarra emo",2,0,2]},{"code":401,"indent":0,"parameters":["\"It's complicated\" isn't much of an excuse."]},{"code":101,"indent":0,"parameters":["Megail emo2",4,0,2]},{"code":401,"indent":0,"parameters":["It's merchant stuff, you wouldn't understand."]},{"code":101,"indent":0,"parameters":["face002b",0,0,2]},{"code":401,"indent":0,"parameters":["Has Ardoheim decreased the number of state-sanctioned contracts? Pressure from noble cartels, I assume."]},{"code":101,"indent":0,"parameters":["face002b",0,0,2]},{"code":401,"indent":0,"parameters":["The agreement promised that tariffs would be lowered whenever contracts were reduced, but I assume that was circumvented?"]},{"code":101,"indent":0,"parameters":["Megail emo2",7,0,2]},{"code":401,"indent":0,"parameters":["That's... right, actually. You're sure you're not a merchant?"]},{"code":101,"indent":0,"parameters":["face002b",0,0,2]},{"code":401,"indent":0,"parameters":["I've picked up a little."]},{"code":101,"indent":0,"parameters":["Megail emo2",1,0,2]},{"code":401,"indent":0,"parameters":["Okay, I see I don't need to use small words with you. The contract politics are complex, but the results are simple."]},{"code":101,"indent":0,"parameters":["Megail emo2",0,0,2]},{"code":401,"indent":0,"parameters":["Reval has the only contract for commodities, but he isn't interested in trading them anywhere but the richest cities."]},{"code":101,"indent":0,"parameters":["Megail emo2",0,0,2]},{"code":401,"indent":0,"parameters":["If you have some way of getting the contract to me, I'll restore trade. I've run the numbers, it should be profitable for everyone."]},{"code":101,"indent":0,"parameters":["Aka emo",0,0,2]},{"code":401,"indent":0,"parameters":["How exactly would we do that?"]},{"code":101,"indent":0,"parameters":["Megail emo2",0,0,2]},{"code":401,"indent":0,"parameters":["I'm almost certain he was involved in the slave-trading ring. He'll be desperate to unload his \"merchandise\" and we can exploit that."]},{"code":101,"indent":0,"parameters":["Megail emo2",1,0,2]},{"code":401,"indent":0,"parameters":["I can loan you funds and official documents if you're willing to set him up."]},{"code":213,"indent":0,"parameters":[-1,8,true]},{"code":101,"indent":0,"parameters":["face002b",0,0,2]},{"code":401,"indent":0,"parameters":["Let's discuss the details."]},{"code":221,"indent":0,"parameters":[]},{"code":230,"indent":0,"parameters":[60]},{"code":222,"indent":0,"parameters":[]},{"code":101,"indent":0,"parameters":["Megail emo2",0,0,2]},{"code":401,"indent":0,"parameters":["Okay. I'll make sure the guards catch Reval, while you keep him busy and your team seizes the assets. Acceptable?"]},{"code":101,"indent":0,"parameters":["Yarra emo",1,0,2]},{"code":401,"indent":0,"parameters":["I still don't like how Simon is all alone for this plan."]},{"code":101,"indent":0,"parameters":["Megail emo2",2,0,2]},{"code":401,"indent":0,"parameters":["So you've said. Goddess, just fuck him already if you like him that much."]},{"code":101,"indent":0,"parameters":["Yarra emo",6,0,2]},{"code":401,"indent":0,"parameters":["...I'm scandalized by such a suggestion."]},{"code":101,"indent":0,"parameters":["Aka emo",0,0,2]},{"code":401,"indent":0,"parameters":["I think this is our best option for the time being. But we'd better be prepared for his guards."]},{"code":101,"indent":0,"parameters":["Megail emo2",0,0,2]},{"code":401,"indent":0,"parameters":["Right. Come back here when you're ready to start."]},{"code":123,"indent":0,"parameters":["B",0]},{"code":0,"indent":0,"parameters":[]}]},{"conditions":{"actorId":1,"actorValid":false,"itemId":1,"itemValid":false,"selfSwitchCh":"B","selfSwitchValid":true,"switch1Id":1,"switch1Valid":false,"switch2Id":1,"switch2Valid":false,"variableId":1,"variableValid":false,"variableValue":0},"directionFix":false,"image":{"tileId":0,"characterName":"Megail char","direction":2,"pattern":1,"characterIndex":0},"moveFrequency":3,"moveRoute":{"list":[{"code":0,"indent":null,"parameters":[]}],"repeat":true,"skippable":false,"wait":false},"moveSpeed":3,"moveType":0,"priorityType":1,"stepAnime":false,"through":false,"trigger":0,"walkAnime":true,"list":[{"code":101,"indent":0,"parameters":["Megail emo2",0,0,2]},{"code":401,"indent":0,"parameters":["You want to start the plan now?"]},{"code":102,"indent":0,"parameters":[["Yes","No"],-1,0,2,0]},{"code":402,"indent":0,"parameters":[0,"Yes"]},{"code":242,"indent":1,"parameters":[5]},{"code":101,"indent":1,"parameters":["Megail emo2",0,0,2]},{"code":401,"indent":1,"parameters":["Alright, then, let's hope this works..."]},{"code":201,"indent":1,"parameters":[0,30,8,8,8,0]},{"code":0,"indent":1,"parameters":[]},{"code":402,"indent":0,"parameters":[1,"No"]},{"code":101,"indent":1,"parameters":["Megail emo2",0,0,2]},{"code":401,"indent":1,"parameters":["We don't have forever. Prepare yourselves."]},{"code":0,"indent":1,"parameters":[]},{"code":404,"indent":0,"parameters":[]},{"code":0,"indent":0,"parameters":[]}]},{"conditions":{"actorId":1,"actorValid":false,"itemId":1,"itemValid":false,"selfSwitchCh":"B","selfSwitchValid":false,"switch1Id":60,"switch1Valid":true,"switch2Id":1,"switch2Valid":false,"variableId":1,"variableValid":false,"variableValue":0},"directionFix":false,"image":{"tileId":0,"characterName":"","direction":2,"pattern":1,"characterIndex":0},"moveFrequency":3,"moveRoute":{"list":[{"code":0,"indent":null,"parameters":[]}],"repeat":true,"skippable":false,"wait":false},"moveSpeed":3,"moveType":0,"priorityType":0,"stepAnime":false,"through":false,"trigger":0,"walkAnime":true,"list":[{"code":0,"indent":0,"parameters":[]}]}],"x":8,"y":5},
{"id":2,"name":"EV002","note":"","pages":[{"conditions":{"actorId":1,"actorValid":false,"itemId":1,"itemValid":false,"selfSwitchCh":"A","selfSwitchValid":false,"switch1Id":1,"switch1Valid":false,"switch2Id":1,"switch2Valid":false,"variableId":1,"variableValid":false,"variableValue":0},"directionFix":false,"image":{"tileId":0,"characterName":"","direction":2,"pattern":0,"characterIndex":0},"moveFrequency":3,"moveRoute":{"list":[{"code":0,"indent":null,"parameters":[]}],"repeat":true,"skippable":false,"wait":false},"moveSpeed":3,"moveType":0,"priorityType":0,"stepAnime":false,"through":false,"trigger":1,"walkAnime":true,"list":[{"code":250,"indent":0,"parameters":[{"name":"Move","pan":0,"pitch":100,"volume":80}]},{"code":201,"indent":0,"parameters":[0,28,4,12,0,0]},{"code":0,"indent":0,"parameters":[]}]}],"x":8,"y":8},
{"id":3,"name":"EV003","note":"","pages":[{"conditions":{"actorId":1,"actorValid":false,"itemId":1,"itemValid":false,"selfSwitchCh":"A","selfSwitchValid":false,"switch1Id":1,"switch1Valid":false,"switch2Id":1,"switch2Valid":false,"variableId":1,"variableValid":false,"variableValue":0},"directionFix":false,"image":{"tileId":0,"characterName":"People4","direction":6,"pattern":1,"characterIndex":4},"moveFrequency":3,"moveRoute":{"list":[{"code":0,"indent":null,"parameters":[]}],"repeat":true,"skippable":false,"wait":false},"moveSpeed":3,"moveType":0,"priorityType":1,"stepAnime":false,"through":false,"trigger":0,"walkAnime":true,"list":[{"code":101,"indent":0,"parameters":["People4",4,0,2]},{"code":401,"indent":0,"parameters":["Megail always drives a hard bargain. I'll be happy for any price I get that doesn't include my balls."]},{"code":0,"indent":0,"parameters":[]}]},{"conditions":{"actorId":1,"actorValid":false,"itemId":1,"itemValid":false,"selfSwitchCh":"A","selfSwitchValid":false,"switch1Id":51,"switch1Valid":true,"switch2Id":1,"switch2Valid":false,"variableId":1,"variableValid":false,"variableValue":0},"directionFix":false,"image":{"tileId":0,"characterName":"","direction":2,"pattern":0,"characterIndex":0},"moveFrequency":3,"moveRoute":{"list":[{"code":0,"indent":null,"parameters":[]}],"repeat":true,"skippable":false,"wait":false},"moveSpeed":3,"moveType":0,"priorityType":0,"stepAnime":false,"through":false,"trigger":0,"walkAnime":true,"list":[{"code":0,"indent":0,"parameters":[]}]}],"x":7,"y":6},
{"id":4,"name":"EV004","note":"","pages":[{"conditions":{"actorId":1,"actorValid":false,"itemId":1,"itemValid":false,"selfSwitchCh":"A","selfSwitchValid":false,"switch1Id":1,"switch1Valid":false,"switch2Id":1,"switch2Valid":false,"variableId":1,"variableValid":false,"variableValue":0},"directionFix":false,"image":{"tileId":336,"characterName":"","direction":2,"pattern":0,"characterIndex":0},"moveFrequency":3,"moveRoute":{"list":[{"code":0,"indent":null,"parameters":[]}],"repeat":true,"skippable":false,"wait":false},"moveSpeed":3,"moveType":0,"priorityType":1,"stepAnime":false,"through":false,"trigger":0,"walkAnime":true,"list":[{"code":101,"indent":0,"parameters":["",0,0,2]},{"code":401,"indent":0,"parameters":["Complicated accounting of multiple caravans."]},{"code":0,"indent":0,"parameters":[]}]},{"conditions":{"actorId":1,"actorValid":false,"itemId":1,"itemValid":false,"selfSwitchCh":"A","selfSwitchValid":false,"switch1Id":60,"switch1Valid":true,"switch2Id":1,"switch2Valid":false,"variableId":1,"variableValid":false,"variableValue":0},"directionFix":false,"image":{"tileId":0,"characterName":"","direction":2,"pattern":0,"characterIndex":0},"moveFrequency":3,"moveRoute":{"list":[{"code":0,"indent":null,"parameters":[]}],"repeat":true,"skippable":false,"wait":false},"moveSpeed":3,"moveType":0,"priorityType":0,"stepAnime":false,"through":false,"trigger":0,"walkAnime":true,"list":[{"code":0,"indent":0,"parameters":[]}]}],"x":8,"y":6},
{"id":5,"name":"Chosen","note":"","pages":[{"conditions":{"actorId":1,"actorValid":false,"itemId":1,"itemValid":false,"selfSwitchCh":"A","selfSwitchValid":false,"switch1Id":3761,"switch1Valid":true,"switch2Id":1,"switch2Valid":false,"variableId":1,"variableValid":false,"variableValue":0},"directionFix":false,"image":{"tileId":0,"characterName":"male hero","direction":8,"pattern":1,"characterIndex":0},"moveFrequency":3,"moveRoute":{"list":[{"code":0,"indent":null,"parameters":[]}],"repeat":true,"skippable":false,"wait":false},"moveSpeed":3,"moveType":1,"priorityType":1,"stepAnime":false,"through":false,"trigger":0,"walkAnime":true,"list":[{"code":111,"indent":0,"parameters":[1,316,0,17,1]},{"code":101,"indent":1,"parameters":["MainActor1-3fsx",0,0,2]},{"code":401,"indent":1,"parameters":["hhelQNAAH PJZJKjUfjrhVOg2 S9zPoZ mMFoHVa5UM9 8Ro9ycRd2BW4 NCBXzHjuhZnVkx 1cPhiAkr f8yMi vzYqgJ TiZr2YnZeP QCC2IR6at2iE6I4jlH JSb6ZuH1Dm\\.\\^"]},{"code":101,"indent":1,"parameters":["MainActor1-3fsx",0,0,2]},{"code":401,"indent":1,"parameters":["KPl rK6lRa2M3 IYF5Xjoi7TgHE0N hce6hlker JN37lG3yAnRXQ4 HAFKDpBqEDCj2 hDl6BjKIPlr auMUx67dIk aBpR13 JhCHkgp9Zc\\.\\^"]},{"code":101,"indent":1,"parameters":["MainActor1-3fsx",0,0,2]},{"code":401,"indent":1,"parameters":["t5v0p FHya9 HdILWDJlg6Ai wpE0efxEOM5W8Wovt5X N1PrQQsTY npP7MJVbM Hjg4PYgjYx lfq KXYz0 y2Wwi1Uwf dzZx75RsU Lr7YpKiF OpoOymQz oXyYHGHdt\\.\\^"]},{"code":101,"indent":1,"parameters":["MainActor1-3fsx",0,0,2]},{"code":401,"indent":1,"parameters":["AAAAAAAAAAAA!\\.\\^"]},{"code":101,"indent":1,"parameters":["MainActor1-3fsx",0,0,2]},{"code":401,"indent":1,"parameters":["AAAAAAAAAAAAAAAAAAAAAAAAAAAAAAAAAAAAAAA!\\.\\^"]},{"code":101,"indent":1,"parameters":["MainActor1-3fsx",0,0,2]},{"code":401,"indent":1,"parameters":["AAAAAAAAAAAAAAAAAAAAAAAAAAAAAAAAAAAAAAA\\n"]},{"code":401,"indent":1,"parameters":["AAAAAAAAAAAAAAAAAAAAAAAAAAAAAAAAAAAAAAA\\n"]},{"code":401,"indent":1,"parameters":["AAAAAAAAAAAAAAAAAAAAAAAAAAAAAAAAAAAAAAA\\n"]},{"code":401,"indent":1,"parameters":["AAAAAAAAAAAAAAAAAAAAAAAAAAAAAAAAAAAAAA!\\.\\^"]},{"code":224,"indent":1,"parameters":[[255,255,255,255],60,false]},{"code":230,"indent":1,"parameters":[30]},{"code":123,"indent":1,"parameters":["A",0]},{"code":230,"indent":1,"parameters":[30]},{"code":127,"indent":1,"parameters":[1,0,0,1,false]},{"code":101,"indent":1,"parameters":["",0,0,2]},{"code":401,"indent":1,"parameters":["Took a Shining Sword."]},{"code":101,"indent":1,"parameters":["Aka emo2",5,0,2]},{"code":401,"indent":1,"parameters":["Hopefully that will be the end of that."]},{"code":121,"indent":1,"parameters":[3800,3800,0]},{"code":0,"indent":1,"parameters":[]},{"code":411,"indent":0,"parameters":[]},{"code":111,"indent":1,"parameters":[1,316,0,1,1]},{"code":101,"indent":2,"parameters":["MainActor1-3fsx",0,0,2]},{"code":401,"indent":2,"parameters":["hhelQNAAH PJZJKjUfjrhVOg2 S9zPoZ mMFoHVa5UM9 8Ro9ycRd2BW4 NCBXzHjuhZnVkx 1cPhiAkr f8yMi vzYqgJ TiZr2YnZeP QCC2IR6at2iE6I4jlH JSb6ZuH1Dm\\.\\^"]},{"code":101,"indent":2,"parameters":["MainActor1-3fsx",0,0,2]},{"code":401,"indent":2,"parameters":["KPl rK6lRa2M3 IYF5Xjoi7TgHE0N hce6hlker JN37lG3yAnRXQ4 HAFKDpBqEDCj2 hDl6BjKIPlr auMUx67dIk aBpR13 JhCHkgp9Zc\\.\\^"]},{"code":101,"indent":2,"parameters":["MainActor1-3fsx",0,0,2]},{"code":401,"indent":2,"parameters":["t5v0p FHya9 HdILWDJlg6Ai wpE0efxEOM5W8Wovt5X N1PrQQsTY npP7MJVbM Hjg4PYgjYx lfq KXYz0 y2Wwi1Uwf dzZx75RsU Lr7YpKiF OpoOymQz oXyYHGHdt\\.\\^"]},{"code":224,"indent":2,"parameters":[[255,255,255,255],60,false]},{"code":230,"indent":2,"parameters":[30]},{"code":123,"indent":2,"parameters":["A",0]},{"code":230,"indent":2,"parameters":[30]},{"code":122,"indent":2,"parameters":[316,316,1,0,1]},{"code":0,"indent":2,"parameters":[]},{"code":411,"indent":1,"parameters":[]},{"code":101,"indent":2,"parameters":["MainActor1-3fsx",0,0,2]},{"code":401,"indent":2,"parameters":["hhelQNAAH PJZJKjUfjrhVOg2 S9zPoZ mMFoHVa5UM9 8Ro9ycRd2BW4 NCBXzHjuhZnVkx 1cPhiAkr f8yMi vzYqgJ TiZr2YnZeP QCC2IR6at2iE6I4jlH JSb6ZuH1Dm\\.\\^"]},{"code":101,"indent":2,"parameters":["MainActor1-3fsx",0,0,2]},{"code":401,"indent":2,"parameters":["KPl rK6lRa2M3 IYF5Xjoi7TgHE0N hce6hlker JN37lG3yAnRXQ4 HAFKDpBqEDCj2 hDl6BjKIPlr auMUx67dIk aBpR13 JhCHkgp9Zc\\.\\^"]},{"code":101,"indent":2,"parameters":["MainActor1-3fsx",0,0,2]},{"code":401,"indent":2,"parameters":["t5v0p FHya9 HdILWDJlg6Ai wpE0efxEOM5W8Wovt5X N1PrQQsTY npP7MJVbM Hjg4PYgjYx lfq KXYz0 y2Wwi1Uwf dzZx75RsU Lr7YpKiF OpoOymQz oXyYHGHdt\\.\\^"]},{"code":224,"indent":2,"parameters":[[255,255,255,255],60,false]},{"code":230,"indent":2,"parameters":[30]},{"code":123,"indent":2,"parameters":["A",0]},{"code":230,"indent":2,"parameters":[30]},{"code":101,"indent":2,"parameters":["Aka emo2",2,0,2]},{"code":401,"indent":2,"parameters":["What the FUCK was that?"]},{"code":101,"indent":2,"parameters":["Robin blond emo",0,0,2]},{"code":401,"indent":2,"parameters":["I... truly do not know. It wasn't arcane magic."]},{"code":101,"indent":2,"parameters":["Riala emo",5,0,2]},{"code":401,"indent":2,"parameters":["Nor sexual."]},{"code":101,"indent":2,"parameters":["Qum D'umpe emo",4,0,2]},{"code":401,"indent":2,"parameters":["Cumdump's head is confused."]},{"code":101,"indent":2,"parameters":["Yarra emo",0,0,2]},{"code":401,"indent":2,"parameters":["Well, having fewer Chosen running around is a good thing? I guess?"]},{"code":122,"indent":2,"parameters":[316,316,1,0,1]},{"code":0,"indent":2,"parameters":[]},{"code":412,"indent":1,"parameters":[]},{"code":0,"indent":1,"parameters":[]},{"code":412,"indent":0,"parameters":[]},{"code":0,"indent":0,"parameters":[]}]},{"conditions":{"actorId":1,"actorValid":false,"itemId":1,"itemValid":false,"selfSwitchCh":"A","selfSwitchValid":true,"switch1Id":1,"switch1Valid":false,"switch2Id":1,"switch2Valid":false,"variableId":1,"variableValid":false,"variableValue":0},"directionFix":false,"image":{"tileId":0,"characterName":"","direction":2,"pattern":0,"characterIndex":0},"moveFrequency":3,"moveRoute":{"list":[{"code":0,"indent":null,"parameters":[]}],"repeat":true,"skippable":false,"wait":false},"moveSpeed":3,"moveType":0,"priorityType":0,"stepAnime":false,"through":false,"trigger":0,"walkAnime":true,"list":[{"code":0,"indent":0,"parameters":[]}]},{"conditions":{"actorId":1,"actorValid":false,"itemId":1,"itemValid":false,"selfSwitchCh":"A","selfSwitchValid":false,"switch1Id":3800,"switch1Valid":true,"switch2Id":1,"switch2Valid":false,"variableId":1,"variableValid":false,"variableValue":0},"directionFix":false,"image":{"tileId":0,"characterName":"","direction":2,"pattern":0,"characterIndex":0},"moveFrequency":3,"moveRoute":{"list":[{"code":0,"indent":null,"parameters":[]}],"repeat":true,"skippable":false,"wait":false},"moveSpeed":3,"moveType":0,"priorityType":0,"stepAnime":false,"through":false,"trigger":0,"walkAnime":true,"list":[{"code":0,"indent":0,"parameters":[]}]}],"x":7,"y":5}
]
}