{
"autoplayBgm":true,"autoplayBgs":false,"battleback1Name":"","battleback2Name":"","bgm":{"name":"Dungeon2 RTP","pan":0,"pitch":100,"volume":100},"bgs":{"name":"","pan":0,"pitch":100,"volume":80},"disableDashing":false,"displayName":"Abandoned Shrine","encounterList":[],"encounterStep":30,"height":17,"note":"","parallaxLoopX":false,"parallaxLoopY":false,"parallaxName":"","parallaxShow":false,"parallaxSx":0,"parallaxSy":0,"scrollType":0,"specifyBattleback":false,"tilesetId":4,"width":17,"data":[0,0,0,0,0,0,0,0,0,0,0,0,0,0,0,0,0,0,0,0,0,0,0,0,0,0,0,0,0,0,0,0,0,0,0,0,6787,6785,6785,6785,6785,6785,6785,6785,6785,6785,6785,6785,6789,0,0,0,0,6784,7138,7138,7138,7138,7138,7138,7138,7138,7138,7138,7138,6784,0,0,0,0,6784,7144,7144,7144,7144,7144,7144,7144,7144,7144,7144,7144,6784,0,0,0,0,6784,1571,1571,1635,1571,1571,1571,1571,1571,1571,1571,1571,6784,0,0,0,0,6784,1571,1571,1571,1571,1571,1571,1635,1571,1571,1571,1571,6784,0,0,0,0,6784,1571,1635,1571,1571,1571,1571,1571,1571,1571,1571,1635,6784,0,0,0,0,6784,1571,1571,1571,1571,1571,1571,1571,1571,1571,1571,1571,6784,0,0,0,0,6784,1635,1571,1635,1571,1571,1571,1571,1571,1571,1571,1571,6784,0,0,0,0,6784,1571,1571,1571,1571,1571,1635,1571,1571,1635,1571,1571,6784,0,0,0,0,6784,1571,1635,1571,1571,1571,1571,1571,1571,1571,1571,1571,6784,0,0,0,0,6793,6785,6785,6785,6785,6797,1571,6795,6785,6785,6785,6785,6791,0,0,0,0,7139,7138,7138,7138,7138,7138,7138,7138,7138,7138,7138,7138,7142,0,0,0,0,7145,7144,7144,7144,7144,7144,7144,7144,7144,7144,7144,7144,7148,0,0,0,0,0,0,0,0,0,0,0,0,0,0,0,0,0,0,0,0,0,0,0,0,0,0,0,0,0,0,0,0,0,0,0,0,0,0,0,0,0,0,0,0,0,0,0,0,0,0,0,0,0,0,0,0,0,0,0,0,0,0,0,0,0,0,0,0,0,0,0,0,0,0,0,0,0,0,0,0,0,0,0,0,0,0,0,0,0,0,0,0,0,0,0,0,0,0,0,0,0,0,0,0,0,0,0,0,0,0,0,0,0,0,0,0,0,0,0,0,0,0,0,0,0,0,0,0,0,0,0,0,0,0,0,0,0,0,0,0,0,0,0,0,0,0,0,0,0,0,0,0,0,0,0,0,0,0,0,0,0,0,0,0,0,0,0,0,0,0,0,0,0,0,0,0,0,0,0,0,0,0,0,0,0,0,0,0,0,0,0,0,0,0,0,0,0,0,0,0,0,0,0,0,0,0,0,0,0,0,0,0,0,0,0,0,0,0,0,0,0,0,0,0,0,0,0,0,0,0,0,0,0,0,0,0,0,0,0,0,0,0,0,0,0,0,0,0,0,0,0,0,0,0,0,0,0,0,0,0,0,0,0,0,0,0,0,0,0,0,0,0,0,0,0,0,0,0,0,0,0,0,0,0,0,0,0,0,0,0,0,0,0,0,0,0,0,0,0,0,0,0,0,0,0,0,0,0,0,0,0,0,0,0,0,0,0,0,0,0,0,0,0,0,0,0,0,0,0,0,0,0,0,0,0,0,0,0,0,0,0,0,0,0,0,0,0,0,0,0,0,0,0,0,0,0,0,0,0,0,0,0,0,0,0,0,0,0,0,0,0,0,0,0,0,0,0,0,0,0,0,0,0,0,0,0,0,0,0,0,0,0,0,0,0,0,0,0,0,0,0,0,0,0,0,0,0,0,0,0,0,0,0,0,0,0,0,0,0,0,0,0,0,0,0,0,0,0,0,0,0,0,0,0,0,0,0,0,0,0,0,0,0,0,0,0,0,0,0,0,0,0,0,0,0,0,0,0,0,0,0,0,0,0,0,0,0,0,0,0,0,0,0,0,0,0,0,0,0,0,0,0,0,0,0,0,0,0,0,0,0,0,0,0,0,0,0,0,0,0,0,0,0,0,0,0,0,0,0,0,0,0,0,0,0,0,0,0,0,0,0,0,0,0,0,0,0,0,0,0,0,0,0,0,0,0,0,0,0,0,0,0,0,0,0,0,0,0,0,0,0,0,0,0,0,0,0,0,0,0,0,0,0,0,0,0,0,0,0,0,0,0,0,0,0,0,0,0,0,0,0,0,0,0,0,0,0,0,0,0,0,0,0,0,0,0,0,0,0,0,0,0,0,0,0,0,0,0,0,0,0,0,0,0,0,0,0,0,0,0,0,0,0,0,0,0,0,0,0,0,0,0,0,0,0,0,0,0,0,0,0,0,0,0,0,0,0,0,0,0,0,0,0,0,0,0,0,0,0,0,0,0,0,0,0,0,0,0,0,384,0,385,386,719,385,386,0,384,0,0,0,0,0,0,0,0,392,0,393,394,727,393,394,0,392,0,0,0,0,0,0,0,250,0,86,0,0,735,734,0,86,0,0,0,0,0,0,0,0,0,0,94,733,0,0,0,0,94,0,0,0,0,0,0,0,0,0,0,0,0,0,0,0,0,0,0,0,0,0,0,0,0,0,230,0,0,0,0,726,0,250,0,0,0,0,0,0,0,0,0,223,0,86,0,0,0,734,0,86,0,0,0,0,0,0,0,0,230,0,94,0,0,0,0,0,94,222,0,0,0,0,0,0,0,0,0,0,0,0,0,0,0,0,222,0,0,0,0,0,0,0,0,0,0,0,0,0,0,0,0,0,0,0,0,0,0,0,0,0,0,0,0,0,0,0,0,0,0,0,0,0,0,0,0,0,0,0,0,0,0,0,0,0,0,0,0,0,0,0,0,0,0,0,0,0,0,0,0,0,0,0,0,0,0,0,0,0,0,0,0,0,0,0,0,0,0,0,0,0,0,0,0,0,0,0,0,0,0,0,0,0,0,0,0,0,0,0,0,0,0,0,0,0,0,0,0,0,0,0,0,0,0,0,0,0,0,0,0,0,0,0,0,0,0,0,0,0,0,0,0,0,0,0,0,0,0,0,0,0,0,0,0,0,0,0,0,0,0,0,0,0,0,0,0,0,0,0,0,0,0,0,0,0,0,0,0,0,0,0,0,0,5,0,0,0,0,0,0,0,0,0,0,0,0,0,0,0,0,5,0,0,0,0,0,0,0,0,0,0,0,0,0,0,0,0,5,0,0,0,0,0,0,0,0,0,0,0,0,0,0,0,0,5,0,0,0,0,0,0,0,0,0,0,0,0,0,0,0,0,5,0,0,0,0,0,0,0,0,0,0,0,0,0,0,0,0,5,0,0,0,0,0,0,0,0,0,0,0,0,0,0,0,0,5,0,0,0,0,0,0,0,0,0,0,0,0,0,0,0,0,0,0,0,0,0,0,0,0,0,0,0,0,0,0,0,0,0,0,0,0,0,0,0,0,0,0,0,0,0,0,0,0,0,0,0,0,0,0,0,0,0,0,0,0,0,0,0,0,0,0,0,0,0,0,0,0,0,0,0,0,0,0,0,0,0,0,0,0,0,0,0,0,0,0,0,0,0,0,0,0,0,0,0,0,0,0,0,0,0,0,0,0,0,0,0,0,0,0,0,0,0,0,0,0,0,0,0,0,0,0,0,0,0,0,0,0,0,0,0,0,0,0,0,0,0,0,0,0,0,0,0,0,0,0,0,0,0,0,0,0,0,0,0,0,0,0,0,0,0,0,0,0,0,0,0,0,0,0,0,0,0,0,0,0,0,0,0,0,0,0,0,0,0,0,0,0,0,0,0,0,0,0,0,0,0,0,0,0,0,0,0,0,0,0,0,0,0,0,0,0,0,0,0,0,0,0,0,0,0,0,0,0,0,0,0,0,0,0,0,0,0,0,0,0,0,0,0,0,0,0,0,0,0,0,0,0,0,0,0,0,0,0,0,0,0,0,0,0,0,0,0,0,0,0,0,0,0,0,0,0,0,0,0,0,0,0,0,0,0,0,0,0,0,0,0,0,0,0,0,0,0,0,0,0,0,0,0,0,0,0,0,0,0,0,0,0,0,0,0,0,0,0,0,0,0,0,0,0,0,0,0,0,0,0,0,0,0,0,0,0,0,0,0,0,0,0,0,0,0,0,0,0,0,0,0,0,0,0,0,0,0,0,0,0,0,0,0,0,0,0,0,0,0,0,0,0,0,0,0,0,0,0,0,0,0,0,0,0,0,0,0],"events":[null,{"id":1,"name":"EV001","note":"","pages":[{"conditions":{"actorId":1,"actorValid":false,"itemId":1,"itemValid":false,"selfSwitchCh":"A","selfSwitchValid":false,"switch1Id":1,"switch1Valid":false,"switch2Id":1,"switch2Valid":false,"variableId":1,"variableValid":false,"variableValue":0},"directionFix":false,"image":{"tileId":0,"characterName":"","direction":2,"pattern":0,"characterIndex":0},"moveFrequency":3,"moveRoute":{"list":[{"code":0,"indent":null,"parameters":[]}],"repeat":true,"skippable":false,"wait":false},"moveSpeed":3,"moveType":0,"priorityType":1,"stepAnime":false,"through":false,"trigger":0,"walkAnime":true,"list":[{"code":0,"indent":0,"parameters":[]}]}],"x":8,"y":4},{"id":2,"name":"EV002","note":"","pages":[{"conditions":{"actorId":1,"actorValid":false,"itemId":1,"itemValid":false,"selfSwitchCh":"A","selfSwitchValid":false,"switch1Id":1,"switch1Valid":false,"switch2Id":1,"switch2Valid":false,"variableId":1,"variableValid":false,"variableValue":0},"directionFix":false,"image":{"tileId":0,"characterName":"","direction":2,"pattern":0,"characterIndex":0},"moveFrequency":3,"moveRoute":{"list":[{"code":0,"indent":null,"parameters":[]}],"repeat":true,"skippable":false,"wait":false},"moveSpeed":3,"moveType":0,"priorityType":0,"stepAnime":false,"through":false,"trigger":1,"walkAnime":true,"list":[{"code":250,"indent":0,"parameters":[{"name":"Move","pan":0,"pitch":100,"volume":80}]},{"code":221,"indent":0,"parameters":[]},{"code":205,"indent":0,"parameters":[-1,{"list":[{"code":16,"indent":null,"parameters":[]},{"code":35,"indent":null,"parameters":[]},{"code":33,"indent":null,"parameters":[]},{"code":0,"indent":null,"parameters":[]}],"repeat":false,"skippable":false,"wait":true}]},{"code":505,"indent":0,"parameters":[{"code":16,"indent":null,"parameters":[]}]},{"code":505,"indent":0,"parameters":[{"code":35,"indent":null,"parameters":[]}]},{"code":505,"indent":0,"parameters":[{"code":33,"indent":null,"parameters":[]}]},{"code":111,"indent":0,"parameters":[0,2099,0]},{"code":322,"indent":1,"parameters":[2,"$Simon_Map",0,"1 Simon dark",0,""]},{"code":0,"indent":1,"parameters":[]},{"code":411,"indent":0,"parameters":[]},{"code":322,"indent":1,"parameters":[2,"$Simon_Map",0,"face002b",0,""]},{"code":0,"indent":1,"parameters":[]},{"code":412,"indent":0,"parameters":[]},{"code":201,"indent":0,"parameters":[0,115,18,9,2,2]},{"code":222,"indent":0,"parameters":[]},{"code":0,"indent":0,"parameters":[]}]}],"x":8,"y":12},{"id":3,"name":"EV003","note":"","pages":[{"conditions":{"actorId":1,"actorValid":false,"itemId":1,"itemValid":false,"selfSwitchCh":"A","selfSwitchValid":false,"switch1Id":1,"switch1Valid":false,"switch2Id":1,"switch2Valid":false,"variableId":1,"variableValid":false,"variableValue":0},"directionFix":true,"image":{"tileId":0,"characterName":"Z Stark head","direction":2,"pattern":1,"characterIndex":2},"moveFrequency":3,"moveRoute":{"list":[{"code":0,"indent":null,"parameters":[]}],"repeat":true,"skippable":false,"wait":false},"moveSpeed":3,"moveType":0,"priorityType":1,"stepAnime":false,"through":false,"trigger":0,"walkAnime":true,"list":[{"code":101,"indent":0,"parameters":["Yarra emo",3,0,2]},{"code":401,"indent":0,"parameters":["Are you really just a head? What happened to the rest of your body?"]},{"code":101,"indent":0,"parameters":["Monster1",2,0,2]},{"code":401,"indent":0,"parameters":["Hacked to pieces. Would you be so kind as to finish the job?"]},{"code":101,"indent":0,"parameters":["Aka emo",4,0,2]},{"code":401,"indent":0,"parameters":["How long have you been like this?"]},{"code":101,"indent":0,"parameters":["Monster1",2,0,2]},{"code":401,"indent":0,"parameters":["A very long time, I suspect. Can one of you attempt to kill me now?"]},{"code":101,"indent":0,"parameters":["Hilstara emo",0,0,2]},{"code":401,"indent":0,"parameters":["I'm more interested in an explanation."]},{"code":101,"indent":0,"parameters":["Monster1",2,0,2]},{"code":401,"indent":0,"parameters":["...humans are usually quite eager to kill my kind. Why hold back?"]},{"code":101,"indent":0,"parameters":["face002b",0,0,2]},{"code":401,"indent":0,"parameters":["You aren't the first intelligent orc we've met."]},{"code":101,"indent":0,"parameters":["Monster1",2,0,2]},{"code":401,"indent":0,"parameters":["Really, there are others? That almost..."]},{"code":101,"indent":0,"parameters":["Monster1",2,0,2]},{"code":401,"indent":0,"parameters":["No, nothing has changed. It would still be better to die."]},{"code":101,"indent":0,"parameters":["face002b",0,0,2]},{"code":401,"indent":0,"parameters":["Explain yourself and we may grant your request."]},{"code":101,"indent":0,"parameters":["Monster1",2,0,2]},{"code":401,"indent":0,"parameters":["..."]},{"code":101,"indent":0,"parameters":["Monster1",2,0,2]},{"code":401,"indent":0,"parameters":["There is little to tell. I am an orc, like any other."]},{"code":101,"indent":0,"parameters":["Monster1",2,0,2]},{"code":401,"indent":0,"parameters":["You may have noticed our characteristics vary widely. I believe my intelligence is simply a product of random chance."]},{"code":101,"indent":0,"parameters":["Monster1",2,0,2]},{"code":401,"indent":0,"parameters":["Clearly, I am a defect. It would be better if I did not exist, so I have attempted to remove myself."]},{"code":101,"indent":0,"parameters":["Monster1",2,0,2]},{"code":401,"indent":0,"parameters":["In the throes of battle, I have been able to override my instincts and attempt suicide. Unsuccessfully."]},{"code":101,"indent":0,"parameters":["Monster1",2,0,2]},{"code":401,"indent":0,"parameters":["You see, I am remarkable in another respect: my durability. No matter what I do to myself, I survive."]},{"code":101,"indent":0,"parameters":["Monster1",2,0,2]},{"code":401,"indent":0,"parameters":["It seems even removing most of my body is inadequate. Once I have healed, I will attempt again."]},{"code":101,"indent":0,"parameters":["Aka emo",4,0,2]},{"code":401,"indent":0,"parameters":["Does it... hurt?"]},{"code":101,"indent":0,"parameters":["Monster1",2,0,2]},{"code":401,"indent":0,"parameters":["A great deal. "]},{"code":101,"indent":0,"parameters":["Hilstara emo",0,0,2]},{"code":401,"indent":0,"parameters":["That really shouldn't be possible. I mean, he's missing a heart, lungs, everything..."]},{"code":101,"indent":0,"parameters":["Robin blond emo",0,0,2]},{"code":401,"indent":0,"parameters":["He's enduring on raw life force. I've never felt anything like it."]},{"code":101,"indent":0,"parameters":["Monster1",2,0,2]},{"code":401,"indent":0,"parameters":["Kill me, and end my suffering."]},{"code":101,"indent":0,"parameters":["face002b",0,0,2]},{"code":401,"indent":0,"parameters":["What if there was an alternative?"]},{"code":101,"indent":0,"parameters":["Monster1",2,0,2]},{"code":401,"indent":0,"parameters":["I've given it enough thought. I choose to die. There's nothing else."]},{"code":101,"indent":0,"parameters":["face002b",0,0,2]},{"code":401,"indent":0,"parameters":["I asked you to consider what you'd choose if you had another option."]},{"code":101,"indent":0,"parameters":["Monster1",2,0,2]},{"code":401,"indent":0,"parameters":["And I told you I've considered enough. All paths are illusions. I choose death."]},{"code":250,"indent":0,"parameters":[{"name":"Stare","pan":0,"pitch":50,"volume":80}]},{"code":101,"indent":0,"parameters":["face002b dark",0,0,2]},{"code":401,"indent":0,"parameters":["..."]},{"code":101,"indent":0,"parameters":["Monster1",2,0,2]},{"code":401,"indent":0,"parameters":["...I see. You want me for some purpose, then?"]},{"code":101,"indent":0,"parameters":["face002b",0,0,2]},{"code":401,"indent":0,"parameters":["I believe you lack all the information you need to make your choice."]},{"code":101,"indent":0,"parameters":["Monster1",2,0,2]},{"code":401,"indent":0,"parameters":["My choice remains unchanged, but I am willing to wait and see if it is misinformed."]},{"code":101,"indent":0,"parameters":["Monster1",2,0,2]},{"code":401,"indent":0,"parameters":["If I am allowed to heal, however, my instincts will compel me to attack you. Do you seek to dominate me?"]},{"code":101,"indent":0,"parameters":["Robin blond emo",0,0,2]},{"code":401,"indent":0,"parameters":["Given a little time, I should be able to bind him in some kind of stasis. Assuming we can... use him later."]},{"code":101,"indent":0,"parameters":["face002b",0,0,2]},{"code":401,"indent":0,"parameters":["Please do."]},{"code":101,"indent":0,"parameters":["face002b",0,0,2]},{"code":401,"indent":0,"parameters":["As for you, I believe you could become something greater, just give me some time. What's your name?"]},{"code":101,"indent":0,"parameters":["Monster1",2,0,2]},{"code":401,"indent":0,"parameters":["Walking corpses have no need for names."]},{"code":101,"indent":0,"parameters":["face002b",0,0,2]},{"code":401,"indent":0,"parameters":["I don't intend for you to die. And you can't walk at all now."]},{"code":101,"indent":0,"parameters":["Monster1",2,0,2]},{"code":401,"indent":0,"parameters":["..."]},{"code":101,"indent":0,"parameters":["Monster1",2,0,2]},{"code":401,"indent":0,"parameters":["Stark."]},{"code":101,"indent":0,"parameters":["face002b",0,0,2]},{"code":401,"indent":0,"parameters":["Very well, Stark. Rest for the moment and we can continue this discussion when you wake."]},{"code":221,"indent":0,"parameters":[]},{"code":230,"indent":0,"parameters":[60]},{"code":123,"indent":0,"parameters":["A",0]},{"code":121,"indent":0,"parameters":[242,242,0]},{"code":222,"indent":0,"parameters":[]},{"code":101,"indent":0,"parameters":["Robin blond emo",0,0,2]},{"code":401,"indent":0,"parameters":["It's done. It's also disgusting - someone get a sack... and a clean cloth."]},{"code":101,"indent":0,"parameters":["Aka emo",0,0,2]},{"code":401,"indent":0,"parameters":["We're really going to carry this guy's head around? Okay, I guess."]},{"code":101,"indent":0,"parameters":["Yarra emo2",0,0,2]},{"code":401,"indent":0,"parameters":["He'll be good quality material, if nothing else. Well done!"]},{"code":101,"indent":0,"parameters":["Qum D'umpe emo",6,0,2]},{"code":401,"indent":0,"parameters":["Simon can even make orcs happy!"]},{"code":126,"indent":0,"parameters":[63,0,0,1]},{"code":122,"indent":0,"parameters":[103,103,1,0,3]},{"code":122,"indent":0,"parameters":[105,105,1,0,3]},{"code":0,"indent":0,"parameters":[]}]},{"conditions":{"actorId":1,"actorValid":false,"itemId":1,"itemValid":false,"selfSwitchCh":"A","selfSwitchValid":true,"switch1Id":1,"switch1Valid":false,"switch2Id":1,"switch2Valid":false,"variableId":1,"variableValid":false,"variableValue":0},"directionFix":false,"image":{"tileId":0,"characterName":"","direction":2,"pattern":0,"characterIndex":0},"moveFrequency":3,"moveRoute":{"list":[{"code":0,"indent":null,"parameters":[]}],"repeat":true,"skippable":false,"wait":false},"moveSpeed":3,"moveType":0,"priorityType":0,"stepAnime":false,"through":false,"trigger":0,"walkAnime":true,"list":[{"code":0,"indent":0,"parameters":[]}]},{"conditions":{"actorId":1,"actorValid":false,"itemId":1,"itemValid":false,"selfSwitchCh":"A","selfSwitchValid":false,"switch1Id":2099,"switch1Valid":true,"switch2Id":1,"switch2Valid":false,"variableId":1,"variableValid":false,"variableValue":0},"directionFix":false,"image":{"tileId":0,"characterName":"","direction":2,"pattern":0,"characterIndex":0},"moveFrequency":3,"moveRoute":{"list":[{"code":0,"indent":null,"parameters":[]}],"repeat":true,"skippable":false,"wait":false},"moveSpeed":3,"moveType":0,"priorityType":0,"stepAnime":false,"through":false,"trigger":0,"walkAnime":true,"list":[{"code":0,"indent":0,"parameters":[]}]}],"x":8,"y":5},{"id":4,"name":"EV004","note":"","pages":[{"conditions":{"actorId":1,"actorValid":false,"itemId":1,"itemValid":false,"selfSwitchCh":"A","selfSwitchValid":false,"switch1Id":1,"switch1Valid":false,"switch2Id":1,"switch2Valid":false,"variableId":1,"variableValid":false,"variableValue":0},"directionFix":true,"image":{"tileId":0,"characterName":"!Chest","direction":2,"pattern":0,"characterIndex":6},"moveFrequency":3,"moveRoute":{"list":[{"code":0,"indent":null,"parameters":[]}],"repeat":true,"skippable":false,"wait":false},"moveSpeed":3,"moveType":0,"priorityType":1,"stepAnime":false,"through":false,"trigger":0,"walkAnime":false,"list":[{"code":250,"indent":0,"parameters":[{"name":"Chest","pan":0,"pitch":100,"volume":80}]},{"code":205,"indent":0,"parameters":[0,{"list":[{"code":36,"indent":null,"parameters":[]},{"code":17,"indent":null,"parameters":[]},{"code":15,"indent":null,"parameters":[3]},{"code":18,"indent":null,"parameters":[]},{"code":15,"indent":null,"parameters":[3]},{"code":0,"indent":null,"parameters":[]}],"repeat":false,"skippable":false,"wait":true}]},{"code":505,"indent":0,"parameters":[{"code":36,"indent":null,"parameters":[]}]},{"code":505,"indent":0,"parameters":[{"code":17,"indent":null,"parameters":[]}]},{"code":505,"indent":0,"parameters":[{"code":15,"indent":null,"parameters":[3]}]},{"code":505,"indent":0,"parameters":[{"code":18,"indent":null,"parameters":[]}]},{"code":505,"indent":0,"parameters":[{"code":15,"indent":null,"parameters":[3]}]},{"code":123,"indent":0,"parameters":["A",0]},{"code":125,"indent":0,"parameters":[0,0,1000]},{"code":101,"indent":0,"parameters":["",0,0,2]},{"code":401,"indent":0,"parameters":["Found 1000 Sx."]},{"code":0,"indent":0,"parameters":[]}]},{"conditions":{"actorId":1,"actorValid":false,"itemId":1,"itemValid":false,"selfSwitchCh":"A","selfSwitchValid":true,"switch1Id":1,"switch1Valid":false,"switch2Id":1,"switch2Valid":false,"variableId":1,"variableValid":false,"variableValue":0},"directionFix":true,"image":{"tileId":0,"characterName":"!Chest","direction":8,"pattern":0,"characterIndex":6},"moveFrequency":3,"moveRoute":{"list":[{"code":0,"indent":null,"parameters":[]}],"repeat":true,"skippable":false,"wait":false},"moveSpeed":3,"moveType":0,"priorityType":1,"stepAnime":false,"through":false,"trigger":0,"walkAnime":false,"list":[{"code":0,"indent":0,"parameters":[]}]},{"conditions":{"actorId":1,"actorValid":false,"itemId":1,"itemValid":false,"selfSwitchCh":"A","selfSwitchValid":false,"switch1Id":2099,"switch1Valid":true,"switch2Id":1,"switch2Valid":false,"variableId":1,"variableValid":false,"variableValue":0},"directionFix":true,"image":{"tileId":0,"characterName":"!Chest","direction":8,"pattern":0,"characterIndex":6},"moveFrequency":3,"moveRoute":{"list":[{"code":0,"indent":null,"parameters":[]}],"repeat":true,"skippable":false,"wait":false},"moveSpeed":3,"moveType":0,"priorityType":1,"stepAnime":false,"through":false,"trigger":0,"walkAnime":false,"list":[{"code":0,"indent":0,"parameters":[]}]}],"x":13,"y":11},{"id":5,"name":"EV005","note":"","pages":[{"conditions":{"actorId":1,"actorValid":false,"itemId":1,"itemValid":false,"selfSwitchCh":"A","selfSwitchValid":false,"switch1Id":1,"switch1Valid":false,"switch2Id":1,"switch2Valid":false,"variableId":1,"variableValid":false,"variableValue":0},"directionFix":false,"image":{"tileId":0,"characterName":"","direction":2,"pattern":0,"characterIndex":0},"moveFrequency":3,"moveRoute":{"list":[{"code":0,"indent":null,"parameters":[]}],"repeat":true,"skippable":false,"wait":false},"moveSpeed":3,"moveType":0,"priorityType":0,"stepAnime":false,"through":false,"trigger":3,"walkAnime":true,"list":[{"code":123,"indent":0,"parameters":["A",0]},{"code":101,"indent":0,"parameters":["Hilstara emo",0,0,2]},{"code":401,"indent":0,"parameters":["This place is a mess. Why hasn't the orc head decomposed?"]},{"code":101,"indent":0,"parameters":["Aka emo",3,0,2]},{"code":401,"indent":0,"parameters":["Wait - the blood by the orc's neck is fresh!"]},{"code":101,"indent":0,"parameters":["Monster1",2,0,2]},{"code":401,"indent":0,"parameters":["Good morning. You'll forgive me if I don't rise."]},{"code":213,"indent":0,"parameters":[-1,1,true]},{"code":101,"indent":0,"parameters":["Monster1",2,0,2]},{"code":401,"indent":0,"parameters":["I didn't expect any visitors. Would you be so kind as to kill me?"]},{"code":101,"indent":0,"parameters":["face002b",0,0,2]},{"code":401,"indent":0,"parameters":["..."]},{"code":0,"indent":0,"parameters":[]}]},{"conditions":{"actorId":1,"actorValid":false,"itemId":1,"itemValid":false,"selfSwitchCh":"A","selfSwitchValid":true,"switch1Id":1,"switch1Valid":false,"switch2Id":1,"switch2Valid":false,"variableId":1,"variableValid":false,"variableValue":0},"directionFix":false,"image":{"tileId":0,"characterName":"","direction":2,"pattern":0,"characterIndex":0},"moveFrequency":3,"moveRoute":{"list":[{"code":0,"indent":null,"parameters":[]}],"repeat":true,"skippable":false,"wait":false},"moveSpeed":3,"moveType":0,"priorityType":0,"stepAnime":false,"through":false,"trigger":0,"walkAnime":true,"list":[{"code":0,"indent":0,"parameters":[]}]},{"conditions":{"actorId":1,"actorValid":false,"itemId":1,"itemValid":false,"selfSwitchCh":"A","selfSwitchValid":false,"switch1Id":2099,"switch1Valid":true,"switch2Id":1,"switch2Valid":false,"variableId":1,"variableValid":false,"variableValue":0},"directionFix":false,"image":{"tileId":0,"characterName":"","direction":2,"pattern":0,"characterIndex":0},"moveFrequency":3,"moveRoute":{"list":[{"code":0,"indent":null,"parameters":[]}],"repeat":true,"skippable":false,"wait":false},"moveSpeed":3,"moveType":0,"priorityType":0,"stepAnime":false,"through":false,"trigger":0,"walkAnime":true,"list":[{"code":0,"indent":0,"parameters":[]}]}],"x":0,"y":0},{"id":6,"name":"Chosen","note":"","pages":[{"conditions":{"actorId":1,"actorValid":false,"itemId":1,"itemValid":false,"selfSwitchCh":"A","selfSwitchValid":false,"switch1Id":3761,"switch1Valid":true,"switch2Id":1,"switch2Valid":false,"variableId":1,"variableValid":false,"variableValue":0},"directionFix":false,"image":{"tileId":0,"characterName":"male hero","direction":8,"pattern":1,"characterIndex":0},"moveFrequency":3,"moveRoute":{"list":[{"code":0,"indent":null,"parameters":[]}],"repeat":true,"skippable":false,"wait":false},"moveSpeed":3,"moveType":1,"priorityType":1,"stepAnime":false,"through":false,"trigger":0,"walkAnime":true,"list":[{"code":111,"indent":0,"parameters":[1,316,0,17,1]},{"code":101,"indent":1,"parameters":["MainActor1-3fsx",0,0,2]},{"code":401,"indent":1,"parameters":["hhelQNAAH PJZJKjUfjrhVOg2 S9zPoZ mMFoHVa5UM9 8Ro9ycRd2BW4 NCBXzHjuhZnVkx 1cPhiAkr f8yMi vzYqgJ TiZr2YnZeP QCC2IR6at2iE6I4jlH JSb6ZuH1Dm\\.\\^"]},{"code":101,"indent":1,"parameters":["MainActor1-3fsx",0,0,2]},{"code":401,"indent":1,"parameters":["KPl rK6lRa2M3 IYF5Xjoi7TgHE0N hce6hlker JN37lG3yAnRXQ4 HAFKDpBqEDCj2 hDl6BjKIPlr auMUx67dIk aBpR13 JhCHkgp9Zc\\.\\^"]},{"code":101,"indent":1,"parameters":["MainActor1-3fsx",0,0,2]},{"code":401,"indent":1,"parameters":["t5v0p FHya9 HdILWDJlg6Ai wpE0efxEOM5W8Wovt5X N1PrQQsTY npP7MJVbM Hjg4PYgjYx lfq KXYz0 y2Wwi1Uwf dzZx75RsU Lr7YpKiF OpoOymQz oXyYHGHdt\\.\\^"]},{"code":101,"indent":1,"parameters":["MainActor1-3fsx",0,0,2]},{"code":401,"indent":1,"parameters":["AAAAAAAAAAAA!\\.\\^"]},{"code":101,"indent":1,"parameters":["MainActor1-3fsx",0,0,2]},{"code":401,"indent":1,"parameters":["AAAAAAAAAAAAAAAAAAAAAAAAAAAAAAAAAAAAAAA!\\.\\^"]},{"code":101,"indent":1,"parameters":["MainActor1-3fsx",0,0,2]},{"code":401,"indent":1,"parameters":["AAAAAAAAAAAAAAAAAAAAAAAAAAAAAAAAAAAAAAA<br>"]},{"code":401,"indent":1,"parameters":["AAAAAAAAAAAAAAAAAAAAAAAAAAAAAAAAAAAAAAA<br>"]},{"code":401,"indent":1,"parameters":["AAAAAAAAAAAAAAAAAAAAAAAAAAAAAAAAAAAAAAA<br>"]},{"code":401,"indent":1,"parameters":["AAAAAAAAAAAAAAAAAAAAAAAAAAAAAAAAAAAAAA!\\.\\^"]},{"code":224,"indent":1,"parameters":[[255.0,255.0,255.0,255.0],60,false]},{"code":230,"indent":1,"parameters":[30]},{"code":123,"indent":1,"parameters":["A",0]},{"code":230,"indent":1,"parameters":[30]},{"code":127,"indent":1,"parameters":[1,0,0,1,false]},{"code":101,"indent":1,"parameters":["",0,0,2]},{"code":401,"indent":1,"parameters":["Took a Shining Sword."]},{"code":101,"indent":1,"parameters":["Aka emo2",5,0,2]},{"code":401,"indent":1,"parameters":["Hopefully that will be the end of that."]},{"code":121,"indent":1,"parameters":[3800,3800,0]},{"code":0,"indent":1,"parameters":[]},{"code":411,"indent":0,"parameters":[]},{"code":111,"indent":1,"parameters":[1,316,0,1,1]},{"code":101,"indent":2,"parameters":["MainActor1-3fsx",0,0,2]},{"code":401,"indent":2,"parameters":["hhelQNAAH PJZJKjUfjrhVOg2 S9zPoZ mMFoHVa5UM9 8Ro9ycRd2BW4 NCBXzHjuhZnVkx 1cPhiAkr f8yMi vzYqgJ TiZr2YnZeP QCC2IR6at2iE6I4jlH JSb6ZuH1Dm\\.\\^"]},{"code":101,"indent":2,"parameters":["MainActor1-3fsx",0,0,2]},{"code":401,"indent":2,"parameters":["KPl rK6lRa2M3 IYF5Xjoi7TgHE0N hce6hlker JN37lG3yAnRXQ4 HAFKDpBqEDCj2 hDl6BjKIPlr auMUx67dIk aBpR13 JhCHkgp9Zc\\.\\^"]},{"code":101,"indent":2,"parameters":["MainActor1-3fsx",0,0,2]},{"code":401,"indent":2,"parameters":["t5v0p FHya9 HdILWDJlg6Ai wpE0efxEOM5W8Wovt5X N1PrQQsTY npP7MJVbM Hjg4PYgjYx lfq KXYz0 y2Wwi1Uwf dzZx75RsU Lr7YpKiF OpoOymQz oXyYHGHdt\\.\\^"]},{"code":224,"indent":2,"parameters":[[255.0,255.0,255.0,255.0],60,false]},{"code":230,"indent":2,"parameters":[30]},{"code":123,"indent":2,"parameters":["A",0]},{"code":230,"indent":2,"parameters":[30]},{"code":122,"indent":2,"parameters":[316,316,1,0,1]},{"code":0,"indent":2,"parameters":[]},{"code":411,"indent":1,"parameters":[]},{"code":101,"indent":2,"parameters":["MainActor1-3fsx",0,0,2]},{"code":401,"indent":2,"parameters":["hhelQNAAH PJZJKjUfjrhVOg2 S9zPoZ mMFoHVa5UM9 8Ro9ycRd2BW4 NCBXzHjuhZnVkx 1cPhiAkr f8yMi vzYqgJ TiZr2YnZeP QCC2IR6at2iE6I4jlH JSb6ZuH1Dm\\.\\^"]},{"code":101,"indent":2,"parameters":["MainActor1-3fsx",0,0,2]},{"code":401,"indent":2,"parameters":["KPl rK6lRa2M3 IYF5Xjoi7TgHE0N hce6hlker JN37lG3yAnRXQ4 HAFKDpBqEDCj2 hDl6BjKIPlr auMUx67dIk aBpR13 JhCHkgp9Zc\\.\\^"]},{"code":101,"indent":2,"parameters":["MainActor1-3fsx",0,0,2]},{"code":401,"indent":2,"parameters":["t5v0p FHya9 HdILWDJlg6Ai wpE0efxEOM5W8Wovt5X N1PrQQsTY npP7MJVbM Hjg4PYgjYx lfq KXYz0 y2Wwi1Uwf dzZx75RsU Lr7YpKiF OpoOymQz oXyYHGHdt\\.\\^"]},{"code":224,"indent":2,"parameters":[[255.0,255.0,255.0,255.0],60,false]},{"code":230,"indent":2,"parameters":[30]},{"code":123,"indent":2,"parameters":["A",0]},{"code":230,"indent":2,"parameters":[30]},{"code":101,"indent":2,"parameters":["Aka emo2",2,0,2]},{"code":401,"indent":2,"parameters":["What the FUCK was that?"]},{"code":101,"indent":2,"parameters":["Robin blond emo",0,0,2]},{"code":401,"indent":2,"parameters":["I... truly do not know. It wasn't arcane magic."]},{"code":101,"indent":2,"parameters":["Riala emo",5,0,2]},{"code":401,"indent":2,"parameters":["Nor sexual."]},{"code":101,"indent":2,"parameters":["Qum D'umpe emo",4,0,2]},{"code":401,"indent":2,"parameters":["Cumdump's head is confused."]},{"code":101,"indent":2,"parameters":["Yarra emo",0,0,2]},{"code":401,"indent":2,"parameters":["Well, having fewer Chosen running around is a good thing? I guess?"]},{"code":122,"indent":2,"parameters":[316,316,1,0,1]},{"code":0,"indent":2,"parameters":[]},{"code":412,"indent":1,"parameters":[]},{"code":0,"indent":1,"parameters":[]},{"code":412,"indent":0,"parameters":[]},{"code":0,"indent":0,"parameters":[]}]},{"conditions":{"actorId":1,"actorValid":false,"itemId":1,"itemValid":false,"selfSwitchCh":"A","selfSwitchValid":true,"switch1Id":1,"switch1Valid":false,"switch2Id":1,"switch2Valid":false,"variableId":1,"variableValid":false,"variableValue":0},"directionFix":false,"image":{"tileId":0,"characterName":"","direction":2,"pattern":0,"characterIndex":0},"moveFrequency":3,"moveRoute":{"list":[{"code":0,"indent":null,"parameters":[]}],"repeat":true,"skippable":false,"wait":false},"moveSpeed":3,"moveType":0,"priorityType":0,"stepAnime":false,"through":false,"trigger":0,"walkAnime":true,"list":[{"code":0,"indent":0,"parameters":[]}]},{"conditions":{"actorId":1,"actorValid":false,"itemId":1,"itemValid":false,"selfSwitchCh":"A","selfSwitchValid":false,"switch1Id":3800,"switch1Valid":true,"switch2Id":1,"switch2Valid":false,"variableId":1,"variableValid":false,"variableValue":0},"directionFix":false,"image":{"tileId":0,"characterName":"","direction":2,"pattern":0,"characterIndex":0},"moveFrequency":3,"moveRoute":{"list":[{"code":0,"indent":null,"parameters":[]}],"repeat":true,"skippable":false,"wait":false},"moveSpeed":3,"moveType":0,"priorityType":0,"stepAnime":false,"through":false,"trigger":0,"walkAnime":true,"list":[{"code":0,"indent":0,"parameters":[]}]}],"x":4,"y":8},{"id":7,"name":"Stark","note":"","pages":[{"conditions":{"actorId":1,"actorValid":false,"itemId":1,"itemValid":false,"selfSwitchCh":"A","selfSwitchValid":false,"switch1Id":2099,"switch1Valid":true,"switch2Id":1710,"switch2Valid":true,"variableId":1,"variableValid":false,"variableValue":0},"directionFix":true,"image":{"tileId":0,"characterName":"Monster1","direction":8,"pattern":1,"characterIndex":2},"moveFrequency":3,"moveRoute":{"list":[{"code":0,"indent":null,"parameters":[]}],"repeat":true,"skippable":false,"wait":false},"moveSpeed":3,"moveType":0,"priorityType":1,"stepAnime":false,"through":false,"trigger":0,"walkAnime":true,"list":[{"code":101,"indent":0,"parameters":["Monster1",2,0,2]},{"code":401,"indent":0,"parameters":["Simon. Why do you remain alive?"]},{"code":101,"indent":0,"parameters":["1 Simon dark",0,0,2]},{"code":401,"indent":0,"parameters":["I could tell you what I hope to accomplish, but I don't think that's what you're asking."]},{"code":101,"indent":0,"parameters":["Monster1",2,0,2]},{"code":401,"indent":0,"parameters":["No. Why do you prefer existence over non-existence?"]},{"code":101,"indent":0,"parameters":["1 Simon dark",0,0,2]},{"code":401,"indent":0,"parameters":["I confess that's not something I spend a great deal of time contemplating."]},{"code":101,"indent":0,"parameters":["Monster1",2,0,2]},{"code":401,"indent":0,"parameters":["Nor does anyone else. It is part of the madness of this world, everyone rushing about without giving the slightest thought to a basic question."]},{"code":101,"indent":0,"parameters":["1 Simon dark",0,0,2]},{"code":401,"indent":0,"parameters":["...I don't think that's a reasonable position to take."]},{"code":101,"indent":0,"parameters":["Monster1",2,0,2]},{"code":401,"indent":0,"parameters":["No? You think life has some great value?"]},{"code":101,"indent":0,"parameters":["1 Simon dark",0,0,2]},{"code":401,"indent":0,"parameters":["It seems to me that beings that prefer non-existence will soon stop existing."]},{"code":101,"indent":0,"parameters":["1 Simon dark",0,0,2]},{"code":401,"indent":0,"parameters":["It is natural that the world would be filled by those that fight hardest for existence."]},{"code":101,"indent":0,"parameters":["Monster1",2,0,2]},{"code":401,"indent":0,"parameters":["Hmm. That is... rational."]},{"code":230,"indent":0,"parameters":[60]},{"code":101,"indent":0,"parameters":["1 Simon dark",0,0,2]},{"code":401,"indent":0,"parameters":["Earlier, you asked to die and I denied that request. Now that the imminent need for military force has passed, I am not sure I can justify that any longer."]},{"code":101,"indent":0,"parameters":["Monster1",2,0,2]},{"code":401,"indent":0,"parameters":["..."]},{"code":101,"indent":0,"parameters":["1 Simon dark",0,0,2]},{"code":401,"indent":0,"parameters":["With the new power that I have gained, I believe I could end even your life. Do you want me to try?"]},{"code":213,"indent":0,"parameters":[0,8,true]},{"code":101,"indent":0,"parameters":["Monster1",2,0,2]},{"code":401,"indent":0,"parameters":["...no."]},{"code":230,"indent":0,"parameters":[30]},{"code":205,"indent":0,"parameters":[0,{"list":[{"code":36,"indent":null,"parameters":[]},{"code":25,"indent":null,"parameters":[]},{"code":0,"indent":null,"parameters":[]}],"repeat":false,"skippable":false,"wait":true}]},{"code":505,"indent":0,"parameters":[{"code":36,"indent":null,"parameters":[]}]},{"code":505,"indent":0,"parameters":[{"code":25,"indent":null,"parameters":[]}]},{"code":230,"indent":0,"parameters":[30]},{"code":111,"indent":0,"parameters":[0,2033,0]},{"code":101,"indent":1,"parameters":["Monster1",2,0,2]},{"code":401,"indent":1,"parameters":["During the war, I stepped forward to save lives in Ardford. And it did not matter to me."]},{"code":0,"indent":1,"parameters":[]},{"code":411,"indent":0,"parameters":[]},{"code":101,"indent":1,"parameters":["Monster1",2,0,2]},{"code":401,"indent":1,"parameters":["During the war, I saw many live or die based on your decisions. And it did not matter to me."]},{"code":0,"indent":1,"parameters":[]},{"code":412,"indent":0,"parameters":[]},{"code":101,"indent":0,"parameters":["Monster1",2,0,2]},{"code":401,"indent":0,"parameters":["When you defeated the Incubus Emperor, I saw many rejoice. And it did not matter to me."]},{"code":101,"indent":0,"parameters":["Monster1",2,0,2]},{"code":401,"indent":0,"parameters":["Afterward, I have seen many build toward their hopes and dreams. And it did not matter to me."]},{"code":101,"indent":0,"parameters":["Monster1",2,0,2]},{"code":401,"indent":0,"parameters":["However... it seems to me that many of those I have seen do not have lives any more absurd than mine. Indeed, some are more cruel and senseless."]},{"code":101,"indent":0,"parameters":["Monster1",2,0,2]},{"code":401,"indent":0,"parameters":["I do not feel that I have any pressing reason to be alive. But it does not seem impossible that I will one day find a reason."]},{"code":101,"indent":0,"parameters":["1 Simon dark",1,0,2]},{"code":401,"indent":0,"parameters":["Ah. Then we're glad to have you still with us, Stark."]},{"code":101,"indent":0,"parameters":["1 Simon dark",0,0,2]},{"code":401,"indent":0,"parameters":["Let Balia know if you would like your current form to change in any way."]},{"code":101,"indent":0,"parameters":["Monster1",2,0,2]},{"code":401,"indent":0,"parameters":["At the moment, I am content as I am. But I will consider the matter."]},{"code":101,"indent":0,"parameters":["Monster1",2,0,2]},{"code":401,"indent":0,"parameters":["I will also do my part contributing to the development of orckind. I doubt it will matter to me, but it is better than sitting idle."]},{"code":101,"indent":0,"parameters":["1 Simon dark",1,0,2]},{"code":401,"indent":0,"parameters":["Thank you, Stark."]},{"code":101,"indent":0,"parameters":["Monster1",2,0,2]},{"code":401,"indent":0,"parameters":["Finally, something of my power. I doubt it will work for you, but perhaps other orcs could make use of it."]},{"code":128,"indent":0,"parameters":[373,0,0,1,false]},{"code":101,"indent":0,"parameters":["",0,0,2]},{"code":401,"indent":0,"parameters":["Received Stark's Cloak."]},{"code":221,"indent":0,"parameters":[]},{"code":230,"indent":0,"parameters":[60]},{"code":121,"indent":0,"parameters":[2550,2550,0]},{"code":122,"indent":0,"parameters":[129,129,1,0,2]},{"code":122,"indent":0,"parameters":[77,77,1,0,1]},{"code":122,"indent":0,"parameters":[79,79,1,0,1]},{"code":123,"indent":0,"parameters":["A",0]},{"code":222,"indent":0,"parameters":[]},{"code":0,"indent":0,"parameters":[]}]},{"conditions":{"actorId":1,"actorValid":false,"itemId":1,"itemValid":false,"selfSwitchCh":"A","selfSwitchValid":true,"switch1Id":1,"switch1Valid":false,"switch2Id":1,"switch2Valid":false,"variableId":1,"variableValid":false,"variableValue":0},"directionFix":false,"image":{"tileId":0,"characterName":"","direction":2,"pattern":0,"characterIndex":0},"moveFrequency":3,"moveRoute":{"list":[{"code":0,"indent":null,"parameters":[]}],"repeat":true,"skippable":false,"wait":false},"moveSpeed":3,"moveType":0,"priorityType":0,"stepAnime":false,"through":false,"trigger":0,"walkAnime":true,"list":[{"code":0,"indent":0,"parameters":[]}]}],"x":8,"y":7}]
}
