{
"autoplayBgm":false,"autoplayBgs":false,"battleback1Name":"Paved","battleback2Name":"DarkSpace","bgm":{"name":"","pan":0,"pitch":100,"volume":100},"bgs":{"name":"","pan":0,"pitch":100,"volume":80},"disableDashing":false,"displayName":"Order Trials II","encounterList":[],"encounterStep":30,"height":25,"note":"","parallaxLoopX":false,"parallaxLoopY":false,"parallaxName":"DarkSpace1","parallaxShow":true,"parallaxSx":0,"parallaxSy":0,"scrollType":0,"specifyBattleback":true,"tilesetId":11,"width":17,"data":[0,0,0,0,0,0,0,0,0,0,0,0,0,0,0,0,0,0,0,0,0,0,0,0,0,0,0,0,0,0,0,0,0,0,0,0,0,0,0,0,0,0,0,0,0,0,0,0,0,0,0,0,0,0,0,0,0,0,0,0,0,0,0,0,0,0,0,0,0,0,0,0,0,0,0,7027,7025,7029,0,0,0,0,0,0,0,0,0,0,0,0,0,0,7024,7378,7024,0,0,0,0,0,0,0,0,0,0,0,0,0,0,7024,7384,7024,0,0,0,0,0,0,0,0,0,0,0,0,0,0,7024,1585,7024,0,0,0,0,0,0,0,0,0,0,0,7027,7025,7025,7031,1585,7033,7025,7025,7029,0,0,0,0,0,0,0,0,7024,7378,7378,7382,1585,7379,7378,7378,7024,0,0,0,0,0,0,0,0,7024,7384,7384,7388,1585,7385,7384,7384,7024,0,0,0,0,0,0,0,0,7024,1585,1585,1585,1585,1585,1585,1585,7024,0,0,0,0,0,0,0,0,7024,1585,1585,1585,1585,1585,1585,1585,7024,0,0,0,0,0,0,0,0,7024,1585,1585,1585,1585,1585,1585,1585,7024,0,0,0,0,0,0,0,0,7024,1585,1585,1585,1585,1585,1585,1585,7024,0,0,0,0,0,0,0,0,7024,1585,1585,1585,1585,1585,1585,1585,7024,0,0,0,0,0,0,0,0,7024,1585,1585,1585,1585,1585,1585,1585,7024,0,0,0,0,0,0,0,0,7024,1585,1585,1585,1585,1585,1585,1585,7024,0,0,0,0,0,0,0,0,7024,1585,1585,1585,1585,1585,1585,1585,7024,0,0,0,0,0,0,0,0,7024,1585,1585,1585,1585,1585,1585,1585,7024,0,0,0,0,0,0,0,0,7024,1585,1585,1585,1585,1585,1585,1585,7024,0,0,0,0,0,0,0,0,7033,7025,7025,7025,7025,7025,7025,7025,7031,0,0,0,0,0,0,0,0,7379,7378,7378,7378,7378,7378,7378,7378,7382,0,0,0,0,0,0,0,0,7385,7384,7384,7384,7384,7384,7384,7384,7388,0,0,0,0,0,0,0,0,0,0,0,0,0,0,0,0,0,0,0,0,0,0,0,0,0,0,0,0,0,0,0,0,0,0,0,0,0,0,0,0,0,0,0,0,0,0,0,0,0,0,0,0,0,0,0,0,0,0,0,0,0,0,0,0,0,0,0,0,0,0,0,0,0,0,0,0,0,0,0,0,0,0,0,0,0,0,0,0,0,0,0,0,0,0,0,0,0,0,0,0,0,0,0,0,0,0,0,0,0,0,0,0,0,0,0,0,0,0,0,0,0,0,0,0,0,0,0,0,0,0,0,0,0,0,0,0,0,0,0,0,0,0,0,0,0,0,0,0,0,0,0,0,0,0,0,0,0,0,0,0,0,0,0,0,0,0,0,0,0,0,0,0,0,0,0,0,0,0,0,0,0,0,0,0,0,0,0,0,0,0,0,0,0,0,0,0,0,0,0,0,0,0,0,0,0,0,0,0,0,0,0,0,0,0,0,0,0,0,0,0,0,0,0,0,0,0,0,0,0,0,0,0,0,0,0,0,0,0,0,0,0,0,0,0,0,0,0,0,0,0,0,0,0,0,0,0,0,0,0,0,0,0,0,0,0,0,0,0,0,0,0,0,0,0,0,0,0,0,0,0,0,0,0,0,0,0,0,0,0,0,0,0,0,0,0,0,0,0,0,0,0,0,0,0,0,0,0,0,0,0,0,0,0,0,0,0,0,0,0,0,0,0,0,0,0,0,0,0,0,0,0,0,0,0,0,0,0,0,0,0,0,0,0,0,0,0,0,0,0,0,0,0,0,0,0,0,0,0,0,0,0,0,0,0,0,0,0,0,0,0,0,0,0,0,0,0,0,0,0,0,0,0,0,0,0,0,0,0,0,0,0,0,0,0,0,0,0,0,0,0,0,0,0,0,0,0,0,0,0,0,0,0,0,0,0,0,0,0,0,0,0,0,0,0,0,0,0,0,0,0,0,0,0,0,0,0,0,0,0,0,0,0,0,0,0,0,0,0,0,0,0,0,0,0,0,0,0,0,0,0,0,0,0,0,0,0,0,0,0,0,0,0,0,0,0,0,0,0,0,0,0,0,0,0,0,0,0,0,0,0,0,0,0,0,0,0,0,0,0,0,0,0,0,0,0,0,0,0,0,0,0,0,0,0,0,0,0,0,0,0,0,0,0,0,0,0,0,0,0,0,0,0,0,0,0,0,0,0,0,0,0,0,0,0,0,0,0,0,0,0,0,0,0,0,0,0,0,0,0,0,0,0,0,0,0,0,0,0,0,0,0,0,0,0,0,0,0,0,0,0,0,0,0,0,0,0,0,0,0,0,0,0,0,0,0,0,0,0,0,0,0,0,0,0,0,0,0,0,0,0,0,0,0,0,0,0,0,0,0,0,0,0,0,0,0,0,0,0,0,0,0,0,0,0,0,0,0,0,0,0,0,0,0,0,0,0,0,0,0,0,0,0,0,0,0,0,0,0,0,0,0,0,0,0,0,0,0,0,0,0,0,0,0,0,0,0,0,0,0,0,0,0,0,0,0,0,0,0,0,0,0,0,0,0,0,0,0,0,0,0,0,0,0,0,0,0,0,0,0,0,0,0,0,0,0,0,0,0,0,0,0,0,0,0,0,0,0,0,0,0,0,0,0,0,0,0,0,0,0,0,0,0,0,0,0,0,0,0,0,0,0,0,0,0,0,0,0,0,0,0,0,0,0,0,0,0,0,0,0,0,0,0,0,0,0,0,0,0,0,0,0,0,0,0,0,0,0,0,0,0,0,0,0,0,0,0,0,0,0,0,0,0,0,0,0,0,0,0,0,0,0,0,0,0,0,0,0,0,0,0,0,0,0,0,0,0,0,0,0,0,0,0,0,0,0,0,0,0,0,0,0,0,0,0,0,0,0,0,0,0,0,0,0,0,0,0,0,0,0,0,0,0,0,0,0,0,0,0,0,0,0,0,0,0,0,0,0,0,0,0,0,0,0,0,0,0,0,0,0,0,0,0,0,0,0,0,0,0,0,0,0,0,0,0,0,0,0,0,0,0,0,0,0,0,0,0,0,0,0,0,0,0,0,0,0,0,0,0,0,0,0,0,0,0,0,0,0,0,0,0,0,0,0,0,0,0,0,0,0,0,0,0,0,0,0,0,0,0,0,0,0,0,0,0,0,0,0,0,0,0,0,0,0,0,0,0,0,0,0,0,0,0,0,0,0,0,0,0,0,0,0,0,0,0,0,0,0,0,934,0,0,0,0,0,0,0,0,0,0,0,0,0,0,0,0,0,0,0,0,0,0,0,0,0,0,0,0,0,0,0,0,0,0,0,0,0,0,0,0,0,0,0,0,0,0,0,0,0,0,0,0,0,0,0,0,0,0,0,0,0,0,0,0,0,0,0,0,0,0,0,0,0,0,0,0,0,0,0,0,0,616,617,618,0,616,617,618,0,0,0,0,0,0,0,0,0,0,624,625,626,0,624,625,626,0,0,0,0,0,0,0,0,0,0,0,0,0,0,0,0,0,0,0,0,0,0,0,0,0,0,0,0,0,0,0,0,0,0,0,0,0,0,0,0,0,0,0,0,616,617,618,0,616,617,618,0,0,0,0,0,0,0,0,0,0,624,625,626,0,624,625,626,0,0,0,0,0,0,0,0,0,0,0,0,0,0,0,0,0,0,0,0,0,0,0,0,0,0,0,0,0,0,0,0,0,0,0,0,0,0,0,0,0,0,0,0,0,0,0,935,0,0,0,0,0,0,0,0,0,0,0,0,0,0,0,0,0,0,0,0,0,0,0,0,0,0,0,0,0,0,0,0,0,0,0,0,0,0,0,0,0,0,0,0,0,0,0,0,0,0,0,0,0,0,0,0,0,0,0,0,0,0,0,0,0,0,0,0,0,0,0,0,0,0,0,0,0,0,0,0,0,0,0,0,0,0,0,0,0,0,0,0,0,0,0,0,0,0,0,0,0,0,0,0,0,0,0,0,0,0,0,0,0,0,0,0,0,0,0,0,0,0,0,0,0,0,0,0,0,0,0,0,0,0,0,0,0,0,0,0,0,0,0,0,0,0,0,0,0,0,0,0,0,0,0,0,0,0,0,0,0,0,0,0,0,0,0,0,0,0,0,0,0,0,0,0,0,0,0,0,0,0,0,0,0,0,0,0,0,0,0,0,0,0,0,0,0,0,0,0,0,0,0,5,0,0,0,0,0,0,0,0,0,0,0,0,0,0,0,0,5,0,0,0,0,0,0,0,0,0,0,0,0,0,0,0,0,5,0,0,0,0,0,0,0,0,0,0,0,0,0,0,0,0,5,0,0,0,0,0,0,0,0,0,0,0,0,0,5,0,0,0,0,0,0,0,0,0,0,0,0,0,0,0,0,5,0,0,0,0,0,0,0,0,0,0,0,0,0,0,0,0,5,0,0,0,0,0,0,0,0,0,0,0,0,0,0,0,0,5,0,0,0,0,0,0,0,0,0,0,0,0,0,0,0,0,5,0,0,0,0,0,0,0,0,0,0,0,0,0,0,0,0,5,0,0,0,0,0,0,0,0,0,0,0,0,0,0,0,0,5,0,0,0,0,0,0,0,0,0,0,0,0,0,0,0,0,5,0,0,0,0,0,0,0,0,0,0,0,0,0,0,0,0,5,0,0,0,0,0,0,0,0,0,0,0,0,0,0,0,0,5,0,0,0,0,0,0,0,0,0,0,0,0,0,0,0,0,0,0,0,0,0,0,0,0,0,0,0,0,0,0,0,0,0,0,0,0,0,0,0,0,0,0,0,0,0,0,0,0,0,0,0,0,0,0,0,0,0,0,0,0,0,0,0,0,0,0,0,0,0,0,0,0,0,0,0,0,0,0,0,0,0,0,0,0,0,0,0,0,0,0,0,0,0,0,0,0,0,0,0,0,0,0,0,0,0,0,0,0,0,0,0,0,0,0,0,0,0,0,0,0,0,0,0,0,0,0,0,0,0,0,0,0,0,0,0,0,0,0,0,0,0,0,0,0,0,0,0,0,0,0,0,0,0,0,0,0,0,0,0,0,0,0,0,0,0,0,0,0,0,0,0,0,0,0,0,0,0,0,0,0,0,0,0,0,0,0,0,0,0,0,0,0,0,0,0,0,0,0,0,0,0,0,0,0,0,0,0,0,0,0,0,0,0,0,0,0,0,0,0,0,0,0,0,0,0,0,0,0,0,0,0,0,0,0,0,0,0,0,0,0,0,0,0,0,0,0,0,0,0,0,0,0,0,0,0,0,0,0,0,0,0,0,0,0,0,0,0,0,0,0,0,0,0,0,0,0,0,0,0,0,0,0,0,0,0,0,0,0,0,0,0,0,0,0,0,0,0,0,0,0,0,0,0,0,0,0,0,0,0,0,0,0,0,0,0,0,0,0,0,0,0,0,0,0,0,0,0,0,0,0,0,0,0,0,0,0,0,0,0,0,0,0,0,0,0,0,0,0,0,0,0,0,0,0,0,0,0,0,0,0,0,0,0,0,0,0,0,0,0,0,0,0,0,0,0,0,0,0,0,0,0,0,0,0,0,0,0,0,0,0,0,0,0,0,0,0,0,0,0,0,0,0,0,0,0,0,0,0,0,0,0,0,0,0,0,0,0,0,0,0,0,0,0,0,0,0,0,0,0,0,0,0,0,0,0,0,0,0,0,0,0,0,0,0,0,0,0,0,0,0,0,0,0,0,0,0,0,0,0,0,0,0,0,0,0,0,0,0,0,0,0,0,0,0,0,0,0,0,0,0,0,0,0,0,0,0,0,0,0,0,0,0,0,0,0,0,0,0,0,0,0,0,0,0],"events":[null,{"id":1,"name":"EV001","note":"","pages":[{"conditions":{"actorId":1,"actorValid":false,"itemId":1,"itemValid":false,"selfSwitchCh":"A","selfSwitchValid":false,"switch1Id":1,"switch1Valid":false,"switch2Id":1,"switch2Valid":false,"variableId":1,"variableValid":false,"variableValue":0},"directionFix":false,"image":{"tileId":0,"characterName":"","direction":2,"pattern":0,"characterIndex":0},"moveFrequency":3,"moveRoute":{"list":[{"code":0,"indent":null,"parameters":[]}],"repeat":true,"skippable":false,"wait":false},"moveSpeed":3,"moveType":0,"priorityType":0,"stepAnime":false,"through":false,"trigger":1,"walkAnime":true,"list":[{"code":250,"indent":0,"parameters":[{"name":"Teleport","pan":0,"pitch":100,"volume":80}]},{"code":201,"indent":0,"parameters":[0,163,9,39,2,1]},{"code":0,"indent":0,"parameters":[]}]}],"x":8,"y":20},{"id":2,"name":"EV002","note":"","pages":[{"conditions":{"actorId":1,"actorValid":false,"itemId":1,"itemValid":false,"selfSwitchCh":"A","selfSwitchValid":false,"switch1Id":1,"switch1Valid":false,"switch2Id":1,"switch2Valid":false,"variableId":1,"variableValid":false,"variableValue":0},"directionFix":false,"image":{"tileId":0,"characterName":"","direction":2,"pattern":0,"characterIndex":0},"moveFrequency":3,"moveRoute":{"list":[{"code":0,"indent":null,"parameters":[]}],"repeat":true,"skippable":false,"wait":false},"moveSpeed":3,"moveType":0,"priorityType":0,"stepAnime":false,"through":false,"trigger":1,"walkAnime":true,"list":[{"code":123,"indent":0,"parameters":["A",0]},{"code":250,"indent":0,"parameters":[{"name":"Teleport","pan":0,"pitch":100,"volume":80}]},{"code":201,"indent":0,"parameters":[0,163,9,37,8,1]},{"code":121,"indent":0,"parameters":[395,395,0]},{"code":111,"indent":0,"parameters":[1,41,0,12,1]},{"code":101,"indent":1,"parameters":["Robin blond emo",0,0,2]},{"code":401,"indent":1,"parameters":["We're done with the trial."]},{"code":101,"indent":1,"parameters":["Y DS_Actor03",3,0,2]},{"code":401,"indent":1,"parameters":["You're being too modest - you did fantastically on this trial."]},{"code":101,"indent":1,"parameters":["Robin blond emo",0,0,2]},{"code":401,"indent":1,"parameters":["You're too kind."]},{"code":101,"indent":1,"parameters":["Y DS_Actor03",3,0,2]},{"code":401,"indent":1,"parameters":["No, I want to apologize for putting such professional mages through such a thing. Here, take this for your trouble."]},{"code":128,"indent":1,"parameters":[65,0,0,1,false]},{"code":101,"indent":1,"parameters":["",0,0,2]},{"code":401,"indent":1,"parameters":["Received a Yhilini Mage Cap."]},{"code":101,"indent":1,"parameters":["Robin blond emo",6,0,2]},{"code":401,"indent":1,"parameters":["..."]},{"code":115,"indent":1,"parameters":[]},{"code":0,"indent":1,"parameters":[]},{"code":412,"indent":0,"parameters":[]},{"code":111,"indent":0,"parameters":[1,41,0,10,1]},{"code":101,"indent":1,"parameters":["Robin blond emo",0,0,2]},{"code":401,"indent":1,"parameters":["We're done with the trial."]},{"code":101,"indent":1,"parameters":["Y DS_Actor03",3,0,2]},{"code":401,"indent":1,"parameters":["You're being too modest - you did fantastically on this trial."]},{"code":101,"indent":1,"parameters":["Robin blond emo",0,0,2]},{"code":401,"indent":1,"parameters":["You're too kind."]},{"code":101,"indent":1,"parameters":["Y DS_Actor03",3,0,2]},{"code":401,"indent":1,"parameters":["No, I want to apologize for putting such competent mages through such a thing. Here, take this for your trouble."]},{"code":128,"indent":1,"parameters":[64,0,0,1,false]},{"code":101,"indent":1,"parameters":["",0,0,2]},{"code":401,"indent":1,"parameters":["Received a Yhilini Mage Cap."]},{"code":101,"indent":1,"parameters":["Robin blond emo",6,0,2]},{"code":401,"indent":1,"parameters":["..."]},{"code":115,"indent":1,"parameters":[]},{"code":0,"indent":1,"parameters":[]},{"code":412,"indent":0,"parameters":[]},{"code":111,"indent":0,"parameters":[1,41,0,5,1]},{"code":101,"indent":1,"parameters":["Robin blond emo",0,0,2]},{"code":401,"indent":1,"parameters":["We're done with the trial."]},{"code":101,"indent":1,"parameters":["Y DS_Actor03",3,0,2]},{"code":401,"indent":1,"parameters":["You are... and you've done more than the bare minimum! Really, I'm almost impressed."]},{"code":101,"indent":1,"parameters":["Y DS_Actor03",3,0,2]},{"code":401,"indent":1,"parameters":["Here, take this for being better than I expected, for Ardans."]},{"code":128,"indent":1,"parameters":[145,0,0,1,false]},{"code":101,"indent":1,"parameters":["",0,0,2]},{"code":401,"indent":1,"parameters":["Received a Healer's Pin."]},{"code":0,"indent":1,"parameters":[]},{"code":411,"indent":0,"parameters":[]},{"code":101,"indent":1,"parameters":["Y DS_Actor03",3,0,2]},{"code":401,"indent":1,"parameters":["Looks like you've completed the academic trial far faster than average. That proves you're... competent, at least."]},{"code":101,"indent":1,"parameters":["Aka emo",7,0,2]},{"code":401,"indent":1,"parameters":["..."]},{"code":0,"indent":1,"parameters":[]},{"code":412,"indent":0,"parameters":[]},{"code":0,"indent":0,"parameters":[]}]},{"conditions":{"actorId":1,"actorValid":false,"itemId":1,"itemValid":false,"selfSwitchCh":"A","selfSwitchValid":true,"switch1Id":1,"switch1Valid":false,"switch2Id":1,"switch2Valid":false,"variableId":1,"variableValid":false,"variableValue":0},"directionFix":false,"image":{"tileId":0,"characterName":"","direction":2,"pattern":0,"characterIndex":0},"moveFrequency":3,"moveRoute":{"list":[{"code":0,"indent":null,"parameters":[]}],"repeat":true,"skippable":false,"wait":false},"moveSpeed":3,"moveType":0,"priorityType":0,"stepAnime":false,"through":false,"trigger":1,"walkAnime":true,"list":[{"code":250,"indent":0,"parameters":[{"name":"Teleport","pan":0,"pitch":100,"volume":80}]},{"code":201,"indent":0,"parameters":[0,163,9,37,8,1]},{"code":0,"indent":0,"parameters":[]}]}],"x":8,"y":7},{"id":3,"name":"EV003","note":"","pages":[{"conditions":{"actorId":1,"actorValid":false,"itemId":1,"itemValid":false,"selfSwitchCh":"A","selfSwitchValid":false,"switch1Id":1,"switch1Valid":false,"switch2Id":1,"switch2Valid":false,"variableId":1,"variableValid":false,"variableValue":0},"directionFix":false,"image":{"tileId":0,"characterName":"!Other3","direction":4,"pattern":0,"characterIndex":6},"moveFrequency":3,"moveRoute":{"list":[{"code":0,"indent":null,"parameters":[]}],"repeat":true,"skippable":false,"wait":false},"moveSpeed":3,"moveType":0,"priorityType":1,"stepAnime":false,"through":false,"trigger":0,"walkAnime":true,"list":[{"code":0,"indent":0,"parameters":[]}]},{"conditions":{"actorId":1,"actorValid":false,"itemId":1,"itemValid":false,"selfSwitchCh":"A","selfSwitchValid":false,"switch1Id":1,"switch1Valid":false,"switch2Id":1,"switch2Valid":false,"variableId":42,"variableValid":true,"variableValue":3},"directionFix":false,"image":{"tileId":0,"characterName":"","direction":2,"pattern":0,"characterIndex":0},"moveFrequency":3,"moveRoute":{"list":[{"code":0,"indent":null,"parameters":[]}],"repeat":true,"skippable":false,"wait":false},"moveSpeed":3,"moveType":0,"priorityType":0,"stepAnime":false,"through":false,"trigger":0,"walkAnime":true,"list":[{"code":0,"indent":0,"parameters":[]}]}],"x":8,"y":8},{"id":4,"name":"EV004","note":"","pages":[{"conditions":{"actorId":1,"actorValid":false,"itemId":1,"itemValid":false,"selfSwitchCh":"A","selfSwitchValid":false,"switch1Id":1,"switch1Valid":false,"switch2Id":1,"switch2Valid":false,"variableId":1,"variableValid":false,"variableValue":0},"directionFix":false,"image":{"tileId":0,"characterName":"!Other3","direction":4,"pattern":0,"characterIndex":6},"moveFrequency":3,"moveRoute":{"list":[{"code":0,"indent":null,"parameters":[]}],"repeat":true,"skippable":false,"wait":false},"moveSpeed":3,"moveType":0,"priorityType":1,"stepAnime":false,"through":false,"trigger":0,"walkAnime":true,"list":[{"code":0,"indent":0,"parameters":[]}]},{"conditions":{"actorId":1,"actorValid":false,"itemId":1,"itemValid":false,"selfSwitchCh":"A","selfSwitchValid":false,"switch1Id":1,"switch1Valid":false,"switch2Id":1,"switch2Valid":false,"variableId":42,"variableValid":true,"variableValue":2},"directionFix":false,"image":{"tileId":0,"characterName":"","direction":2,"pattern":0,"characterIndex":0},"moveFrequency":3,"moveRoute":{"list":[{"code":0,"indent":null,"parameters":[]}],"repeat":true,"skippable":false,"wait":false},"moveSpeed":3,"moveType":0,"priorityType":0,"stepAnime":false,"through":false,"trigger":0,"walkAnime":true,"list":[{"code":0,"indent":0,"parameters":[]}]}],"x":8,"y":9},{"id":5,"name":"EV005","note":"","pages":[{"conditions":{"actorId":1,"actorValid":false,"itemId":1,"itemValid":false,"selfSwitchCh":"A","selfSwitchValid":false,"switch1Id":1,"switch1Valid":false,"switch2Id":1,"switch2Valid":false,"variableId":1,"variableValid":false,"variableValue":0},"directionFix":false,"image":{"tileId":0,"characterName":"!Other3","direction":4,"pattern":0,"characterIndex":6},"moveFrequency":3,"moveRoute":{"list":[{"code":0,"indent":null,"parameters":[]}],"repeat":true,"skippable":false,"wait":false},"moveSpeed":3,"moveType":0,"priorityType":1,"stepAnime":false,"through":false,"trigger":0,"walkAnime":true,"list":[{"code":0,"indent":0,"parameters":[]}]},{"conditions":{"actorId":1,"actorValid":false,"itemId":1,"itemValid":false,"selfSwitchCh":"A","selfSwitchValid":false,"switch1Id":1,"switch1Valid":false,"switch2Id":1,"switch2Valid":false,"variableId":42,"variableValid":true,"variableValue":1},"directionFix":false,"image":{"tileId":0,"characterName":"","direction":2,"pattern":0,"characterIndex":0},"moveFrequency":3,"moveRoute":{"list":[{"code":0,"indent":null,"parameters":[]}],"repeat":true,"skippable":false,"wait":false},"moveSpeed":3,"moveType":0,"priorityType":0,"stepAnime":false,"through":false,"trigger":0,"walkAnime":true,"list":[{"code":0,"indent":0,"parameters":[]}]}],"x":8,"y":10},{"id":6,"name":"EV006","note":"","pages":[{"conditions":{"actorId":1,"actorValid":false,"itemId":1,"itemValid":false,"selfSwitchCh":"A","selfSwitchValid":false,"switch1Id":1,"switch1Valid":false,"switch2Id":1,"switch2Valid":false,"variableId":1,"variableValid":false,"variableValue":0},"directionFix":false,"image":{"tileId":0,"characterName":"","direction":2,"pattern":0,"characterIndex":0},"moveFrequency":3,"moveRoute":{"list":[{"code":0,"indent":null,"parameters":[]}],"repeat":true,"skippable":false,"wait":false},"moveSpeed":3,"moveType":0,"priorityType":0,"stepAnime":false,"through":false,"trigger":3,"walkAnime":true,"list":[{"code":123,"indent":0,"parameters":["A",0]},{"code":101,"indent":0,"parameters":["Aka emo",0,0,2]},{"code":401,"indent":0,"parameters":["What's this now?"]},{"code":101,"indent":0,"parameters":["Trin emo",5,0,2]},{"code":401,"indent":0,"parameters":["Ah yes, the feared trial where we battle vicious tables."]},{"code":101,"indent":0,"parameters":["Robin blond emo",0,0,2]},{"code":401,"indent":0,"parameters":["I presume it is a test of academic knowledge."]},{"code":101,"indent":0,"parameters":["Y DS_Actor03",3,0,2]},{"code":401,"indent":0,"parameters":["That's correct. Plenty of barbarian magics are strong enough, but the Order only deals with those who are also knowledgeable."]},{"code":101,"indent":0,"parameters":["Aka emo",5,0,2]},{"code":401,"indent":0,"parameters":["Here I'm going to be COMPLETELY useless."]},{"code":101,"indent":0,"parameters":["Y DS_Actor03",3,0,2]},{"code":401,"indent":0,"parameters":["This is where many candidates are stalled for a great deal of time. Finish three out of four tests to move on."]},{"code":101,"indent":0,"parameters":["Robin blond emo",0,0,2]},{"code":401,"indent":0,"parameters":["Hmm, it seems that these exams will still sap some mana."]},{"code":101,"indent":0,"parameters":["Y DS_Actor03",3,0,2]},{"code":401,"indent":0,"parameters":["This is an excellent time to point out that we provide healing services just outside for a small fee."]},{"code":101,"indent":0,"parameters":["Aka emo",7,0,2]},{"code":401,"indent":0,"parameters":["Of course it is."]},{"code":101,"indent":0,"parameters":["Robin blond emo",0,0,2]},{"code":401,"indent":0,"parameters":["Let's get to work, then."]},{"code":0,"indent":0,"parameters":[]}]},{"conditions":{"actorId":1,"actorValid":false,"itemId":1,"itemValid":false,"selfSwitchCh":"A","selfSwitchValid":true,"switch1Id":1,"switch1Valid":false,"switch2Id":1,"switch2Valid":false,"variableId":1,"variableValid":false,"variableValue":0},"directionFix":false,"image":{"tileId":0,"characterName":"","direction":2,"pattern":0,"characterIndex":0},"moveFrequency":3,"moveRoute":{"list":[{"code":0,"indent":null,"parameters":[]}],"repeat":true,"skippable":false,"wait":false},"moveSpeed":3,"moveType":0,"priorityType":0,"stepAnime":false,"through":false,"trigger":0,"walkAnime":true,"list":[{"code":0,"indent":0,"parameters":[]}]}],"x":0,"y":0},{"id":7,"name":"EV007","note":"","pages":[{"conditions":{"actorId":1,"actorValid":false,"itemId":1,"itemValid":false,"selfSwitchCh":"A","selfSwitchValid":false,"switch1Id":1,"switch1Valid":false,"switch2Id":1,"switch2Valid":false,"variableId":1,"variableValid":false,"variableValue":0},"directionFix":true,"image":{"tileId":0,"characterName":"","direction":2,"pattern":1,"characterIndex":6},"moveFrequency":3,"moveRoute":{"list":[{"code":0,"indent":null,"parameters":[]}],"repeat":true,"skippable":false,"wait":false},"moveSpeed":3,"moveType":0,"priorityType":1,"stepAnime":false,"through":false,"trigger":0,"walkAnime":true,"list":[{"code":101,"indent":0,"parameters":["Robin blond emo",0,0,2]},{"code":401,"indent":0,"parameters":["It seems this one is a test of general magical theory. Should be relatively easy, but we want an excellent score, not merely a good one."]},{"code":101,"indent":0,"parameters":["",0,0,2]},{"code":401,"indent":0,"parameters":["Who will attempt the test?"]},{"code":122,"indent":0,"parameters":[1,1,0,0,0]},{"code":111,"indent":0,"parameters":[0,248,0]},{"code":102,"indent":1,"parameters":[["Robin", "Trin", "Aka", "Altina"],-2,0,2,0]},{"code":402,"indent":1,"parameters":[0,"Robin"]},{"code":122,"indent":2,"parameters":[1,1,0,3,3,9,3]},{"code":111,"indent":2,"parameters":[1,1,0,200,1]},{"code":221,"indent":3,"parameters":[]},{"code":230,"indent":3,"parameters":[60]},{"code":222,"indent":3,"parameters":[]},{"code":101,"indent":3,"parameters":["Robin blond emo",1,0,2]},{"code":401,"indent":3,"parameters":["I think it went rather well."]},{"code":312,"indent":3,"parameters":[0,9,1,0,200]},{"code":123,"indent":3,"parameters":["A",0]},{"code":122,"indent":3,"parameters":[41,41,1,0,3]},{"code":122,"indent":3,"parameters":[42,42,1,0,1]},{"code":0,"indent":3,"parameters":[]},{"code":411,"indent":2,"parameters":[]},{"code":101,"indent":3,"parameters":["Robin blond emo",0,0,2]},{"code":401,"indent":3,"parameters":["I'm afraid I couldn't give it my best right now."]},{"code":0,"indent":3,"parameters":[]},{"code":412,"indent":2,"parameters":[]},{"code":0,"indent":2,"parameters":[]},{"code":402,"indent":1,"parameters":[1,"Trin"]},{"code":111,"indent":2,"parameters":[0,397,1]},{"code":221,"indent":3,"parameters":[]},{"code":230,"indent":3,"parameters":[60]},{"code":222,"indent":3,"parameters":[]},{"code":101,"indent":3,"parameters":["Trin emo2",5,0,2]},{"code":401,"indent":3,"parameters":["Hmph. I didn't consider myself a theory expert, but this was beneath me."]},{"code":121,"indent":3,"parameters":[397,397,0]},{"code":123,"indent":3,"parameters":["A",0]},{"code":122,"indent":3,"parameters":[41,41,1,0,2]},{"code":122,"indent":3,"parameters":[42,42,1,0,1]},{"code":0,"indent":3,"parameters":[]},{"code":411,"indent":2,"parameters":[]},{"code":101,"indent":3,"parameters":["Trin emo2",2,0,2]},{"code":401,"indent":3,"parameters":["Hell no! I've been doing too much work lately!"]},{"code":0,"indent":3,"parameters":[]},{"code":412,"indent":2,"parameters":[]},{"code":0,"indent":2,"parameters":[]},{"code":402,"indent":1,"parameters":[2,"Aka"]},{"code":101,"indent":2,"parameters":["Aka emo",7,0,2]},{"code":401,"indent":2,"parameters":["Haha-no."]},{"code":0,"indent":2,"parameters":[]},{"code":402,"indent":1,"parameters":[3,"Altina"]},{"code":122,"indent":2,"parameters":[1,1,0,3,3,3,3]},{"code":111,"indent":2,"parameters":[1,1,0,200,1]},{"code":221,"indent":3,"parameters":[]},{"code":230,"indent":3,"parameters":[60]},{"code":222,"indent":3,"parameters":[]},{"code":101,"indent":3,"parameters":["MainActor1-1fs",7,0,2]},{"code":401,"indent":3,"parameters":["Oh, that was awful. I got through, but I'm really not very good at this sort of thing..."]},{"code":312,"indent":3,"parameters":[0,3,1,0,200]},{"code":123,"indent":3,"parameters":["A",0]},{"code":122,"indent":3,"parameters":[41,41,1,0,1]},{"code":122,"indent":3,"parameters":[42,42,1,0,1]},{"code":0,"indent":3,"parameters":[]},{"code":411,"indent":2,"parameters":[]},{"code":101,"indent":3,"parameters":["MainActor1-1fs",5,0,2]},{"code":401,"indent":3,"parameters":["I'm sorry, I'm exhausted right now..."]},{"code":0,"indent":3,"parameters":[]},{"code":412,"indent":2,"parameters":[]},{"code":0,"indent":2,"parameters":[]},{"code":403,"indent":1,"parameters":[]},{"code":0,"indent":2,"parameters":[]},{"code":404,"indent":1,"parameters":[]},{"code":0,"indent":1,"parameters":[]},{"code":411,"indent":0,"parameters":[]},{"code":102,"indent":1,"parameters":[["Robin", "Trin", "Aka"],-2,0,2,0]},{"code":402,"indent":1,"parameters":[0,"Robin"]},{"code":122,"indent":2,"parameters":[1,1,0,3,3,9,3]},{"code":111,"indent":2,"parameters":[1,1,0,200,1]},{"code":221,"indent":3,"parameters":[]},{"code":230,"indent":3,"parameters":[60]},{"code":222,"indent":3,"parameters":[]},{"code":101,"indent":3,"parameters":["Robin blond emo",1,0,2]},{"code":401,"indent":3,"parameters":["I think it went rather well."]},{"code":312,"indent":3,"parameters":[0,9,1,0,200]},{"code":123,"indent":3,"parameters":["A",0]},{"code":122,"indent":3,"parameters":[41,41,1,0,3]},{"code":122,"indent":3,"parameters":[42,42,1,0,1]},{"code":0,"indent":3,"parameters":[]},{"code":411,"indent":2,"parameters":[]},{"code":101,"indent":3,"parameters":["Robin blond emo",0,0,2]},{"code":401,"indent":3,"parameters":["I'm afraid I couldn't give it my best right now."]},{"code":0,"indent":3,"parameters":[]},{"code":412,"indent":2,"parameters":[]},{"code":0,"indent":2,"parameters":[]},{"code":402,"indent":1,"parameters":[1,"Trin"]},{"code":111,"indent":2,"parameters":[0,397,1]},{"code":221,"indent":3,"parameters":[]},{"code":230,"indent":3,"parameters":[60]},{"code":222,"indent":3,"parameters":[]},{"code":101,"indent":3,"parameters":["Trin emo2",5,0,2]},{"code":401,"indent":3,"parameters":["Hmph. I didn't consider myself a theory expert, but this was beneath me."]},{"code":121,"indent":3,"parameters":[397,397,0]},{"code":123,"indent":3,"parameters":["A",0]},{"code":122,"indent":3,"parameters":[41,41,1,0,2]},{"code":122,"indent":3,"parameters":[42,42,1,0,1]},{"code":0,"indent":3,"parameters":[]},{"code":411,"indent":2,"parameters":[]},{"code":101,"indent":3,"parameters":["Trin emo2",2,0,2]},{"code":401,"indent":3,"parameters":["Hell no! I've been doing too much work lately!"]},{"code":0,"indent":3,"parameters":[]},{"code":412,"indent":2,"parameters":[]},{"code":0,"indent":2,"parameters":[]},{"code":402,"indent":1,"parameters":[2,"Aka"]},{"code":101,"indent":2,"parameters":["Aka emo",7,0,2]},{"code":401,"indent":2,"parameters":["Haha-no."]},{"code":0,"indent":2,"parameters":[]},{"code":403,"indent":1,"parameters":[]},{"code":0,"indent":2,"parameters":[]},{"code":404,"indent":1,"parameters":[]},{"code":0,"indent":1,"parameters":[]},{"code":412,"indent":0,"parameters":[]},{"code":0,"indent":0,"parameters":[]}]},{"conditions":{"actorId":1,"actorValid":false,"itemId":1,"itemValid":false,"selfSwitchCh":"A","selfSwitchValid":true,"switch1Id":1,"switch1Valid":false,"switch2Id":1,"switch2Valid":false,"variableId":1,"variableValid":false,"variableValue":0},"directionFix":true,"image":{"tileId":0,"characterName":"!Flame","direction":2,"pattern":1,"characterIndex":6},"moveFrequency":3,"moveRoute":{"list":[{"code":0,"indent":null,"parameters":[]}],"repeat":true,"skippable":false,"wait":false},"moveSpeed":3,"moveType":0,"priorityType":1,"stepAnime":true,"through":false,"trigger":0,"walkAnime":true,"list":[{"code":101,"indent":0,"parameters":["Robin blond emo",0,0,2]},{"code":401,"indent":0,"parameters":["We've completed this test."]},{"code":0,"indent":0,"parameters":[]}]}],"x":6,"y":17},{"id":8,"name":"EV008","note":"","pages":[{"conditions":{"actorId":1,"actorValid":false,"itemId":1,"itemValid":false,"selfSwitchCh":"A","selfSwitchValid":false,"switch1Id":1,"switch1Valid":false,"switch2Id":1,"switch2Valid":false,"variableId":1,"variableValid":false,"variableValue":0},"directionFix":false,"image":{"tileId":0,"characterName":"","direction":2,"pattern":0,"characterIndex":0},"moveFrequency":3,"moveRoute":{"list":[{"code":0,"indent":null,"parameters":[]}],"repeat":true,"skippable":false,"wait":false},"moveSpeed":3,"moveType":0,"priorityType":0,"stepAnime":false,"through":false,"trigger":1,"walkAnime":true,"list":[{"code":101,"indent":0,"parameters":["Robin blond emo",0,0,2]},{"code":401,"indent":0,"parameters":["...if it's alright with the rest of you, I want to pass all four tests."]},{"code":101,"indent":0,"parameters":["Aka emo",0,0,2]},{"code":401,"indent":0,"parameters":["That's more work for us - what's your reasoning?"]},{"code":101,"indent":0,"parameters":["Robin blond emo",0,0,2]},{"code":401,"indent":0,"parameters":["This test is based on a condescending premise. If we meet their terms, we've just been condescended to - we should try to exceed them."]},{"code":101,"indent":0,"parameters":["Aka emo",1,0,2]},{"code":401,"indent":0,"parameters":["They DID get to you a little!"]},{"code":101,"indent":0,"parameters":["Robin blond emo",5,0,2]},{"code":401,"indent":0,"parameters":["I'm not proud. I'd like to prove ourselves better than their expectations."]},{"code":101,"indent":0,"parameters":["Trin emo",0,0,2]},{"code":401,"indent":0,"parameters":["Dear Goddess, am I the voice of reason here? Shouldn't we focus on pressing forward?"]},{"code":101,"indent":0,"parameters":["Robin blond emo",0,0,2]},{"code":401,"indent":0,"parameters":["I don't believe it would take too much of our time."]},{"code":101,"indent":0,"parameters":["Aka emo",0,0,2]},{"code":401,"indent":0,"parameters":["Why are you looking at me?"]},{"code":111,"indent":0,"parameters":[0,248,0]},{"code":101,"indent":1,"parameters":["MainActor1-1fs",0,0,2]},{"code":401,"indent":1,"parameters":["You've been with Simon longest - you're like our elder!"]},{"code":0,"indent":1,"parameters":[]},{"code":411,"indent":0,"parameters":[]},{"code":101,"indent":1,"parameters":["Trin emo2",6,0,2]},{"code":401,"indent":1,"parameters":["Lead the way, oh First Fucked among us!"]},{"code":0,"indent":1,"parameters":[]},{"code":412,"indent":0,"parameters":[]},{"code":101,"indent":0,"parameters":["Aka emo",0,0,2]},{"code":401,"indent":0,"parameters":["Well..."]},{"code":102,"indent":0,"parameters":[["Move on", "Pass all tests"],-2,0,2,0]},{"code":402,"indent":0,"parameters":[0,"Move on"]},{"code":123,"indent":1,"parameters":["B",0]},{"code":101,"indent":1,"parameters":["Robin blond emo",0,0,2]},{"code":401,"indent":1,"parameters":["...very well, I will do my best."]},{"code":0,"indent":1,"parameters":[]},{"code":402,"indent":0,"parameters":[1,"Pass all tests"]},{"code":123,"indent":1,"parameters":["A",0]},{"code":101,"indent":1,"parameters":["Robin blond emo",1,0,2]},{"code":401,"indent":1,"parameters":["Good. Let's do this properly."]},{"code":122,"indent":1,"parameters":[41,41,1,0,1]},{"code":0,"indent":1,"parameters":[]},{"code":403,"indent":0,"parameters":[]},{"code":0,"indent":1,"parameters":[]},{"code":404,"indent":0,"parameters":[]},{"code":205,"indent":0,"parameters":[-1,{"list":[{"code":1,"indent":null,"parameters":[]},{"code":0,"indent":null,"parameters":[]}],"repeat":false,"skippable":false,"wait":true}]},{"code":505,"indent":0,"parameters":[{"code":1,"indent":null,"parameters":[]}]},{"code":0,"indent":0,"parameters":[]}]},{"conditions":{"actorId":1,"actorValid":false,"itemId":1,"itemValid":false,"selfSwitchCh":"A","selfSwitchValid":true,"switch1Id":1,"switch1Valid":false,"switch2Id":1,"switch2Valid":false,"variableId":1,"variableValid":false,"variableValue":0},"directionFix":false,"image":{"tileId":0,"characterName":"","direction":2,"pattern":0,"characterIndex":0},"moveFrequency":3,"moveRoute":{"list":[{"code":0,"indent":null,"parameters":[]}],"repeat":true,"skippable":false,"wait":false},"moveSpeed":3,"moveType":0,"priorityType":0,"stepAnime":false,"through":false,"trigger":1,"walkAnime":true,"list":[{"code":101,"indent":0,"parameters":["Robin blond emo",0,0,2]},{"code":401,"indent":0,"parameters":["Not until we've passed them all."]},{"code":205,"indent":0,"parameters":[-1,{"list":[{"code":1,"indent":null,"parameters":[]},{"code":0,"indent":null,"parameters":[]}],"repeat":false,"skippable":false,"wait":true}]},{"code":505,"indent":0,"parameters":[{"code":1,"indent":null,"parameters":[]}]},{"code":0,"indent":0,"parameters":[]}]},{"conditions":{"actorId":1,"actorValid":false,"itemId":1,"itemValid":false,"selfSwitchCh":"A","selfSwitchValid":false,"switch1Id":1,"switch1Valid":false,"switch2Id":1,"switch2Valid":false,"variableId":42,"variableValid":true,"variableValue":4},"directionFix":false,"image":{"tileId":0,"characterName":"","direction":2,"pattern":0,"characterIndex":0},"moveFrequency":3,"moveRoute":{"list":[{"code":0,"indent":null,"parameters":[]}],"repeat":true,"skippable":false,"wait":false},"moveSpeed":3,"moveType":0,"priorityType":0,"stepAnime":false,"through":false,"trigger":0,"walkAnime":true,"list":[{"code":122,"indent":0,"parameters":[41,41,1,0,1]},{"code":123,"indent":0,"parameters":["B",0]},{"code":0,"indent":0,"parameters":[]}]},{"conditions":{"actorId":1,"actorValid":false,"itemId":1,"itemValid":false,"selfSwitchCh":"A","selfSwitchValid":true,"switch1Id":1,"switch1Valid":false,"switch2Id":1,"switch2Valid":false,"variableId":42,"variableValid":true,"variableValue":4},"directionFix":false,"image":{"tileId":0,"characterName":"","direction":2,"pattern":0,"characterIndex":0},"moveFrequency":3,"moveRoute":{"list":[{"code":0,"indent":null,"parameters":[]}],"repeat":true,"skippable":false,"wait":false},"moveSpeed":3,"moveType":0,"priorityType":0,"stepAnime":false,"through":false,"trigger":0,"walkAnime":true,"list":[{"code":0,"indent":0,"parameters":[]}]},{"conditions":{"actorId":1,"actorValid":false,"itemId":1,"itemValid":false,"selfSwitchCh":"B","selfSwitchValid":true,"switch1Id":1,"switch1Valid":false,"switch2Id":1,"switch2Valid":false,"variableId":1,"variableValid":false,"variableValue":0},"directionFix":false,"image":{"tileId":0,"characterName":"","direction":2,"pattern":0,"characterIndex":0},"moveFrequency":3,"moveRoute":{"list":[{"code":0,"indent":null,"parameters":[]}],"repeat":true,"skippable":false,"wait":false},"moveSpeed":3,"moveType":0,"priorityType":0,"stepAnime":false,"through":false,"trigger":0,"walkAnime":true,"list":[{"code":0,"indent":0,"parameters":[]}]}],"x":8,"y":11},{"id":9,"name":"EV009","note":"","pages":[{"conditions":{"actorId":1,"actorValid":false,"itemId":1,"itemValid":false,"selfSwitchCh":"A","selfSwitchValid":false,"switch1Id":1,"switch1Valid":false,"switch2Id":1,"switch2Valid":false,"variableId":1,"variableValid":false,"variableValue":0},"directionFix":false,"image":{"tileId":0,"characterName":"","direction":2,"pattern":0,"characterIndex":0},"moveFrequency":3,"moveRoute":{"list":[{"code":0,"indent":null,"parameters":[]}],"repeat":true,"skippable":false,"wait":false},"moveSpeed":3,"moveType":0,"priorityType":1,"stepAnime":false,"through":false,"trigger":0,"walkAnime":true,"list":[{"code":101,"indent":0,"parameters":["Robin blond emo",0,0,2]},{"code":401,"indent":0,"parameters":["This is a test of alchemy, but... no one could possibly have this much knowledge."]},{"code":101,"indent":0,"parameters":["Y DS_Actor03",3,0,2]},{"code":401,"indent":0,"parameters":["That's right. It's a research exam - take as much time as you want."]},{"code":101,"indent":0,"parameters":["Robin blond emo",0,0,2]},{"code":401,"indent":0,"parameters":["Hmm... I believe I saw a material-provider in the Square, we should return there."]},{"code":121,"indent":0,"parameters":[398,398,0]},{"code":0,"indent":0,"parameters":[]}]},{"conditions":{"actorId":1,"actorValid":false,"itemId":1,"itemValid":false,"selfSwitchCh":"A","selfSwitchValid":false,"switch1Id":398,"switch1Valid":true,"switch2Id":1,"switch2Valid":false,"variableId":1,"variableValid":false,"variableValue":0},"directionFix":false,"image":{"tileId":0,"characterName":"","direction":2,"pattern":0,"characterIndex":0},"moveFrequency":3,"moveRoute":{"list":[{"code":0,"indent":null,"parameters":[]}],"repeat":true,"skippable":false,"wait":false},"moveSpeed":3,"moveType":0,"priorityType":1,"stepAnime":false,"through":false,"trigger":0,"walkAnime":true,"list":[{"code":111,"indent":0,"parameters":[0,399,1]},{"code":101,"indent":1,"parameters":["Robin blond emo",0,0,2]},{"code":401,"indent":1,"parameters":["There's no point attempting the alchemy test until we've done more research."]},{"code":115,"indent":1,"parameters":[]},{"code":0,"indent":1,"parameters":[]},{"code":412,"indent":0,"parameters":[]},{"code":101,"indent":0,"parameters":["Robin blond emo",0,0,2]},{"code":401,"indent":0,"parameters":["This is the difficult alchemy test, but we're prepared."]},{"code":101,"indent":0,"parameters":["",0,0,2]},{"code":401,"indent":0,"parameters":["Who will attempt the test?"]},{"code":122,"indent":0,"parameters":[1,1,0,0,0]},{"code":111,"indent":0,"parameters":[0,248,0]},{"code":102,"indent":1,"parameters":[["Robin", "Trin", "Aka", "Altina"],-2,0,2,0]},{"code":402,"indent":1,"parameters":[0,"Robin"]},{"code":122,"indent":2,"parameters":[1,1,0,3,3,9,3]},{"code":111,"indent":2,"parameters":[1,1,0,200,1]},{"code":221,"indent":3,"parameters":[]},{"code":230,"indent":3,"parameters":[60]},{"code":222,"indent":3,"parameters":[]},{"code":101,"indent":3,"parameters":["Robin blond emo",1,0,2]},{"code":401,"indent":3,"parameters":["Exactly as planned."]},{"code":312,"indent":3,"parameters":[0,9,1,0,200]},{"code":123,"indent":3,"parameters":["A",0]},{"code":122,"indent":3,"parameters":[41,41,1,0,2]},{"code":122,"indent":3,"parameters":[42,42,1,0,1]},{"code":0,"indent":3,"parameters":[]},{"code":411,"indent":2,"parameters":[]},{"code":101,"indent":3,"parameters":["Robin blond emo",0,0,2]},{"code":401,"indent":3,"parameters":["I'm afraid I couldn't give it my best right now."]},{"code":0,"indent":3,"parameters":[]},{"code":412,"indent":2,"parameters":[]},{"code":0,"indent":2,"parameters":[]},{"code":402,"indent":1,"parameters":[1,"Trin"]},{"code":111,"indent":2,"parameters":[0,397,1]},{"code":221,"indent":3,"parameters":[]},{"code":230,"indent":3,"parameters":[60]},{"code":222,"indent":3,"parameters":[]},{"code":101,"indent":3,"parameters":["Trin emo2",0,0,2]},{"code":401,"indent":3,"parameters":["Made it through, thanks to all that research Robin did."]},{"code":121,"indent":3,"parameters":[397,397,0]},{"code":123,"indent":3,"parameters":["A",0]},{"code":122,"indent":3,"parameters":[41,41,1,0,1]},{"code":122,"indent":3,"parameters":[42,42,1,0,1]},{"code":0,"indent":3,"parameters":[]},{"code":411,"indent":2,"parameters":[]},{"code":101,"indent":3,"parameters":["Trin emo2",2,0,2]},{"code":401,"indent":3,"parameters":["Hell no! I've been doing too much work lately!"]},{"code":0,"indent":3,"parameters":[]},{"code":412,"indent":2,"parameters":[]},{"code":0,"indent":2,"parameters":[]},{"code":402,"indent":1,"parameters":[2,"Aka"]},{"code":101,"indent":2,"parameters":["Aka emo",7,0,2]},{"code":401,"indent":2,"parameters":["Haha-no."]},{"code":0,"indent":2,"parameters":[]},{"code":402,"indent":1,"parameters":[3,"Altina"]},{"code":122,"indent":2,"parameters":[1,1,0,3,3,3,3]},{"code":111,"indent":2,"parameters":[1,1,0,200,1]},{"code":221,"indent":3,"parameters":[]},{"code":230,"indent":3,"parameters":[60]},{"code":222,"indent":3,"parameters":[]},{"code":101,"indent":3,"parameters":["MainActor1-1fs",0,0,2]},{"code":401,"indent":3,"parameters":["Thank you, Robin! Couldn't have passed without your help!"]},{"code":312,"indent":3,"parameters":[0,3,1,0,200]},{"code":123,"indent":3,"parameters":["A",0]},{"code":122,"indent":3,"parameters":[41,41,1,0,1]},{"code":122,"indent":3,"parameters":[42,42,1,0,1]},{"code":0,"indent":3,"parameters":[]},{"code":411,"indent":2,"parameters":[]},{"code":101,"indent":3,"parameters":["MainActor1-1fs",5,0,2]},{"code":401,"indent":3,"parameters":["I'm sorry, I'm exhausted right now..."]},{"code":0,"indent":3,"parameters":[]},{"code":412,"indent":2,"parameters":[]},{"code":0,"indent":2,"parameters":[]},{"code":403,"indent":1,"parameters":[]},{"code":0,"indent":2,"parameters":[]},{"code":404,"indent":1,"parameters":[]},{"code":0,"indent":1,"parameters":[]},{"code":411,"indent":0,"parameters":[]},{"code":102,"indent":1,"parameters":[["Robin", "Trin", "Aka"],-2,0,2,0]},{"code":402,"indent":1,"parameters":[0,"Robin"]},{"code":122,"indent":2,"parameters":[1,1,0,3,3,9,3]},{"code":111,"indent":2,"parameters":[1,1,0,200,1]},{"code":221,"indent":3,"parameters":[]},{"code":230,"indent":3,"parameters":[60]},{"code":222,"indent":3,"parameters":[]},{"code":101,"indent":3,"parameters":["Robin blond emo",1,0,2]},{"code":401,"indent":3,"parameters":["Exactly as planned."]},{"code":312,"indent":3,"parameters":[0,9,1,0,200]},{"code":123,"indent":3,"parameters":["A",0]},{"code":122,"indent":3,"parameters":[41,41,1,0,2]},{"code":122,"indent":3,"parameters":[42,42,1,0,1]},{"code":0,"indent":3,"parameters":[]},{"code":411,"indent":2,"parameters":[]},{"code":101,"indent":3,"parameters":["Robin blond emo",0,0,2]},{"code":401,"indent":3,"parameters":["I'm afraid I couldn't give it my best right now."]},{"code":0,"indent":3,"parameters":[]},{"code":412,"indent":2,"parameters":[]},{"code":0,"indent":2,"parameters":[]},{"code":402,"indent":1,"parameters":[1,"Trin"]},{"code":111,"indent":2,"parameters":[0,397,1]},{"code":221,"indent":3,"parameters":[]},{"code":230,"indent":3,"parameters":[60]},{"code":222,"indent":3,"parameters":[]},{"code":101,"indent":3,"parameters":["Trin emo2",0,0,2]},{"code":401,"indent":3,"parameters":["Made it through, thanks to all that research Robin did."]},{"code":121,"indent":3,"parameters":[397,397,0]},{"code":123,"indent":3,"parameters":["A",0]},{"code":122,"indent":3,"parameters":[41,41,1,0,1]},{"code":122,"indent":3,"parameters":[42,42,1,0,1]},{"code":0,"indent":3,"parameters":[]},{"code":411,"indent":2,"parameters":[]},{"code":101,"indent":3,"parameters":["Trin emo2",2,0,2]},{"code":401,"indent":3,"parameters":["Hell no! I've been doing too much work lately!"]},{"code":0,"indent":3,"parameters":[]},{"code":412,"indent":2,"parameters":[]},{"code":0,"indent":2,"parameters":[]},{"code":402,"indent":1,"parameters":[2,"Aka"]},{"code":101,"indent":2,"parameters":["Aka emo",7,0,2]},{"code":401,"indent":2,"parameters":["Haha-no."]},{"code":0,"indent":2,"parameters":[]},{"code":403,"indent":1,"parameters":[]},{"code":0,"indent":2,"parameters":[]},{"code":404,"indent":1,"parameters":[]},{"code":0,"indent":1,"parameters":[]},{"code":412,"indent":0,"parameters":[]},{"code":0,"indent":0,"parameters":[]}]},{"conditions":{"actorId":1,"actorValid":false,"itemId":1,"itemValid":false,"selfSwitchCh":"A","selfSwitchValid":true,"switch1Id":1,"switch1Valid":false,"switch2Id":1,"switch2Valid":false,"variableId":1,"variableValid":false,"variableValue":0},"directionFix":true,"image":{"tileId":0,"characterName":"!Flame","direction":2,"pattern":1,"characterIndex":6},"moveFrequency":3,"moveRoute":{"list":[{"code":0,"indent":null,"parameters":[]}],"repeat":true,"skippable":false,"wait":false},"moveSpeed":3,"moveType":0,"priorityType":1,"stepAnime":true,"through":false,"trigger":0,"walkAnime":true,"list":[{"code":101,"indent":0,"parameters":["Robin blond emo",0,0,2]},{"code":401,"indent":0,"parameters":["We've completed this test."]},{"code":0,"indent":0,"parameters":[]}]}],"x":10,"y":17},{"id":10,"name":"EV010","note":"","pages":[{"conditions":{"actorId":1,"actorValid":false,"itemId":1,"itemValid":false,"selfSwitchCh":"A","selfSwitchValid":false,"switch1Id":1,"switch1Valid":false,"switch2Id":1,"switch2Valid":false,"variableId":1,"variableValid":false,"variableValue":0},"directionFix":false,"image":{"tileId":0,"characterName":"","direction":2,"pattern":0,"characterIndex":0},"moveFrequency":3,"moveRoute":{"list":[{"code":0,"indent":null,"parameters":[]}],"repeat":true,"skippable":false,"wait":false},"moveSpeed":3,"moveType":0,"priorityType":1,"stepAnime":false,"through":false,"trigger":0,"walkAnime":true,"list":[{"code":101,"indent":0,"parameters":["Robin blond emo",0,0,2]},{"code":401,"indent":0,"parameters":["...Trin, is it just me, or is the subject matter of this test rather obscure?"]},{"code":101,"indent":0,"parameters":["Trin emo",5,0,2]},{"code":401,"indent":0,"parameters":["Oh, it's hella obscure. I could probably pass the test, but..."]},{"code":101,"indent":0,"parameters":["Robin blond emo",0,0,2]},{"code":401,"indent":0,"parameters":["You could try, or perhaps we should do more research first. Surely some library will have the material."]},{"code":121,"indent":0,"parameters":[400,400,0]},{"code":0,"indent":0,"parameters":[]}]},{"conditions":{"actorId":1,"actorValid":false,"itemId":1,"itemValid":false,"selfSwitchCh":"A","selfSwitchValid":false,"switch1Id":400,"switch1Valid":true,"switch2Id":1,"switch2Valid":false,"variableId":1,"variableValid":false,"variableValue":0},"directionFix":false,"image":{"tileId":0,"characterName":"","direction":2,"pattern":0,"characterIndex":0},"moveFrequency":3,"moveRoute":{"list":[{"code":0,"indent":null,"parameters":[]}],"repeat":true,"skippable":false,"wait":false},"moveSpeed":3,"moveType":0,"priorityType":1,"stepAnime":false,"through":false,"trigger":0,"walkAnime":true,"list":[{"code":101,"indent":0,"parameters":["Robin blond emo",0,0,2]},{"code":401,"indent":0,"parameters":["This one is the test of obscure magical arts. Perhaps we should research more first..."]},{"code":101,"indent":0,"parameters":["",0,0,2]},{"code":401,"indent":0,"parameters":["Who will attempt the test?"]},{"code":122,"indent":0,"parameters":[1,1,0,0,0]},{"code":111,"indent":0,"parameters":[0,248,0]},{"code":102,"indent":1,"parameters":[["Robin", "Trin", "Aka", "Altina"],-2,0,2,0]},{"code":402,"indent":1,"parameters":[0,"Robin"]},{"code":101,"indent":2,"parameters":["Robin blond emo",5,0,2]},{"code":401,"indent":2,"parameters":["It would be futile for me to try."]},{"code":0,"indent":2,"parameters":[]},{"code":402,"indent":1,"parameters":[1,"Trin"]},{"code":111,"indent":2,"parameters":[0,397,1]},{"code":221,"indent":3,"parameters":[]},{"code":230,"indent":3,"parameters":[60]},{"code":222,"indent":3,"parameters":[]},{"code":101,"indent":3,"parameters":["Trin emo2",5,0,2]},{"code":401,"indent":3,"parameters":["Done and done."]},{"code":121,"indent":3,"parameters":[397,397,0]},{"code":123,"indent":3,"parameters":["A",0]},{"code":122,"indent":3,"parameters":[41,41,1,0,1]},{"code":122,"indent":3,"parameters":[42,42,1,0,1]},{"code":0,"indent":3,"parameters":[]},{"code":411,"indent":2,"parameters":[]},{"code":101,"indent":3,"parameters":["Trin emo2",2,0,2]},{"code":401,"indent":3,"parameters":["Hell no! I've been doing too much work lately!"]},{"code":0,"indent":3,"parameters":[]},{"code":412,"indent":2,"parameters":[]},{"code":0,"indent":2,"parameters":[]},{"code":402,"indent":1,"parameters":[2,"Aka"]},{"code":101,"indent":2,"parameters":["Aka emo",7,0,2]},{"code":401,"indent":2,"parameters":["Haha-no."]},{"code":0,"indent":2,"parameters":[]},{"code":402,"indent":1,"parameters":[3,"Altina"]},{"code":122,"indent":2,"parameters":[1,1,0,3,3,3,3]},{"code":111,"indent":2,"parameters":[1,1,0,200,1]},{"code":101,"indent":3,"parameters":["MainActor1-1fs",7,0,2]},{"code":401,"indent":3,"parameters":["Well, I can give it a shot..."]},{"code":221,"indent":3,"parameters":[]},{"code":230,"indent":3,"parameters":[60]},{"code":222,"indent":3,"parameters":[]},{"code":101,"indent":3,"parameters":["MainActor1-1fs",5,0,2]},{"code":401,"indent":3,"parameters":["Failure..."]},{"code":312,"indent":3,"parameters":[0,3,1,0,200]},{"code":0,"indent":3,"parameters":[]},{"code":411,"indent":2,"parameters":[]},{"code":101,"indent":3,"parameters":["MainActor1-1fs",5,0,2]},{"code":401,"indent":3,"parameters":["I'm sorry, I'm exhausted right now..."]},{"code":0,"indent":3,"parameters":[]},{"code":412,"indent":2,"parameters":[]},{"code":0,"indent":2,"parameters":[]},{"code":403,"indent":1,"parameters":[]},{"code":0,"indent":2,"parameters":[]},{"code":404,"indent":1,"parameters":[]},{"code":0,"indent":1,"parameters":[]},{"code":411,"indent":0,"parameters":[]},{"code":102,"indent":1,"parameters":[["Robin", "Trin", "Aka"],-2,0,2,0]},{"code":402,"indent":1,"parameters":[0,"Robin"]},{"code":101,"indent":2,"parameters":["Robin blond emo",5,0,2]},{"code":401,"indent":2,"parameters":["It would be futile for me to try."]},{"code":0,"indent":2,"parameters":[]},{"code":402,"indent":1,"parameters":[1,"Trin"]},{"code":111,"indent":2,"parameters":[0,397,1]},{"code":221,"indent":3,"parameters":[]},{"code":230,"indent":3,"parameters":[60]},{"code":222,"indent":3,"parameters":[]},{"code":101,"indent":3,"parameters":["Trin emo2",5,0,2]},{"code":401,"indent":3,"parameters":["Done and done."]},{"code":121,"indent":3,"parameters":[397,397,0]},{"code":123,"indent":3,"parameters":["A",0]},{"code":122,"indent":3,"parameters":[41,41,1,0,1]},{"code":122,"indent":3,"parameters":[42,42,1,0,1]},{"code":0,"indent":3,"parameters":[]},{"code":411,"indent":2,"parameters":[]},{"code":101,"indent":3,"parameters":["Trin emo2",2,0,2]},{"code":401,"indent":3,"parameters":["Hell no! I've been doing too much work lately!"]},{"code":0,"indent":3,"parameters":[]},{"code":412,"indent":2,"parameters":[]},{"code":0,"indent":2,"parameters":[]},{"code":402,"indent":1,"parameters":[2,"Aka"]},{"code":101,"indent":2,"parameters":["Aka emo",7,0,2]},{"code":401,"indent":2,"parameters":["Haha-no."]},{"code":0,"indent":2,"parameters":[]},{"code":403,"indent":1,"parameters":[]},{"code":0,"indent":2,"parameters":[]},{"code":404,"indent":1,"parameters":[]},{"code":0,"indent":1,"parameters":[]},{"code":412,"indent":0,"parameters":[]},{"code":0,"indent":0,"parameters":[]}]},{"conditions":{"actorId":1,"actorValid":false,"itemId":1,"itemValid":false,"selfSwitchCh":"A","selfSwitchValid":false,"switch1Id":400,"switch1Valid":true,"switch2Id":401,"switch2Valid":true,"variableId":1,"variableValid":false,"variableValue":0},"directionFix":false,"image":{"tileId":0,"characterName":"","direction":2,"pattern":0,"characterIndex":0},"moveFrequency":3,"moveRoute":{"list":[{"code":0,"indent":null,"parameters":[]}],"repeat":true,"skippable":false,"wait":false},"moveSpeed":3,"moveType":0,"priorityType":1,"stepAnime":false,"through":false,"trigger":0,"walkAnime":true,"list":[{"code":101,"indent":0,"parameters":["Robin blond emo",0,0,2]},{"code":401,"indent":0,"parameters":["This one is the test of obscure magical arts, but we've prepared for it."]},{"code":101,"indent":0,"parameters":["",0,0,2]},{"code":401,"indent":0,"parameters":["Who will attempt the test?"]},{"code":122,"indent":0,"parameters":[1,1,0,0,0]},{"code":111,"indent":0,"parameters":[0,248,0]},{"code":102,"indent":1,"parameters":[["Robin", "Trin", "Aka", "Altina"],-2,0,2,0]},{"code":402,"indent":1,"parameters":[0,"Robin"]},{"code":122,"indent":2,"parameters":[1,1,0,3,3,9,3]},{"code":111,"indent":2,"parameters":[1,1,0,200,1]},{"code":221,"indent":3,"parameters":[]},{"code":230,"indent":3,"parameters":[60]},{"code":222,"indent":3,"parameters":[]},{"code":101,"indent":3,"parameters":["Robin blond emo",0,0,2]},{"code":401,"indent":3,"parameters":["Test complete."]},{"code":312,"indent":3,"parameters":[0,9,1,0,200]},{"code":123,"indent":3,"parameters":["A",0]},{"code":122,"indent":3,"parameters":[41,41,1,0,2]},{"code":122,"indent":3,"parameters":[42,42,1,0,1]},{"code":0,"indent":3,"parameters":[]},{"code":411,"indent":2,"parameters":[]},{"code":101,"indent":3,"parameters":["Robin blond emo",0,0,2]},{"code":401,"indent":3,"parameters":["I'm afraid I couldn't give it my best right now."]},{"code":0,"indent":3,"parameters":[]},{"code":412,"indent":2,"parameters":[]},{"code":0,"indent":2,"parameters":[]},{"code":402,"indent":1,"parameters":[1,"Trin"]},{"code":111,"indent":2,"parameters":[0,397,1]},{"code":221,"indent":3,"parameters":[]},{"code":230,"indent":3,"parameters":[60]},{"code":222,"indent":3,"parameters":[]},{"code":101,"indent":3,"parameters":["Trin emo2",5,0,2]},{"code":401,"indent":3,"parameters":["Done and done."]},{"code":121,"indent":3,"parameters":[397,397,0]},{"code":123,"indent":3,"parameters":["A",0]},{"code":122,"indent":3,"parameters":[41,41,1,0,2]},{"code":122,"indent":3,"parameters":[42,42,1,0,1]},{"code":0,"indent":3,"parameters":[]},{"code":411,"indent":2,"parameters":[]},{"code":101,"indent":3,"parameters":["Trin emo2",2,0,2]},{"code":401,"indent":3,"parameters":["Hell no! I've been doing too much work lately!"]},{"code":0,"indent":3,"parameters":[]},{"code":412,"indent":2,"parameters":[]},{"code":0,"indent":2,"parameters":[]},{"code":402,"indent":1,"parameters":[2,"Aka"]},{"code":101,"indent":2,"parameters":["Aka emo",7,0,2]},{"code":401,"indent":2,"parameters":["Haha-no."]},{"code":0,"indent":2,"parameters":[]},{"code":402,"indent":1,"parameters":[3,"Altina"]},{"code":122,"indent":2,"parameters":[1,1,0,3,3,3,3]},{"code":111,"indent":2,"parameters":[1,1,0,200,1]},{"code":221,"indent":3,"parameters":[]},{"code":230,"indent":3,"parameters":[60]},{"code":222,"indent":3,"parameters":[]},{"code":101,"indent":3,"parameters":["MainActor1-1fs",0,0,2]},{"code":401,"indent":3,"parameters":["I managed to get through!"]},{"code":312,"indent":3,"parameters":[0,3,1,0,200]},{"code":123,"indent":3,"parameters":["A",0]},{"code":122,"indent":3,"parameters":[41,41,1,0,1]},{"code":122,"indent":3,"parameters":[42,42,1,0,1]},{"code":0,"indent":3,"parameters":[]},{"code":411,"indent":2,"parameters":[]},{"code":101,"indent":3,"parameters":["MainActor1-1fs",5,0,2]},{"code":401,"indent":3,"parameters":["I'm sorry, I'm exhausted right now..."]},{"code":0,"indent":3,"parameters":[]},{"code":412,"indent":2,"parameters":[]},{"code":0,"indent":2,"parameters":[]},{"code":403,"indent":1,"parameters":[]},{"code":0,"indent":2,"parameters":[]},{"code":404,"indent":1,"parameters":[]},{"code":0,"indent":1,"parameters":[]},{"code":411,"indent":0,"parameters":[]},{"code":102,"indent":1,"parameters":[["Robin", "Trin", "Aka"],-2,0,2,0]},{"code":402,"indent":1,"parameters":[0,"Robin"]},{"code":122,"indent":2,"parameters":[1,1,0,3,3,9,3]},{"code":111,"indent":2,"parameters":[1,1,0,200,1]},{"code":221,"indent":3,"parameters":[]},{"code":230,"indent":3,"parameters":[60]},{"code":222,"indent":3,"parameters":[]},{"code":101,"indent":3,"parameters":["Robin blond emo",0,0,2]},{"code":401,"indent":3,"parameters":["Test complete."]},{"code":312,"indent":3,"parameters":[0,9,1,0,200]},{"code":123,"indent":3,"parameters":["A",0]},{"code":122,"indent":3,"parameters":[41,41,1,0,2]},{"code":122,"indent":3,"parameters":[42,42,1,0,1]},{"code":0,"indent":3,"parameters":[]},{"code":411,"indent":2,"parameters":[]},{"code":101,"indent":3,"parameters":["Robin blond emo",0,0,2]},{"code":401,"indent":3,"parameters":["I'm afraid I couldn't give it my best right now."]},{"code":0,"indent":3,"parameters":[]},{"code":412,"indent":2,"parameters":[]},{"code":0,"indent":2,"parameters":[]},{"code":402,"indent":1,"parameters":[1,"Trin"]},{"code":111,"indent":2,"parameters":[0,397,1]},{"code":221,"indent":3,"parameters":[]},{"code":230,"indent":3,"parameters":[60]},{"code":222,"indent":3,"parameters":[]},{"code":101,"indent":3,"parameters":["Trin emo2",5,0,2]},{"code":401,"indent":3,"parameters":["Done and done."]},{"code":121,"indent":3,"parameters":[397,397,0]},{"code":123,"indent":3,"parameters":["A",0]},{"code":122,"indent":3,"parameters":[41,41,1,0,2]},{"code":122,"indent":3,"parameters":[42,42,1,0,1]},{"code":0,"indent":3,"parameters":[]},{"code":411,"indent":2,"parameters":[]},{"code":101,"indent":3,"parameters":["Trin emo2",2,0,2]},{"code":401,"indent":3,"parameters":["Hell no! I've been doing too much work lately!"]},{"code":0,"indent":3,"parameters":[]},{"code":412,"indent":2,"parameters":[]},{"code":0,"indent":2,"parameters":[]},{"code":402,"indent":1,"parameters":[2,"Aka"]},{"code":101,"indent":2,"parameters":["Aka emo",7,0,2]},{"code":401,"indent":2,"parameters":["Haha-no."]},{"code":0,"indent":2,"parameters":[]},{"code":403,"indent":1,"parameters":[]},{"code":0,"indent":2,"parameters":[]},{"code":404,"indent":1,"parameters":[]},{"code":0,"indent":1,"parameters":[]},{"code":412,"indent":0,"parameters":[]},{"code":0,"indent":0,"parameters":[]}]},{"conditions":{"actorId":1,"actorValid":false,"itemId":1,"itemValid":false,"selfSwitchCh":"A","selfSwitchValid":true,"switch1Id":1,"switch1Valid":false,"switch2Id":1,"switch2Valid":false,"variableId":1,"variableValid":false,"variableValue":0},"directionFix":true,"image":{"tileId":0,"characterName":"!Flame","direction":2,"pattern":1,"characterIndex":6},"moveFrequency":3,"moveRoute":{"list":[{"code":0,"indent":null,"parameters":[]}],"repeat":true,"skippable":false,"wait":false},"moveSpeed":3,"moveType":0,"priorityType":1,"stepAnime":true,"through":false,"trigger":0,"walkAnime":true,"list":[{"code":101,"indent":0,"parameters":["Robin blond emo",0,0,2]},{"code":401,"indent":0,"parameters":["We've completed this test."]},{"code":0,"indent":0,"parameters":[]}]}],"x":6,"y":13},{"id":11,"name":"EV011","note":"","pages":[{"conditions":{"actorId":1,"actorValid":false,"itemId":1,"itemValid":false,"selfSwitchCh":"A","selfSwitchValid":false,"switch1Id":1,"switch1Valid":false,"switch2Id":1,"switch2Valid":false,"variableId":1,"variableValid":false,"variableValue":0},"directionFix":false,"image":{"tileId":0,"characterName":"","direction":2,"pattern":0,"characterIndex":0},"moveFrequency":3,"moveRoute":{"list":[{"code":0,"indent":null,"parameters":[]}],"repeat":true,"skippable":false,"wait":false},"moveSpeed":3,"moveType":0,"priorityType":1,"stepAnime":false,"through":false,"trigger":0,"walkAnime":true,"list":[{"code":101,"indent":0,"parameters":["Robin blond emo",0,0,2]},{"code":401,"indent":0,"parameters":["This exam looks highly, highly specialized. Trin?"]},{"code":101,"indent":0,"parameters":["Trin emo",5,0,2]},{"code":401,"indent":0,"parameters":["Yeah, yeah..."]},{"code":101,"indent":0,"parameters":["",0,0,2]},{"code":401,"indent":0,"parameters":["Who will attempt the test?"]},{"code":122,"indent":0,"parameters":[1,1,0,0,0]},{"code":111,"indent":0,"parameters":[0,248,0]},{"code":102,"indent":1,"parameters":[["Robin", "Trin", "Aka", "Altina"],-2,0,2,0]},{"code":402,"indent":1,"parameters":[0,"Robin"]},{"code":101,"indent":2,"parameters":["Robin blond emo",4,0,2]},{"code":401,"indent":2,"parameters":["I don't have a chance of getting a good score on this one."]},{"code":0,"indent":2,"parameters":[]},{"code":402,"indent":1,"parameters":[1,"Trin"]},{"code":111,"indent":2,"parameters":[0,397,1]},{"code":101,"indent":3,"parameters":["Trin emo2",5,0,2]},{"code":401,"indent":3,"parameters":["Fine, fine. I'll do it myself."]},{"code":221,"indent":3,"parameters":[]},{"code":230,"indent":3,"parameters":[60]},{"code":222,"indent":3,"parameters":[]},{"code":101,"indent":3,"parameters":["Trin emo2",5,0,2]},{"code":401,"indent":3,"parameters":["Done."]},{"code":101,"indent":3,"parameters":["Robin blond emo",1,0,2]},{"code":401,"indent":3,"parameters":["Thank you, Trin."]},{"code":101,"indent":3,"parameters":["Trin emo2",7,0,2]},{"code":401,"indent":3,"parameters":["Your father better fuck my brains out when he gets back."]},{"code":121,"indent":3,"parameters":[397,397,0]},{"code":123,"indent":3,"parameters":["A",0]},{"code":122,"indent":3,"parameters":[41,41,1,0,3]},{"code":122,"indent":3,"parameters":[42,42,1,0,1]},{"code":0,"indent":3,"parameters":[]},{"code":411,"indent":2,"parameters":[]},{"code":101,"indent":3,"parameters":["Trin emo2",2,0,2]},{"code":401,"indent":3,"parameters":["Hell no! I've been doing too much work lately!"]},{"code":0,"indent":3,"parameters":[]},{"code":412,"indent":2,"parameters":[]},{"code":0,"indent":2,"parameters":[]},{"code":402,"indent":1,"parameters":[2,"Aka"]},{"code":101,"indent":2,"parameters":["Aka emo",1,0,2]},{"code":401,"indent":2,"parameters":["Sure, I've got this one!"]},{"code":101,"indent":2,"parameters":["Aka emo",7,0,2]},{"code":401,"indent":2,"parameters":["By which I mean NO."]},{"code":0,"indent":2,"parameters":[]},{"code":402,"indent":1,"parameters":[3,"Altina"]},{"code":122,"indent":2,"parameters":[1,1,0,3,3,3,3]},{"code":111,"indent":2,"parameters":[1,1,0,200,1]},{"code":101,"indent":3,"parameters":["MainActor1-1fs",7,0,2]},{"code":401,"indent":3,"parameters":["Uh, I'll try..."]},{"code":221,"indent":3,"parameters":[]},{"code":230,"indent":3,"parameters":[60]},{"code":222,"indent":3,"parameters":[]},{"code":312,"indent":3,"parameters":[0,3,1,0,200]},{"code":101,"indent":3,"parameters":["MainActor1-1fs",5,0,2]},{"code":401,"indent":3,"parameters":["Shouldn't have tried..."]},{"code":0,"indent":3,"parameters":[]},{"code":411,"indent":2,"parameters":[]},{"code":101,"indent":3,"parameters":["MainActor1-1fs",5,0,2]},{"code":401,"indent":3,"parameters":["I'm sorry, I'm exhausted right now..."]},{"code":0,"indent":3,"parameters":[]},{"code":412,"indent":2,"parameters":[]},{"code":0,"indent":2,"parameters":[]},{"code":403,"indent":1,"parameters":[]},{"code":0,"indent":2,"parameters":[]},{"code":404,"indent":1,"parameters":[]},{"code":0,"indent":1,"parameters":[]},{"code":411,"indent":0,"parameters":[]},{"code":102,"indent":1,"parameters":[["Robin", "Trin", "Aka"],-2,0,2,0]},{"code":402,"indent":1,"parameters":[0,"Robin"]},{"code":101,"indent":2,"parameters":["Robin blond emo",4,0,2]},{"code":401,"indent":2,"parameters":["I don't have a chance of getting a good score on this one."]},{"code":0,"indent":2,"parameters":[]},{"code":402,"indent":1,"parameters":[1,"Trin"]},{"code":111,"indent":2,"parameters":[0,397,1]},{"code":101,"indent":3,"parameters":["Trin emo2",5,0,2]},{"code":401,"indent":3,"parameters":["Fine, fine. I'll do it myself."]},{"code":221,"indent":3,"parameters":[]},{"code":230,"indent":3,"parameters":[60]},{"code":222,"indent":3,"parameters":[]},{"code":101,"indent":3,"parameters":["Trin emo2",5,0,2]},{"code":401,"indent":3,"parameters":["Done."]},{"code":101,"indent":3,"parameters":["Robin blond emo",1,0,2]},{"code":401,"indent":3,"parameters":["Thank you, Trin."]},{"code":101,"indent":3,"parameters":["Trin emo2",7,0,2]},{"code":401,"indent":3,"parameters":["Your father better fuck my brains out when he gets back."]},{"code":121,"indent":3,"parameters":[397,397,0]},{"code":123,"indent":3,"parameters":["A",0]},{"code":122,"indent":3,"parameters":[41,41,1,0,3]},{"code":122,"indent":3,"parameters":[42,42,1,0,1]},{"code":0,"indent":3,"parameters":[]},{"code":411,"indent":2,"parameters":[]},{"code":101,"indent":3,"parameters":["Trin emo2",2,0,2]},{"code":401,"indent":3,"parameters":["Hell no! I've been doing too much work lately!"]},{"code":0,"indent":3,"parameters":[]},{"code":412,"indent":2,"parameters":[]},{"code":0,"indent":2,"parameters":[]},{"code":402,"indent":1,"parameters":[2,"Aka"]},{"code":101,"indent":2,"parameters":["Aka emo",1,0,2]},{"code":401,"indent":2,"parameters":["Sure, I've got this one!"]},{"code":101,"indent":2,"parameters":["Aka emo",7,0,2]},{"code":401,"indent":2,"parameters":["By which I mean NO."]},{"code":0,"indent":2,"parameters":[]},{"code":403,"indent":1,"parameters":[]},{"code":0,"indent":2,"parameters":[]},{"code":404,"indent":1,"parameters":[]},{"code":0,"indent":1,"parameters":[]},{"code":412,"indent":0,"parameters":[]},{"code":0,"indent":0,"parameters":[]}]},{"conditions":{"actorId":1,"actorValid":false,"itemId":1,"itemValid":false,"selfSwitchCh":"A","selfSwitchValid":true,"switch1Id":1,"switch1Valid":false,"switch2Id":1,"switch2Valid":false,"variableId":1,"variableValid":false,"variableValue":0},"directionFix":true,"image":{"tileId":0,"characterName":"!Flame","direction":2,"pattern":1,"characterIndex":6},"moveFrequency":3,"moveRoute":{"list":[{"code":0,"indent":null,"parameters":[]}],"repeat":true,"skippable":false,"wait":false},"moveSpeed":3,"moveType":0,"priorityType":1,"stepAnime":true,"through":false,"trigger":0,"walkAnime":true,"list":[{"code":101,"indent":0,"parameters":["Robin blond emo",0,0,2]},{"code":401,"indent":0,"parameters":["We've completed this test."]},{"code":0,"indent":0,"parameters":[]}]}],"x":10,"y":13}]
}
