{
"autoplayBgm":false,"autoplayBgs":false,"battleback1Name":"","battleback2Name":"","bgm":{"name":"","pan":0,"pitch":100,"volume":100},"bgs":{"name":"","pan":0,"pitch":100,"volume":80},"disableDashing":false,"displayName":"","encounterList":[],"encounterStep":30,"height":13,"note":"","parallaxLoopX":false,"parallaxLoopY":false,"parallaxName":"","parallaxShow":false,"parallaxSx":0,"parallaxSy":0,"scrollType":0,"specifyBattleback":false,"tilesetId":4,"width":17,
"data":[2816,2816,2816,2820,2844,2824,2816,2816,2816,2816,2816,2816,2816,2816,2816,2816,2816,2816,2816,2816,2840,1624,2832,2820,2844,2844,2828,2844,2824,2816,2816,2816,2816,2816,2816,2816,2816,2840,1552,2832,2840,1552,1552,2848,1624,2832,2816,2816,2816,2816,2816,2816,2816,2816,2818,2836,2817,2822,2849,2849,2847,2838,2817,2816,2816,2820,2844,2824,2844,2824,2816,2816,2816,2820,2854,2946,2932,2948,2856,2824,2816,2816,2840,1624,2832,1624,2832,2816,2820,2844,2854,2946,2913,2912,2914,2948,2856,2824,2816,2818,2836,2817,2836,2817,2816,2840,1624,2946,2913,2912,2912,2912,2914,2948,2856,2824,2816,2816,2816,2816,2816,2820,2854,2946,2913,2912,2912,2912,2912,2912,2918,2957,2832,2816,2816,2816,2816,2816,2840,2946,2913,2912,2912,2912,2912,2912,2912,2936,2859,2845,2824,2816,2816,2816,2816,2840,2928,2916,2940,2920,2912,2912,2912,2912,2914,2933,2957,2834,2844,2824,2820,2844,2841,2930,2950,2858,2928,2916,2940,2924,2940,2920,2936,2850,2842,1624,2832,2840,1624,2848,2956,2850,2842,2952,2937,2858,2956,2858,2930,2950,2832,2818,2836,2817,2818,2836,2819,2836,2817,2818,2852,2944,2833,2836,2842,2944,1624,2832,2816,2816,2816,0,0,0,0,0,0,0,0,0,0,0,0,0,0,0,0,0,0,0,0,0,0,0,0,0,0,0,0,0,0,0,0,0,0,0,0,0,0,0,0,0,0,0,0,0,0,0,0,0,0,0,0,0,0,0,0,0,0,0,0,0,0,0,0,0,0,0,0,0,0,0,0,0,0,0,0,0,0,0,0,0,0,0,0,0,0,0,0,0,0,0,0,0,0,0,0,0,0,0,0,0,0,0,0,0,0,0,0,0,0,0,0,0,0,0,0,0,0,0,0,0,0,0,0,0,0,0,0,0,0,0,0,0,0,0,0,0,0,0,0,0,0,0,0,0,0,0,0,0,0,0,0,0,0,0,0,0,0,0,0,0,0,0,0,0,0,0,0,0,0,0,0,0,0,0,0,0,0,0,0,0,0,0,0,0,0,0,0,0,0,0,0,0,0,0,0,0,0,0,0,0,0,0,0,0,0,0,0,0,0,0,0,0,0,0,0,0,0,0,0,0,0,0,0,0,0,0,0,0,0,0,0,0,0,0,0,0,0,0,0,0,0,0,0,0,0,0,0,0,0,0,0,0,0,0,0,0,0,0,0,0,0,0,0,0,0,0,0,0,0,0,0,0,0,0,0,0,0,0,0,0,0,0,0,0,0,0,0,0,0,0,0,0,0,0,0,0,0,0,0,0,0,0,0,0,0,0,0,0,0,0,0,0,0,0,0,0,0,0,0,0,0,0,0,0,0,0,0,0,0,0,0,0,0,0,0,0,0,0,0,0,0,0,0,0,0,0,0,0,0,0,0,0,0,0,0,0,0,0,0,0,0,0,0,0,0,0,0,0,0,0,0,0,0,0,0,0,0,0,0,0,0,0,0,0,0,0,0,0,0,0,0,0,0,0,0,0,0,0,0,0,0,0,0,0,0,0,0,0,0,0,0,0,0,0,0,0,0,0,0,0,0,0,0,0,0,0,0,0,0,0,0,0,0,0,0,0,0,0,0,0,0,0,0,0,72,0,0,0,0,0,0,72,0,0,0,72,0,0,0,0,0,0,0,0,0,0,0,0,0,0,0,0,0,0,0,64,0,0,0,0,0,0,0,0,0,0,0,0,0,0,0,0,72,0,0,0,0,0,0,0,0,0,0,0,64,0,0,0,0,0,0,0,0,0,64,0,0,0,0,0,0,72,0,0,0,0,0,0,0,0,0,72,0,0,0,0,0,0,0,0,0,64,0,0,0,0,0,0,0,0,0,0,0,0,0,0,0,0,72,0,0,0,85,0,0,0,0,0,0,0,0,0,0,0,85,0,0,0,0,93,0,0,0,101,0,0,0,101,0,0,0,93,0,0,0,64,0,0,0,0,0,56,0,0,0,0,0,0,0,0,0,0,72,0,0,0,0,0,0,0,0,0,0,0,56,0,0,0,0,0,0,0,56,0,0,0,0,0,0,0,0,0,0,0,0,0,0,0,0,0,0,0,0,0,0,64,0,0,0,0,0,0,0,0,0,0,0,0,0,0,0,0,0,0,0,0,0,0,0,0,0,0,0,0,0,0,0,0,0,0,0,0,0,0,0,0,0,0,0,0,0,0,0,0,0,0,0,0,0,0,0,0,0,0,0,0,0,0,0,0,0,0,0,0,0,0,0,0,0,0,0,0,0,0,0,0,0,0,0,0,0,0,0,0,0,0,0,0,0,0,0,0,0,0,0,0,0,0,0,0,0,0,0,0,0,0,0,0,0,0,0,0,0,0,0,0,0,0,0,0,0,0,0,0,0,0,0,0,0,0,0,0,0,0,0,0,0,0,0,0,0,0,0,0,0,0,0,0,0,0,0,0,0,0,0,0,0,0,0,0,0,0,0,0,0,0,0,0,0,0,0,0,0,0,0,0,0,0,0,0,0,0,0,0,0,0,0,0,0,0,0,0,0,0,0,0,0,0,0,0,0,0,0,0,0,0,0,0,0,0,0,0,0,0,0,0,0,0,0,0,0,0,0,0,0,0,0,0,0,0,0,0,0,0,0,0,0,0,0,0,0,0,0,0,0,0,0,0,0,0,0,0,0,0,0,0,0,0,0,0,0,0,0,0,0,0,0,0,0,0,0,0,0,0,0,0,0,0,0,0,0,0,0,0,0,0,0,0,0,0,0,0,0,0,0,0,0,0,0,0,0,0,0,0,0,0,0,0,0,0,0,0,0,0,0,0,0,0,0,0,0,0,0,0,0,0,0,0,0,0,0,0,0,0,0,0,0,0,0,0,0,0,0,0,0,0,0,0,0,0,0,0,0,0,0,0,0,0,0,0,0,0,0,0,0,0,0,0,0,0,0,0,0,0,0,0,0,0,0,0,0,0,0,0,0,0,0,0,0,0,0,0,0,0,0,0,0,0,0,0,0,0,0,0,0,0,0,0,0,0,0,0,0,0,0,0,0,0,0,0,0,0,0,0,0,0,0,0,0,0,0,0,0,0,0,0,0,0,0,0,0,0,0,0],
"events":[
null,
{"id":1,"name":"EV001","note":"","pages":[{"conditions":{"actorId":1,"actorValid":false,"itemId":1,"itemValid":false,"selfSwitchCh":"A","selfSwitchValid":false,"switch1Id":1,"switch1Valid":false,"switch2Id":1,"switch2Valid":false,"variableId":1,"variableValid":false,"variableValue":0},"directionFix":false,"image":{"tileId":0,"characterName":"","direction":2,"pattern":0,"characterIndex":0},"moveFrequency":3,"moveRoute":{"list":[{"code":0,"indent":null,"parameters":[]}],"repeat":true,"skippable":false,"wait":false},"moveSpeed":3,"moveType":0,"priorityType":0,"stepAnime":false,"through":false,"trigger":3,"walkAnime":true,"list":[{"code":121,"indent":0,"parameters":[11,11,1]},{"code":123,"indent":0,"parameters":["A",0]},{"code":101,"indent":0,"parameters":["Yarra emo2",4,0,2]},{"code":401,"indent":0,"parameters":["In-incredible! This was just a fragment, but still, you overcame the Incubus King's power!"]},{"code":101,"indent":0,"parameters":["face002b",0,0,2]},{"code":401,"indent":0,"parameters":["It's too late to celebrate. Riala, wha-"]},{"code":101,"indent":0,"parameters":["Riala emo",4,0,2]},{"code":401,"indent":0,"parameters":["Simon... I'm sorry..."]},{"code":101,"indent":0,"parameters":["Riala emo",4,0,2]},{"code":401,"indent":0,"parameters":["I altered the effect, just a little, so you won't face the worst from the beginning. But they're coming."]},{"code":101,"indent":0,"parameters":["Riala emo",5,0,2]},{"code":401,"indent":0,"parameters":["The Incubus King felt what I did. He's... calling me back..."]},{"code":101,"indent":0,"parameters":["Riala emo",4,0,2]},{"code":401,"indent":0,"parameters":["I'm so... sorry..."]},{"code":230,"indent":0,"parameters":[60]},{"code":212,"indent":0,"parameters":[2,120,false]},{"code":230,"indent":0,"parameters":[30]},{"code":121,"indent":0,"parameters":[294,294,0]},{"code":230,"indent":0,"parameters":[30]},{"code":101,"indent":0,"parameters":["Yarra emo",3,0,2]},{"code":401,"indent":0,"parameters":["No..."]},{"code":231,"indent":0,"parameters":[1,"Esthera",0,0,0,10,100,100,255,0]},{"code":101,"indent":0,"parameters":["Esthera emo",0,0,2]},{"code":401,"indent":0,"parameters":["Well, well... what have we here?"]},{"code":235,"indent":0,"parameters":[1]},{"code":205,"indent":0,"parameters":[-1,{"list":[{"code":19,"indent":null,"parameters":[]},{"code":0,"indent":null,"parameters":[]}],"repeat":false,"skippable":false,"wait":true}]},{"code":505,"indent":0,"parameters":[{"code":19,"indent":null,"parameters":[]}]},{"code":101,"indent":0,"parameters":["face002b",0,0,2]},{"code":401,"indent":0,"parameters":["..."]},{"code":101,"indent":0,"parameters":["Esthera emo2",4,0,2]},{"code":401,"indent":0,"parameters":["So the new King is smart enough to hide himself. But he sacrificed you, did he?"]},{"code":101,"indent":0,"parameters":["face002b",0,0,2]},{"code":401,"indent":0,"parameters":["You'll never find him."]},{"code":101,"indent":0,"parameters":["Esthera emo",7,0,2]},{"code":401,"indent":0,"parameters":["Huh. It's not often these new Kings inspire any loyalty in men. Does this one go both ways?"]},{"code":101,"indent":0,"parameters":["Yarra emo",3,0,2]},{"code":401,"indent":0,"parameters":["You're... you're a succubus, but you feel like an Incubus King... how?"]},{"code":101,"indent":0,"parameters":["Esthera emo2",1,0,2]},{"code":401,"indent":0,"parameters":["That's what you and everyone else wants to know."]},{"code":101,"indent":0,"parameters":["Esthera emo2",4,0,2]},{"code":401,"indent":0,"parameters":["You look like you could be of use to my empire. Want to jump off the sinking ship?"]},{"code":101,"indent":0,"parameters":["Yarra emo",5,0,2]},{"code":401,"indent":0,"parameters":["...who exactly are you?"]},{"code":101,"indent":0,"parameters":["Esthera emo2",4,0,2]},{"code":401,"indent":0,"parameters":["Unrivaled leader of the Orgasmic Empire - my official title is Empress."]},{"code":101,"indent":0,"parameters":["Yarra emo",5,0,2]},{"code":401,"indent":0,"parameters":["..."]},{"code":101,"indent":0,"parameters":["face002b",0,0,2]},{"code":401,"indent":0,"parameters":["..."]},{"code":101,"indent":0,"parameters":["Yarra emo",0,0,2]},{"code":401,"indent":0,"parameters":["I'm sorry, Empress, but I decline your offer."]},{"code":101,"indent":0,"parameters":["Esthera emo2",1,0,2]},{"code":401,"indent":0,"parameters":["You realize I could wring you out and leave you a shell-shocked husk in a moment, right?"]},{"code":101,"indent":0,"parameters":["Yarra emo",0,0,2]},{"code":401,"indent":0,"parameters":["Do it, then. I won't betray my King's location."]},{"code":101,"indent":0,"parameters":["Esthera emo2",5,0,2]},{"code":401,"indent":0,"parameters":["Then prepare to die!"]},{"code":101,"indent":0,"parameters":["Esthera emo",4,0,2]},{"code":401,"indent":0,"parameters":["...is what I would say if I was an idiot."]},{"code":101,"indent":0,"parameters":["Esthera emo2",0,0,2]},{"code":401,"indent":0,"parameters":["The others who hold soul fragments are all insecure fools, afraid of any challengers. I'm not."]},{"code":101,"indent":0,"parameters":["Esthera emo2",0,0,2]},{"code":401,"indent":0,"parameters":["I have a proposal for your master, and I'm not joking this time. If you decline, you'll die."]},{"code":101,"indent":0,"parameters":["Esthera emo",0,0,2]},{"code":401,"indent":0,"parameters":["I'm using all my power to hold off the others, so we have a little time. But once I let them in..."]},{"code":101,"indent":0,"parameters":["Esthera emo",0,0,2]},{"code":401,"indent":0,"parameters":["I'll acknowledge your master as a full-fledged Incubus King, granting him some protection - but in return, he'll serve me."]},{"code":101,"indent":0,"parameters":["Esthera emo2",4,0,2]},{"code":401,"indent":0,"parameters":["He can keep whatever petty domain he carves out on Arclent... but he'll serve me in what really matters."]},{"code":101,"indent":0,"parameters":["Yarra emo",0,0,2]},{"code":401,"indent":0,"parameters":["..."]},{"code":101,"indent":0,"parameters":["Yarra emo",0,0,2]},{"code":401,"indent":0,"parameters":["Simon? Do you think she'll find the King if we refuse?"]},{"code":101,"indent":0,"parameters":["face002b",0,0,2]},{"code":401,"indent":0,"parameters":["...what would you use his power for?"]},{"code":101,"indent":0,"parameters":["Esthera emo",1,0,2]},{"code":401,"indent":0,"parameters":["For myself, of course."]},{"code":101,"indent":0,"parameters":["face002b",0,0,2]},{"code":401,"indent":0,"parameters":["I'm asking what effect you want to have on the world."]},{"code":101,"indent":0,"parameters":["Esthera emo",5,0,2]},{"code":401,"indent":0,"parameters":["Hah! An idealist? In an Incubus King's employ?"]},{"code":101,"indent":0,"parameters":["Esthera emo",1,0,2]},{"code":401,"indent":0,"parameters":["I'm not telling you a damn thing. You can accept the offer or let the others tear you apart."]},{"code":101,"indent":0,"parameters":["face002b",0,0,2]},{"code":401,"indent":0,"parameters":["Yarra, you know him best. What should we do?"]},{"code":101,"indent":0,"parameters":["Yarra emo",4,0,2]},{"code":401,"indent":0,"parameters":["Simon..."]},{"code":101,"indent":0,"parameters":["Yarra emo",0,0,2]},{"code":401,"indent":0,"parameters":["We'll do it, Empress. Grant us your protection and our master will become your vassal."]},{"code":101,"indent":0,"parameters":["Esthera emo2",1,0,2]},{"code":401,"indent":0,"parameters":["Perfect."]},{"code":101,"indent":0,"parameters":["Esthera emo",0,0,2]},{"code":401,"indent":0,"parameters":["I didn't expect you to be this reasonable, so we have some time before my barrier fades. Let's discuss terms."]},{"code":101,"indent":0,"parameters":["Esthera emo",0,0,2]},{"code":401,"indent":0,"parameters":["Just because you have my approval doesn't mean you'll be safe. There will be a Gathering soon and you'll have to prove yourselves there."]},{"code":101,"indent":0,"parameters":["Esthera emo",0,0,2]},{"code":401,"indent":0,"parameters":["Trust me, by the time it's done, I'll be in position to crush your master like a bug if he defi-"]},{"code":101,"indent":0,"parameters":["Esthera emo",3,0,2]},{"code":401,"indent":0,"parameters":["Shit, already?"]},{"code":212,"indent":0,"parameters":[-1,105,false]},{"code":230,"indent":0,"parameters":[120]},{"code":205,"indent":0,"parameters":[-1,{"list":[{"code":16,"indent":null,"parameters":[]},{"code":0,"indent":null,"parameters":[]}],"repeat":false,"skippable":false,"wait":true}]},{"code":505,"indent":0,"parameters":[{"code":16,"indent":null,"parameters":[]}]},{"code":121,"indent":0,"parameters":[295,295,0]},{"code":230,"indent":0,"parameters":[60]},{"code":231,"indent":0,"parameters":[1,"Dio",0,0,0,10,100,100,255,0]},{"code":101,"indent":0,"parameters":["Dio emo",0,0,2]},{"code":401,"indent":0,"parameters":["..."]},{"code":235,"indent":0,"parameters":[1]},{"code":101,"indent":0,"parameters":["Esthera emo2",0,0,2]},{"code":401,"indent":0,"parameters":["Lustlord. How did you break through?"]},{"code":101,"indent":0,"parameters":["Dio emo",2,0,2]},{"code":401,"indent":0,"parameters":["No pretender can stand in my path."]},{"code":101,"indent":0,"parameters":["Qum D'umpe emo",4,0,2]},{"code":401,"indent":0,"parameters":["Lustlord? This guy... is God?"]},{"code":101,"indent":0,"parameters":["Yarra emo",0,0,2]},{"code":401,"indent":0,"parameters":["That can't be. He's strong, but not any stronger than the Incubus King."]},{"code":250,"indent":0,"parameters":[{"name":"Stare","pan":0,"pitch":50,"volume":80}]},{"code":101,"indent":0,"parameters":["Dio emo",0,0,2]},{"code":401,"indent":0,"parameters":["Silence, succubi!"]},{"code":101,"indent":0,"parameters":["Dio emo",0,0,2]},{"code":401,"indent":0,"parameters":["I am he who will take up the mantle of godhood. When that time comes, you will all bow before me."]},{"code":101,"indent":0,"parameters":["Esthera emo2",4,0,2]},{"code":401,"indent":0,"parameters":["Really. And here I thought you were just the one who gave speeches at Gatherings."]},{"code":101,"indent":0,"parameters":["Dio emo",2,0,2]},{"code":401,"indent":0,"parameters":["One day you will service me, usurper. "]},{"code":101,"indent":0,"parameters":["Dio emo",0,0,2]},{"code":401,"indent":0,"parameters":["Until then, I have no choice but to acknowledge that the Empress is less of a fool than many. What are you trying to do?"]},{"code":101,"indent":0,"parameters":["Esthera emo",1,0,2]},{"code":401,"indent":0,"parameters":["Oh, just acknowledging the world's newest Incubus King."]},{"code":101,"indent":0,"parameters":["Dio emo",0,0,2]},{"code":401,"indent":0,"parameters":["..."]},{"code":101,"indent":0,"parameters":["Dio emo",6,0,2]},{"code":401,"indent":0,"parameters":["Heh."]},{"code":101,"indent":0,"parameters":["Dio emo",0,0,2]},{"code":401,"indent":0,"parameters":["So be it. We've needed something to cull the herd of Incubus Kings."]},{"code":101,"indent":0,"parameters":["Esthera emo",4,0,2]},{"code":401,"indent":0,"parameters":["So glad to find you agreeable."]},{"code":101,"indent":0,"parameters":["Dio emo",0,0,2]},{"code":401,"indent":0,"parameters":["You presume too much, Empress. You will make a fine addition to my harem, nothing more."]},{"code":101,"indent":0,"parameters":["Esthera emo",5,0,2]},{"code":401,"indent":0,"parameters":["Then start a war instead of just talking, you lazy bastard!"]},{"code":101,"indent":0,"parameters":["Dio emo",5,0,2]},{"code":401,"indent":0,"parameters":["Hmph."]},{"code":101,"indent":0,"parameters":["Dio emo",0,0,2]},{"code":401,"indent":0,"parameters":["The rest of you, vermin. Tell your master he can enjoy his time before his fragment is forfeit."]},{"code":101,"indent":0,"parameters":["Dio emo",0,0,2]},{"code":401,"indent":0,"parameters":["Presuming he survives the Gathering."]},{"code":212,"indent":0,"parameters":[-1,78,false]},{"code":230,"indent":0,"parameters":[60]},{"code":121,"indent":0,"parameters":[295,295,1]},{"code":230,"indent":0,"parameters":[30]},{"code":230,"indent":0,"parameters":[60]},{"code":101,"indent":0,"parameters":["Esthera emo",0,0,2]},{"code":401,"indent":0,"parameters":["Well, that went better than it might have. The Lustlord talks a good game, but he's all talk."]},{"code":205,"indent":0,"parameters":[-1,{"list":[{"code":19,"indent":null,"parameters":[]},{"code":0,"indent":null,"parameters":[]}],"repeat":false,"skippable":false,"wait":true}]},{"code":505,"indent":0,"parameters":[{"code":19,"indent":null,"parameters":[]}]},{"code":101,"indent":0,"parameters":["face002b",0,0,2]},{"code":401,"indent":0,"parameters":["Neither of you need to see our master?"]},{"code":101,"indent":0,"parameters":["Esthera emo",0,0,2]},{"code":401,"indent":0,"parameters":["No need - we felt his influence. It won't matter in the end."]},{"code":101,"indent":0,"parameters":["Yarra emo",0,0,2]},{"code":401,"indent":0,"parameters":["So we have an agreement, right? We're allied with you."]},{"code":101,"indent":0,"parameters":["Yarra emo2",0,0,2]},{"code":401,"indent":0,"parameters":["I have to say, I want to know how a succubus gained so much pow-"]},{"code":101,"indent":0,"parameters":["Esthera emo2",0,0,2]},{"code":401,"indent":0,"parameters":["Not really interested in talking to you, girl. There are bigger games afoot."]},{"code":101,"indent":0,"parameters":["Yarra emo2",1,0,2]},{"code":401,"indent":0,"parameters":["Aww..."]},{"code":101,"indent":0,"parameters":["Esthera emo2",0,0,2]},{"code":401,"indent":0,"parameters":["There's a great deal to prepare. However, I want one more thing, as a show of good faith."]},{"code":101,"indent":0,"parameters":["face002b",0,0,2]},{"code":401,"indent":0,"parameters":["What is it?"]},{"code":101,"indent":0,"parameters":["Esthera emo2",4,0,2]},{"code":401,"indent":0,"parameters":["You."]},{"code":101,"indent":0,"parameters":["Yarra emo",3,0,2]},{"code":401,"indent":0,"parameters":["What?"]},{"code":101,"indent":0,"parameters":["Esthera emo2",4,0,2]},{"code":401,"indent":0,"parameters":["This man is one of your master's servants, right? Give him to me."]},{"code":101,"indent":0,"parameters":["Esthera emo",2,0,2]},{"code":401,"indent":0,"parameters":["Unless you're not serious about your promises..."]},{"code":101,"indent":0,"parameters":["face002b",0,0,2]},{"code":401,"indent":0,"parameters":["..."]},{"code":101,"indent":0,"parameters":["Yarra emo",2,0,2]},{"code":401,"indent":0,"parameters":["Simon, you can't!"]},{"code":101,"indent":0,"parameters":["face002b",0,0,2]},{"code":401,"indent":0,"parameters":["Yarra, do I strike you as a man with a great deal of pride?"]},{"code":101,"indent":0,"parameters":["Yarra emo",4,0,2]},{"code":401,"indent":0,"parameters":["Simon..."]},{"code":101,"indent":0,"parameters":["face002b",0,0,2]},{"code":401,"indent":0,"parameters":["I will do anything that's necessary. Anything."]},{"code":101,"indent":0,"parameters":["Yarra emo",5,0,2]},{"code":401,"indent":0,"parameters":["I..."]},{"code":101,"indent":0,"parameters":["Yarra emo",0,0,2]},{"code":401,"indent":0,"parameters":["I trust you."]},{"code":101,"indent":0,"parameters":["face002b",5,0,2]},{"code":401,"indent":0,"parameters":["Thank you, Yarra. I'll try not to betray that trust."]},{"code":101,"indent":0,"parameters":["Esthera emo",7,0,2]},{"code":401,"indent":0,"parameters":["..."]},{"code":101,"indent":0,"parameters":["Esthera emo2",3,0,2]},{"code":401,"indent":0,"parameters":["This is all getting a little too sickeningly sweet for me. Come along, slave!"]},{"code":101,"indent":0,"parameters":["face002b",0,0,2]},{"code":401,"indent":0,"parameters":["Will anything change if I say goodbye first?"]},{"code":101,"indent":0,"parameters":["Esthera emo2",2,0,2]},{"code":401,"indent":0,"parameters":["Fine, have your emotional farewells. I'll be back for you soon."]},{"code":212,"indent":0,"parameters":[2,120,false]},{"code":230,"indent":0,"parameters":[60]},{"code":121,"indent":0,"parameters":[294,294,1]},{"code":230,"indent":0,"parameters":[30]},{"code":230,"indent":0,"parameters":[60]},{"code":101,"indent":0,"parameters":["face002b",0,0,2]},{"code":401,"indent":0,"parameters":["..."]},{"code":101,"indent":0,"parameters":["face002b",0,0,2]},{"code":401,"indent":0,"parameters":["Gather everyone. Quickly."]},{"code":221,"indent":0,"parameters":[]},{"code":230,"indent":0,"parameters":[60]},{"code":101,"indent":0,"parameters":["face002b",0,0,2]},{"code":401,"indent":0,"parameters":["I'm sorry, everyone, but that's the situation now."]},{"code":101,"indent":0,"parameters":["Aka emo",4,0,2]},{"code":401,"indent":0,"parameters":["Simon, you..."]},{"code":101,"indent":0,"parameters":["Robin blond emo",4,0,2]},{"code":401,"indent":0,"parameters":["Father..."]},{"code":101,"indent":0,"parameters":["Yarra emo",4,0,2]},{"code":401,"indent":0,"parameters":["I said I trust you, but if you don't use your power... she's going to use you up and cast you aside..."]},{"code":101,"indent":0,"parameters":["face002b",0,0,2]},{"code":401,"indent":0,"parameters":["We'll have to plan as if that won't happen. And the plan hasn't changed."]},{"code":101,"indent":0,"parameters":["Hilstara emo",0,0,2]},{"code":401,"indent":0,"parameters":["Are you serious? Everything fell apart."]},{"code":101,"indent":0,"parameters":["face002b",0,0,2]},{"code":401,"indent":0,"parameters":["We don't have the luxury of preparing in secret, but that doesn't mean we can't keep working."]},{"code":101,"indent":0,"parameters":["Qum D'umpe emo",4,0,2]},{"code":401,"indent":0,"parameters":["Cumdump... Cumdump will lose Simon..."]},{"code":101,"indent":0,"parameters":["face002b",0,0,2]},{"code":401,"indent":0,"parameters":["Qum, I need you and Yarra to learn about this Gathering and represent us if necessary. Can you do that?"]},{"code":101,"indent":0,"parameters":["Qum D'umpe emo",4,0,2]},{"code":401,"indent":0,"parameters":["Okay, Simon... Cumdump trusts you..."]},{"code":101,"indent":0,"parameters":["Yarra emo",5,0,2]},{"code":401,"indent":0,"parameters":["We'll do our best, but I don't know anything about this. Things have gotten bigger than us far too fast."]},{"code":101,"indent":0,"parameters":["face002b",0,0,2]},{"code":401,"indent":0,"parameters":["Aka. Go back to Yhilin and inform our allies."]},{"code":101,"indent":0,"parameters":["Aka emo",0,0,2]},{"code":401,"indent":0,"parameters":["..."]},{"code":101,"indent":0,"parameters":["face002b",0,0,2]},{"code":401,"indent":0,"parameters":["Then, I need you to begin preparing as if the plan will go forward. Our Doomed King may still invade."]},{"code":101,"indent":0,"parameters":["Aka emo",4,0,2]},{"code":401,"indent":0,"parameters":["I'll..."]},{"code":101,"indent":0,"parameters":["Aka emo",1,0,2]},{"code":401,"indent":0,"parameters":["I'll do my best!"]},{"code":101,"indent":0,"parameters":["face002b",0,0,2]},{"code":401,"indent":0,"parameters":["Megail. Do I need to say anything?"]},{"code":101,"indent":0,"parameters":["Megail emo2",0,0,2]},{"code":401,"indent":0,"parameters":["You're seriously going forward with this?"]},{"code":101,"indent":0,"parameters":["face002b",0,0,2]},{"code":401,"indent":0,"parameters":["Yes. You know what needs to be done."]},{"code":101,"indent":0,"parameters":["Megail emo2",4,0,2]},{"code":401,"indent":0,"parameters":["I'll begin preparing to provision an army. I just hope this isn't a mistake..."]},{"code":101,"indent":0,"parameters":["face002b",0,0,2]},{"code":401,"indent":0,"parameters":["It may be. We've definitely lost control."]},{"code":101,"indent":0,"parameters":["face002b",0,0,2]},{"code":401,"indent":0,"parameters":["But it isn't over. Not yet..."]},{"code":101,"indent":0,"parameters":["Trin emo",4,0,2]},{"code":401,"indent":0,"parameters":["Can we at least say goodbye with one last fuck?"]},{"code":101,"indent":0,"parameters":["Robin blond emo",5,0,2]},{"code":401,"indent":0,"parameters":["That would break my control and give away the ruse."]},{"code":101,"indent":0,"parameters":["Robin blond emo",0,0,2]},{"code":401,"indent":0,"parameters":["And she's coming back, I can feel her. Father, I..."]},{"code":101,"indent":0,"parameters":["Robin blond emo",1,0,2]},{"code":401,"indent":0,"parameters":["I'll see you soon."]},{"code":101,"indent":0,"parameters":["face002b",0,0,2]},{"code":401,"indent":0,"parameters":["..."]},{"code":101,"indent":0,"parameters":["face002b",0,0,2]},{"code":401,"indent":0,"parameters":["This is when I would usually say that we can't be sure what will happen. But..."]},{"code":101,"indent":0,"parameters":["face002b",3,0,2]},{"code":401,"indent":0,"parameters":["I'm coming back. No matter what."]},{"code":201,"indent":0,"parameters":[0,131,13,16,0,0]},{"code":222,"indent":0,"parameters":[]},{"code":356,"indent":0,"parameters":["Quest 22 Fail Objective 5"]},{"code":0,"indent":0,"parameters":[]}]},{"conditions":{"actorId":1,"actorValid":false,"itemId":1,"itemValid":false,"selfSwitchCh":"A","selfSwitchValid":true,"switch1Id":1,"switch1Valid":false,"switch2Id":1,"switch2Valid":false,"variableId":1,"variableValid":false,"variableValue":0},"directionFix":false,"image":{"tileId":0,"characterName":"","direction":2,"pattern":0,"characterIndex":0},"moveFrequency":3,"moveRoute":{"list":[{"code":0,"indent":null,"parameters":[]}],"repeat":true,"skippable":false,"wait":false},"moveSpeed":3,"moveType":0,"priorityType":0,"stepAnime":false,"through":false,"trigger":0,"walkAnime":true,"list":[{"code":0,"indent":0,"parameters":[]}]}],"x":0,"y":0},
{"id":2,"name":"Esthera CS","note":"","pages":[{"conditions":{"actorId":1,"actorValid":false,"itemId":1,"itemValid":false,"selfSwitchCh":"A","selfSwitchValid":false,"switch1Id":294,"switch1Valid":true,"switch2Id":1,"switch2Valid":false,"variableId":1,"variableValid":false,"variableValue":0},"directionFix":false,"image":{"tileId":0,"characterName":"$Esthera char","direction":2,"pattern":1,"characterIndex":0},"moveFrequency":3,"moveRoute":{"list":[{"code":0,"indent":null,"parameters":[]}],"repeat":true,"skippable":false,"wait":false},"moveSpeed":3,"moveType":0,"priorityType":1,"stepAnime":false,"through":false,"trigger":0,"walkAnime":true,"list":[{"code":0,"indent":0,"parameters":[]}]}],"x":8,"y":2},
{"id":3,"name":"Lustlord CS","note":"","pages":[{"conditions":{"actorId":1,"actorValid":false,"itemId":1,"itemValid":false,"selfSwitchCh":"A","selfSwitchValid":false,"switch1Id":295,"switch1Valid":true,"switch2Id":1,"switch2Valid":false,"variableId":1,"variableValid":false,"variableValue":0},"directionFix":false,"image":{"tileId":0,"characterName":"Dio char","direction":8,"pattern":1,"characterIndex":2},"moveFrequency":3,"moveRoute":{"list":[{"code":0,"indent":null,"parameters":[]}],"repeat":true,"skippable":false,"wait":false},"moveSpeed":3,"moveType":0,"priorityType":1,"stepAnime":false,"through":false,"trigger":0,"walkAnime":true,"list":[{"code":0,"indent":0,"parameters":[]}]}],"x":8,"y":6}
]
}