{
"autoplayBgm":false,"autoplayBgs":false,"battleback1Name":"","battleback2Name":"","bgm":{"name":"","pan":0,"pitch":100,"volume":100},"bgs":{"name":"","pan":0,"pitch":100,"volume":80},"disableDashing":false,"displayName":"","encounterList":[],"encounterStep":30,"height":13,"note":"","parallaxLoopX":false,"parallaxLoopY":false,"parallaxName":"","parallaxShow":false,"parallaxSx":0,"parallaxSy":0,"scrollType":0,"specifyBattleback":false,"tilesetId":2,"width":17,
"data":[3968,3968,3968,3968,3968,3968,3968,3968,3968,3968,3968,3968,3968,3968,3968,3968,3968,3968,3968,3968,3968,3968,3968,3968,3968,3968,3968,3968,3968,3968,3968,3968,3968,3968,3968,3968,3968,3968,3968,3968,3968,3968,3968,3968,3968,3968,3968,3968,3968,3968,3968,3968,3968,3968,3968,3968,3968,3968,3968,3968,3968,3968,3968,3968,3968,3968,3968,3968,3968,3968,3968,3968,3968,3968,3968,3968,3968,3968,3968,3968,3968,3968,3968,3968,3968,3968,3968,3968,3968,3968,3968,3968,3968,3968,3968,3968,3968,3968,3968,3968,3968,3968,3968,3968,3968,3968,3968,3968,3968,3968,3968,3968,3968,3968,3968,3968,3968,3968,3968,3968,3968,3968,3968,3968,3968,3968,3968,3968,3968,3968,3968,3968,3968,3968,3968,3968,3968,3968,3968,3968,3968,3968,3968,3968,3968,3968,3968,3968,3968,3968,3968,3968,3968,3968,3968,3968,3968,3968,3968,3968,3968,3968,3968,3968,3968,3968,3968,3968,3968,3968,3968,3968,3968,3968,3968,3968,3968,3968,3968,3968,3968,3968,3968,3968,3968,3968,3968,3968,3968,3968,3968,3968,3968,3968,3968,3968,3968,3968,3968,3968,3968,3968,3968,3968,3968,3968,3968,3968,3968,3968,3968,3968,3968,3968,3968,3968,3968,3968,3968,3968,3968,0,0,0,0,0,0,0,0,0,0,0,0,0,0,0,0,0,0,0,0,0,0,0,0,0,0,0,0,0,0,0,0,0,0,0,0,0,0,0,0,0,0,0,0,0,0,0,0,0,0,0,0,0,0,0,0,0,0,4202,0,0,0,0,0,0,0,0,0,0,0,0,0,0,0,0,4192,0,0,0,0,0,0,0,0,0,0,0,0,0,0,0,0,4192,0,0,0,0,0,0,0,0,0,0,0,0,0,0,0,0,4177,4196,0,0,0,0,0,0,0,0,0,0,0,0,0,0,0,4176,4184,0,0,0,0,0,0,0,0,0,0,0,0,0,0,4194,4161,4184,0,0,0,0,0,0,0,0,0,0,0,0,0,0,4176,4160,4184,0,4202,0,0,0,0,0,0,0,0,0,0,0,4194,4161,4160,4184,0,4192,0,0,0,0,0,0,0,0,0,0,0,4176,4160,4160,4162,4180,4186,0,0,0,0,0,0,0,0,0,0,0,4176,4160,4160,4160,4160,4184,0,0,0,0,0,0,0,0,0,0,0,0,0,0,0,0,0,0,0,0,0,0,0,0,0,0,0,0,0,0,0,0,0,0,0,0,0,0,0,0,0,0,0,0,0,0,0,0,0,0,0,0,0,0,0,0,0,0,0,0,0,0,0,0,0,0,0,0,0,0,0,0,0,0,0,0,0,0,0,0,0,0,0,0,0,0,0,0,0,0,0,0,0,0,0,0,0,0,0,0,0,0,0,0,0,0,0,0,0,0,0,0,0,0,0,0,0,0,0,0,0,0,0,0,0,0,0,0,0,0,0,0,0,0,0,0,0,0,0,0,0,0,0,0,0,0,0,0,0,0,0,0,0,0,0,0,0,0,0,0,0,0,0,0,0,0,0,0,0,0,0,0,0,0,0,0,0,0,0,0,0,0,0,0,0,0,0,0,0,0,0,0,0,0,0,0,0,0,0,0,0,0,0,0,0,0,0,0,0,0,0,0,0,0,0,0,0,0,0,0,0,0,0,0,0,0,0,130,131,130,131,129,0,0,0,152,0,136,138,130,131,130,131,130,138,139,138,139,137,0,0,0,0,0,0,136,138,139,138,139,138,130,131,130,131,129,0,0,0,0,0,0,0,136,131,130,131,130,138,139,138,139,137,153,0,0,0,0,152,0,0,136,138,139,138,130,131,130,137,0,0,0,0,0,0,0,128,129,128,130,131,130,138,139,138,129,0,0,0,0,0,0,0,136,138,139,138,139,138,130,131,130,131,129,0,0,0,0,0,0,128,130,131,130,131,130,138,139,138,139,137,152,0,0,0,0,0,136,138,139,138,139,138,130,131,130,137,0,0,0,0,0,153,0,0,136,131,130,131,130,138,139,138,129,0,0,0,152,0,0,0,0,128,139,138,139,138,130,131,130,137,0,0,0,0,0,0,0,128,130,131,130,131,130,138,139,138,129,153,0,0,0,0,152,0,136,138,139,138,139,138,130,131,130,131,129,0,0,0,0,0,0,128,130,131,130,131,130,0,0,0,0,0,0,0,0,0,0,0,0,0,0,0,0,0,0,0,0,0,0,0,0,0,0,0,0,0,0,0,0,0,0,0,0,0,0,0,0,0,0,0,0,0,0,0,0,0,0,0,0,0,0,0,0,0,0,0,0,0,0,0,0,0,0,0,0,0,0,0,0,0,0,0,0,0,0,0,0,0,0,0,0,0,0,0,0,0,0,0,0,0,0,0,0,0,0,0,0,0,0,0,0,0,0,0,0,0,0,0,0,0,0,0,0,0,0,0,0,0,0,0,0,0,0,0,0,0,0,0,0,0,0,0,0,0,0,0,0,0,0,0,0,0,0,0,0,0,0,0,0,0,0,0,0,0,0,0,0,0,0,0,0,0,0,0,0,0,0,0,0,0,0,0,0,0,0,0,0,0,0,0,0,0,0,0,0,0,0,0,0,0,0,0,0,0,0,0,0,0,0,0,0,0,0,0,0,0,0,0,0,0,0,0,0,0,0,0,0,0,0,0,0,0,0,0,0,0,0,0,0,0,0,0,0,0,0,0,0,0,0,0,0,0,0,0,0,0,0,0,0,0,0,0,0,0,0,0,0,0,0,0,0,0,0,0,0,0,0,0,0,0,0,0,0,0,0,0,0,0,0,0,0,0,0,0,0,0,0,0,0,0,0,0,0,0,0,0,0,0,0,0,0,0,0,0,0,0,0,0,0,0,0,0,0,0,0,0,0,0,0,0,0,0,0,0,0,0,0,0,0,0,0,0,0,0,0,0,0,0,0,0,0,0,0,0,0,0,0,0,0,0,0,0,0,0,0,0,0,0,0,0,0,0,0,0,0,0,0,0,0,0,0,0,0,0,0,0,0,0,0,0,0,0,0,0,0,0,0,0,0,0,0,0,0,0,0,0,0,0,0,0,0,0,0,0,0,0,0,0,0,0,0,0,0,0,0,0,0,0,0,0,0,0,0,0,0,0,0,0,0,0,0,0,0,0,0,0,0,0,0],
"events":[
null,
{"id":1,"name":"EV001","note":"","pages":[{"conditions":{"actorId":1,"actorValid":false,"itemId":1,"itemValid":false,"selfSwitchCh":"A","selfSwitchValid":false,"switch1Id":1,"switch1Valid":false,"switch2Id":1,"switch2Valid":false,"variableId":1,"variableValid":false,"variableValue":0},"directionFix":false,"image":{"tileId":0,"characterName":"","direction":2,"pattern":0,"characterIndex":0},"moveFrequency":3,"moveRoute":{"list":[{"code":0,"indent":null,"parameters":[]}],"repeat":true,"skippable":false,"wait":false},"moveSpeed":3,"moveType":0,"priorityType":0,"stepAnime":false,"through":false,"trigger":3,"walkAnime":true,"list":[{"code":242,"indent":0,"parameters":[5]},{"code":230,"indent":0,"parameters":[60]},{"code":205,"indent":0,"parameters":[-1,{"list":[{"code":4,"indent":null,"parameters":[]},{"code":4,"indent":null,"parameters":[]},{"code":4,"indent":null,"parameters":[]},{"code":4,"indent":null,"parameters":[]},{"code":4,"indent":null,"parameters":[]},{"code":0,"indent":null,"parameters":[]}],"repeat":false,"skippable":false,"wait":false}]},{"code":505,"indent":0,"parameters":[{"code":4,"indent":null,"parameters":[]}]},{"code":505,"indent":0,"parameters":[{"code":4,"indent":null,"parameters":[]}]},{"code":505,"indent":0,"parameters":[{"code":4,"indent":null,"parameters":[]}]},{"code":505,"indent":0,"parameters":[{"code":4,"indent":null,"parameters":[]}]},{"code":505,"indent":0,"parameters":[{"code":4,"indent":null,"parameters":[]}]},{"code":222,"indent":0,"parameters":[]},{"code":101,"indent":0,"parameters":["Yarra emo2",1,0,2]},{"code":401,"indent":0,"parameters":["Huff... huff... I can't run... any more..."]},{"code":101,"indent":0,"parameters":["Qum D'umpe emo",4,0,2]},{"code":401,"indent":0,"parameters":["Not far enough?"]},{"code":205,"indent":0,"parameters":[-1,{"list":[{"code":16,"indent":null,"parameters":[]},{"code":0,"indent":null,"parameters":[]}],"repeat":false,"skippable":false,"wait":true}]},{"code":505,"indent":0,"parameters":[{"code":16,"indent":null,"parameters":[]}]},{"code":101,"indent":0,"parameters":["Yarra emo",0,0,2]},{"code":401,"indent":0,"parameters":["I don't see anyone, but..."]},{"code":121,"indent":0,"parameters":[554,554,0]},{"code":205,"indent":0,"parameters":[2,{"list":[{"code":1,"indent":null,"parameters":[]},{"code":1,"indent":null,"parameters":[]},{"code":1,"indent":null,"parameters":[]},{"code":1,"indent":null,"parameters":[]},{"code":0,"indent":null,"parameters":[]}],"repeat":false,"skippable":false,"wait":false}]},{"code":505,"indent":0,"parameters":[{"code":1,"indent":null,"parameters":[]}]},{"code":505,"indent":0,"parameters":[{"code":1,"indent":null,"parameters":[]}]},{"code":505,"indent":0,"parameters":[{"code":1,"indent":null,"parameters":[]}]},{"code":505,"indent":0,"parameters":[{"code":1,"indent":null,"parameters":[]}]},{"code":205,"indent":0,"parameters":[3,{"list":[{"code":1,"indent":null,"parameters":[]},{"code":1,"indent":null,"parameters":[]},{"code":1,"indent":null,"parameters":[]},{"code":0,"indent":null,"parameters":[]}],"repeat":false,"skippable":false,"wait":false}]},{"code":505,"indent":0,"parameters":[{"code":1,"indent":null,"parameters":[]}]},{"code":505,"indent":0,"parameters":[{"code":1,"indent":null,"parameters":[]}]},{"code":505,"indent":0,"parameters":[{"code":1,"indent":null,"parameters":[]}]},{"code":101,"indent":0,"parameters":["Y succubus2 OrgEmp",5,0,2]},{"code":401,"indent":0,"parameters":["This way is a dead end! We have to get out!"]},{"code":205,"indent":0,"parameters":[-1,{"list":[{"code":19,"indent":null,"parameters":[]},{"code":0,"indent":null,"parameters":[]}],"repeat":false,"skippable":false,"wait":true}]},{"code":505,"indent":0,"parameters":[{"code":19,"indent":null,"parameters":[]}]},{"code":101,"indent":0,"parameters":["Z succubus_a",4,0,2]},{"code":401,"indent":0,"parameters":["Are there any coming this way?"]},{"code":101,"indent":0,"parameters":["Yarra emo",0,0,2]},{"code":401,"indent":0,"parameters":["Can either of you fly well?"]},{"code":101,"indent":0,"parameters":["Y succubus2 OrgEmp",3,0,2]},{"code":401,"indent":0,"parameters":["Anyone who tries to fly gets annihilated instantly!"]},{"code":101,"indent":0,"parameters":["Z succubus_a",0,0,2]},{"code":401,"indent":0,"parameters":["We're pieces in this game, not players. We don't have any hope of escaping."]},{"code":101,"indent":0,"parameters":["Z succubus_a",7,0,2]},{"code":401,"indent":0,"parameters":["All we can try to do is get captured by someone nicer..."]},{"code":101,"indent":0,"parameters":["Y succubus2 OrgEmp",7,0,2]},{"code":401,"indent":0,"parameters":["Mmmm... the Empress should know her way around a pussy..."]},{"code":101,"indent":0,"parameters":["Yarra emo",2,0,2]},{"code":401,"indent":0,"parameters":["Seriously? I'm not asking you to fight them, but that's the best you can do?"]},{"code":101,"indent":0,"parameters":["Qum D'umpe emo",3,0,2]},{"code":401,"indent":0,"parameters":["Eeep!"]},{"code":213,"indent":0,"parameters":[-1,1,false]},{"code":205,"indent":0,"parameters":[-1,{"list":[{"code":16,"indent":null,"parameters":[]},{"code":0,"indent":null,"parameters":[]}],"repeat":false,"skippable":false,"wait":true}]},{"code":505,"indent":0,"parameters":[{"code":16,"indent":null,"parameters":[]}]},{"code":121,"indent":0,"parameters":[555,555,0]},{"code":205,"indent":0,"parameters":[4,{"list":[{"code":4,"indent":null,"parameters":[]},{"code":4,"indent":null,"parameters":[]},{"code":4,"indent":null,"parameters":[]},{"code":4,"indent":null,"parameters":[]},{"code":4,"indent":null,"parameters":[]},{"code":0,"indent":null,"parameters":[]}],"repeat":false,"skippable":false,"wait":false}]},{"code":505,"indent":0,"parameters":[{"code":4,"indent":null,"parameters":[]}]},{"code":505,"indent":0,"parameters":[{"code":4,"indent":null,"parameters":[]}]},{"code":505,"indent":0,"parameters":[{"code":4,"indent":null,"parameters":[]}]},{"code":505,"indent":0,"parameters":[{"code":4,"indent":null,"parameters":[]}]},{"code":505,"indent":0,"parameters":[{"code":4,"indent":null,"parameters":[]}]},{"code":205,"indent":0,"parameters":[2,{"list":[{"code":35,"indent":null,"parameters":[]},{"code":4,"indent":null,"parameters":[]},{"code":36,"indent":null,"parameters":[]},{"code":0,"indent":null,"parameters":[]}],"repeat":false,"skippable":false,"wait":false}]},{"code":505,"indent":0,"parameters":[{"code":35,"indent":null,"parameters":[]}]},{"code":505,"indent":0,"parameters":[{"code":4,"indent":null,"parameters":[]}]},{"code":505,"indent":0,"parameters":[{"code":36,"indent":null,"parameters":[]}]},{"code":205,"indent":0,"parameters":[3,{"list":[{"code":35,"indent":null,"parameters":[]},{"code":4,"indent":null,"parameters":[]},{"code":36,"indent":null,"parameters":[]},{"code":0,"indent":null,"parameters":[]}],"repeat":false,"skippable":false,"wait":false}]},{"code":505,"indent":0,"parameters":[{"code":35,"indent":null,"parameters":[]}]},{"code":505,"indent":0,"parameters":[{"code":4,"indent":null,"parameters":[]}]},{"code":505,"indent":0,"parameters":[{"code":36,"indent":null,"parameters":[]}]},{"code":205,"indent":0,"parameters":[-1,{"list":[{"code":35,"indent":null,"parameters":[]},{"code":4,"indent":null,"parameters":[]},{"code":36,"indent":null,"parameters":[]},{"code":0,"indent":null,"parameters":[]}],"repeat":false,"skippable":false,"wait":false}]},{"code":505,"indent":0,"parameters":[{"code":35,"indent":null,"parameters":[]}]},{"code":505,"indent":0,"parameters":[{"code":4,"indent":null,"parameters":[]}]},{"code":505,"indent":0,"parameters":[{"code":36,"indent":null,"parameters":[]}]},{"code":213,"indent":0,"parameters":[2,1,false]},{"code":213,"indent":0,"parameters":[3,1,false]},{"code":230,"indent":0,"parameters":[60]},{"code":101,"indent":0,"parameters":["Fucklord emo",1,0,2]},{"code":401,"indent":0,"parameters":["Hahaaaa!"]},{"code":101,"indent":0,"parameters":["Fucklord emo",1,0,2]},{"code":401,"indent":0,"parameters":["Four more, completely undefended? Awesome!"]},{"code":213,"indent":0,"parameters":[4,8,true]},{"code":101,"indent":0,"parameters":["Fucklord emo",4,0,2]},{"code":401,"indent":0,"parameters":["Wait a minute..."]},{"code":101,"indent":0,"parameters":["Fucklord emo",6,0,2]},{"code":401,"indent":0,"parameters":["Some of you are from Arclent! But I didn't bring you!"]},{"code":101,"indent":0,"parameters":["Fucklord emo",3,0,2]},{"code":401,"indent":0,"parameters":["You must all be from that new guy! I'll hang you by your own entrails!"]},{"code":101,"indent":0,"parameters":["Y succubus2 OrgEmp",4,0,2]},{"code":401,"indent":0,"parameters":["W-wait! I'm not with them!"]},{"code":101,"indent":0,"parameters":["Z succubus_a",4,0,2]},{"code":401,"indent":0,"parameters":["Yeah! They're the ones you want!"]},{"code":101,"indent":0,"parameters":["Yarra emo2",1,0,2]},{"code":401,"indent":0,"parameters":["Thanks for nothing."]},{"code":205,"indent":0,"parameters":[-1,{"list":[{"code":19,"indent":null,"parameters":[]},{"code":0,"indent":null,"parameters":[]}],"repeat":false,"skippable":false,"wait":true}]},{"code":505,"indent":0,"parameters":[{"code":19,"indent":null,"parameters":[]}]},{"code":101,"indent":0,"parameters":["Yarra emo",2,0,2]},{"code":401,"indent":0,"parameters":["Run, you ungrateful bitches! I'll hold him here!"]},{"code":205,"indent":0,"parameters":[2,{"list":[{"code":4,"indent":null,"parameters":[]},{"code":4,"indent":null,"parameters":[]},{"code":4,"indent":null,"parameters":[]},{"code":39,"indent":null,"parameters":[]},{"code":0,"indent":null,"parameters":[]}],"repeat":false,"skippable":true,"wait":false}]},{"code":505,"indent":0,"parameters":[{"code":4,"indent":null,"parameters":[]}]},{"code":505,"indent":0,"parameters":[{"code":4,"indent":null,"parameters":[]}]},{"code":505,"indent":0,"parameters":[{"code":4,"indent":null,"parameters":[]}]},{"code":505,"indent":0,"parameters":[{"code":39,"indent":null,"parameters":[]}]},{"code":205,"indent":0,"parameters":[3,{"list":[{"code":4,"indent":null,"parameters":[]},{"code":4,"indent":null,"parameters":[]},{"code":4,"indent":null,"parameters":[]},{"code":39,"indent":null,"parameters":[]},{"code":0,"indent":null,"parameters":[]}],"repeat":false,"skippable":true,"wait":false}]},{"code":505,"indent":0,"parameters":[{"code":4,"indent":null,"parameters":[]}]},{"code":505,"indent":0,"parameters":[{"code":4,"indent":null,"parameters":[]}]},{"code":505,"indent":0,"parameters":[{"code":4,"indent":null,"parameters":[]}]},{"code":505,"indent":0,"parameters":[{"code":39,"indent":null,"parameters":[]}]},{"code":101,"indent":0,"parameters":["Yarra emo",5,0,2]},{"code":401,"indent":0,"parameters":["Qum, go with them."]},{"code":101,"indent":0,"parameters":["Qum D'umpe emo",2,0,2]},{"code":401,"indent":0,"parameters":["Cumdump won't leave Yarra!"]},{"code":101,"indent":0,"parameters":["Yarra emo",4,0,2]},{"code":401,"indent":0,"parameters":["But there's not much I can do. You have to-"]},{"code":101,"indent":0,"parameters":["Fucklord emo",2,0,2]},{"code":401,"indent":0,"parameters":["Holy shit, I think I fell asleep there for a moment, this is all so damn emotional!"]},{"code":101,"indent":0,"parameters":["Fucklord emo",1,0,2]},{"code":401,"indent":0,"parameters":["I'm going to make the two of you beg me for my cock until you tear each other apart."]},{"code":205,"indent":0,"parameters":[-1,{"list":[{"code":1,"indent":null,"parameters":[]},{"code":0,"indent":null,"parameters":[]}],"repeat":false,"skippable":false,"wait":false}]},{"code":505,"indent":0,"parameters":[{"code":1,"indent":null,"parameters":[]}]},{"code":101,"indent":0,"parameters":["Yarra emo",0,0,2]},{"code":401,"indent":0,"parameters":["No. You're not strong enough to do that."]},{"code":101,"indent":0,"parameters":["Fucklord emo",1,0,2]},{"code":401,"indent":0,"parameters":["Stupid succubus! Eat ecstasy!"]},{"code":224,"indent":0,"parameters":[[255,0,255,255],60,true]},{"code":101,"indent":0,"parameters":["Yarra emo",3,0,2]},{"code":401,"indent":0,"parameters":["Aaah!"]},{"code":101,"indent":0,"parameters":["Fucklord emo",1,0,2]},{"code":401,"indent":0,"parameters":["Hahahaa! That's just the beginning!"]},{"code":224,"indent":0,"parameters":[[255,0,255,255],60,true]},{"code":230,"indent":0,"parameters":[15]},{"code":224,"indent":0,"parameters":[[255,0,255,255],60,true]},{"code":230,"indent":0,"parameters":[15]},{"code":224,"indent":0,"parameters":[[255,0,255,255],60,true]},{"code":230,"indent":0,"parameters":[15]},{"code":101,"indent":0,"parameters":["Yarra emo",3,0,2]},{"code":401,"indent":0,"parameters":["Fuck, I haven't come this hard since... since..."]},{"code":101,"indent":0,"parameters":["Yarra emo",5,0,2]},{"code":401,"indent":0,"parameters":["It's not enough."]},{"code":101,"indent":0,"parameters":["Fucklord emo",6,0,2]},{"code":401,"indent":0,"parameters":["The fuck?"]},{"code":101,"indent":0,"parameters":["Fucklord emo",3,0,2]},{"code":401,"indent":0,"parameters":["You think this is all I can do? You BELONG TO ME!"]},{"code":224,"indent":0,"parameters":[[255,0,255,255],60,true]},{"code":223,"indent":0,"parameters":[[75,0,0,0],1,false]},{"code":101,"indent":0,"parameters":["Fucklord emo",3,0,2]},{"code":401,"indent":0,"parameters":["How dare you stand up to me? You're nothing but a succubus! You're all miserable little empty cocksleeves without me!"]},{"code":224,"indent":0,"parameters":[[255,0,255,255],60,true]},{"code":223,"indent":0,"parameters":[[150,0,0,0],1,false]},{"code":101,"indent":0,"parameters":["Fucklord emo",1,0,2]},{"code":401,"indent":0,"parameters":["You're living sex dolls! You'll beg for it from anything that moves! You think you can be something else?"]},{"code":101,"indent":0,"parameters":["Fucklord emo",3,0,2]},{"code":401,"indent":0,"parameters":["Idiot!"]},{"code":223,"indent":0,"parameters":[[225,0,0,0],90,false]},{"code":224,"indent":0,"parameters":[[255,0,255,255],60,false]},{"code":230,"indent":0,"parameters":[30]},{"code":224,"indent":0,"parameters":[[255,0,255,255],60,false]},{"code":230,"indent":0,"parameters":[30]},{"code":224,"indent":0,"parameters":[[255,0,255,255],60,false]},{"code":230,"indent":0,"parameters":[90]},{"code":101,"indent":0,"parameters":["Fucklord emo",1,0,2]},{"code":401,"indent":0,"parameters":["You see? You're already getting wet. Soon you'll be at my cock, just like all the rest!"]},{"code":213,"indent":0,"parameters":[-1,8,true]},{"code":101,"indent":0,"parameters":["Fucklord emo",7,0,2]},{"code":401,"indent":0,"parameters":["Now, come to me... on your knees."]},{"code":213,"indent":0,"parameters":[-1,8,true]},{"code":224,"indent":0,"parameters":[[0,0,255,255],60,false]},{"code":223,"indent":0,"parameters":[[0,0,0,0],90,false]},{"code":101,"indent":0,"parameters":["Yarra emo2",7,0,2]},{"code":401,"indent":0,"parameters":["No!"]},{"code":101,"indent":0,"parameters":["Fucklord emo",6,0,2]},{"code":401,"indent":0,"parameters":["What the fuck is this?"]},{"code":101,"indent":0,"parameters":["Fucklord emo",0,0,2]},{"code":401,"indent":0,"parameters":["That's not fair! NOT FAIR!"]},{"code":101,"indent":0,"parameters":["Fucklord emo",3,0,2]},{"code":401,"indent":0,"parameters":["YOU PATHETIC INSECT! I'LL CRUSH YOU!"]},{"code":101,"indent":0,"parameters":["Yarra emo",5,0,2]},{"code":401,"indent":0,"parameters":["That... that was everything I had... Qum, I'm sorry..."]},{"code":230,"indent":0,"parameters":[60]},{"code":212,"indent":0,"parameters":[-1,120,false]},{"code":230,"indent":0,"parameters":[30]},{"code":121,"indent":0,"parameters":[556,556,0]},{"code":230,"indent":0,"parameters":[30]},{"code":101,"indent":0,"parameters":["Esthera emo",4,0,2]},{"code":401,"indent":0,"parameters":["Tag! You're mine now!"]},{"code":213,"indent":0,"parameters":[4,1,true]},{"code":101,"indent":0,"parameters":["Fucklord emo",6,0,2]},{"code":401,"indent":0,"parameters":["H-hey! That's not fair either!"]},{"code":101,"indent":0,"parameters":["Fucklord emo",3,0,2]},{"code":401,"indent":0,"parameters":["And it's against the rules! You can't take your own succubi!"]},{"code":205,"indent":0,"parameters":[4,{"list":[{"code":16,"indent":null,"parameters":[]},{"code":0,"indent":null,"parameters":[]}],"repeat":false,"skippable":false,"wait":true}]},{"code":505,"indent":0,"parameters":[{"code":16,"indent":null,"parameters":[]}]},{"code":101,"indent":0,"parameters":["Fucklord emo",0,0,2]},{"code":401,"indent":0,"parameters":["Guys! Guys! Stop herrr~~~!"]},{"code":101,"indent":0,"parameters":["Esthera emo",1,0,2]},{"code":401,"indent":0,"parameters":["But she wasn't mine, she's my vassal's. And so I'm within my rights to take her."]},{"code":101,"indent":0,"parameters":["Yarra emo2",1,0,2]},{"code":401,"indent":0,"parameters":["I... I can't..."]},{"code":221,"indent":0,"parameters":[]},{"code":242,"indent":0,"parameters":[5]},{"code":230,"indent":0,"parameters":[120]},{"code":101,"indent":0,"parameters":["Qum D'umpe emo",4,0,2]},{"code":401,"indent":0,"parameters":["Yarra?"]},{"code":101,"indent":0,"parameters":["Yarra emo",5,0,2]},{"code":401,"indent":0,"parameters":["Mmmm?"]},{"code":101,"indent":0,"parameters":["Qum D'umpe emo",1,0,2]},{"code":401,"indent":0,"parameters":["She's okay!"]},{"code":101,"indent":0,"parameters":["Esthera emo2",0,0,2]},{"code":401,"indent":0,"parameters":["Well, going straight against him was stupid."]},{"code":101,"indent":0,"parameters":["Esthera emo2",1,0,2]},{"code":401,"indent":0,"parameters":["But it was more interesting than the alternative."]},{"code":101,"indent":0,"parameters":["Yarra emo",5,0,2]},{"code":401,"indent":0,"parameters":["Ugh..."]},{"code":201,"indent":0,"parameters":[0,172,28,20,6,2]},{"code":222,"indent":0,"parameters":[]},{"code":101,"indent":0,"parameters":["Yarra emo",0,0,2]},{"code":401,"indent":0,"parameters":["What... what happened at the event?"]},{"code":101,"indent":0,"parameters":["Esthera emo",4,0,2]},{"code":401,"indent":0,"parameters":["The others ruled in my favor. I might not have earned a high ranking, but I think I won something more important."]},{"code":101,"indent":0,"parameters":["Yarra emo",0,0,2]},{"code":401,"indent":0,"parameters":["I don't understand."]},{"code":101,"indent":0,"parameters":["Esthera emo2",4,0,2]},{"code":401,"indent":0,"parameters":["Information. You reveal more than you know about the master you serve."]},{"code":101,"indent":0,"parameters":["Esthera emo",5,0,2]},{"code":401,"indent":0,"parameters":["And you should have seen the looks on all those succubi's faces when I carried you out!"]},{"code":101,"indent":0,"parameters":["Qum D'umpe emo",1,0,2]},{"code":401,"indent":0,"parameters":["Everyone was watching Yarra!"]},{"code":101,"indent":0,"parameters":["Yarra emo2",1,0,2]},{"code":401,"indent":0,"parameters":["So I might as well have painted a target on my back. And on my pussy. And ass."]},{"code":101,"indent":0,"parameters":["Esthera emo2",1,0,2]},{"code":401,"indent":0,"parameters":["You get all the costs, I get all the benefits."]},{"code":101,"indent":0,"parameters":["Yarra emo",5,0,2]},{"code":401,"indent":0,"parameters":["..."]},{"code":101,"indent":0,"parameters":["Esthera emo2",4,0,2]},{"code":401,"indent":0,"parameters":["I almost DO want to take you for myself. But no, you've proven yourself more useful to me as a free agent."]},{"code":101,"indent":0,"parameters":["Qum D'umpe emo",1,0,2]},{"code":401,"indent":0,"parameters":["Yay!"]},{"code":101,"indent":0,"parameters":["Qum D'umpe emo",0,0,2]},{"code":401,"indent":0,"parameters":["Yarra? Is yay, yes?"]},{"code":101,"indent":0,"parameters":["Yarra emo",5,0,2]},{"code":401,"indent":0,"parameters":["Yes, just... give me some more time..."]},{"code":221,"indent":0,"parameters":[]},{"code":121,"indent":0,"parameters":[556,556,1]},{"code":117,"indent":0,"parameters":[14]},{"code":121,"indent":0,"parameters":[510,510,0]},{"code":101,"indent":0,"parameters":["Yarra emo2",0,0,2]},{"code":401,"indent":0,"parameters":["I'm feeling a lot better now! And now that I had time to think about it, I think that went as well as it could have!"]},{"code":101,"indent":0,"parameters":["Yarra emo2",0,0,2]},{"code":401,"indent":0,"parameters":["Let's be cautious, but keep it up!"]},{"code":126,"indent":0,"parameters":[73,1,0,99]},{"code":315,"indent":0,"parameters":[0,6,0,0,2500,false]},{"code":315,"indent":0,"parameters":[0,7,0,0,1000,false]},{"code":315,"indent":0,"parameters":[0,13,0,0,1000,false]},{"code":0,"indent":0,"parameters":[]}]},{"conditions":{"actorId":1,"actorValid":false,"itemId":1,"itemValid":false,"selfSwitchCh":"A","selfSwitchValid":true,"switch1Id":1,"switch1Valid":false,"switch2Id":1,"switch2Valid":false,"variableId":1,"variableValid":false,"variableValue":0},"directionFix":false,"image":{"tileId":0,"characterName":"","direction":2,"pattern":0,"characterIndex":0},"moveFrequency":3,"moveRoute":{"list":[{"code":0,"indent":null,"parameters":[]}],"repeat":true,"skippable":false,"wait":false},"moveSpeed":3,"moveType":0,"priorityType":0,"stepAnime":false,"through":false,"trigger":0,"walkAnime":true,"list":[{"code":0,"indent":0,"parameters":[]}]}],"x":0,"y":0},
{"id":2,"name":"Succubus 1","note":"","pages":[{"conditions":{"actorId":1,"actorValid":false,"itemId":1,"itemValid":false,"selfSwitchCh":"A","selfSwitchValid":false,"switch1Id":554,"switch1Valid":true,"switch2Id":1,"switch2Valid":false,"variableId":1,"variableValid":false,"variableValue":0},"directionFix":false,"image":{"tileId":0,"characterName":"Monster2","direction":2,"pattern":1,"characterIndex":3},"moveFrequency":3,"moveRoute":{"list":[{"code":0,"indent":null,"parameters":[]}],"repeat":true,"skippable":false,"wait":false},"moveSpeed":3,"moveType":0,"priorityType":1,"stepAnime":false,"through":false,"trigger":0,"walkAnime":true,"list":[{"code":0,"indent":0,"parameters":[]}]}],"x":6,"y":0},
{"id":3,"name":"Succubus 2","note":"","pages":[{"conditions":{"actorId":1,"actorValid":false,"itemId":1,"itemValid":false,"selfSwitchCh":"A","selfSwitchValid":false,"switch1Id":554,"switch1Valid":true,"switch2Id":1,"switch2Valid":false,"variableId":1,"variableValid":false,"variableValue":0},"directionFix":false,"image":{"tileId":0,"characterName":"Monster2","direction":2,"pattern":1,"characterIndex":7},"moveFrequency":3,"moveRoute":{"list":[{"code":0,"indent":null,"parameters":[]}],"repeat":true,"skippable":false,"wait":false},"moveSpeed":4,"moveType":0,"priorityType":1,"stepAnime":false,"through":false,"trigger":0,"walkAnime":true,"list":[{"code":0,"indent":0,"parameters":[]}]}],"x":9,"y":0},
{"id":4,"name":"Incubus King","note":"","pages":[{"conditions":{"actorId":1,"actorValid":false,"itemId":1,"itemValid":false,"selfSwitchCh":"A","selfSwitchValid":false,"switch1Id":555,"switch1Valid":true,"switch2Id":1,"switch2Valid":false,"variableId":1,"variableValid":false,"variableValue":0},"directionFix":false,"image":{"tileId":0,"characterName":"Monster1","direction":8,"pattern":1,"characterIndex":7},"moveFrequency":3,"moveRoute":{"list":[{"code":0,"indent":null,"parameters":[]}],"repeat":true,"skippable":false,"wait":false},"moveSpeed":6,"moveType":0,"priorityType":1,"stepAnime":false,"through":false,"trigger":0,"walkAnime":true,"list":[{"code":0,"indent":0,"parameters":[]}]}],"x":7,"y":12},
{"id":5,"name":"Empress","note":"","pages":[{"conditions":{"actorId":1,"actorValid":false,"itemId":1,"itemValid":false,"selfSwitchCh":"A","selfSwitchValid":false,"switch1Id":556,"switch1Valid":true,"switch2Id":1,"switch2Valid":false,"variableId":1,"variableValid":false,"variableValue":0},"directionFix":false,"image":{"tileId":0,"characterName":"$Esthera char purple","direction":2,"pattern":1,"characterIndex":0},"moveFrequency":3,"moveRoute":{"list":[{"code":0,"indent":null,"parameters":[]}],"repeat":true,"skippable":false,"wait":false},"moveSpeed":3,"moveType":0,"priorityType":1,"stepAnime":false,"through":false,"trigger":0,"walkAnime":true,"list":[{"code":0,"indent":0,"parameters":[]}]}],"x":7,"y":4}
]
}