{
"autoplayBgm":false,"autoplayBgs":false,"battleback1Name":"DemonCastle","battleback2Name":"DemonCastle2","bgm":{"name":"","pan":0,"pitch":100,"volume":100},"bgs":{"name":"","pan":0,"pitch":100,"volume":80},"disableDashing":false,"displayName":"Orgasmic Palace B1","encounterList":[],"encounterStep":30,"height":28,"note":"","parallaxLoopX":false,"parallaxLoopY":false,"parallaxName":"","parallaxShow":false,"parallaxSx":0,"parallaxSy":0,"scrollType":0,"specifyBattleback":true,"tilesetId":30,"width":39,
"data":[1536,1536,1536,1536,1536,1536,1536,1536,1536,1536,1536,1536,1536,1536,1536,6096,6080,6104,1536,1536,1536,1536,1536,1536,1536,1536,1536,1536,1536,1536,1536,6048,6032,6032,6032,6032,6032,6056,1536,1536,1536,1536,1536,1536,1536,1536,1536,1536,1536,1536,1536,1536,1536,1536,6096,6080,6104,1536,1536,1536,1536,1536,1536,1536,1536,1536,1536,1536,1536,1536,6048,6032,6032,6032,6032,6032,6056,1536,1536,1536,1536,1536,1536,1536,1536,1536,1536,1536,1536,1536,1536,1536,1536,6096,6080,6104,1536,1536,1536,1536,1536,1536,1536,1536,6115,6113,6113,6113,6117,6048,6032,6032,6032,6032,6032,6056,1536,1536,1536,1536,1536,1536,1536,1536,1536,1536,1536,1536,1536,1536,1536,1536,6096,6080,6104,1536,1536,1536,1536,1536,1536,1536,1536,6112,6418,6418,6418,6112,6048,6032,6032,6032,6032,6032,6056,1536,1536,1536,1536,1536,1536,1536,1536,1536,1536,1536,1536,1536,1536,1536,1536,6096,6080,6104,1536,1536,1536,1536,1536,1536,1536,1536,6112,6424,6424,6424,6112,6072,6044,6060,6060,6060,6044,6070,1536,1536,1536,1536,1536,1536,1536,1536,1536,1536,1536,1536,1536,1536,1536,1536,6096,6080,6104,1536,1536,1536,1536,1536,1536,1536,1536,6112,3618,3604,3620,6112,6418,6064,6418,6418,6418,6064,6422,1536,1536,1536,1536,1536,1536,1536,1536,1536,1536,1536,1536,1536,1536,1536,1536,6096,6080,6104,1536,1536,1536,1536,1536,1536,1536,1536,6112,3600,3584,3608,6112,6424,6064,6424,6424,6424,6064,6428,1536,1536,1536,1536,1536,1536,1536,1536,1536,1536,1536,1536,1536,1536,1536,1536,6096,6080,6104,1536,1536,1536,1536,1536,1536,1536,1536,6112,3600,3584,3608,6112,1536,6064,2850,2836,2852,6064,1536,1536,1536,1536,1536,1536,1536,1536,6115,6113,6113,6113,6103,6113,6113,6113,6103,6109,6108,6110,6103,6113,6113,6113,6103,6113,6113,6113,6107,3600,3584,3608,6112,1536,6064,2856,2828,2854,6064,1536,1536,1536,1536,1536,1536,1536,1536,6112,7378,7378,7378,6112,7378,7378,7378,6112,7378,7378,7378,6112,7378,7378,7378,6112,7378,7378,7378,6112,3600,3584,3608,6112,1536,6064,3626,2848,3626,6064,1536,1536,1536,1536,1536,1536,1536,1536,6112,7384,7384,7384,6112,7384,7384,7384,6112,7384,7384,7384,6112,7384,7384,7384,6112,7384,7384,7384,6112,3600,3584,3608,6112,1536,6064,3616,2848,3616,6064,1536,1536,1536,1536,1536,1536,1536,1536,6112,3618,3604,3620,6112,3618,3604,3620,6112,3618,3604,3620,6112,3618,3604,3620,6112,3618,3604,3620,6112,3600,3584,3608,6112,1536,6064,3616,2848,3616,6064,1536,1536,1536,1536,1536,1536,1536,1536,6112,3624,3596,3622,6112,3624,3596,3622,6112,3624,3596,3622,6112,3624,3596,3622,6112,3624,3596,3622,6112,3600,3584,3608,6112,1536,6064,3616,2848,3616,6064,1536,1536,1536,1536,1536,1536,1536,1536,6099,6125,3616,6123,6111,6125,3616,6123,6111,6125,3616,6123,6111,6125,3616,6123,6111,6125,3616,6123,6119,3600,3584,3608,6112,1536,6064,3616,2848,3616,6064,1536,1536,1536,1536,1536,1536,1536,1536,6112,7382,3616,7379,7378,7382,3616,7379,7378,7382,3616,7379,7378,7382,3616,7379,7378,7382,3616,7379,7382,3600,3584,3608,6112,1536,6064,3616,2848,3616,6064,1536,1536,1536,1536,1536,1536,1536,1536,6112,7388,3616,7385,7384,7388,3616,7385,7384,7388,3616,7385,7384,7388,3616,7385,7384,7388,3616,7385,7388,3600,3584,3608,6112,1536,6064,3616,2848,3616,6064,1536,1536,1536,1536,1536,1536,1536,1536,6124,3627,3615,3617,3617,3617,3615,3617,3617,3617,3615,3617,3617,3617,3615,3617,3617,3617,3615,3617,3617,3613,3612,3622,6124,1536,6064,3616,2848,3616,6064,1536,1536,1536,1536,6067,6065,6065,6065,6065,6065,6065,6065,6065,6065,6065,6065,6065,6065,6065,6065,6065,6065,6065,6065,6065,6065,6065,6065,6065,6065,6065,6065,6065,6065,6071,3616,2848,3616,6064,1536,1536,1536,1536,6064,6418,6418,6418,6418,6418,6418,6418,6418,6418,6418,6418,6418,6418,6418,6418,6418,6418,6418,6418,6418,6418,6418,6418,6418,6418,6418,6418,6418,6418,6422,3616,2848,3616,6064,1536,1536,1536,1536,6064,6424,6424,6424,6424,6424,6424,6424,6424,6424,6424,6424,6424,6424,6424,6424,6424,6424,6424,6424,6424,6424,6424,6424,6424,6424,6424,6424,6424,6424,6428,3616,2848,3616,6064,1536,1536,1536,1536,6064,2850,2852,3627,3617,3617,3617,3617,3617,3617,3617,3617,3617,3617,3617,3617,3617,3617,3617,3617,3617,3617,3617,3617,3617,3617,3617,3617,3617,3617,3617,3623,2848,3616,6064,1536,1536,1536,1536,6064,2832,2822,2849,2849,2849,2849,2849,2849,2849,2849,2849,2849,2849,2849,2849,2849,2849,2849,2849,2849,2849,2849,2849,2849,2849,2849,2849,2849,2849,2849,2849,2855,3616,6064,1536,1536,1536,1536,6064,2856,2854,3627,3617,3617,3617,3617,3617,3617,3617,3617,3617,3617,3617,3617,3617,3617,3617,3617,3617,3617,3617,3617,3617,3617,3617,3617,3617,3617,3617,3617,3617,3623,6064,1536,1536,1536,1536,6073,6065,6065,6065,6065,6065,6065,6065,6065,6065,6065,6065,6065,6065,6065,6065,6065,6065,6065,6065,6065,6065,6065,6065,6065,6065,6065,6065,6065,6065,6065,6065,6065,6065,6071,1536,1536,1536,1536,6419,6418,6418,6418,6418,6418,6418,6418,6418,6418,6418,6418,6418,6418,6418,6418,6418,6418,6418,6418,6418,6418,6418,6418,6418,6418,6418,6418,6418,6418,6418,6418,6418,6418,6422,1536,1536,1536,1536,6425,6424,6424,6424,6424,6424,6424,6424,6424,6424,6424,6424,6424,6424,6424,6424,6424,6424,6424,6424,6424,6424,6424,6424,6424,6424,6424,6424,6424,6424,6424,6424,6424,6424,6428,1536,1536,1536,1536,1536,1536,1536,1536,1536,1536,1536,1536,1536,1536,1536,1536,1536,1536,1536,1536,1536,1536,1536,1536,1536,1536,1536,1536,1536,1536,1536,1536,1536,1536,1536,1536,1536,1536,1536,1536,1536,1536,1536,1536,1536,1536,1536,1536,1536,1536,1536,1536,1536,1536,1536,1536,1536,1536,1536,1536,1536,1536,1536,1536,1536,1536,1536,1536,1536,1536,1536,1536,1536,1536,1536,1536,1536,1536,1536,1536,0,0,0,0,0,0,0,0,0,0,0,0,0,0,0,0,0,0,0,0,0,0,0,0,0,0,0,0,0,0,0,0,0,0,0,0,0,0,0,0,0,0,0,0,0,0,0,0,0,0,0,0,0,0,0,0,0,0,0,0,0,0,0,0,0,0,0,0,0,0,0,0,0,0,0,0,0,0,0,0,0,0,0,0,0,0,0,0,0,0,0,0,0,0,0,0,0,0,0,0,0,0,0,0,0,0,0,0,0,0,0,0,0,0,0,0,0,0,0,0,0,0,0,0,0,0,0,0,0,0,0,0,0,0,0,0,0,0,0,0,0,0,0,0,0,0,0,0,0,0,0,0,0,0,0,0,0,0,0,0,0,0,0,0,0,0,0,0,0,0,0,0,0,0,0,0,0,0,0,0,0,0,0,0,0,0,0,0,0,0,0,0,0,0,0,0,0,0,0,0,0,0,0,0,0,0,0,0,0,0,0,0,0,0,0,0,0,0,0,0,0,0,0,0,0,0,0,0,0,0,0,0,0,0,0,0,0,0,0,0,0,0,0,0,0,0,0,0,0,0,0,0,0,0,0,0,0,0,0,0,0,0,0,0,0,0,0,0,0,0,0,0,0,0,0,0,0,0,0,0,0,0,0,0,0,0,0,0,0,0,0,0,0,0,0,0,0,0,0,0,0,0,0,0,0,0,0,0,0,0,0,0,0,0,0,0,0,0,0,0,0,0,0,0,0,0,0,0,0,0,0,0,0,0,0,0,0,0,0,0,0,0,0,0,0,0,0,0,0,0,0,0,0,0,0,0,0,0,0,0,0,0,0,0,0,0,0,0,0,0,0,0,0,0,0,0,0,0,0,0,0,0,0,0,0,0,0,0,0,0,0,0,0,0,0,0,0,0,0,0,0,0,0,0,0,0,0,0,0,0,0,0,0,0,0,0,0,0,0,0,0,0,0,0,0,0,0,0,0,0,0,0,0,0,0,0,0,0,0,0,0,0,0,0,0,0,0,0,0,0,0,0,0,0,0,0,0,0,0,0,0,0,0,0,0,0,0,0,0,0,0,0,0,0,0,0,0,0,0,0,0,0,0,0,0,0,0,0,0,0,0,0,0,0,0,0,0,0,0,0,0,0,0,0,0,0,0,0,0,0,0,0,0,0,0,0,0,0,0,0,0,0,0,0,0,0,0,0,0,0,0,0,0,0,0,0,0,0,0,0,0,0,0,0,0,0,0,0,0,0,0,0,0,0,0,0,0,0,0,0,0,0,0,0,0,0,0,0,0,0,0,0,0,0,0,0,0,0,0,0,0,0,0,0,0,0,0,0,0,0,0,0,0,0,0,0,0,0,0,0,0,0,0,0,0,0,0,0,0,0,0,0,0,0,0,0,0,0,0,0,0,0,0,0,0,0,0,0,0,0,0,0,0,0,0,0,0,0,0,0,0,0,0,0,0,0,0,0,0,0,0,0,0,0,0,0,0,0,0,0,0,0,0,0,0,0,0,0,0,0,0,0,0,0,0,0,0,0,0,0,0,0,0,0,0,0,0,0,0,0,0,0,0,0,0,0,0,0,0,0,0,0,0,0,0,0,0,0,0,0,0,0,0,0,0,0,0,0,0,0,0,0,0,0,0,0,0,0,0,0,0,0,0,0,0,0,0,0,0,0,0,0,0,0,0,0,0,0,0,0,0,0,0,0,0,0,0,0,0,0,0,0,0,0,0,0,0,0,0,0,0,0,0,0,0,0,0,0,0,0,0,0,0,0,0,0,0,0,0,0,0,0,0,0,0,0,0,0,0,0,0,0,0,0,0,0,0,0,0,0,0,0,0,0,0,0,0,0,0,0,0,0,0,0,0,0,0,0,0,0,0,0,0,0,0,0,0,0,0,0,0,0,0,0,0,0,0,0,0,0,0,0,0,0,0,0,0,0,0,0,0,0,0,0,0,0,0,0,0,0,0,0,0,0,0,0,0,0,0,0,0,0,0,0,0,0,0,0,0,0,0,0,0,0,0,0,0,0,0,0,0,0,0,0,0,0,0,0,0,0,0,0,0,0,0,0,0,0,0,0,0,0,0,0,0,0,0,0,0,0,0,0,0,0,0,0,0,0,0,0,0,0,0,0,0,0,0,0,0,0,0,0,0,0,0,0,0,0,0,0,0,0,0,0,0,0,0,0,0,0,0,0,0,0,0,0,0,0,0,0,0,0,0,0,0,0,0,0,0,0,0,0,0,0,0,0,0,0,0,0,0,0,0,0,0,0,0,0,0,0,0,0,0,0,0,0,0,0,0,0,0,0,0,0,0,0,0,0,0,0,0,0,0,0,0,0,0,0,0,0,0,0,0,0,0,0,0,0,0,0,0,0,0,0,0,0,0,0,0,0,0,0,0,0,0,0,0,0,0,0,0,0,0,0,0,0,0,0,0,0,0,0,0,0,0,0,0,0,0,0,0,0,0,0,0,0,0,0,0,0,0,0,0,0,0,0,0,0,0,0,0,0,0,0,0,0,0,0,0,0,0,0,0,0,0,0,0,0,0,0,0,0,0,0,0,0,0,0,0,0,0,0,0,0,0,0,0,0,0,0,0,0,0,0,0,0,0,0,0,0,0,0,0,0,0,0,0,0,0,0,0,0,0,0,0,0,0,0,0,0,0,0,0,0,0,0,0,0,0,0,0,0,0,0,0,0,0,0,0,0,0,0,0,0,0,0,0,0,0,0,0,0,0,0,0,0,0,0,0,0,0,0,0,0,0,0,0,0,0,0,0,0,0,0,0,0,0,0,0,0,0,0,0,0,0,0,0,0,0,0,0,0,0,0,0,0,0,0,0,0,0,0,0,0,0,0,0,0,0,0,0,0,0,0,0,0,0,0,0,0,0,0,0,0,0,0,0,0,0,0,0,0,0,0,0,0,0,0,0,0,0,0,0,0,0,0,0,0,0,0,0,0,0,0,0,0,0,0,0,0,0,0,0,0,0,0,0,0,0,0,0,0,0,0,0,0,0,0,0,0,0,0,0,0,0,0,0,0,0,0,0,0,0,0,0,0,0,0,0,0,0,0,0,0,0,0,0,0,0,0,0,0,0,0,0,0,0,0,0,0,0,0,0,0,0,0,0,0,0,0,0,0,0,0,0,0,0,0,0,0,0,0,0,0,0,0,0,0,0,0,0,0,0,0,0,0,0,0,0,0,0,0,0,0,0,0,0,0,0,0,0,0,0,0,0,0,0,0,0,0,0,0,0,0,0,0,0,0,0,0,0,0,0,0,0,0,0,0,0,0,0,0,0,0,0,0,0,0,0,0,0,0,0,0,0,0,0,0,0,0,0,0,0,0,0,0,0,0,0,0,0,0,0,0,0,0,0,0,0,0,0,0,0,0,0,0,0,0,0,0,0,0,0,0,0,0,0,0,0,0,0,0,0,0,0,0,0,0,0,0,0,0,0,0,0,0,0,0,0,0,0,0,0,0,0,0,0,0,0,0,0,0,0,0,0,0,0,0,0,0,0,0,0,0,0,0,0,0,0,0,0,0,0,0,0,0,0,0,0,0,0,0,0,0,0,0,0,0,0,0,0,0,0,0,0,0,0,0,0,0,0,0,0,0,0,0,0,0,0,0,0,0,0,0,0,0,0,0,0,0,0,0,0,0,0,0,0,0,0,0,0,0,0,0,0,0,0,0,0,0,0,0,0,0,0,0,0,0,0,0,0,0,0,0,0,0,0,0,0,0,0,0,0,0,0,0,0,0,0,0,0,0,0,0,0,0,0,0,0,0,0,0,0,0,0,0,0,0,0,0,0,0,0,0,0,0,0,0,0,0,0,0,0,0,0,0,0,0,0,0,0,0,0,0,0,0,0,0,0,0,0,0,0,0,0,0,0,0,0,0,0,0,0,0,0,0,0,0,0,0,0,0,0,0,0,0,0,0,0,0,0,0,0,0,0,0,0,0,0,0,0,0,0,0,0,0,0,0,0,0,0,0,0,0,0,0,0,0,0,0,0,0,0,0,0,0,0,0,0,0,0,0,0,0,0,0,0,0,0,0,0,0,0,0,0,0,0,0,0,0,0,0,0,0,0,0,0,0,0,0,0,0,0,0,0,0,0,0,0,0,0,0,0,0,0,0,0,0,0,0,0,0,0,0,0,0,0,0,0,0,0,0,0,0,0,0,0,0,0,0,0,0,0,0,0,0,0,0,0,0,0,0,0,0,0,0,0,0,0,0,0,0,0,0,0,0,0,0,0,0,0,0,0,0,0,0,0,0,0,0,0,0,0,0,0,0,0,0,0,0,0,0,0,0,0,0,0,0,0,0,0,0,0,0,0,0,0,0,0,0,0,0,0,0,0,0,0,0,0,0,0,0,0,0,0,0,0,0,0,0,0,0,0,0,0,0,0,0,0,0,0,0,0,0,0,0,0,0,0,0,0,0,0,0,0,0,0,0,0,0,0,0,0,0,0,0,0,0,0,0,0,0,0,0,0,0,0,0,0,0,0,0,0,0,0,0,0,0,0,0,0,0,0,0,0,0,0,0,0,0,0,0,0,0,0,0,0,0,0,0,0,0,0,0,0,0,0,0,0,0,0,0,0,0,0,0,0,0,0,0,0,0,0,0,0,0,0,0,0,0,0,0,0,0,0,0,0,0,0,0,0,0,0,0,0,0,0,0,0,0,0,0,0,0,0,0,0,0,0,0,0,0,0,0,0,0,0,0,0,0,0,0,0,0,0,0,0,0,0,0,0,0,0,0,0,0,0,0,0,0,0,0,0,0,0,0,0,0,0,0,0,0,0,0,0,0,0,0,0,0,0,0,0,0,0,0,0,0,0,0,0,0,0,0,0,0,0,0,0,0,0,0,0,0,0,0,0,0,0,0,0,0,0,0,0,0,0,0,0,0,0,0,0,0,0,0,0,0,0,0,0,0,0,0,0,0,0,0,0,0,0,0,0,0,0,0,0,0,0,0,0,0,0,0,0,0,0,0,0,0,0,0,0,0,0,0,0,0,0,0,0,0,0,0,0,0,0,0,0,0,0,0,0,0,0,0,0,0,0,0,0,0,0,0,0,0,0,0,0,0,0,0,0,0,0,0,0,0,0,0,0,0,0,0,0,0,0,0,0,0,0,0,0,0,0,0,0,0,0,0,0,0,0,0,0,0,0,0,0,0,0,0,0,0,0,0,0,0,0,0,0,0,0,0,0,0,0,0,0,0,0,0,0,0,0,0,0,0,0,0,0,0,0,0,0,0,0,0,0,0,0,0,0,0,0,0,0,0,0,0,0,0,0,0,0,0,0,0,0,0,0,0,0,0,0,0,0,188,0,188,0,0,0,0,0,0,0,0,0,0,0,0,0,0,0,0,0,0,0,0,0,0,0,0,0,0,0,0,0,0,0,0,0,0,0,0,196,0,196,0,0,0,0,0,0,0,0,0,0,0,0,0,0,0,0,0,0,0,0,0,0,0,0,0,0,0,0,0,0,0,0,0,0,0,0,204,0,204,0,0,0,0,0,0,0,0,0,0,0,0,0,0,0,0,0,0,0,0,0,0,0,0,0,0,0,0,0,0,0,0,0,0,0,0,0,0,0,0,0,0,0,0,0,0,0,0,0,0,0,0,0,0,0,0,0,0,0,0,0,0,0,0,0,0,0,0,0,0,0,0,0,0,0,0,0,0,0,0,0,0,0,0,0,0,0,0,0,0,0,0,0,0,0,0,0,0,0,0,0,0,0,0,0,0,0,0,0,0,0,0,0,0,0,0,0,0,0,0,0,0,0,0,0,0,0,0,0,0,0,0,0,0,0,0,0,0,0,0,0,0,0,0,0,0,0,0,0,0,0,0,0,0,0,0,0,0,0,188,0,188,0,0,0,0,0,0,0,0,0,0,915,0,117,0,0,0,0,0,915,0,117,0,915,0,119,0,915,0,127,0,0,0,0,0,0,0,196,0,196,0,0,0,0,0,0,0,0,0,0,923,0,0,0,0,0,0,0,923,0,0,0,923,0,0,0,923,0,0,0,0,0,0,0,0,0,204,0,204,0,0,0,0,0,0,0,0,0,0,0,0,0,0,0,0,0,0,0,0,0,0,0,0,0,0,0,0,0,0,0,0,0,0,0,0,0,0,0,0,0,0,0,0,0,0,0,0,0,0,0,0,0,0,0,0,0,0,0,0,0,0,0,0,0,0,0,0,0,0,0,0,0,0,0,188,0,188,0,0,0,0,0,0,0,0,0,0,0,0,0,0,0,0,0,0,0,0,0,0,0,0,0,0,0,0,0,0,0,0,0,0,0,0,196,0,196,0,0,0,0,0,0,0,0,0,0,0,0,0,0,0,0,0,0,0,0,0,0,0,0,0,0,0,0,0,0,0,0,0,0,0,0,204,0,204,0,0,0,0,0,0,0,0,0,0,0,0,0,0,0,0,0,0,0,0,0,0,0,0,0,0,0,0,0,0,0,0,0,0,0,0,0,0,0,0,0,0,0,0,0,0,0,0,0,188,0,0,0,188,0,0,0,188,0,0,0,188,0,0,0,188,0,0,0,188,0,0,0,188,0,0,0,0,0,0,0,0,0,0,0,0,0,0,196,0,0,0,196,0,0,0,196,0,0,0,196,0,0,0,196,0,0,0,196,0,0,0,196,0,0,0,0,0,0,0,0,0,0,0,0,0,0,204,0,0,0,204,0,0,0,204,0,0,0,204,0,0,0,204,0,0,0,204,0,0,0,204,0,0,0,0,0,0,0,0,0,0,0,0,0,0,0,0,0,0,0,0,0,0,0,0,0,0,0,0,0,0,0,0,0,0,0,0,0,0,0,0,0,0,188,0,0,0,0,0,0,0,0,0,0,188,0,0,0,188,0,0,0,188,0,0,0,188,0,0,0,188,0,0,0,188,0,0,0,188,0,0,0,196,0,0,0,0,0,0,0,0,0,0,0,0,0,0,0,0,0,0,0,0,0,0,0,0,0,0,0,0,0,0,0,0,0,0,0,0,0,0,0,0,0,0,0,0,0,0,0,0,0,0,0,0,0,0,0,0,0,0,0,0,0,0,0,0,0,0,0,0,0,0,0,0,0,0,0,0,0,0,0,0,0,0,0,0,0,0,0,0,0,0,0,0,0,0,0,0,0,0,0,0,0,0,0,0,0,0,0,0,0,0,0,0,0,0,0,0,0,0,0,0,0,0,0,0,0,0,0,0,0,0,0,0,0,0,0,0,0,0,0,0,0,0,0,0,0,0,0,0,0,0,0,0,0,0,0,0,0,0,0,0,0,0,0,0,0,0,0,0,0,0,0,0,0,0,0,0,0,0,0,0,0,0,0,0,0,0,0,0,0,0,0,0,0,0,0,0,0,0,0,0,0,0,0,0,0,0,0,0,0,0,0,0,0,0,0,0,0,0,0,0,0,0,0,0,0,0,0,0,0,0,0,0,0,0,0,0,0,0,0,0,0,0,0,0,0,0,0,0,0,0,0,0,0,0,0,5,0,0,0,0,0,0,0,0,0,0,0,0,0,0,0,0,0,0,0,5,0,0,0,0,0,0,0,0,0,0,0,0,0,0,0,0,0,0,5,0,0,0,0,0,0,0,0,0,0,0,0,0,0,0,0,0,0,0,5,0,0,0,0,0,0,0,0,0,0,0,0,0,0,0,0,0,0,5,0,0,0,0,0,0,0,0,0,0,0,0,0,0,0,0,0,0,0,5,0,0,0,0,0,0,0,0,0,0,0,0,0,0,0,0,0,0,5,0,0,0,0,0,0,0,0,0,0,0,0,0,0,0,0,0,0,0,5,0,0,0,0,0,0,0,0,0,0,0,0,0,0,0,0,0,0,5,0,0,0,0,0,0,0,0,5,0,0,0,0,0,0,0,0,0,0,5,0,0,0,0,0,0,0,0,0,0,0,0,0,0,0,0,0,0,5,0,0,0,0,0,0,0,0,5,0,0,0,0,0,0,0,0,0,0,5,0,0,0,0,0,0,0,0,0,0,0,0,0,0,0,0,0,0,5,0,0,0,0,0,0,0,0,5,0,0,0,5,0,5,0,0,0,5,0,0,0,0,0,0,0,0,0,0,0,0,0,0,0,0,0,0,0,0,0,0,0,0,0,0,0,0,5,0,0,0,5,0,5,0,0,0,5,0,0,0,0,0,0,0,0,0,0,0,0,0,0,0,0,0,0,0,0,0,0,0,0,0,0,0,0,5,0,0,0,5,0,5,0,0,0,5,0,0,0,0,0,0,0,0,0,0,0,0,0,0,0,0,0,0,0,0,0,0,0,0,0,0,0,0,5,0,0,0,5,0,5,0,0,0,5,0,0,0,0,0,0,0,0,5,0,0,0,5,0,0,0,5,0,0,0,5,0,0,0,5,0,0,0,5,0,0,0,5,0,5,0,0,0,5,0,0,0,0,0,0,0,0,5,0,0,0,5,0,0,0,5,0,0,0,5,0,0,0,5,0,0,0,5,0,0,0,5,0,5,0,0,0,5,0,0,0,0,0,0,0,0,0,0,0,0,0,0,0,0,0,0,0,0,0,0,0,0,0,0,0,0,5,0,0,0,5,0,5,0,0,0,5,0,0,0,0,0,0,0,0,0,5,0,0,0,5,0,0,0,5,0,0,0,5,0,0,0,5,0,0,5,0,0,0,5,0,5,0,0,0,5,0,0,0,0,0,0,0,0,0,5,0,0,0,5,0,0,0,5,0,0,0,5,0,0,0,5,0,0,5,0,0,0,5,0,5,0,0,0,5,0,0,0,0,0,0,0,0,5,0,0,0,0,0,0,0,0,0,0,0,0,0,0,0,0,0,0,0,0,0,0,0,5,0,5,0,0,0,5,0,0,0,0,0,0,0,0,0,0,0,0,0,0,0,0,0,0,0,0,0,0,0,0,0,0,0,0,0,0,0,0,0,0,5,0,0,0,5,0,0,0,0,0,0,0,0,0,0,0,0,0,0,0,0,0,0,0,0,0,0,0,0,0,0,0,0,0,0,0,0,0,0,5,0,0,0,5,0,0,0,0,0,0,0,0,0,0,0,0,0,0,0,0,0,0,0,0,0,0,0,0,0,0,0,0,0,0,0,0,0,0,5,0,0,0,5,0,0,0,0,5,0,0,0,0,0,0,0,0,0,0,0,0,0,0,0,0,0,0,0,0,0,0,0,0,0,0,0,0,0,0,0,0,0,5,0,0,0,0,5,0,0,0,0,0,0,0,0,0,0,0,0,0,0,0,0,0,0,0,0,0,0,0,0,0,0,0,0,0,0,0,0,0,5,0,0,0,0,5,0,0,0,0,0,0,0,0,0,0,0,0,0,0,0,0,0,0,0,0,0,0,0,0,0,0,0,0,0,0,0,0,0,5,0,0,0,0,0,0,0,0,0,0,0,0,0,0,0,0,0,0,0,0,0,0,0,0,0,0,0,0,0,0,0,0,0,0,0,0,0,0,5,0,0,0,0,0,0,0,0,0,0,0,0,0,0,0,0,0,0,0,0,0,0,0,0,0,0,0,0,0,0,0,0,0,0,0,0,0,0,5,0,0,0,0,0,0,0,0,0,0,0,0,0,0,0,0,0,0,0,0,0,0,0,0,0,0,0,0,0,0,0,0,0,0,0,0,0,0,5,0,0,0,0,0,0,0,0,0,0,0,0,0,0,0,0,0,0,0,0,0,0,0,0,0,0,0,0,0,0,0,0,0,0,0,0,0,0,0,0,0,0,0,0,0,0,0,0,0,0,0,0,0,0,0,0,0,0,0,0,0,0,0,0,0,0,0,0,0,0,0,0,0,0,0,0,0,0,0,0,0,0,0,0,0,0,0,0,0,0,0,0,0,0,0,0,0,0,0,0,0,0,0,0,0,0,0,0,0,0,0,0,0,0,0,0,0,0,0,0,0,0,0,0,0,0,0,0,0,0,0,0,0,0,0,0,0,0,0,0,0,0,0,0,0,0,0,0,0,0,0,0,0,0,0,0,0,0,0,0,0,0,0,0,0,0,0,0,0,0,0,0,0,0,0,0,0,0,0,0,0,0,0,0,0,0,0,0,0,0,0,0,0,0,0,0,0,0,0,0,0,0,0,0,0,0,0,0,0,0,0,0,0,0,0,0,0,0,0,0,0,0,0,0,0,0,0,0,0,0,0,0,0,0,0,0,0,0,0,0,0,0,0,0,0,0,0,0,0,0,0,0,0,0,0,0,0,0,0,0,0,0,0,0,0,0,0,0,0,0,0,0,0,0,0,0,0,0,0,0,0,0,0,0,0,0,0,0,0,0,0,0,0,0,0,0,0,0,0,0,0,0,0,0,0,0,0,0,0,0,0,0,0,0,0,0,0,0,0,0,0,0,0,0,0,0,0,0,0,0,0,0,0,0,0,0,0,0,0,0,0,0,0,0,0,0,0,0,0,0,0,0,0,0,0,0,0,0,0,0,0,0,0,0,0,0,0,0,0,0,0,0,0,0,0,0,0,0,0,0,0,0,0,0,0,0,0,0,0,0,0,0,0,0,0,0,0,0,0,0,0,0,0,0,0,0,0,0,0,0,0,0,0,0,0,0,0,0,0,0,0,0,0,0,0,0,0,0,0,0,0,0,0,0,0,0,0,0,0,0,0,0,0,0,0,0,0,0,0,0,0,0,0,0,0,0,0,0,0,0,0,0,0,0,0,0,0,0,0,0,0,0,0,0,0,0,0,0,0,0,0,0,0,0,0,0,0,0,0,0,0,0,0,0,0,0,0,0,0,0,0,0,0,0,0,0,0,0,0,0,0,0,0,0,0,0,0,0,0,0,0,0,0,0,0,0,0,0,0,0,0,0,0,0,0,0,0,0,0,0,0,0,0,0,0,0,0,0,0,0,0,0,0,0,0,0,0,0,0,0,0,0,0,0,0,0,0,0,0,0,0,0,0,0,0,0,0,0,0,0,0,0,0,0,0,0,0,0,0,0,0,0,0,0,0,0,0,0,0,0,0,0,0,0,0,0,0,0,0,0,0,0,0,0,0,0,0,0,0,0,0,0,0,0,0,0,0,0,0,0,0,0,0,0,0,0,0,0,0,0,0,0,0,0,0,0,0,0,0,0,0,0,0,0,0,0,0,0,0,0,0,0,0,0,0,0,0,0,0,0,0,0,0,0,0,0,0,0,0,0,0,0,0,0,0,0,0,0,0,0,0,0,0,0,0,0,0,0,0,0,0,0,0,0,0,0,0,0,0,0,0,0,0,0,0,0,0,0,0,0,0,0,0,0,0,0,0,0,0,0,0,0,0,0,0,0,0,0,0,0,0,0,0,0,0,0,0,0,0,0,0,0,0,0,0,0,0,0,0,0,0,0,0,0,0,0,0,0,0,0,0,0,0,0,0,0,0,0,0,0,0,0,0,0,0,0,0,0,0,0,0,0,0,0,0,0,0,0,0,0,0,0,0,0,0,0,0,0,0,0,0,0,0,0,0,0,0,0,0,0,0,0,0,0,0,0,0,0,0,0,0,0,0,0,0,0,0,0,0,0,0,0,0,0,0,0,0,0,0,0,0,0,0,0,0,0,0,0,0,0,0,0,0,0,0,0,0,0,0,0,0,0,0,0,0,0,0,0,0,0,0,0,0,0,0,0,0,0,0,0,0,0,0,0,0,0,0,0,0,0,0,0,0,0,0,0,0,0,0,0,0,0,0,0,0,0,0,0,0,0,0,0,0,0,0,0,0,0,0,0,0,0,0,0,0,0,0,0,0,0,0,0,0,0,0,0,0,0,0,0,0,0,0,0,0,0,0,0,0,0,0,0,0,0,0,0,0,0,0,0,0,0,0,0,0,0,0,0,0,0,0,0,0,0,0,0,0,0,0,0,0,0,0,0,0,0,0,0,0,0,0,0,0,0,0,0,0,0,0,0,0,0,0,0,0,0,0,0,0,0,0,0,0,0,0,0,0,0,0,0,0,0,0,0,0,0,0,0,0,0,0,0,0,0,0,0,0,0,0,0,0,0,0,0,0,0,0,0,0,0,0,0,0,0,0,0,0,0,0,0,0,0,0,0,0,0,0,0,0,0,0,0,0,0,0,0,0,0,0,0,0,0,0,0,0,0,0,0,0,0,0,0,0,0,0,0,0,0,0,0,0,0,0,0,0,0,0,0,0,0,0,0,0,0,0,0,0,0,0,0,0,0,0,0,0,0,0,0,0,0,0,0,0,0,0,0,0,0,0,0,0,0,0,0,0,0,0,0,0,0,0,0,0,0,0,0,0,0,0,0,0],
"events":[
null,
{"id":1,"name":"EV001","note":"","pages":[{"conditions":{"actorId":1,"actorValid":false,"itemId":1,"itemValid":false,"selfSwitchCh":"A","selfSwitchValid":false,"switch1Id":1,"switch1Valid":false,"switch2Id":1,"switch2Valid":false,"variableId":1,"variableValid":false,"variableValue":0},"directionFix":false,"image":{"tileId":0,"characterName":"$stairs","direction":2,"pattern":1,"characterIndex":0},"moveFrequency":3,"moveRoute":{"list":[{"code":0,"indent":null,"parameters":[]}],"repeat":true,"skippable":false,"wait":false},"moveSpeed":3,"moveType":0,"priorityType":0,"stepAnime":false,"through":false,"trigger":1,"walkAnime":true,"list":[{"code":250,"indent":0,"parameters":[{"name":"Move","pan":0,"pitch":100,"volume":80}]},{"code":201,"indent":0,"parameters":[0,194,33,10,4,0]},{"code":0,"indent":0,"parameters":[]}]}],"x":28,"y":5},
{"id":2,"name":"EV002","note":"","pages":[{"conditions":{"actorId":1,"actorValid":false,"itemId":1,"itemValid":false,"selfSwitchCh":"A","selfSwitchValid":false,"switch1Id":1,"switch1Valid":false,"switch2Id":1,"switch2Valid":false,"variableId":1,"variableValid":false,"variableValue":0},"directionFix":false,"image":{"tileId":0,"characterName":"$stairs","direction":2,"pattern":1,"characterIndex":0},"moveFrequency":3,"moveRoute":{"list":[{"code":0,"indent":null,"parameters":[]}],"repeat":true,"skippable":false,"wait":false},"moveSpeed":3,"moveType":0,"priorityType":0,"stepAnime":false,"through":false,"trigger":1,"walkAnime":true,"list":[{"code":250,"indent":0,"parameters":[{"name":"Move","pan":0,"pitch":100,"volume":80}]},{"code":201,"indent":0,"parameters":[0,194,10,26,6,0]},{"code":0,"indent":0,"parameters":[]}]}],"x":3,"y":21},
{"id":3,"name":"Esthera Temp","note":"","pages":[{"conditions":{"actorId":1,"actorValid":false,"itemId":1,"itemValid":false,"selfSwitchCh":"A","selfSwitchValid":false,"switch1Id":595,"switch1Valid":true,"switch2Id":644,"switch2Valid":false,"variableId":57,"variableValid":false,"variableValue":90},"directionFix":false,"image":{"tileId":0,"characterName":"$Esthera char","direction":8,"pattern":1,"characterIndex":0},"moveFrequency":3,"moveRoute":{"list":[{"code":0,"indent":null,"parameters":[]}],"repeat":true,"skippable":false,"wait":false},"moveSpeed":3,"moveType":0,"priorityType":1,"stepAnime":false,"through":false,"trigger":0,"walkAnime":true,"list":[{"code":101,"indent":0,"parameters":["Esthera emo2",0,0,2]},{"code":401,"indent":0,"parameters":["..."]},{"code":101,"indent":0,"parameters":["face002b",0,0,2]},{"code":401,"indent":0,"parameters":["A wise woman once told me I was indecisive because I didn't truly know what I want. What do you want, Esthera?"]},{"code":101,"indent":0,"parameters":["Esthera emo",0,0,2]},{"code":401,"indent":0,"parameters":["I wanted an empire, at first. I just wanted to make things better than they were."]},{"code":101,"indent":0,"parameters":["Esthera emo2",0,0,2]},{"code":401,"indent":0,"parameters":["I saw Incubus Kings treating succubi like trash and I thought that something had to change."]},{"code":101,"indent":0,"parameters":["Esthera emo2",0,0,2]},{"code":401,"indent":0,"parameters":["Through methods I won't reveal, I gained control of one of the shards. A large one. And then I had my empire."]},{"code":101,"indent":0,"parameters":["face002b",0,0,2]},{"code":401,"indent":0,"parameters":["But it didn't turn out like you wanted."]},{"code":101,"indent":0,"parameters":["Esthera emo",7,0,2]},{"code":401,"indent":0,"parameters":["So many things didn't."]},{"code":101,"indent":0,"parameters":["Esthera emo2",0,0,2]},{"code":401,"indent":0,"parameters":["An empire is... too big for one person, no matter how powerful. You can't change the entire world."]},{"code":101,"indent":0,"parameters":["face002b",0,0,2]},{"code":401,"indent":0,"parameters":["..."]},{"code":101,"indent":0,"parameters":["Esthera emo2",0,0,2]},{"code":401,"indent":0,"parameters":["I tell myself it's still for the best. I'm the only person standing up to the idiot bullies. But I stopped believing myself a long time ago."]},{"code":101,"indent":0,"parameters":["face002b",0,0,2]},{"code":401,"indent":0,"parameters":["...you didn't answer the question, earlier."]},{"code":101,"indent":0,"parameters":["Esthera emo2",0,0,2]},{"code":401,"indent":0,"parameters":["I didn't?"]},{"code":101,"indent":0,"parameters":["face002b",0,0,2]},{"code":401,"indent":0,"parameters":["What do you want?"]},{"code":101,"indent":0,"parameters":["Esthera emo2",0,0,2]},{"code":401,"indent":0,"parameters":["..."]},{"code":101,"indent":0,"parameters":["Esthera emo2",0,0,2]},{"code":401,"indent":0,"parameters":["I want a world where people stop taking this dominance game so seriously."]},{"code":101,"indent":0,"parameters":["Esthera emo2",0,0,2]},{"code":401,"indent":0,"parameters":["I want to tie people up, yes. But sometimes I want to be the one tied up."]},{"code":101,"indent":0,"parameters":["Esthera emo2",0,0,2]},{"code":401,"indent":0,"parameters":["But that can't happen. If the world didn't make sure of it, taking that shard did..."]},{"code":101,"indent":0,"parameters":["face002b",0,0,2]},{"code":401,"indent":0,"parameters":["..."]},{"code":101,"indent":0,"parameters":["face002b",0,0,2]},{"code":401,"indent":0,"parameters":["Could we find a way to balance our shards as equals?"]},{"code":101,"indent":0,"parameters":["Esthera emo",2,0,2]},{"code":401,"indent":0,"parameters":["That's naive. It's impossible."]},{"code":101,"indent":0,"parameters":["face002b",0,0,2]},{"code":401,"indent":0,"parameters":["A succubus controlling one is supposed to be impossible too, isn't it?"]},{"code":101,"indent":0,"parameters":["Esthera emo2",0,0,2]},{"code":401,"indent":0,"parameters":["..."]},{"code":101,"indent":0,"parameters":["Esthera emo",4,0,2]},{"code":401,"indent":0,"parameters":["I wish you luck, but I'm not the equal you're looking for. You still have hope, whereas I'm... weary."]},{"code":101,"indent":0,"parameters":["face002b",0,0,2]},{"code":401,"indent":0,"parameters":["I'll do my best to prove you wrong."]},{"code":101,"indent":0,"parameters":["Esthera emo",2,0,2]},{"code":401,"indent":0,"parameters":["You won't succeed."]},{"code":101,"indent":0,"parameters":["Esthera emo",4,0,2]},{"code":401,"indent":0,"parameters":["But... maybe you can tie me up next time."]},{"code":101,"indent":0,"parameters":["face002b",0,0,2]},{"code":401,"indent":0,"parameters":["..."]},{"code":101,"indent":0,"parameters":["Esthera emo",0,0,2]},{"code":401,"indent":0,"parameters":["..."]},{"code":101,"indent":0,"parameters":["face002b",0,0,2]},{"code":401,"indent":0,"parameters":["What happens now?"]},{"code":101,"indent":0,"parameters":["Esthera emo",0,0,2]},{"code":401,"indent":0,"parameters":["Stay in the Empire for a while. Please."]},{"code":101,"indent":0,"parameters":["Esthera emo",0,0,2]},{"code":401,"indent":0,"parameters":["Soon, you and your allies will be thrown into a battle you're not ready for. You need to prepare as much as you can."]},{"code":101,"indent":0,"parameters":["face002b",1,0,2]},{"code":401,"indent":0,"parameters":["Thank you, Esthera."]},{"code":101,"indent":0,"parameters":["Esthera emo",7,0,2]},{"code":401,"indent":0,"parameters":["...you're welcome. But I'd like to be alone now."]},{"code":221,"indent":0,"parameters":[]},{"code":123,"indent":0,"parameters":["A",0]},{"code":121,"indent":0,"parameters":[616,616,1]},{"code":122,"indent":0,"parameters":[55,55,1,0,2]},{"code":222,"indent":0,"parameters":[]},{"code":121,"indent":0,"parameters":[664,664,0]},{"code":0,"indent":0,"parameters":[]}]},{"conditions":{"actorId":1,"actorValid":false,"itemId":1,"itemValid":false,"selfSwitchCh":"A","selfSwitchValid":true,"switch1Id":1,"switch1Valid":false,"switch2Id":1,"switch2Valid":false,"variableId":1,"variableValid":false,"variableValue":0},"directionFix":false,"image":{"tileId":0,"characterName":"","direction":2,"pattern":0,"characterIndex":0},"moveFrequency":3,"moveRoute":{"list":[{"code":0,"indent":null,"parameters":[]}],"repeat":true,"skippable":false,"wait":false},"moveSpeed":3,"moveType":0,"priorityType":0,"stepAnime":false,"through":false,"trigger":0,"walkAnime":true,"list":[{"code":0,"indent":0,"parameters":[]}]}],"x":34,"y":10},
{"id":4,"name":"Lamia Prisoner","note":"","pages":[{"conditions":{"actorId":1,"actorValid":false,"itemId":1,"itemValid":false,"selfSwitchCh":"A","selfSwitchValid":false,"switch1Id":1,"switch1Valid":false,"switch2Id":1,"switch2Valid":false,"variableId":1,"variableValid":false,"variableValue":0},"directionFix":true,"image":{"tileId":0,"characterName":"$BigMonster1","direction":8,"pattern":1,"characterIndex":0},"moveFrequency":3,"moveRoute":{"list":[{"code":0,"indent":null,"parameters":[]}],"repeat":true,"skippable":false,"wait":false},"moveSpeed":3,"moveType":0,"priorityType":1,"stepAnime":false,"through":false,"trigger":0,"walkAnime":true,"list":[{"code":0,"indent":0,"parameters":[]}]}],"x":12,"y":11},
{"id":5,"name":"EV005","note":"","pages":[{"conditions":{"actorId":1,"actorValid":false,"itemId":1,"itemValid":false,"selfSwitchCh":"A","selfSwitchValid":false,"switch1Id":1,"switch1Valid":false,"switch2Id":1,"switch2Valid":false,"variableId":1,"variableValid":false,"variableValue":0},"directionFix":false,"image":{"tileId":0,"characterName":"Y DS_chara01","direction":2,"pattern":1,"characterIndex":0},"moveFrequency":3,"moveRoute":{"list":[{"code":0,"indent":null,"parameters":[]}],"repeat":true,"skippable":false,"wait":false},"moveSpeed":3,"moveType":0,"priorityType":1,"stepAnime":false,"through":false,"trigger":0,"walkAnime":true,"list":[{"code":0,"indent":0,"parameters":[]}]}],"x":20,"y":11},
{"id":6,"name":"EV006","note":"","pages":[{"conditions":{"actorId":1,"actorValid":false,"itemId":1,"itemValid":false,"selfSwitchCh":"A","selfSwitchValid":false,"switch1Id":1,"switch1Valid":false,"switch2Id":1,"switch2Valid":false,"variableId":1,"variableValid":false,"variableValue":0},"directionFix":true,"image":{"tileId":0,"characterName":"Monster2","direction":2,"pattern":1,"characterIndex":3},"moveFrequency":3,"moveRoute":{"list":[{"code":0,"indent":null,"parameters":[]}],"repeat":true,"skippable":false,"wait":false},"moveSpeed":3,"moveType":0,"priorityType":1,"stepAnime":false,"through":false,"trigger":0,"walkAnime":true,"list":[{"code":0,"indent":0,"parameters":[]}]}],"x":24,"y":11},
{"id":7,"name":"EV007","note":"","pages":[{"conditions":{"actorId":1,"actorValid":false,"itemId":1,"itemValid":false,"selfSwitchCh":"A","selfSwitchValid":false,"switch1Id":1,"switch1Valid":false,"switch2Id":1,"switch2Valid":false,"variableId":1,"variableValid":false,"variableValue":0},"directionFix":true,"image":{"tileId":0,"characterName":"Monster2","direction":6,"pattern":1,"characterIndex":7},"moveFrequency":3,"moveRoute":{"list":[{"code":0,"indent":null,"parameters":[]}],"repeat":true,"skippable":false,"wait":false},"moveSpeed":3,"moveType":0,"priorityType":1,"stepAnime":false,"through":false,"trigger":0,"walkAnime":true,"list":[{"code":101,"indent":0,"parameters":["Y succubus2 OrgEmp",6,0,2]},{"code":401,"indent":0,"parameters":["We don't keep dangerous prisoners here in the palace, but be cautious all the same."]},{"code":0,"indent":0,"parameters":[]}]}],"x":27,"y":12},
{"id":8,"name":"EV008","note":"","pages":[{"conditions":{"actorId":1,"actorValid":false,"itemId":1,"itemValid":false,"selfSwitchCh":"A","selfSwitchValid":false,"switch1Id":1,"switch1Valid":false,"switch2Id":1,"switch2Valid":false,"variableId":1,"variableValid":false,"variableValue":0},"directionFix":true,"image":{"tileId":0,"characterName":"!Door3","direction":2,"pattern":1,"characterIndex":7},"moveFrequency":3,"moveRoute":{"list":[{"code":0,"indent":null,"parameters":[]}],"repeat":true,"skippable":false,"wait":false},"moveSpeed":3,"moveType":0,"priorityType":1,"stepAnime":false,"through":false,"trigger":0,"walkAnime":true,"list":[{"code":101,"indent":0,"parameters":["Y succubus1 OrgEmp",5,0,2]},{"code":401,"indent":0,"parameters":["Being in prison means entire DAYS without sex. This is awful!"]},{"code":0,"indent":0,"parameters":[]}]}],"x":24,"y":15},
{"id":9,"name":"EV009","note":"","pages":[{"conditions":{"actorId":1,"actorValid":false,"itemId":1,"itemValid":false,"selfSwitchCh":"A","selfSwitchValid":false,"switch1Id":1,"switch1Valid":false,"switch2Id":1,"switch2Valid":false,"variableId":1,"variableValid":false,"variableValue":0},"directionFix":true,"image":{"tileId":0,"characterName":"!Door3","direction":2,"pattern":1,"characterIndex":7},"moveFrequency":3,"moveRoute":{"list":[{"code":0,"indent":null,"parameters":[]}],"repeat":true,"skippable":false,"wait":false},"moveSpeed":3,"moveType":0,"priorityType":1,"stepAnime":false,"through":false,"trigger":0,"walkAnime":true,"list":[{"code":101,"indent":0,"parameters":["Z Andra emo",1,0,2]},{"code":401,"indent":0,"parameters":["I thought this place would be a paradise, but they just locked me in here..."]},{"code":0,"indent":0,"parameters":[]}]}],"x":20,"y":15},
{"id":10,"name":"EV010","note":"","pages":[{"conditions":{"actorId":1,"actorValid":false,"itemId":1,"itemValid":false,"selfSwitchCh":"A","selfSwitchValid":false,"switch1Id":1,"switch1Valid":false,"switch2Id":1,"switch2Valid":false,"variableId":1,"variableValid":false,"variableValue":0},"directionFix":true,"image":{"tileId":0,"characterName":"!Door3","direction":2,"pattern":1,"characterIndex":7},"moveFrequency":3,"moveRoute":{"list":[{"code":0,"indent":null,"parameters":[]}],"repeat":true,"skippable":false,"wait":false},"moveSpeed":3,"moveType":0,"priorityType":1,"stepAnime":false,"through":false,"trigger":0,"walkAnime":true,"list":[{"code":123,"indent":0,"parameters":["A",0]},{"code":101,"indent":0,"parameters":["Y lamia1",0,0,2]},{"code":401,"indent":0,"parameters":["..."]},{"code":101,"indent":0,"parameters":["Y lamia1",0,0,2]},{"code":401,"indent":0,"parameters":["...please."]},{"code":101,"indent":0,"parameters":["face002b",0,0,2]},{"code":401,"indent":0,"parameters":["What did you say?"]},{"code":101,"indent":0,"parameters":["Y lamia1",0,0,2]},{"code":401,"indent":0,"parameters":["Please help me."]},{"code":101,"indent":0,"parameters":["face002b",0,0,2]},{"code":401,"indent":0,"parameters":["I'm a slave myself, but... what could I do for you?"]},{"code":101,"indent":0,"parameters":["Y lamia1",3,0,2]},{"code":401,"indent":0,"parameters":["I've been in here so long, I'm wilting. Please, I just need some cum..."]},{"code":101,"indent":0,"parameters":["face002b",0,0,2]},{"code":401,"indent":0,"parameters":["..."]},{"code":101,"indent":0,"parameters":["face002b",0,0,2]},{"code":401,"indent":0,"parameters":["I'm sorry, but the Empress has restricted my ability to orgasm, so there's nothing I can do to help you."]},{"code":101,"indent":0,"parameters":["Y lamia1",3,0,2]},{"code":401,"indent":0,"parameters":["I see..."]},{"code":0,"indent":0,"parameters":[]}]},{"conditions":{"actorId":14,"actorValid":true,"itemId":1,"itemValid":false,"selfSwitchCh":"A","selfSwitchValid":false,"switch1Id":1,"switch1Valid":false,"switch2Id":1,"switch2Valid":false,"variableId":57,"variableValid":false,"variableValue":28},"directionFix":true,"image":{"tileId":0,"characterName":"!Door3","direction":2,"pattern":1,"characterIndex":7},"moveFrequency":3,"moveRoute":{"list":[{"code":0,"indent":null,"parameters":[]}],"repeat":true,"skippable":false,"wait":false},"moveSpeed":3,"moveType":0,"priorityType":1,"stepAnime":false,"through":false,"trigger":0,"walkAnime":true,"list":[{"code":111,"indent":0,"parameters":[0,631,0]},{"code":123,"indent":1,"parameters":["B",0]},{"code":101,"indent":1,"parameters":["Y lamia1",0,0,2]},{"code":401,"indent":1,"parameters":["..."]},{"code":101,"indent":1,"parameters":["Nalili emo1",0,0,2]},{"code":401,"indent":1,"parameters":["Don't bother, this one won't talk to you."]},{"code":101,"indent":1,"parameters":["face002b",0,0,2]},{"code":401,"indent":1,"parameters":["Who is she?"]},{"code":101,"indent":1,"parameters":["Nalili emo1",0,0,2]},{"code":401,"indent":1,"parameters":["Dunno her name, but she's some kind of troublemaker. Lamia can be like that."]},{"code":101,"indent":1,"parameters":["Y lamia1",6,0,2]},{"code":401,"indent":1,"parameters":["..."]},{"code":101,"indent":1,"parameters":["face002b",0,0,2]},{"code":401,"indent":1,"parameters":["Don't be cruel. I wonder if this is the prisoner the lamia mentioned earlier."]},{"code":101,"indent":1,"parameters":["Y lamia1",5,0,2]},{"code":401,"indent":1,"parameters":["Wait, you... do you have a message from the outside? Are they alright?"]},{"code":101,"indent":1,"parameters":["face002b",0,0,2]},{"code":401,"indent":1,"parameters":["I'm sorry, I don't have a message. But they wanted to hear from you."]},{"code":101,"indent":1,"parameters":["Y lamia1",4,0,2]},{"code":401,"indent":1,"parameters":["Of course! Just... get me something to write with, and - is it too much trouble to ask you to take a message back?"]},{"code":101,"indent":1,"parameters":["face002b",0,0,2]},{"code":401,"indent":1,"parameters":["Not at all."]},{"code":101,"indent":1,"parameters":["Y lamia1",3,0,2]},{"code":401,"indent":1,"parameters":["I'm sorry to ask more... but..."]},{"code":101,"indent":1,"parameters":["Y lamia1",3,0,2]},{"code":401,"indent":1,"parameters":["I'm so weak... please, can you... give me your seed?"]},{"code":101,"indent":1,"parameters":["Nalili emo1",2,0,2]},{"code":401,"indent":1,"parameters":["Come on, she doesn't deserve your cum!"]},{"code":101,"indent":1,"parameters":["face002b",0,0,2]},{"code":401,"indent":1,"parameters":["She seems very weak. Is she being fed properly?"]},{"code":101,"indent":1,"parameters":["Y lamia1",2,0,2]},{"code":401,"indent":1,"parameters":["No. They're punishing me."]},{"code":101,"indent":1,"parameters":["Nalili emo1",0,0,2]},{"code":401,"indent":1,"parameters":["..."]},{"code":101,"indent":1,"parameters":["Nalili emo1",0,0,2]},{"code":401,"indent":1,"parameters":["If she's really being held for stupid reasons, then she doesn't deserve to be treated this way. Simon, do you want to help?"]},{"code":101,"indent":1,"parameters":["face002b",0,0,2]},{"code":401,"indent":1,"parameters":["I'm thinking."]},{"code":101,"indent":1,"parameters":["Nalili emo1",1,0,2]},{"code":401,"indent":1,"parameters":["I can get the keys to the cell if you want! "]},{"code":0,"indent":1,"parameters":[]},{"code":411,"indent":0,"parameters":[]},{"code":123,"indent":1,"parameters":["A",0]},{"code":101,"indent":1,"parameters":["Y lamia1",0,0,2]},{"code":401,"indent":1,"parameters":["..."]},{"code":101,"indent":1,"parameters":["Nalili emo1",0,0,2]},{"code":401,"indent":1,"parameters":["Don't bother, this one won't talk to you."]},{"code":101,"indent":1,"parameters":["face002b",0,0,2]},{"code":401,"indent":1,"parameters":["Who is she?"]},{"code":101,"indent":1,"parameters":["Nalili emo1",0,0,2]},{"code":401,"indent":1,"parameters":["Dunno her name, but she's some kind of troublemaker. Lamias can be like that."]},{"code":101,"indent":1,"parameters":["Y lamia1",6,0,2]},{"code":401,"indent":1,"parameters":["..."]},{"code":101,"indent":1,"parameters":["face002b",0,0,2]},{"code":401,"indent":1,"parameters":["She didn't appreciate that. Let's not antagonize her."]},{"code":101,"indent":1,"parameters":["Y lamia1",0,0,2]},{"code":401,"indent":1,"parameters":["You... you're not like these succubi... please, feed me..."]},{"code":101,"indent":1,"parameters":["Nalili emo1",2,0,2]},{"code":401,"indent":1,"parameters":["Umm, no? His cum is way too good for the likes of you!"]},{"code":101,"indent":1,"parameters":["face002b",0,0,2]},{"code":401,"indent":1,"parameters":["Is she suffering?"]},{"code":101,"indent":1,"parameters":["Nalili emo1",2,0,2]},{"code":401,"indent":1,"parameters":["More like whining. She'll be fine!"]},{"code":101,"indent":1,"parameters":["Y lamia1",6,0,2]},{"code":401,"indent":1,"parameters":["..."]},{"code":0,"indent":1,"parameters":[]},{"code":412,"indent":0,"parameters":[]},{"code":0,"indent":0,"parameters":[]}]},{"conditions":{"actorId":1,"actorValid":false,"itemId":1,"itemValid":false,"selfSwitchCh":"A","selfSwitchValid":true,"switch1Id":1,"switch1Valid":false,"switch2Id":1,"switch2Valid":false,"variableId":1,"variableValid":false,"variableValue":0},"directionFix":true,"image":{"tileId":0,"characterName":"!Door3","direction":2,"pattern":1,"characterIndex":7},"moveFrequency":3,"moveRoute":{"list":[{"code":0,"indent":null,"parameters":[]}],"repeat":true,"skippable":false,"wait":false},"moveSpeed":3,"moveType":0,"priorityType":1,"stepAnime":false,"through":false,"trigger":0,"walkAnime":true,"list":[{"code":111,"indent":0,"parameters":[0,631,0]},{"code":123,"indent":1,"parameters":["B",0]},{"code":101,"indent":1,"parameters":["face002b",0,0,2]},{"code":401,"indent":1,"parameters":["I wonder if this is the prisoner the lamia mentioned earlier."]},{"code":101,"indent":1,"parameters":["Y lamia1",5,0,2]},{"code":401,"indent":1,"parameters":["Wait, you... do you have a message from the outside? Are they alright?"]},{"code":101,"indent":1,"parameters":["face002b",0,0,2]},{"code":401,"indent":1,"parameters":["I'm sorry, I don't have a message. But they wanted to hear from you."]},{"code":101,"indent":1,"parameters":["Y lamia1",4,0,2]},{"code":401,"indent":1,"parameters":["Of course! But I'm so weak..."]},{"code":101,"indent":1,"parameters":["Y lamia1",3,0,2]},{"code":401,"indent":1,"parameters":["I'm sorry to ask more... but..."]},{"code":101,"indent":1,"parameters":["Y lamia1",3,0,2]},{"code":401,"indent":1,"parameters":["I'm so weak... please, can you... give me your seed?"]},{"code":101,"indent":1,"parameters":["Nalili emo1",2,0,2]},{"code":401,"indent":1,"parameters":["Come on, she doesn't deserve your cum!"]},{"code":101,"indent":1,"parameters":["face002b",0,0,2]},{"code":401,"indent":1,"parameters":["She seems very weak. Is she being fed properly?"]},{"code":101,"indent":1,"parameters":["Y lamia1",2,0,2]},{"code":401,"indent":1,"parameters":["No. They're punishing me."]},{"code":101,"indent":1,"parameters":["Nalili emo1",0,0,2]},{"code":401,"indent":1,"parameters":["..."]},{"code":101,"indent":1,"parameters":["Nalili emo1",1,0,2]},{"code":401,"indent":1,"parameters":["If she's really being held for stupid reasons, then she doesn't deserve to be treated this way. Simon, do you want to help?"]},{"code":101,"indent":1,"parameters":["face002b",0,0,2]},{"code":401,"indent":1,"parameters":["I'm thinking."]},{"code":101,"indent":1,"parameters":["Nalili emo1",1,0,2]},{"code":401,"indent":1,"parameters":["I can get the keys to the cell if you want! "]},{"code":0,"indent":1,"parameters":[]},{"code":411,"indent":0,"parameters":[]},{"code":101,"indent":1,"parameters":["Y lamia1",3,0,2]},{"code":401,"indent":1,"parameters":["Please..."]},{"code":0,"indent":1,"parameters":[]},{"code":412,"indent":0,"parameters":[]},{"code":0,"indent":0,"parameters":[]}]},{"conditions":{"actorId":1,"actorValid":false,"itemId":1,"itemValid":false,"selfSwitchCh":"B","selfSwitchValid":true,"switch1Id":631,"switch1Valid":false,"switch2Id":1,"switch2Valid":false,"variableId":1,"variableValid":false,"variableValue":0},"directionFix":true,"image":{"tileId":0,"characterName":"!Door3","direction":2,"pattern":1,"characterIndex":7},"moveFrequency":3,"moveRoute":{"list":[{"code":0,"indent":null,"parameters":[]}],"repeat":true,"skippable":false,"wait":false},"moveSpeed":3,"moveType":0,"priorityType":1,"stepAnime":false,"through":false,"trigger":0,"walkAnime":true,"list":[{"code":101,"indent":0,"parameters":["Y lamia1",3,0,2]},{"code":401,"indent":0,"parameters":["Please... will you give me your seed?"]},{"code":102,"indent":0,"parameters":[["Yes","No"],1,0,2,0]},{"code":402,"indent":0,"parameters":[0,"Yes"]},{"code":121,"indent":1,"parameters":[632,632,0]},{"code":122,"indent":1,"parameters":[53,53,1,0,3]},{"code":101,"indent":1,"parameters":["face002b",0,0,2]},{"code":401,"indent":1,"parameters":["I don't like seeing anyone treated this way. I'll do what I can."]},{"code":101,"indent":1,"parameters":["Y lamia1",5,0,2]},{"code":401,"indent":1,"parameters":["Oh, thank you!"]},{"code":101,"indent":1,"parameters":["Y lamia1",1,0,2]},{"code":401,"indent":1,"parameters":["I'm too frazzled to be much good, but I'll do my best to thank you!"]},{"code":101,"indent":1,"parameters":["Nalili emo1",5,0,2]},{"code":401,"indent":1,"parameters":["That's really nice of you, Simon! Let me get the cell open!"]},{"code":117,"indent":1,"parameters":[155]},{"code":356,"indent":1,"parameters":["AddCommonEventMenu 155"]},{"code":101,"indent":1,"parameters":["Y lamia1",1,0,2]},{"code":401,"indent":1,"parameters":["Ah, I feel so much better!"]},{"code":101,"indent":1,"parameters":["Y lamia1",4,0,2]},{"code":401,"indent":1,"parameters":["Can I get something to write with? If I can ask you to do one more thing, I'd like to send a message to the others."]},{"code":101,"indent":1,"parameters":["Nalili emo1",5,0,2]},{"code":401,"indent":1,"parameters":["Sure, I'll be right back!"]},{"code":221,"indent":1,"parameters":[]},{"code":230,"indent":1,"parameters":[60]},{"code":222,"indent":1,"parameters":[]},{"code":356,"indent":1,"parameters":["Quest 77 Complete Objective 5, 6"]},{"code":356,"indent":1,"parameters":["Quest 77 Show Objective 7"]},{"code":126,"indent":1,"parameters":[75,0,0,1]},{"code":314,"indent":1,"parameters":[0,2]},{"code":101,"indent":1,"parameters":["",0,0,2]},{"code":401,"indent":1,"parameters":["Received Lamia Letter."]},{"code":0,"indent":1,"parameters":[]},{"code":402,"indent":0,"parameters":[1,"No"]},{"code":101,"indent":1,"parameters":["Y lamia1",3,0,2]},{"code":401,"indent":1,"parameters":["..."]},{"code":0,"indent":1,"parameters":[]},{"code":404,"indent":0,"parameters":[]},{"code":0,"indent":0,"parameters":[]}]},{"conditions":{"actorId":1,"actorValid":false,"itemId":1,"itemValid":false,"selfSwitchCh":"A","selfSwitchValid":false,"switch1Id":632,"switch1Valid":true,"switch2Id":1,"switch2Valid":false,"variableId":1,"variableValid":false,"variableValue":0},"directionFix":true,"image":{"tileId":0,"characterName":"!Door3","direction":2,"pattern":1,"characterIndex":7},"moveFrequency":3,"moveRoute":{"list":[{"code":0,"indent":null,"parameters":[]}],"repeat":true,"skippable":false,"wait":false},"moveSpeed":3,"moveType":0,"priorityType":1,"stepAnime":false,"through":false,"trigger":0,"walkAnime":true,"list":[{"code":111,"indent":0,"parameters":[0,602,0]},{"code":101,"indent":1,"parameters":["Y lamia1",1,0,2]},{"code":401,"indent":1,"parameters":["Thanks for delivering the letter! I'll always remember your kindness!"]},{"code":356,"indent":1,"parameters":["Quest 77 Complete Objective 5, 6, 7"]},{"code":0,"indent":1,"parameters":[]},{"code":411,"indent":0,"parameters":[]},{"code":101,"indent":1,"parameters":["Y lamia1",1,0,2]},{"code":401,"indent":1,"parameters":["I'll always remember your kindness!"]},{"code":356,"indent":1,"parameters":["Quest 77 Complete Objective 5, 6"]},{"code":356,"indent":1,"parameters":["Quest 77 Show Objective 7"]},{"code":0,"indent":1,"parameters":[]},{"code":412,"indent":0,"parameters":[]},{"code":0,"indent":0,"parameters":[]}]}],"x":12,"y":15},
{"id":11,"name":"EV011","note":"","pages":[{"conditions":{"actorId":1,"actorValid":false,"itemId":1,"itemValid":false,"selfSwitchCh":"A","selfSwitchValid":false,"switch1Id":643,"switch1Valid":true,"switch2Id":1,"switch2Valid":false,"variableId":1,"variableValid":false,"variableValue":0},"directionFix":true,"image":{"tileId":0,"characterName":"!Flame","direction":4,"pattern":1,"characterIndex":6},"moveFrequency":3,"moveRoute":{"list":[{"code":0,"indent":null,"parameters":[]}],"repeat":true,"skippable":false,"wait":false},"moveSpeed":3,"moveType":0,"priorityType":1,"stepAnime":true,"through":false,"trigger":0,"walkAnime":true,"list":[{"code":123,"indent":0,"parameters":["A",0]},{"code":101,"indent":0,"parameters":["Nalili emo1",0,0,2]},{"code":401,"indent":0,"parameters":["Hmm, there was supposed to be a secret switch around here..."]},{"code":101,"indent":0,"parameters":["Nalili emo1",5,0,2]},{"code":401,"indent":0,"parameters":["Ah, here it is! Let's go!"]},{"code":250,"indent":0,"parameters":[{"name":"Move","pan":0,"pitch":100,"volume":80}]},{"code":201,"indent":0,"parameters":[0,204,12,24,8,0]},{"code":0,"indent":0,"parameters":[]}]},{"conditions":{"actorId":1,"actorValid":false,"itemId":1,"itemValid":false,"selfSwitchCh":"A","selfSwitchValid":true,"switch1Id":643,"switch1Valid":true,"switch2Id":1,"switch2Valid":false,"variableId":1,"variableValid":false,"variableValue":0},"directionFix":true,"image":{"tileId":0,"characterName":"!Flame","direction":4,"pattern":1,"characterIndex":6},"moveFrequency":3,"moveRoute":{"list":[{"code":0,"indent":null,"parameters":[]}],"repeat":true,"skippable":false,"wait":false},"moveSpeed":3,"moveType":0,"priorityType":1,"stepAnime":true,"through":false,"trigger":0,"walkAnime":true,"list":[{"code":250,"indent":0,"parameters":[{"name":"Move","pan":0,"pitch":100,"volume":80}]},{"code":201,"indent":0,"parameters":[0,204,12,24,8,0]},{"code":0,"indent":0,"parameters":[]}]}],"x":16,"y":10},
{"id":12,"name":"Lazy Worker","note":"","pages":[{"conditions":{"actorId":1,"actorValid":false,"itemId":1,"itemValid":false,"selfSwitchCh":"A","selfSwitchValid":false,"switch1Id":1,"switch1Valid":false,"switch2Id":1,"switch2Valid":false,"variableId":1,"variableValid":false,"variableValue":0},"directionFix":false,"image":{"tileId":0,"characterName":"Monster2","direction":2,"pattern":1,"characterIndex":3},"moveFrequency":3,"moveRoute":{"list":[{"code":0,"indent":null,"parameters":[]}],"repeat":true,"skippable":false,"wait":false},"moveSpeed":3,"moveType":1,"priorityType":1,"stepAnime":false,"through":false,"trigger":0,"walkAnime":true,"list":[{"code":101,"indent":0,"parameters":["Y succubus1 OrgEmp",0,0,2]},{"code":401,"indent":0,"parameters":["Heehee! The prison is the best place to hide out, because hardly anyone comes here!"]},{"code":0,"indent":0,"parameters":[]}]},{"conditions":{"actorId":1,"actorValid":false,"itemId":1,"itemValid":false,"selfSwitchCh":"A","selfSwitchValid":false,"switch1Id":605,"switch1Valid":true,"switch2Id":1,"switch2Valid":false,"variableId":1,"variableValid":false,"variableValue":0},"directionFix":false,"image":{"tileId":0,"characterName":"Monster2","direction":2,"pattern":1,"characterIndex":3},"moveFrequency":3,"moveRoute":{"list":[{"code":0,"indent":null,"parameters":[]}],"repeat":true,"skippable":false,"wait":false},"moveSpeed":3,"moveType":1,"priorityType":1,"stepAnime":false,"through":false,"trigger":0,"walkAnime":true,"list":[{"code":101,"indent":0,"parameters":["face002b",0,0,2]},{"code":401,"indent":0,"parameters":["...are you supposed to be working now?"]},{"code":101,"indent":0,"parameters":["Y succubus1 OrgEmp",7,0,2]},{"code":401,"indent":0,"parameters":["Aww, fuck, did she send you after us? Knew she'd catch up to me..."]},{"code":221,"indent":0,"parameters":[]},{"code":121,"indent":0,"parameters":[606,606,0]},{"code":230,"indent":0,"parameters":[60]},{"code":222,"indent":0,"parameters":[]},{"code":0,"indent":0,"parameters":[]}]},{"conditions":{"actorId":1,"actorValid":false,"itemId":1,"itemValid":false,"selfSwitchCh":"A","selfSwitchValid":false,"switch1Id":606,"switch1Valid":true,"switch2Id":1,"switch2Valid":false,"variableId":1,"variableValid":false,"variableValue":0},"directionFix":false,"image":{"tileId":0,"characterName":"","direction":2,"pattern":0,"characterIndex":0},"moveFrequency":3,"moveRoute":{"list":[{"code":0,"indent":null,"parameters":[]}],"repeat":true,"skippable":false,"wait":false},"moveSpeed":3,"moveType":0,"priorityType":0,"stepAnime":false,"through":false,"trigger":0,"walkAnime":true,"list":[{"code":0,"indent":0,"parameters":[]}]}],"x":29,"y":9},
{"id":13,"name":"Lazy Worker","note":"","pages":[{"conditions":{"actorId":1,"actorValid":false,"itemId":1,"itemValid":false,"selfSwitchCh":"A","selfSwitchValid":false,"switch1Id":1,"switch1Valid":false,"switch2Id":1,"switch2Valid":false,"variableId":1,"variableValid":false,"variableValue":0},"directionFix":false,"image":{"tileId":0,"characterName":"Monster2","direction":4,"pattern":1,"characterIndex":7},"moveFrequency":3,"moveRoute":{"list":[{"code":0,"indent":null,"parameters":[]}],"repeat":true,"skippable":false,"wait":false},"moveSpeed":3,"moveType":1,"priorityType":1,"stepAnime":false,"through":false,"trigger":0,"walkAnime":true,"list":[{"code":101,"indent":0,"parameters":["Y succubus2 OrgEmp",6,0,2]},{"code":401,"indent":0,"parameters":["Out of the fucking way. I'm dodging work over here!"]},{"code":0,"indent":0,"parameters":[]}]},{"conditions":{"actorId":1,"actorValid":false,"itemId":1,"itemValid":false,"selfSwitchCh":"A","selfSwitchValid":false,"switch1Id":605,"switch1Valid":true,"switch2Id":1,"switch2Valid":false,"variableId":1,"variableValid":false,"variableValue":0},"directionFix":false,"image":{"tileId":0,"characterName":"Monster2","direction":4,"pattern":1,"characterIndex":7},"moveFrequency":3,"moveRoute":{"list":[{"code":0,"indent":null,"parameters":[]}],"repeat":true,"skippable":false,"wait":false},"moveSpeed":3,"moveType":1,"priorityType":1,"stepAnime":false,"through":false,"trigger":0,"walkAnime":true,"list":[{"code":101,"indent":0,"parameters":["face002b",0,0,2]},{"code":401,"indent":0,"parameters":["...are you supposed to be-"]},{"code":101,"indent":0,"parameters":["Y succubus2 OrgEmp",4,0,2]},{"code":401,"indent":0,"parameters":["Oh, shut up! I don't have to be responsible if I don't want to!"]},{"code":101,"indent":0,"parameters":["face002b",0,0,2]},{"code":401,"indent":0,"parameters":["That's true."]},{"code":101,"indent":0,"parameters":["Y succubus2 OrgEmp",4,0,2]},{"code":401,"indent":0,"parameters":["So just fuck off!"]},{"code":101,"indent":0,"parameters":["face002b",0,0,2]},{"code":401,"indent":0,"parameters":["..."]},{"code":101,"indent":0,"parameters":["Y succubus2 OrgEmp",4,0,2]},{"code":401,"indent":0,"parameters":["I'm serious! I'm not going!"]},{"code":101,"indent":0,"parameters":["face002b",0,0,2]},{"code":401,"indent":0,"parameters":["..."]},{"code":101,"indent":0,"parameters":["Y succubus2 OrgEmp",3,0,2]},{"code":401,"indent":0,"parameters":["Are... are you just going to stand there staring at me?"]},{"code":101,"indent":0,"parameters":["face002b",0,0,2]},{"code":401,"indent":0,"parameters":["What do you think?"]},{"code":101,"indent":0,"parameters":["Y succubus2 OrgEmp",3,0,2]},{"code":401,"indent":0,"parameters":["Arrgh! Fine, you win!"]},{"code":221,"indent":0,"parameters":[]},{"code":121,"indent":0,"parameters":[609,609,0]},{"code":230,"indent":0,"parameters":[60]},{"code":222,"indent":0,"parameters":[]},{"code":0,"indent":0,"parameters":[]}]},{"conditions":{"actorId":1,"actorValid":false,"itemId":1,"itemValid":false,"selfSwitchCh":"A","selfSwitchValid":false,"switch1Id":609,"switch1Valid":true,"switch2Id":1,"switch2Valid":false,"variableId":1,"variableValid":false,"variableValue":0},"directionFix":false,"image":{"tileId":0,"characterName":"","direction":2,"pattern":0,"characterIndex":0},"moveFrequency":3,"moveRoute":{"list":[{"code":0,"indent":null,"parameters":[]}],"repeat":true,"skippable":false,"wait":false},"moveSpeed":3,"moveType":0,"priorityType":0,"stepAnime":false,"through":false,"trigger":0,"walkAnime":true,"list":[{"code":0,"indent":0,"parameters":[]}]}],"x":21,"y":22},
{"id":14,"name":"EV014","note":"","pages":[{"conditions":{"actorId":1,"actorValid":false,"itemId":1,"itemValid":false,"selfSwitchCh":"A","selfSwitchValid":false,"switch1Id":1,"switch1Valid":false,"switch2Id":1,"switch2Valid":false,"variableId":1,"variableValid":false,"variableValue":0},"directionFix":true,"image":{"tileId":0,"characterName":"!$Gate2","direction":2,"pattern":1,"characterIndex":0},"moveFrequency":3,"moveRoute":{"list":[{"code":0,"indent":null,"parameters":[]}],"repeat":true,"skippable":false,"wait":false},"moveSpeed":3,"moveType":0,"priorityType":1,"stepAnime":false,"through":false,"trigger":0,"walkAnime":true,"list":[{"code":0,"indent":0,"parameters":[]}]}],"x":34,"y":6},
{"id":15,"name":"EV015","note":"","pages":[{"conditions":{"actorId":1,"actorValid":false,"itemId":1,"itemValid":false,"selfSwitchCh":"A","selfSwitchValid":false,"switch1Id":1,"switch1Valid":false,"switch2Id":1,"switch2Valid":false,"variableId":1,"variableValid":false,"variableValue":0},"directionFix":false,"image":{"tileId":0,"characterName":"Monster2","direction":2,"pattern":1,"characterIndex":7},"moveFrequency":3,"moveRoute":{"list":[{"code":0,"indent":null,"parameters":[]}],"repeat":true,"skippable":false,"wait":false},"moveSpeed":3,"moveType":0,"priorityType":1,"stepAnime":false,"through":false,"trigger":0,"walkAnime":true,"list":[{"code":101,"indent":0,"parameters":["Y succubus2 OrgEmp",0,0,2]},{"code":401,"indent":0,"parameters":["Sorry, no entrance to the Empress's vault."]},{"code":0,"indent":0,"parameters":[]}]},{"conditions":{"actorId":1,"actorValid":false,"itemId":1,"itemValid":false,"selfSwitchCh":"A","selfSwitchValid":false,"switch1Id":664,"switch1Valid":true,"switch2Id":1,"switch2Valid":false,"variableId":1,"variableValid":false,"variableValue":0},"directionFix":false,"image":{"tileId":0,"characterName":"Monster2","direction":2,"pattern":1,"characterIndex":7},"moveFrequency":3,"moveRoute":{"list":[{"code":0,"indent":null,"parameters":[]}],"repeat":true,"skippable":false,"wait":false},"moveSpeed":3,"moveType":0,"priorityType":1,"stepAnime":false,"through":false,"trigger":0,"walkAnime":true,"list":[{"code":101,"indent":0,"parameters":["Y succubus2 OrgEmp",2,0,2]},{"code":401,"indent":0,"parameters":["Her magic didn't let us listen in... what were you talking about?"]},{"code":0,"indent":0,"parameters":[]}]}],"x":33,"y":7},
{"id":16,"name":"EV016","note":"","pages":[{"conditions":{"actorId":1,"actorValid":false,"itemId":1,"itemValid":false,"selfSwitchCh":"A","selfSwitchValid":false,"switch1Id":1,"switch1Valid":false,"switch2Id":1,"switch2Valid":false,"variableId":1,"variableValid":false,"variableValue":0},"directionFix":false,"image":{"tileId":0,"characterName":"Monster2","direction":2,"pattern":1,"characterIndex":3},"moveFrequency":3,"moveRoute":{"list":[{"code":0,"indent":null,"parameters":[]}],"repeat":true,"skippable":false,"wait":false},"moveSpeed":3,"moveType":0,"priorityType":1,"stepAnime":false,"through":false,"trigger":0,"walkAnime":true,"list":[{"code":101,"indent":0,"parameters":["Y succubus1 OrgEmp",7,0,2]},{"code":401,"indent":0,"parameters":["This post is so fucking boring."]},{"code":0,"indent":0,"parameters":[]}]},{"conditions":{"actorId":1,"actorValid":false,"itemId":1,"itemValid":false,"selfSwitchCh":"A","selfSwitchValid":false,"switch1Id":664,"switch1Valid":true,"switch2Id":1,"switch2Valid":false,"variableId":1,"variableValid":false,"variableValue":0},"directionFix":false,"image":{"tileId":0,"characterName":"Monster2","direction":2,"pattern":1,"characterIndex":3},"moveFrequency":3,"moveRoute":{"list":[{"code":0,"indent":null,"parameters":[]}],"repeat":true,"skippable":false,"wait":false},"moveSpeed":3,"moveType":0,"priorityType":1,"stepAnime":false,"through":false,"trigger":0,"walkAnime":true,"list":[{"code":101,"indent":0,"parameters":["Y succubus1 OrgEmp",2,0,2]},{"code":401,"indent":0,"parameters":["Whoa, whoa, who the fuck are you, just chatting with the Empress?"]},{"code":0,"indent":0,"parameters":[]}]}],"x":35,"y":7}
]
}