{
"autoplayBgm":false,"autoplayBgs":false,"battleback1Name":"","battleback2Name":"","bgm":{"name":"","pan":0,"pitch":100,"volume":100},"bgs":{"name":"","pan":0,"pitch":100,"volume":80},"disableDashing":false,"displayName":"","encounterList":[],"encounterStep":30,"height":13,"note":"","parallaxLoopX":false,"parallaxLoopY":false,"parallaxName":"","parallaxShow":false,"parallaxSx":0,"parallaxSy":0,"scrollType":0,"specifyBattleback":false,"tilesetId":5,"width":17,
"data":[0,0,0,0,0,0,0,0,0,0,0,0,0,0,0,0,0,0,0,0,0,0,0,0,0,0,0,0,0,0,0,0,0,0,0,0,0,0,0,0,0,0,0,0,0,0,0,0,0,0,0,0,0,0,0,0,0,0,0,0,0,0,0,0,0,0,0,0,0,0,0,0,0,0,0,0,0,0,0,0,0,0,0,0,0,0,0,0,0,0,0,0,0,0,0,0,0,0,0,0,0,0,0,0,0,0,0,0,0,0,0,0,0,0,0,0,0,0,0,0,0,0,0,0,0,0,0,0,0,0,0,0,0,0,0,0,0,0,0,0,0,0,0,0,0,0,0,0,0,0,0,0,0,0,0,0,0,0,0,0,0,0,0,0,0,0,0,0,0,0,0,0,0,0,0,0,0,0,0,0,0,0,0,0,0,0,0,0,0,0,0,0,0,0,0,0,0,0,0,0,0,0,0,0,0,0,0,0,0,0,0,0,0,0,0,0,0,0,0,0,0,0,0,0,0,0,0,0,0,0,0,0,0,0,0,0,0,0,0,0,0,0,0,0,0,0,0,0,0,0,0,0,0,0,0,0,0,0,0,0,0,0,0,0,0,0,0,0,0,0,0,0,0,0,0,0,0,0,0,0,0,0,0,0,0,0,0,0,0,0,0,0,0,0,0,0,0,0,0,0,0,0,0,0,0,0,0,0,0,0,0,0,0,0,0,0,0,0,0,0,0,0,0,0,0,0,0,0,0,0,0,0,0,0,0,0,0,0,0,0,0,0,0,0,0,0,0,0,0,0,0,0,0,0,0,0,0,0,0,0,0,0,0,0,0,0,0,0,0,0,0,0,0,0,0,0,0,0,0,0,0,0,0,0,0,0,0,0,0,0,0,0,0,0,0,0,0,0,0,0,0,0,0,0,0,0,0,0,0,0,0,0,0,0,0,0,0,0,0,0,0,0,0,0,0,0,0,0,0,0,0,0,0,0,0,0,0,0,0,0,0,0,520,520,520,520,520,520,520,520,520,520,520,520,520,520,520,520,520,520,520,520,520,520,520,520,520,520,520,520,520,520,520,520,520,520,520,520,520,520,520,520,520,520,520,520,520,520,520,520,520,520,520,520,520,520,520,520,520,520,520,520,520,520,520,520,520,520,520,520,520,520,520,520,520,520,768,768,768,768,768,520,520,520,520,520,520,520,520,520,520,520,520,768,768,768,768,768,520,520,520,520,520,520,520,520,520,520,520,520,768,768,768,768,768,520,520,520,520,520,520,520,520,520,520,520,520,768,768,768,768,768,520,520,520,520,520,520,520,520,520,520,520,520,768,768,768,768,768,520,520,520,520,520,520,520,520,520,520,520,520,520,768,768,768,520,520,520,520,520,520,520,520,520,520,520,520,520,520,520,520,520,520,520,520,520,520,520,520,520,520,520,520,520,520,520,520,520,520,520,520,520,520,520,520,520,520,520,520,520,520,520,520,520,520,520,520,520,520,520,520,520,520,768,768,768,768,768,768,768,768,768,768,768,768,768,768,768,768,768,768,768,768,768,768,768,768,768,768,768,768,768,768,768,768,768,768,768,768,768,768,768,768,768,768,768,768,768,768,768,768,768,768,768,768,768,768,768,768,768,768,768,768,768,768,768,768,768,768,768,768,768,768,768,768,768,768,776,777,778,779,780,768,768,768,768,768,768,768,768,768,768,768,768,784,785,786,787,788,768,768,768,768,768,768,768,768,768,768,768,768,792,793,794,795,796,768,768,768,768,768,768,768,768,768,768,768,768,800,801,802,803,804,768,768,768,768,768,768,768,768,768,768,768,768,808,809,810,811,812,768,768,768,768,768,768,768,768,768,768,768,768,768,789,790,791,768,768,768,768,768,768,768,768,768,768,768,768,768,768,768,768,768,768,768,768,768,768,768,768,768,768,768,768,768,768,768,768,768,768,768,768,768,768,768,768,768,768,768,768,768,768,768,768,768,768,768,768,768,768,768,768,768,768,0,0,0,0,0,0,0,0,0,0,0,0,0,0,0,0,0,0,0,0,0,0,0,0,0,0,0,0,0,0,0,0,0,0,0,0,0,0,0,0,0,0,0,0,0,0,0,0,0,0,0,0,0,0,0,0,0,0,0,0,0,0,0,0,0,0,0,0,0,0,0,0,0,0,0,0,0,0,0,0,0,0,0,0,0,0,0,0,0,0,0,0,0,0,0,0,0,0,0,0,0,0,0,0,0,0,0,0,0,0,0,0,0,0,0,0,0,0,0,0,0,0,0,0,0,0,0,0,0,0,0,0,0,0,0,0,0,0,0,0,0,0,0,0,0,0,0,0,0,0,0,0,0,0,0,0,0,0,0,0,0,0,0,0,0,0,0,0,0,0,0,0,0,0,0,0,0,0,0,0,0,0,0,0,0,0,0,0,0,0,0,0,0,0,0,0,0,0,0,0,0,0,0,0,0,0,0,0,0,0,0,0,0,0,0,0,0,0,0,0,0,0,0,0,0,0,0,0,0,0,0,0,0,0,0,0,0,0,0,0,0,0,0,0,0,0,0,0,0,0,0,0,0,0,0,0,0,0,0,0,0,0,0,0,0,0,0,0,0,0,0,0,0,0,0,0,0,0,0,0,0,0,0,0,0,0,0,0,0,0,0,0,0,0,0,0,0,0,0,0,0,0,0,0,0,0,0,0,0,0,0,0,0,0,0,0,0,0,0,0,0,0,0,0,0,0,0,0,0,0,0,0,0,0,0,0,0,0,0,0,0,0,0,0,0,0,0,0,0,0,0,0,0,0,0,0,0,0,0,0,0,0,0,0,0,0,0,0,0,0,0,0,0,0,0,0,0,0,0,0,0,0,0,0,0,0,0,0,0,0,0,0,0,0,0,0,0,0,0,0,0,0,0,0,0,0,0,0,0,0,0,0,0,0,0,0,0,0,0,0,0,0,0,0,0,0,0,0,0,0,0,0,0,0,0,0,0,0,0,0,0,0],
"events":[
null,
{"id":1,"name":"Sex Animations","note":"","pages":[{"conditions":{"actorId":1,"actorValid":false,"itemId":1,"itemValid":false,"selfSwitchCh":"B","selfSwitchValid":false,"switch1Id":701,"switch1Valid":true,"switch2Id":1,"switch2Valid":false,"variableId":1,"variableValid":false,"variableValue":0},"directionFix":false,"image":{"tileId":0,"characterName":"$Aka Missionary","direction":2,"pattern":0,"characterIndex":0},"moveFrequency":5,"moveRoute":{"list":[{"code":16,"indent":null,"parameters":[]},{"code":15,"indent":null,"parameters":[10]},{"code":17,"indent":null,"parameters":[]},{"code":15,"indent":null,"parameters":[10]},{"code":18,"indent":null,"parameters":[]},{"code":15,"indent":null,"parameters":[10]},{"code":19,"indent":null,"parameters":[]},{"code":15,"indent":null,"parameters":[10]},{"code":0,"indent":null,"parameters":[]}],"repeat":true,"skippable":false,"wait":false},"moveSpeed":6,"moveType":3,"priorityType":1,"stepAnime":false,"through":true,"trigger":0,"walkAnime":true,"list":[{"code":0,"indent":0,"parameters":[]}]},{"conditions":{"actorId":1,"actorValid":false,"itemId":1,"itemValid":false,"selfSwitchCh":"C","selfSwitchValid":false,"switch1Id":702,"switch1Valid":true,"switch2Id":1,"switch2Valid":false,"variableId":1,"variableValid":false,"variableValue":0},"directionFix":true,"image":{"tileId":0,"characterName":"$Yarra Cowgirl","direction":2,"pattern":1,"characterIndex":0},"moveFrequency":5,"moveRoute":{"list":[{"code":16,"indent":null,"parameters":[]},{"code":15,"indent":null,"parameters":[10]},{"code":17,"indent":null,"parameters":[]},{"code":15,"indent":null,"parameters":[10]},{"code":18,"indent":null,"parameters":[]},{"code":15,"indent":null,"parameters":[10]},{"code":19,"indent":null,"parameters":[]},{"code":15,"indent":null,"parameters":[10]},{"code":0,"indent":null,"parameters":[]}],"repeat":true,"skippable":false,"wait":false},"moveSpeed":6,"moveType":3,"priorityType":1,"stepAnime":true,"through":true,"trigger":0,"walkAnime":true,"list":[{"code":0,"indent":0,"parameters":[]}]},{"conditions":{"actorId":1,"actorValid":false,"itemId":1,"itemValid":false,"selfSwitchCh":"D","selfSwitchValid":false,"switch1Id":703,"switch1Valid":true,"switch2Id":1,"switch2Valid":false,"variableId":1,"variableValid":false,"variableValue":0},"directionFix":false,"image":{"tileId":0,"characterName":"$Qum BJ","direction":2,"pattern":0,"characterIndex":0},"moveFrequency":5,"moveRoute":{"list":[{"code":16,"indent":null,"parameters":[]},{"code":15,"indent":null,"parameters":[10]},{"code":17,"indent":null,"parameters":[]},{"code":15,"indent":null,"parameters":[10]},{"code":18,"indent":null,"parameters":[]},{"code":15,"indent":null,"parameters":[10]},{"code":19,"indent":null,"parameters":[]},{"code":15,"indent":null,"parameters":[10]},{"code":0,"indent":null,"parameters":[]}],"repeat":true,"skippable":false,"wait":false},"moveSpeed":6,"moveType":3,"priorityType":1,"stepAnime":false,"through":true,"trigger":0,"walkAnime":true,"list":[{"code":0,"indent":0,"parameters":[]}]},{"conditions":{"actorId":1,"actorValid":false,"itemId":1,"itemValid":false,"selfSwitchCh":"C","selfSwitchValid":false,"switch1Id":705,"switch1Valid":true,"switch2Id":1,"switch2Valid":false,"variableId":1,"variableValid":false,"variableValue":0},"directionFix":true,"image":{"tileId":0,"characterName":"$Hilstara_Simon","direction":2,"pattern":1,"characterIndex":0},"moveFrequency":5,"moveRoute":{"list":[{"code":16,"indent":null,"parameters":[]},{"code":15,"indent":null,"parameters":[10]},{"code":17,"indent":null,"parameters":[]},{"code":15,"indent":null,"parameters":[10]},{"code":18,"indent":null,"parameters":[]},{"code":15,"indent":null,"parameters":[10]},{"code":19,"indent":null,"parameters":[]},{"code":15,"indent":null,"parameters":[10]},{"code":0,"indent":null,"parameters":[]}],"repeat":true,"skippable":false,"wait":false},"moveSpeed":6,"moveType":3,"priorityType":1,"stepAnime":true,"through":true,"trigger":0,"walkAnime":true,"list":[{"code":0,"indent":0,"parameters":[]}]},{"conditions":{"actorId":1,"actorValid":false,"itemId":1,"itemValid":false,"selfSwitchCh":"C","selfSwitchValid":false,"switch1Id":706,"switch1Valid":true,"switch2Id":1,"switch2Valid":false,"variableId":1,"variableValid":false,"variableValue":0},"directionFix":false,"image":{"tileId":0,"characterName":"$Megail_Simon","direction":2,"pattern":0,"characterIndex":0},"moveFrequency":5,"moveRoute":{"list":[{"code":16,"indent":null,"parameters":[]},{"code":15,"indent":null,"parameters":[10]},{"code":17,"indent":null,"parameters":[]},{"code":15,"indent":null,"parameters":[10]},{"code":18,"indent":null,"parameters":[]},{"code":15,"indent":null,"parameters":[10]},{"code":19,"indent":null,"parameters":[]},{"code":15,"indent":null,"parameters":[10]},{"code":0,"indent":null,"parameters":[]}],"repeat":true,"skippable":false,"wait":false},"moveSpeed":6,"moveType":3,"priorityType":1,"stepAnime":false,"through":true,"trigger":0,"walkAnime":true,"list":[{"code":0,"indent":0,"parameters":[]}]},{"conditions":{"actorId":1,"actorValid":false,"itemId":1,"itemValid":false,"selfSwitchCh":"C","selfSwitchValid":false,"switch1Id":707,"switch1Valid":true,"switch2Id":1,"switch2Valid":false,"variableId":1,"variableValid":false,"variableValue":0},"directionFix":false,"image":{"tileId":0,"characterName":"$Trin_Simon","direction":2,"pattern":0,"characterIndex":0},"moveFrequency":5,"moveRoute":{"list":[{"code":16,"indent":null,"parameters":[]},{"code":15,"indent":null,"parameters":[10]},{"code":17,"indent":null,"parameters":[]},{"code":15,"indent":null,"parameters":[10]},{"code":18,"indent":null,"parameters":[]},{"code":15,"indent":null,"parameters":[10]},{"code":19,"indent":null,"parameters":[]},{"code":15,"indent":null,"parameters":[10]},{"code":0,"indent":null,"parameters":[]}],"repeat":true,"skippable":false,"wait":false},"moveSpeed":6,"moveType":3,"priorityType":1,"stepAnime":false,"through":true,"trigger":0,"walkAnime":true,"list":[{"code":0,"indent":0,"parameters":[]}]}],"x":8,"y":7}
]
}