{
"autoplayBgm":false,"autoplayBgs":false,"battleback1Name":"","battleback2Name":"","bgm":{"name":"","pan":0,"pitch":100,"volume":100},"bgs":{"name":"","pan":0,"pitch":100,"volume":80},"disableDashing":false,"displayName":"","encounterList":[],"encounterStep":30,"height":30,"note":"","parallaxLoopX":false,"parallaxLoopY":false,"parallaxName":"","parallaxShow":false,"parallaxSx":0,"parallaxSy":0,"scrollType":0,"specifyBattleback":false,"tilesetId":34,"width":21,
"data":[0,0,0,0,0,0,0,0,0,0,0,0,0,0,0,0,0,0,0,0,0,0,0,0,0,0,0,0,0,0,0,0,0,0,0,0,0,0,0,0,0,0,0,0,6978,6964,6964,6964,6964,6965,6977,6977,6977,6966,6964,6964,6964,6964,6980,0,0,0,0,0,0,6960,6944,6944,6944,6944,6968,7330,7330,7330,6960,6944,6944,6944,6944,6968,0,0,0,0,0,0,6960,6944,6944,6944,6944,6968,7336,7336,7336,6960,6944,6944,6944,6944,6968,0,0,0,0,0,0,6960,6944,6944,6944,6944,6968,1573,1573,1573,6960,6944,6944,6944,6944,6968,0,0,0,0,0,0,6960,6944,6944,6944,6944,6968,1573,1573,1573,6960,6944,6944,6944,6944,6968,0,0,0,0,0,0,6960,6944,6944,6944,6944,6968,1573,1573,1573,6960,6944,6944,6944,6944,6968,0,0,0,0,0,0,6960,6944,6944,6944,6944,6968,1573,1573,1573,6960,6944,6944,6944,6944,6968,0,0,0,0,0,0,6962,6972,6972,6972,6972,6982,1573,1573,1573,6984,6972,6972,6972,6972,6969,0,0,0,0,0,0,6976,7330,7330,7330,7330,7334,1573,1573,1573,7331,7330,7330,7330,7330,6976,0,0,0,0,0,0,6976,7336,7336,7336,7336,7340,1573,1573,1573,7337,7336,7336,7336,7336,6976,0,0,0,0,0,0,6976,1573,1573,1573,1573,1573,3378,3364,3380,1573,1573,1573,1573,1573,6976,0,0,0,0,0,0,6976,1573,1573,1573,1573,1573,3360,3344,3368,1573,1573,1573,1573,1573,6976,0,0,0,0,0,0,6976,1573,1573,1573,1573,1573,3384,3372,3382,1573,1573,1573,1573,1573,6976,0,0,0,0,0,0,6961,6964,6964,6964,6964,6980,1573,1573,1573,6978,6964,6964,6964,6964,6970,0,0,0,0,0,0,6960,6944,6944,6944,6944,6968,1573,1573,1573,6960,6944,6944,6944,6944,6968,0,0,0,0,0,0,6960,6944,6944,6944,6944,6968,1573,1573,1573,6960,6944,6944,6944,6944,6968,0,0,0,0,0,0,6960,6944,6944,6944,6944,6968,1573,1573,1573,6960,6944,6944,6944,6944,6968,0,0,0,0,0,0,6960,6944,6944,6944,6944,6968,1573,1573,1573,6960,6944,6944,6944,6944,6968,0,0,0,0,0,0,6960,6944,6944,6944,6944,6968,1573,1573,1573,6960,6944,6944,6944,6944,6968,0,0,0,0,0,0,6960,6944,6944,6944,6944,6968,1573,1573,1573,6960,6944,6944,6944,6944,6968,0,0,0,0,0,0,6984,6972,6972,6972,6972,6982,1573,1573,1573,6984,6972,6972,6972,6972,6982,0,0,0,0,0,0,7331,7330,7330,7330,7330,7330,7330,7330,7330,7330,7330,7330,7330,7330,7334,0,0,0,0,0,0,7337,7336,7336,7336,7336,7336,7336,7336,7336,7336,7336,7336,7336,7336,7340,0,0,0,0,0,0,0,0,0,0,0,0,0,0,0,0,0,0,0,0,0,0,0,0,0,0,0,0,0,0,0,0,0,0,0,0,0,0,0,0,0,0,0,0,0,0,0,0,0,0,0,0,0,0,0,0,0,0,0,0,0,0,0,0,0,0,0,0,0,0,0,0,0,0,0,0,0,0,0,0,0,0,0,0,0,0,0,0,0,0,0,0,0,0,0,0,0,0,0,0,0,0,0,0,0,0,0,0,0,0,0,0,0,0,0,0,0,0,0,0,0,0,0,0,0,0,0,0,0,0,0,0,0,0,0,0,0,0,0,0,0,0,0,0,0,0,0,0,0,0,0,0,0,0,0,0,0,0,0,0,0,0,0,0,0,0,0,0,0,0,0,0,0,0,0,0,0,0,0,0,0,0,0,0,0,0,0,0,0,0,0,0,0,0,0,0,0,0,0,0,0,0,0,0,0,0,0,0,0,0,0,0,0,0,0,0,0,0,0,0,0,0,0,0,0,0,0,0,0,0,0,0,0,0,0,0,0,0,0,0,0,0,0,0,0,0,0,0,0,0,0,0,0,0,0,0,0,0,0,0,0,0,0,0,0,0,0,0,0,0,0,0,0,0,0,0,0,0,0,0,0,0,0,0,0,3579,3569,3581,0,0,0,0,0,0,0,0,0,0,0,0,0,0,0,0,0,0,0,0,0,0,0,0,0,0,0,0,0,0,0,0,0,0,0,0,0,0,0,0,0,0,0,0,0,0,0,0,0,0,0,0,0,0,0,0,0,0,0,0,0,0,0,0,0,0,0,0,0,0,0,0,0,0,0,0,0,0,0,3578,0,0,0,0,0,3578,0,0,0,0,0,0,0,0,0,0,0,0,0,0,3568,0,0,0,0,0,3568,0,0,0,0,0,0,0,0,0,0,0,0,0,0,3580,0,0,0,0,0,3580,0,0,0,0,0,0,0,0,0,0,0,0,0,0,0,0,0,0,0,0,0,0,0,0,0,0,0,0,0,0,0,0,0,0,0,0,0,0,0,0,0,0,0,0,0,0,0,0,0,0,0,0,0,0,0,0,0,0,0,0,0,0,0,0,0,0,0,0,0,0,0,0,0,0,0,0,0,0,0,0,0,0,0,0,0,0,0,0,0,0,0,0,0,0,0,0,0,0,0,0,0,0,0,0,0,0,0,0,0,0,0,0,0,0,0,0,0,0,0,0,0,0,0,0,0,0,0,0,0,0,0,0,0,0,0,0,0,0,0,0,0,0,0,0,0,0,0,0,0,0,0,0,0,0,0,0,0,0,0,0,0,0,0,0,0,0,0,0,0,0,0,0,0,0,0,0,0,0,0,0,0,0,0,0,0,0,0,0,0,0,0,0,0,0,0,0,0,0,0,0,0,0,0,0,0,0,0,0,0,0,0,0,0,0,0,0,0,0,0,0,0,0,0,0,0,0,0,0,0,0,0,0,0,0,0,0,0,0,0,0,0,0,0,0,0,0,0,0,0,0,0,0,0,0,0,0,0,0,0,0,0,0,0,0,0,0,0,0,0,0,0,0,0,0,0,0,0,0,0,0,0,0,0,0,0,0,0,0,0,0,0,0,0,0,0,0,0,0,0,0,0,0,0,0,0,0,0,0,0,0,0,0,0,0,0,0,0,0,0,0,0,0,0,0,0,0,0,0,0,0,0,0,0,0,0,0,0,0,0,0,0,0,0,0,0,0,0,0,0,0,0,0,0,0,0,0,0,0,0,0,0,0,0,0,0,0,0,0,0,0,0,0,0,0,0,0,0,0,0,0,0,0,0,0,0,0,0,0,0,0,0,0,0,0,0,0,0,0,0,0,0,0,0,0,0,0,0,0,0,0,0,0,0,0,0,0,0,0,0,0,0,0,0,0,0,0,0,0,0,0,0,0,0,0,0,0,0,0,0,0,0,0,0,0,0,0,0,0,0,0,0,0,0,0,0,0,0,0,0,0,0,0,0,0,0,0,0,0,0,0,0,0,0,0,0,0,0,0,0,0,0,0,0,0,0,0,0,0,0,0,0,0,0,0,0,0,0,0,0,0,0,0,0,0,0,0,0,0,0,0,0,0,0,0,0,0,0,0,0,0,0,0,0,0,0,0,0,0,0,0,0,0,0,0,0,0,0,0,0,0,0,0,0,0,0,0,0,0,0,0,0,0,0,0,0,0,0,0,0,0,0,0,0,0,0,0,0,0,0,0,0,0,0,0,0,0,0,0,0,0,0,0,0,0,0,0,0,0,0,0,0,0,0,0,0,0,0,0,0,0,0,0,0,0,0,0,0,0,0,0,0,0,0,0,0,0,0,0,0,0,0,0,0,0,0,0,0,0,0,0,0,0,0,0,0,0,0,0,0,0,0,0,0,0,0,0,0,0,0,0,0,0,0,0,0,0,0,0,0,0,0,0,0,0,0,0,0,0,0,0,0,0,0,0,0,0,0,0,0,0,0,0,0,0,0,0,0,0,0,0,0,0,0,0,0,0,0,0,0,0,0,0,0,0,0,0,0,0,0,0,0,0,0,0,0,0,0,0,0,0,0,0,0,0,0,0,0,0,0,0,0,0,0,0,0,0,0,0,0,0,0,0,0,0,0,0,0,0,0,0,0,0,0,0,0,0,0,0,0,0,0,0,0,0,0,0,0,0,0,0,0,0,0,0,0,0,0,0,0,0,0,0,0,0,0,0,0,0,0,0,0,0,0,0,0,0,0,0,0,0,0,0,0,0,0,0,0,0,0,0,0,0,0,0,0,0,0,0,0,0,0,0,0,0,0,0,0,0,0,0,0,0,0,0,0,0,0,0,0,0,0,0,0,0,0,0,0,0,0,0,0,0,0,0,0,0,0,0,0,0,0,0,0,0,0,0,0,0,0,0,0,0,0,0,0,0,0,0,0,0,0,0,0,0,0,0,0,0,0,0,0,0,0,0,0,0,0,0,0,0,0,0,0,0,0,0,0,0,0,0,0,0,0,0,0,0,0,0,0,0,0,0,0,0,0,0,0,0,0,0,0,0,0,0,0,0,0,0,0,0,0,0,0,0,0,0,0,0,0,0,0,0,0,0,0,0,0,0,0,0,0,0,0,0,0,0,0,0,0,0,0,0,0,0,0,0,0,0,0,0,0,0,0,0,0,0,0,0,0,0,0,0,0,0,0,0,0,0,0,0,0,0,0,0,0,0,0,0,0,0,0,0,0,0,0,0,0,0,0,0,0,0,0,0,0,0,0,0,0,0,0,0,0,0,0,0,0,0,0,0,0,0,0,0,0,138,139,151,0,0,0,0,0,0,0,0,0,0,0,0,0,0,0,0,0,0,146,147,159,0,0,0,0,0,0,0,0,0,0,0,0,0,0,0,0,0,0,0,0,0,0,0,0,0,0,0,0,0,0,0,0,0,0,0,0,0,0,0,0,0,0,0,0,0,0,0,0,0,0,0,0,0,0,0,0,0,0,0,0,0,701,705,0,0,0,0,0,0,0,0,0,0,0,0,0,0,0,0,0,0,0,0,0,0,0,0,0,0,0,0,0,0,0,0,0,0,0,0,0,0,0,0,0,0,0,0,0,0,0,0,0,0,0,0,0,0,0,135,174,0,0,0,0,0,0,0,0,0,134,0,0,0,0,0,0,0,0,0,143,182,0,0,0,0,0,0,0,703,0,142,0,0,0,0,0,0,0,0,0,0,0,0,170,0,0,0,0,0,0,0,0,0,0,0,0,0,0,0,0,0,174,0,174,0,0,0,0,0,0,0,0,0,173,0,0,0,0,0,0,0,0,0,0,0,0,0,0,0,0,0,0,0,0,0,0,0,0,0,0,0,0,0,0,0,0,0,0,0,0,0,0,0,0,0,0,0,0,0,0,0,0,0,0,0,0,0,0,0,0,0,0,0,0,0,0,0,0,0,0,0,0,0,0,0,0,0,0,0,0,0,0,0,0,0,0,0,0,0,0,0,0,0,0,0,0,0,0,0,0,0,0,0,0,0,0,0,0,0,0,0,0,0,0,0,0,0,0,0,0,0,0,0,0,0,0,0,0,0,0,0,0,0,0,0,0,0,0,0,0,0,0,0,0,0,0,0,0,0,0,0,0,0,0,0,0,0,0,0,0,0,0,0,0,0,0,0,0,0,0,0,0,0,0,0,0,0,0,0,0,0,0,0,0,0,0,0,0,0,0,0,0,0,0,0,0,0,0,0,0,0,0,0,0,0,0,0,0,0,0,0,0,0,0,0,0,0,0,0,0,0,0,0,0,0,0,0,0,0,0,0,0,0,0,0,0,0,0,0,0,0,0,0,0,0,0,0,0,0,0,0,0,0,0,0,0,0,0,0,0,0,0,0,0,0,0,0,0,0,0,0,0,0,0,0,0,0,0,0,0,0,0,0,0,0,0,0,0,0,0,0,0,0,0,0,0,0,0,0,0,0,0,0,0,0,0,0,0,0,0,0,0,0,0,0,0,0,0,0,0,0,0,0,0,0,0,0,0,0,0,0,0,0,0,0,0,0,0,0,0,0,0,0,0,0,0,0,0,0,0,0,0,0,0,0,0,0,0,0,0,0,0,0,0,0,0,0,0,0,0,0,0,0,0,0,0,0,0,0,0,0,0,0,0,0,0,0,0,0,0,0,0,0,0,0,0,0,0,0,0,0,0,0,0,0,0,0,0,0,0,0,0,0,0,0,0,0,0,0,0,0,0,0,0,0,0,0,0,0,0,0,0,0,0,0,0,0,5,0,0,0,0,0,0,0,0,0,0,0,0,0,0,0,0,0,0,0,0,5,0,0,0,0,0,0,0,0,0,0,0,0,0,0,0,0,0,0,0,0,5,0,0,0,0,0,0,0,0,0,0,0,0,0,0,0,0,0,0,0,0,5,0,0,0,0,0,0,0,0,0,0,0,0,0,0,0,0,0,0,0,0,5,0,0,0,0,0,0,0,0,0,0,0,0,0,0,0,0,0,0,0,0,5,0,0,0,0,0,0,0,0,0,0,0,0,0,0,0,0,0,0,0,0,5,0,0,0,0,0,0,0,0,0,0,0,0,0,0,0,5,0,0,0,0,0,0,0,0,0,0,0,0,0,0,0,0,0,0,0,0,5,0,0,0,0,0,0,0,0,0,0,0,0,0,0,0,0,0,0,0,0,5,0,0,0,0,0,0,0,0,0,0,0,0,0,0,0,0,0,0,0,0,0,0,0,0,0,0,0,0,0,0,0,0,0,0,0,0,0,0,0,0,0,0,0,0,0,0,5,0,0,0,0,0,0,0,0,0,0,0,0,0,0,0,0,0,0,0,0,5,0,0,0,0,0,0,0,0,0,0,0,0,0,0,0,0,0,0,0,0,5,0,0,0,0,0,0,0,0,0,0,0,0,0,0,0,0,0,0,0,0,5,0,0,0,0,0,0,0,0,0,0,0,0,0,0,0,0,0,0,0,0,5,0,0,0,0,0,0,0,0,0,0,0,0,0,0,0,0,0,0,0,0,5,0,0,0,0,0,0,0,0,0,0,0,0,0,0,0,0,0,0,0,0,5,0,0,0,0,0,0,0,0,0,0,0,0,0,0,0,0,0,0,0,0,0,0,0,0,0,0,0,0,0,0,0,0,0,0,0,0,0,0,0,0,0,0,0,0,0,0,0,0,0,0,0,0,0,0,0,0,0,0,0,0,0,0,0,0,0,0,0,0,0,0,0,0,0,0,0,0,0,0,0,0,0,0,0,0,0,0,0,0,0,0,0,0,0,0,0,0,0,0,0,0,0,0,0,0,0,0,0,0,0,0,0,0,0,0,0,0,0,0,0,0,0,0,0,0,0,0,0,0,0,0,0,0,0,0,0,0,0,0,0,0,0,0,0,0,0,0,0,0,0,0,0,0,0,0,0,0,0,0,0,0,0,0,0,0,0,0,0,0,0,0,0,0,0,0,0,0,0,0,0,0,0,0,0,0,0,0,0,0,0,0,0,0,0,0,0,0,0,0,0,0,0,0,0,0,0,0,0,0,0,0,0,0,0,0,0,0,0,0,0,0,0,0,0,0,0,0,0,0,0,0,0,0,0,0,0,0,0,0,0,0,0,0,0,0,0,0,0,0,0,0,0,0,0,0,0,0,0,0,0,0,0,0,0,0,0,0,0,0,0,0,0,0,0,0,0,0,0,0,0,0,0,0,0,0,0,0,0,0,0,0,0,0,0,0,0,0,0,0,0,0,0,0,0,0,0,0,0,0,0,0,0,0,0,0,0,0,0,0,0,0,0,0,0,0,0,0,0,0,0,0,0,0,0,0,0,0,0,0,0,0,0,0,0,0,0,0,0,0,0,0,0,0,0,0,0,0,0,0,0,0,0,0,0,0,0,0,0,0,0,0,0,0,0,0,0,0,0,0,0,0,0,0,0,0,0,0,0,0,0,0,0,0,0,0,0,0,0,0,0,0,0,0,0,0,0,0,0,0,0,0,0,0,0,0,0,0,0,0,0,0,0,0,0,0,0,0,0,0,0,0,0,0,0,0,0,0,0,0,0,0,0,0,0,0,0,0,0,0,0,0,0,0,0,0,0,0,0,0,0,0,0,0,0,0,0,0,0,0,0,0,0,0,0,0,0,0,0,0,0,0,0,0,0,0,0,0,0,0,0,0,0,0,0,0,0,0,0,0,0,0,0,0,0,0,0,0,0,0,0,0,0,0,0,0,0,0,0,0,0,0,0,0,0,0,0,0,0,0,0,0,0,0,0,0,0,0,0,0,0,0,0,0,0,0,0,0,0,0,0,0,0,0,0,0,0,0,0,0,0,0,0,0,0,0,0,0,0,0,0,0,0,0,0,0,0,0,0,0,0,0,0,0,0,0,0,0,0,0,0,0,0,0,0,0,0,0,0,0,0,0,0,0,0,0,0,0,0,0,0,0,0,0,0,0,0,0,0,0,0,0,0,0,0,0,0,0,0,0,0,0,0,0,0,0,0,0,0,0,0,0,0,0,0,0,0,0,0,0,0,0,0,0,0,0,0,0,0,0,0,0,0,0,0,0,0,0,0,0,0,0,0,0,0,0,0,0,0,0,0,0,0,0,0,0,0,0,0,0,0,0,0,0,0,0,0,0,0,0,0,0,0,0,0,0,0,0,0,0,0,0,0,0,0,0,0,0,0,0,0,0,0,0,0,0,0,0,0,0,0,0,0,0,0,0,0,0,0,0,0,0,0,0,0,0,0,0,0,0,0,0,0,0,0,0,0,0,0,0,0,0,0,0,0,0,0,0,0,0,0,0,0,0,0,0,0,0,0,0,0,0,0,0,0,0,0,0,0,0,0],
"events":[
null,
{"id":1,"name":"Kara","note":"","pages":[{"conditions":{"actorId":1,"actorValid":false,"itemId":1,"itemValid":false,"selfSwitchCh":"A","selfSwitchValid":false,"switch1Id":1883,"switch1Valid":true,"switch2Id":2602,"switch2Valid":true,"variableId":1,"variableValid":false,"variableValue":0},"directionFix":false,"image":{"tileId":0,"characterName":"nun char","direction":4,"pattern":1,"characterIndex":2},"moveFrequency":3,"moveRoute":{"list":[{"code":0,"indent":null,"parameters":[]}],"repeat":true,"skippable":false,"wait":false},"moveSpeed":3,"moveType":0,"priorityType":1,"stepAnime":false,"through":false,"trigger":0,"walkAnime":true,"list":[{"code":101,"indent":0,"parameters":["Z Kara",4,0,2]},{"code":401,"indent":0,"parameters":["Ah, it's all of you again. Wonderful to see you!"]},{"code":101,"indent":0,"parameters":["Lynine emo",1,0,2]},{"code":401,"indent":0,"parameters":["Sister Kara, was it? We're glad you're still doing well!"]},{"code":111,"indent":0,"parameters":[0,2981,0]},{"code":101,"indent":1,"parameters":["1 Simon dark",1,0,2]},{"code":401,"indent":1,"parameters":["Hello, Kara."]},{"code":101,"indent":1,"parameters":["Z Kara",4,0,2]},{"code":401,"indent":1,"parameters":["Hello! Umm... is he here?"]},{"code":0,"indent":1,"parameters":[]},{"code":411,"indent":0,"parameters":[]},{"code":101,"indent":1,"parameters":["Megail emo2",0,0,2]},{"code":401,"indent":1,"parameters":["If you're looking for Simon, he's not with us."]},{"code":101,"indent":1,"parameters":["Z Kara",6,0,2]},{"code":401,"indent":1,"parameters":["Oh, I see. But I hope..."]},{"code":0,"indent":1,"parameters":[]},{"code":412,"indent":0,"parameters":[]},{"code":101,"indent":0,"parameters":["Riala emo",1,0,2]},{"code":401,"indent":0,"parameters":["I'll let you see through the illusion."]},{"code":101,"indent":0,"parameters":["Orcent",2,0,2]},{"code":401,"indent":0,"parameters":["Greetings."]},{"code":101,"indent":0,"parameters":["Z Kara",4,0,2]},{"code":401,"indent":0,"parameters":["Ah, it's wonderful to see you again! I have been working here and found a number of the books we discussed..."]},{"code":101,"indent":0,"parameters":["Z Kara",7,0,2]},{"code":401,"indent":0,"parameters":["Though, given how the Church is changing... I doubt my position will be secure for much longer..."]},{"code":101,"indent":0,"parameters":["Orcent",2,0,2]},{"code":401,"indent":0,"parameters":["I would be happy to hear about it at length. I trust we have time?"]},{"code":111,"indent":0,"parameters":[0,2981,0]},{"code":101,"indent":1,"parameters":["1 Simon dark",1,0,2]},{"code":401,"indent":1,"parameters":["Sure."]},{"code":0,"indent":1,"parameters":[]},{"code":411,"indent":0,"parameters":[]},{"code":101,"indent":1,"parameters":["Megail emo2",2,0,2]},{"code":401,"indent":1,"parameters":["Yeah, okay. "]},{"code":0,"indent":1,"parameters":[]},{"code":412,"indent":0,"parameters":[]},{"code":221,"indent":0,"parameters":[]},{"code":230,"indent":0,"parameters":[60]},{"code":222,"indent":0,"parameters":[]},{"code":101,"indent":0,"parameters":["Z Kara",5,0,2]},{"code":401,"indent":0,"parameters":["And so you see the difficulty. I am essentially prepared to leave the Church, but I don't know where I would go."]},{"code":101,"indent":0,"parameters":["Orcent",2,0,2]},{"code":401,"indent":0,"parameters":["It may be presumptuous of me, but... would you like to come with us?"]},{"code":101,"indent":0,"parameters":["Z Kara",6,0,2]},{"code":401,"indent":0,"parameters":["Oh! I wasn't trying to request such a thing!"]},{"code":101,"indent":0,"parameters":["Z Kara",7,0,2]},{"code":401,"indent":0,"parameters":["As much as I would like spending more time with you, I... would not feel comfortable taking Simon's charity."]},{"code":101,"indent":0,"parameters":["Lynine emo",1,0,2]},{"code":401,"indent":0,"parameters":["What if it wasn't charity? Megail, do you think we...?"]},{"code":101,"indent":0,"parameters":["Megail emo2",4,0,2]},{"code":401,"indent":0,"parameters":["I figured we were headed there. Get it over with."]},{"code":101,"indent":0,"parameters":["Lynine emo",2,0,2]},{"code":401,"indent":0,"parameters":["Kara, we have a lot of books and other materials in our base. More than is convenient for us to manage."]},{"code":101,"indent":0,"parameters":["Lynine emo",1,0,2]},{"code":401,"indent":0,"parameters":["If we could find a qualified scholar... I'm sure Orilise would be happy for the help!"]},{"code":101,"indent":0,"parameters":["Z Kara",6,0,2]},{"code":401,"indent":0,"parameters":["Oh my! I can't imagine a better offer... I feel like I must be dreaming..."]},{"code":101,"indent":0,"parameters":["Z Kara",4,0,2]},{"code":401,"indent":0,"parameters":["I know I should thank you all, but... Orcent, thank you. For offering."]},{"code":101,"indent":0,"parameters":["Orcent",2,0,2]},{"code":401,"indent":0,"parameters":["Our discussions of philosophers could always be enriched by more thoughtful individuals."]},{"code":101,"indent":0,"parameters":["Z Kara",4,0,2]},{"code":401,"indent":0,"parameters":["Orcent... thank you."]},{"code":101,"indent":0,"parameters":["Lynine emo",1,0,2]},{"code":401,"indent":0,"parameters":["Awww!"]},{"code":111,"indent":0,"parameters":[0,2981,0]},{"code":101,"indent":1,"parameters":["1 Simon dark",0,0,2]},{"code":401,"indent":1,"parameters":["We're focused on the council at the moment, but our staff will help you get situated in the base."]},{"code":0,"indent":1,"parameters":[]},{"code":411,"indent":0,"parameters":[]},{"code":101,"indent":1,"parameters":["Megail emo2",0,0,2]},{"code":401,"indent":1,"parameters":["I'm giddy with happiness for both of you, but let's move this along."]},{"code":101,"indent":1,"parameters":["Aka emo2",7,0,2]},{"code":401,"indent":1,"parameters":["What has you so grouchy, Megail?"]},{"code":101,"indent":1,"parameters":["Dari1 emo",0,0,2]},{"code":401,"indent":1,"parameters":["Smells like she wants to fuck Simon, so she doesn't like thinking about other people getting it on!"]},{"code":101,"indent":1,"parameters":["Megail emo2",7,0,2]},{"code":401,"indent":1,"parameters":["Wha...?"]},{"code":101,"indent":1,"parameters":["Megail emo2",0,0,2]},{"code":401,"indent":1,"parameters":["Bullshit. Your nose is better than a human's, but you can't smell something like that."]},{"code":101,"indent":1,"parameters":["Riala emo",6,0,2]},{"code":401,"indent":1,"parameters":["But MY senses... heh, there's nothing wrong with natural desires."]},{"code":101,"indent":1,"parameters":["Dari1 emo",4,0,2]},{"code":401,"indent":1,"parameters":["Heehee, I was just guessing, but I guess I was right!"]},{"code":101,"indent":1,"parameters":["Megail emo2",5,0,2]},{"code":401,"indent":1,"parameters":["Dammit. Having Riala here is like cheating."]},{"code":101,"indent":1,"parameters":["Aka emo2",1,0,2]},{"code":401,"indent":1,"parameters":["You can just complain if you want, Megail. Let's get this succession thing taken care of so we can all go home and fuck."]},{"code":101,"indent":1,"parameters":["Megail emo2",0,0,2]},{"code":401,"indent":1,"parameters":["..."]},{"code":101,"indent":1,"parameters":["Megail emo2",1,0,2]},{"code":401,"indent":1,"parameters":["Agreed."]},{"code":101,"indent":1,"parameters":["Z Kara",6,0,2]},{"code":401,"indent":1,"parameters":["Oh my... I see that living with this group will be rather interesting."]},{"code":101,"indent":1,"parameters":["Orcent",2,0,2]},{"code":401,"indent":1,"parameters":["You will find it intellectually stimulating... among other things."]},{"code":0,"indent":1,"parameters":[]},{"code":412,"indent":0,"parameters":[]},{"code":221,"indent":0,"parameters":[]},{"code":121,"indent":0,"parameters":[2660,2660,0]},{"code":122,"indent":0,"parameters":[219,219,1,0,1]},{"code":230,"indent":0,"parameters":[60]},{"code":222,"indent":0,"parameters":[]},{"code":0,"indent":0,"parameters":[]}]},{"conditions":{"actorId":1,"actorValid":false,"itemId":1,"itemValid":false,"selfSwitchCh":"A","selfSwitchValid":false,"switch1Id":2660,"switch1Valid":true,"switch2Id":1,"switch2Valid":false,"variableId":1,"variableValid":false,"variableValue":0},"directionFix":false,"image":{"tileId":0,"characterName":"","direction":2,"pattern":0,"characterIndex":0},"moveFrequency":3,"moveRoute":{"list":[{"code":0,"indent":null,"parameters":[]}],"repeat":true,"skippable":false,"wait":false},"moveSpeed":3,"moveType":0,"priorityType":0,"stepAnime":false,"through":false,"trigger":0,"walkAnime":true,"list":[{"code":0,"indent":0,"parameters":[]}]}],"x":10,"y":17},
{"id":2,"name":"EV002","note":"","pages":[{"conditions":{"actorId":1,"actorValid":false,"itemId":1,"itemValid":false,"selfSwitchCh":"A","selfSwitchValid":false,"switch1Id":1,"switch1Valid":false,"switch2Id":1,"switch2Valid":false,"variableId":1,"variableValid":false,"variableValue":0},"directionFix":false,"image":{"tileId":0,"characterName":"","direction":2,"pattern":0,"characterIndex":0},"moveFrequency":3,"moveRoute":{"list":[{"code":0,"indent":null,"parameters":[]}],"repeat":true,"skippable":false,"wait":false},"moveSpeed":3,"moveType":0,"priorityType":0,"stepAnime":false,"through":false,"trigger":1,"walkAnime":true,"list":[{"code":250,"indent":0,"parameters":[{"name":"Move","pan":0,"pitch":100,"volume":80}]},{"code":201,"indent":0,"parameters":[0,227,5,26,0,0]},{"code":0,"indent":0,"parameters":[]}]}],"x":8,"y":22},
{"id":3,"name":"EV003","note":"","pages":[{"conditions":{"actorId":1,"actorValid":false,"itemId":1,"itemValid":false,"selfSwitchCh":"A","selfSwitchValid":false,"switch1Id":1,"switch1Valid":false,"switch2Id":1,"switch2Valid":false,"variableId":1,"variableValid":false,"variableValue":0},"directionFix":false,"image":{"tileId":0,"characterName":"","direction":2,"pattern":0,"characterIndex":0},"moveFrequency":3,"moveRoute":{"list":[{"code":0,"indent":null,"parameters":[]}],"repeat":true,"skippable":false,"wait":false},"moveSpeed":3,"moveType":0,"priorityType":0,"stepAnime":false,"through":false,"trigger":1,"walkAnime":true,"list":[{"code":250,"indent":0,"parameters":[{"name":"Move","pan":0,"pitch":100,"volume":80}]},{"code":201,"indent":0,"parameters":[0,227,5,26,0,0]},{"code":0,"indent":0,"parameters":[]}]}],"x":9,"y":22},
{"id":4,"name":"EV004","note":"","pages":[{"conditions":{"actorId":1,"actorValid":false,"itemId":1,"itemValid":false,"selfSwitchCh":"A","selfSwitchValid":false,"switch1Id":1,"switch1Valid":false,"switch2Id":1,"switch2Valid":false,"variableId":1,"variableValid":false,"variableValue":0},"directionFix":false,"image":{"tileId":0,"characterName":"","direction":2,"pattern":0,"characterIndex":0},"moveFrequency":3,"moveRoute":{"list":[{"code":0,"indent":null,"parameters":[]}],"repeat":true,"skippable":false,"wait":false},"moveSpeed":3,"moveType":0,"priorityType":0,"stepAnime":false,"through":false,"trigger":1,"walkAnime":true,"list":[{"code":250,"indent":0,"parameters":[{"name":"Move","pan":0,"pitch":100,"volume":80}]},{"code":201,"indent":0,"parameters":[0,227,5,26,0,0]},{"code":0,"indent":0,"parameters":[]}]}],"x":10,"y":22},
{"id":5,"name":"EV005","note":"","pages":[{"conditions":{"actorId":1,"actorValid":false,"itemId":1,"itemValid":false,"selfSwitchCh":"A","selfSwitchValid":false,"switch1Id":1,"switch1Valid":false,"switch2Id":1,"switch2Valid":false,"variableId":1,"variableValid":false,"variableValue":0},"directionFix":false,"image":{"tileId":0,"characterName":"People2","direction":6,"pattern":1,"characterIndex":1},"moveFrequency":3,"moveRoute":{"list":[{"code":0,"indent":null,"parameters":[]}],"repeat":true,"skippable":false,"wait":false},"moveSpeed":3,"moveType":0,"priorityType":1,"stepAnime":false,"through":false,"trigger":0,"walkAnime":true,"list":[{"code":101,"indent":0,"parameters":["People2",1,0,2]},{"code":401,"indent":0,"parameters":[""]},{"code":0,"indent":0,"parameters":[]}]}],"x":5,"y":13},
{"id":6,"name":"EV006","note":"","pages":[{"conditions":{"actorId":1,"actorValid":false,"itemId":1,"itemValid":false,"selfSwitchCh":"A","selfSwitchValid":false,"switch1Id":1,"switch1Valid":false,"switch2Id":1,"switch2Valid":false,"variableId":1,"variableValid":false,"variableValue":0},"directionFix":false,"image":{"tileId":0,"characterName":"People2","direction":4,"pattern":1,"characterIndex":1},"moveFrequency":3,"moveRoute":{"list":[{"code":0,"indent":null,"parameters":[]}],"repeat":true,"skippable":false,"wait":false},"moveSpeed":3,"moveType":0,"priorityType":1,"stepAnime":false,"through":false,"trigger":0,"walkAnime":true,"list":[{"code":101,"indent":0,"parameters":["People2",1,0,2]},{"code":401,"indent":0,"parameters":["What? I took a vow of chastity, not of poverty."]},{"code":0,"indent":0,"parameters":[]}]},{"conditions":{"actorId":1,"actorValid":false,"itemId":1,"itemValid":false,"selfSwitchCh":"A","selfSwitchValid":false,"switch1Id":2602,"switch1Valid":true,"switch2Id":1,"switch2Valid":false,"variableId":1,"variableValid":false,"variableValue":0},"directionFix":true,"image":{"tileId":0,"characterName":"People2","direction":4,"pattern":1,"characterIndex":1},"moveFrequency":3,"moveRoute":{"list":[{"code":0,"indent":null,"parameters":[]}],"repeat":true,"skippable":false,"wait":false},"moveSpeed":3,"moveType":0,"priorityType":1,"stepAnime":false,"through":false,"trigger":0,"walkAnime":true,"list":[{"code":101,"indent":0,"parameters":["People2",1,0,2]},{"code":401,"indent":0,"parameters":["Yes, please transfer more to those poor sisters in the north..."]},{"code":0,"indent":0,"parameters":[]}]},{"conditions":{"actorId":1,"actorValid":false,"itemId":1,"itemValid":false,"selfSwitchCh":"A","selfSwitchValid":false,"switch1Id":3601,"switch1Valid":true,"switch2Id":1,"switch2Valid":false,"variableId":1,"variableValid":false,"variableValue":0},"directionFix":true,"image":{"tileId":0,"characterName":"People2","direction":4,"pattern":1,"characterIndex":1},"moveFrequency":3,"moveRoute":{"list":[{"code":0,"indent":null,"parameters":[]}],"repeat":true,"skippable":false,"wait":false},"moveSpeed":3,"moveType":0,"priorityType":1,"stepAnime":false,"through":false,"trigger":0,"walkAnime":true,"list":[{"code":101,"indent":0,"parameters":["People2",1,0,2]},{"code":401,"indent":0,"parameters":["I'm just saying, if we granted access to the Crystal of Ivala in return for a small donation..."]},{"code":0,"indent":0,"parameters":[]}]}],"x":7,"y":13},
{"id":7,"name":"EV007","note":"","pages":[{"conditions":{"actorId":1,"actorValid":false,"itemId":1,"itemValid":false,"selfSwitchCh":"A","selfSwitchValid":false,"switch1Id":1,"switch1Valid":false,"switch2Id":1,"switch2Valid":false,"variableId":1,"variableValid":false,"variableValue":0},"directionFix":false,"image":{"tileId":0,"characterName":"People2","direction":4,"pattern":1,"characterIndex":0},"moveFrequency":3,"moveRoute":{"list":[{"code":0,"indent":null,"parameters":[]}],"repeat":true,"skippable":false,"wait":false},"moveSpeed":3,"moveType":0,"priorityType":1,"stepAnime":false,"through":false,"trigger":0,"walkAnime":true,"list":[{"code":101,"indent":0,"parameters":["People2",0,0,2]},{"code":401,"indent":0,"parameters":["This is the Ivalan Bank - we deal with Church financial affairs, not average customers."]},{"code":0,"indent":0,"parameters":[]}]},{"conditions":{"actorId":1,"actorValid":false,"itemId":1,"itemValid":false,"selfSwitchCh":"A","selfSwitchValid":false,"switch1Id":764,"switch1Valid":true,"switch2Id":1,"switch2Valid":false,"variableId":1,"variableValid":false,"variableValue":0},"directionFix":false,"image":{"tileId":0,"characterName":"People2","direction":4,"pattern":1,"characterIndex":0},"moveFrequency":3,"moveRoute":{"list":[{"code":0,"indent":null,"parameters":[]}],"repeat":true,"skippable":false,"wait":false},"moveSpeed":3,"moveType":0,"priorityType":1,"stepAnime":false,"through":false,"trigger":0,"walkAnime":true,"list":[{"code":101,"indent":0,"parameters":["People2",0,0,2]},{"code":401,"indent":0,"parameters":["This is the Ivalan Bank, we deal w-"]},{"code":101,"indent":0,"parameters":["1 Simon dark",0,0,2]},{"code":401,"indent":0,"parameters":["The city guard says you haven't been fulfilling your duties."]},{"code":101,"indent":0,"parameters":["People2",0,0,2]},{"code":401,"indent":0,"parameters":["What? Absurd!"]},{"code":101,"indent":0,"parameters":["1 Simon dark",0,0,2]},{"code":401,"indent":0,"parameters":["Take a look at this letter."]},{"code":230,"indent":0,"parameters":[30]},{"code":213,"indent":0,"parameters":[0,8,true]},{"code":230,"indent":0,"parameters":[30]},{"code":101,"indent":0,"parameters":["People2",0,0,2]},{"code":401,"indent":0,"parameters":["...I see. Yes, it seems in our devotion the Ivalan Bank has let some small matters slip."]},{"code":101,"indent":0,"parameters":["People2",0,0,2]},{"code":401,"indent":0,"parameters":["We will make it right, I assure you. Now please, be on your way."]},{"code":126,"indent":0,"parameters":[77,1,0,1]},{"code":123,"indent":0,"parameters":["A",0]},{"code":356,"indent":0,"parameters":["Quest 40 Complete Objective 3"]},{"code":0,"indent":0,"parameters":[]}]},{"conditions":{"actorId":1,"actorValid":false,"itemId":1,"itemValid":false,"selfSwitchCh":"A","selfSwitchValid":true,"switch1Id":764,"switch1Valid":true,"switch2Id":1,"switch2Valid":false,"variableId":1,"variableValid":false,"variableValue":0},"directionFix":false,"image":{"tileId":0,"characterName":"People2","direction":4,"pattern":1,"characterIndex":0},"moveFrequency":3,"moveRoute":{"list":[{"code":0,"indent":null,"parameters":[]}],"repeat":true,"skippable":false,"wait":false},"moveSpeed":3,"moveType":0,"priorityType":1,"stepAnime":false,"through":false,"trigger":0,"walkAnime":true,"list":[{"code":101,"indent":0,"parameters":["People2",0,0,2]},{"code":401,"indent":0,"parameters":["Please tell me you don't have any more business like that."]},{"code":0,"indent":0,"parameters":[]}]},{"conditions":{"actorId":1,"actorValid":false,"itemId":1,"itemValid":false,"selfSwitchCh":"A","selfSwitchValid":false,"switch1Id":2602,"switch1Valid":true,"switch2Id":1,"switch2Valid":false,"variableId":1,"variableValid":false,"variableValue":0},"directionFix":false,"image":{"tileId":0,"characterName":"People2","direction":4,"pattern":1,"characterIndex":0},"moveFrequency":3,"moveRoute":{"list":[{"code":0,"indent":null,"parameters":[]}],"repeat":true,"skippable":false,"wait":false},"moveSpeed":3,"moveType":0,"priorityType":1,"stepAnime":false,"through":false,"trigger":0,"walkAnime":true,"list":[{"code":101,"indent":0,"parameters":["People2",0,0,2]},{"code":401,"indent":0,"parameters":["This is the Ivalan Bank - we deal with Church financial affairs, not average customers."]},{"code":0,"indent":0,"parameters":[]}]},{"conditions":{"actorId":1,"actorValid":false,"itemId":1,"itemValid":false,"selfSwitchCh":"A","selfSwitchValid":false,"switch1Id":3281,"switch1Valid":true,"switch2Id":1,"switch2Valid":false,"variableId":1,"variableValid":false,"variableValue":0},"directionFix":false,"image":{"tileId":0,"characterName":"People2","direction":4,"pattern":1,"characterIndex":0},"moveFrequency":3,"moveRoute":{"list":[{"code":0,"indent":null,"parameters":[]}],"repeat":true,"skippable":false,"wait":false},"moveSpeed":3,"moveType":0,"priorityType":1,"stepAnime":false,"through":false,"trigger":0,"walkAnime":true,"list":[{"code":101,"indent":0,"parameters":["People2",0,0,2]},{"code":401,"indent":0,"parameters":["It's a crying shame that the Council of Gawnfall couldn't discuss banking regulations."]},{"code":101,"indent":0,"parameters":["Iris emo",7,0,2]},{"code":401,"indent":0,"parameters":["It discussed enough."]},{"code":0,"indent":0,"parameters":[]}]},{"conditions":{"actorId":1,"actorValid":false,"itemId":1,"itemValid":false,"selfSwitchCh":"A","selfSwitchValid":false,"switch1Id":3601,"switch1Valid":true,"switch2Id":1,"switch2Valid":false,"variableId":1,"variableValid":false,"variableValue":0},"directionFix":false,"image":{"tileId":0,"characterName":"People2","direction":4,"pattern":1,"characterIndex":0},"moveFrequency":3,"moveRoute":{"list":[{"code":0,"indent":null,"parameters":[]}],"repeat":true,"skippable":false,"wait":false},"moveSpeed":3,"moveType":0,"priorityType":1,"stepAnime":false,"through":false,"trigger":0,"walkAnime":true,"list":[{"code":101,"indent":0,"parameters":["People2",0,0,2]},{"code":401,"indent":0,"parameters":["Crystal or no Crystal, the business of the Ivalan Bank goes on."]},{"code":0,"indent":0,"parameters":[]}]}],"x":13,"y":13},
{"id":8,"name":"EV008","note":"","pages":[{"conditions":{"actorId":1,"actorValid":false,"itemId":1,"itemValid":false,"selfSwitchCh":"A","selfSwitchValid":false,"switch1Id":1,"switch1Valid":false,"switch2Id":1,"switch2Valid":false,"variableId":1,"variableValid":false,"variableValue":0},"directionFix":false,"image":{"tileId":0,"characterName":"People2","direction":2,"pattern":1,"characterIndex":5},"moveFrequency":3,"moveRoute":{"list":[{"code":0,"indent":null,"parameters":[]}],"repeat":true,"skippable":false,"wait":false},"moveSpeed":3,"moveType":0,"priorityType":1,"stepAnime":false,"through":false,"trigger":0,"walkAnime":true,"list":[{"code":101,"indent":0,"parameters":["Carina emo",1,0,2]},{"code":401,"indent":0,"parameters":["Hello!"]},{"code":101,"indent":0,"parameters":["People2",5,0,2]},{"code":401,"indent":0,"parameters":["Ah, hello, Sister Carina. We don't see you here often."]},{"code":101,"indent":0,"parameters":["Carina emo",1,0,2]},{"code":401,"indent":0,"parameters":["Yes, well, as I get more responsibilities I find myself needing more financial support. What can you offer?"]},{"code":101,"indent":0,"parameters":["People2",5,0,2]},{"code":401,"indent":0,"parameters":["All priestesses are allowed to open accounts, and members of the Inquisition are preapproved for ProN services."]},{"code":101,"indent":0,"parameters":["Carina emo",6,0,2]},{"code":401,"indent":0,"parameters":["Ah, sorry. I should have been more specific."]},{"code":101,"indent":0,"parameters":["Carina emo",0,0,2]},{"code":401,"indent":0,"parameters":["If I wanted to invest the returns from my operations, could I do that within the Church?"]},{"code":101,"indent":0,"parameters":["People2",5,0,2]},{"code":401,"indent":0,"parameters":["Ah! We don't usually take new core lenders, but if the returns are significant enough, perhaps."]},{"code":101,"indent":0,"parameters":["Carina emo",0,0,2]},{"code":401,"indent":0,"parameters":["How significant is \"significant\"?"]},{"code":101,"indent":0,"parameters":["People2",5,0,2]},{"code":401,"indent":0,"parameters":["For a priestess such as yourself... perhaps 450,000 ProN?"]},{"code":101,"indent":0,"parameters":["Carina emo",3,0,2]},{"code":401,"indent":0,"parameters":["Oh. Oh my."]},{"code":101,"indent":0,"parameters":["People2",5,0,2]},{"code":401,"indent":0,"parameters":["More than you expected?"]},{"code":101,"indent":0,"parameters":["Carina emo",1,0,2]},{"code":401,"indent":0,"parameters":["I didn't say no, I'm just not used to handling this much money for the Church. Give me a moment to organize myself."]},{"code":205,"indent":0,"parameters":[-1,{"list":[{"code":1,"indent":null,"parameters":[]},{"code":1,"indent":null,"parameters":[]},{"code":0,"indent":null,"parameters":[]}],"repeat":false,"skippable":false,"wait":true}]},{"code":505,"indent":0,"parameters":[{"code":1,"indent":null,"parameters":[]}]},{"code":505,"indent":0,"parameters":[{"code":1,"indent":null,"parameters":[]}]},{"code":101,"indent":0,"parameters":["Carina emo",1,0,2]},{"code":401,"indent":0,"parameters":["Good enough?"]},{"code":101,"indent":0,"parameters":["1 Simon dark",0,0,2]},{"code":401,"indent":0,"parameters":["Yes, that's what we needed to know. Thank you."]},{"code":101,"indent":0,"parameters":["Carina emo",5,0,2]},{"code":401,"indent":0,"parameters":["I still can't believe we can even think of throwing that kind of money around."]},{"code":101,"indent":0,"parameters":["Megail emo2",3,0,2]},{"code":401,"indent":0,"parameters":["I'm more interested in how easily you lied there."]},{"code":101,"indent":0,"parameters":["Carina emo",3,0,2]},{"code":401,"indent":0,"parameters":["It's... it's not like that! I've been thinking I needed to make a visit like this so I had some words planned, that's all!"]},{"code":101,"indent":0,"parameters":["Megail emo2",1,0,2]},{"code":401,"indent":0,"parameters":["If you say so."]},{"code":123,"indent":0,"parameters":["A",0]},{"code":0,"indent":0,"parameters":[]}]},{"conditions":{"actorId":1,"actorValid":false,"itemId":1,"itemValid":false,"selfSwitchCh":"A","selfSwitchValid":true,"switch1Id":1,"switch1Valid":false,"switch2Id":1,"switch2Valid":false,"variableId":1,"variableValid":false,"variableValue":0},"directionFix":false,"image":{"tileId":0,"characterName":"People2","direction":2,"pattern":1,"characterIndex":5},"moveFrequency":3,"moveRoute":{"list":[{"code":0,"indent":null,"parameters":[]}],"repeat":true,"skippable":false,"wait":false},"moveSpeed":3,"moveType":0,"priorityType":1,"stepAnime":false,"through":false,"trigger":0,"walkAnime":true,"list":[{"code":101,"indent":0,"parameters":["People2",5,0,2]},{"code":401,"indent":0,"parameters":["Would you like to invest in the Ivalan Bank for 450,000 ProN?"]},{"code":102,"indent":0,"parameters":[["Not now","Invest"],0,0,2,0]},{"code":402,"indent":0,"parameters":[0,"Not now"]},{"code":101,"indent":1,"parameters":["People2",5,0,2]},{"code":401,"indent":1,"parameters":["It would be a significant investment. Take your time to pray about it."]},{"code":0,"indent":1,"parameters":[]},{"code":402,"indent":0,"parameters":[1,"Invest"]},{"code":111,"indent":1,"parameters":[1,10,0,450000,1]},{"code":122,"indent":2,"parameters":[10,10,2,0,450000]},{"code":122,"indent":2,"parameters":[16,16,1,0,2]},{"code":122,"indent":2,"parameters":[17,17,1,0,2]},{"code":122,"indent":2,"parameters":[117,117,1,0,3]},{"code":101,"indent":2,"parameters":["Carina emo",1,0,2]},{"code":401,"indent":2,"parameters":["Yes, I finally have my finances organized!"]},{"code":101,"indent":2,"parameters":["People2",5,0,2]},{"code":401,"indent":2,"parameters":["My, you have quite a budget for an Inquisition priestess."]},{"code":101,"indent":2,"parameters":["Carina emo",6,0,2]},{"code":401,"indent":2,"parameters":["Well, Ivala provides."]},{"code":101,"indent":2,"parameters":["People2",5,0,2]},{"code":401,"indent":2,"parameters":["That she does... especially to those who invest in her Church. Let me pull up the papers."]},{"code":221,"indent":2,"parameters":[]},{"code":230,"indent":2,"parameters":[60]},{"code":222,"indent":2,"parameters":[]},{"code":101,"indent":2,"parameters":["People2",5,0,2]},{"code":401,"indent":2,"parameters":["Done. Thank you for your service, Sister Carina."]},{"code":101,"indent":2,"parameters":["Carina emo",1,0,2]},{"code":401,"indent":2,"parameters":["You're quite welcome."]},{"code":205,"indent":2,"parameters":[-1,{"list":[{"code":1,"indent":null,"parameters":[]},{"code":1,"indent":null,"parameters":[]},{"code":0,"indent":null,"parameters":[]}],"repeat":false,"skippable":false,"wait":true}]},{"code":505,"indent":2,"parameters":[{"code":1,"indent":null,"parameters":[]}]},{"code":505,"indent":2,"parameters":[{"code":1,"indent":null,"parameters":[]}]},{"code":101,"indent":2,"parameters":["Carina emo",4,0,2]},{"code":401,"indent":2,"parameters":["Are you sure you're okay with this being in my name?"]},{"code":101,"indent":2,"parameters":["1 Simon dark",0,0,2]},{"code":401,"indent":2,"parameters":["Do I have any reason to mistrust you?"]},{"code":101,"indent":2,"parameters":["Carina emo",7,0,2]},{"code":401,"indent":2,"parameters":["Of course not."]},{"code":101,"indent":2,"parameters":["1 Simon dark",0,0,2]},{"code":401,"indent":2,"parameters":["Then I'd rather spread out our investments."]},{"code":101,"indent":2,"parameters":["Trin emo",1,0,2]},{"code":401,"indent":2,"parameters":["I'd rather talk about \"Ivala providing\" - is Simon your new god now?"]},{"code":101,"indent":2,"parameters":["Carina emo",2,0,2]},{"code":401,"indent":2,"parameters":["Oh, shut up. "]},{"code":121,"indent":2,"parameters":[782,782,0]},{"code":0,"indent":2,"parameters":[]},{"code":411,"indent":1,"parameters":[]},{"code":101,"indent":2,"parameters":["People2",5,0,2]},{"code":401,"indent":2,"parameters":["Sorry, I'm already lowering the threshold in respect for your service. It can't go any lower."]},{"code":0,"indent":2,"parameters":[]},{"code":412,"indent":1,"parameters":[]},{"code":0,"indent":1,"parameters":[]},{"code":404,"indent":0,"parameters":[]},{"code":0,"indent":0,"parameters":[]}]},{"conditions":{"actorId":1,"actorValid":false,"itemId":1,"itemValid":false,"selfSwitchCh":"A","selfSwitchValid":false,"switch1Id":782,"switch1Valid":true,"switch2Id":1,"switch2Valid":false,"variableId":1,"variableValid":false,"variableValue":0},"directionFix":false,"image":{"tileId":0,"characterName":"People2","direction":2,"pattern":1,"characterIndex":5},"moveFrequency":3,"moveRoute":{"list":[{"code":0,"indent":null,"parameters":[]}],"repeat":true,"skippable":false,"wait":false},"moveSpeed":3,"moveType":0,"priorityType":1,"stepAnime":false,"through":false,"trigger":0,"walkAnime":true,"list":[{"code":101,"indent":0,"parameters":["People2",5,0,2]},{"code":401,"indent":0,"parameters":["We're managing your investments wisely, Sister Carina."]},{"code":101,"indent":0,"parameters":["Carina emo",1,0,2]},{"code":401,"indent":0,"parameters":["Thank you!"]},{"code":0,"indent":0,"parameters":[]}]},{"conditions":{"actorId":1,"actorValid":false,"itemId":1,"itemValid":false,"selfSwitchCh":"A","selfSwitchValid":false,"switch1Id":782,"switch1Valid":false,"switch2Id":2602,"switch2Valid":true,"variableId":1,"variableValid":false,"variableValue":0},"directionFix":false,"image":{"tileId":0,"characterName":"People2","direction":2,"pattern":1,"characterIndex":5},"moveFrequency":3,"moveRoute":{"list":[{"code":0,"indent":null,"parameters":[]}],"repeat":true,"skippable":false,"wait":false},"moveSpeed":3,"moveType":0,"priorityType":1,"stepAnime":false,"through":false,"trigger":0,"walkAnime":true,"list":[{"code":101,"indent":0,"parameters":["People2",5,0,2]},{"code":401,"indent":0,"parameters":["Apologies, but the Ivalan Bank is not open to new business while... matters are in flux."]},{"code":0,"indent":0,"parameters":[]}]},{"conditions":{"actorId":1,"actorValid":false,"itemId":1,"itemValid":false,"selfSwitchCh":"A","selfSwitchValid":false,"switch1Id":2981,"switch1Valid":true,"switch2Id":2602,"switch2Valid":true,"variableId":1,"variableValid":false,"variableValue":0},"directionFix":false,"image":{"tileId":0,"characterName":"People2","direction":2,"pattern":1,"characterIndex":5},"moveFrequency":3,"moveRoute":{"list":[{"code":0,"indent":null,"parameters":[]}],"repeat":true,"skippable":false,"wait":false},"moveSpeed":3,"moveType":0,"priorityType":1,"stepAnime":false,"through":false,"trigger":0,"walkAnime":true,"list":[{"code":101,"indent":0,"parameters":["People2",5,0,2]},{"code":401,"indent":0,"parameters":["The Council should make religious decisions, of course... but they'll have serious monetary consequences as well."]},{"code":0,"indent":0,"parameters":[]}]},{"conditions":{"actorId":1,"actorValid":false,"itemId":1,"itemValid":false,"selfSwitchCh":"A","selfSwitchValid":false,"switch1Id":782,"switch1Valid":true,"switch2Id":2602,"switch2Valid":true,"variableId":1,"variableValid":false,"variableValue":0},"directionFix":false,"image":{"tileId":0,"characterName":"People2","direction":2,"pattern":1,"characterIndex":5},"moveFrequency":3,"moveRoute":{"list":[{"code":0,"indent":null,"parameters":[]}],"repeat":true,"skippable":false,"wait":false},"moveSpeed":3,"moveType":0,"priorityType":1,"stepAnime":false,"through":false,"trigger":0,"walkAnime":true,"list":[{"code":101,"indent":0,"parameters":["People2",5,0,2]},{"code":401,"indent":0,"parameters":["Hello again, Sister Carina. We have continued to shepherd your investments wisely."]},{"code":101,"indent":0,"parameters":["Carina emo",1,0,2]},{"code":401,"indent":0,"parameters":["Thank you, Sister!"]},{"code":0,"indent":0,"parameters":[]}]},{"conditions":{"actorId":1,"actorValid":false,"itemId":1,"itemValid":false,"selfSwitchCh":"A","selfSwitchValid":false,"switch1Id":782,"switch1Valid":true,"switch2Id":2981,"switch2Valid":true,"variableId":1,"variableValid":false,"variableValue":0},"directionFix":false,"image":{"tileId":0,"characterName":"People2","direction":2,"pattern":1,"characterIndex":5},"moveFrequency":3,"moveRoute":{"list":[{"code":0,"indent":null,"parameters":[]}],"repeat":true,"skippable":false,"wait":false},"moveSpeed":3,"moveType":0,"priorityType":1,"stepAnime":false,"through":false,"trigger":0,"walkAnime":true,"list":[{"code":101,"indent":0,"parameters":["People2",5,0,2]},{"code":401,"indent":0,"parameters":["Ivala bless your words during the Council, Sister Carina. We hope we can continue to do Ivala's work together."]},{"code":101,"indent":0,"parameters":["Carina emo",1,0,2]},{"code":401,"indent":0,"parameters":["Thank you, Sister!"]},{"code":0,"indent":0,"parameters":[]}]},{"conditions":{"actorId":1,"actorValid":false,"itemId":1,"itemValid":false,"selfSwitchCh":"A","selfSwitchValid":false,"switch1Id":1,"switch1Valid":false,"switch2Id":3281,"switch2Valid":true,"variableId":1,"variableValid":false,"variableValue":0},"directionFix":false,"image":{"tileId":0,"characterName":"People2","direction":2,"pattern":1,"characterIndex":5},"moveFrequency":3,"moveRoute":{"list":[{"code":0,"indent":null,"parameters":[]}],"repeat":true,"skippable":false,"wait":false},"moveSpeed":3,"moveType":0,"priorityType":1,"stepAnime":false,"through":false,"trigger":0,"walkAnime":true,"list":[{"code":101,"indent":0,"parameters":["People2",5,0,2]},{"code":401,"indent":0,"parameters":["Would you like to invest in the Ivalan Bank for 550,000 ProN?"]},{"code":102,"indent":0,"parameters":[["Not now","Invest"],0,0,2,0]},{"code":402,"indent":0,"parameters":[0,"Not now"]},{"code":101,"indent":1,"parameters":["People2",5,0,2]},{"code":401,"indent":1,"parameters":["It would be a significant investment. Take your time to pray about it."]},{"code":0,"indent":1,"parameters":[]},{"code":402,"indent":0,"parameters":[1,"Invest"]},{"code":111,"indent":1,"parameters":[1,10,0,550000,1]},{"code":121,"indent":2,"parameters":[782,782,0]},{"code":122,"indent":2,"parameters":[10,10,2,0,550000]},{"code":122,"indent":2,"parameters":[16,16,1,0,2]},{"code":122,"indent":2,"parameters":[17,17,1,0,2]},{"code":122,"indent":2,"parameters":[117,117,1,0,3]},{"code":101,"indent":2,"parameters":["People2",5,0,2]},{"code":401,"indent":2,"parameters":["Very good! I'll have the paperwork done up soon!"]},{"code":221,"indent":2,"parameters":[]},{"code":230,"indent":2,"parameters":[60]},{"code":222,"indent":2,"parameters":[]},{"code":0,"indent":2,"parameters":[]},{"code":411,"indent":1,"parameters":[]},{"code":101,"indent":2,"parameters":["People2",5,0,2]},{"code":401,"indent":2,"parameters":["Sorry, I'm already lowering the threshold in respect for your service. It can't go any lower."]},{"code":0,"indent":2,"parameters":[]},{"code":412,"indent":1,"parameters":[]},{"code":0,"indent":1,"parameters":[]},{"code":404,"indent":0,"parameters":[]},{"code":0,"indent":0,"parameters":[]}]},{"conditions":{"actorId":1,"actorValid":false,"itemId":1,"itemValid":false,"selfSwitchCh":"A","selfSwitchValid":false,"switch1Id":782,"switch1Valid":true,"switch2Id":3281,"switch2Valid":true,"variableId":1,"variableValid":false,"variableValue":0},"directionFix":false,"image":{"tileId":0,"characterName":"People2","direction":2,"pattern":1,"characterIndex":5},"moveFrequency":3,"moveRoute":{"list":[{"code":0,"indent":null,"parameters":[]}],"repeat":true,"skippable":false,"wait":false},"moveSpeed":3,"moveType":0,"priorityType":1,"stepAnime":false,"through":false,"trigger":0,"walkAnime":true,"list":[{"code":101,"indent":0,"parameters":["People2",5,0,2]},{"code":401,"indent":0,"parameters":["Some doubt you, Sister Carina, but I'm glad you were able to lend your wisdom to the Council of Gawnfall."]},{"code":0,"indent":0,"parameters":[]}]},{"conditions":{"actorId":1,"actorValid":false,"itemId":1,"itemValid":false,"selfSwitchCh":"A","selfSwitchValid":false,"switch1Id":782,"switch1Valid":true,"switch2Id":3601,"switch2Valid":true,"variableId":1,"variableValid":false,"variableValue":0},"directionFix":false,"image":{"tileId":0,"characterName":"People2","direction":2,"pattern":1,"characterIndex":5},"moveFrequency":3,"moveRoute":{"list":[{"code":0,"indent":null,"parameters":[]}],"repeat":true,"skippable":false,"wait":false},"moveSpeed":3,"moveType":0,"priorityType":1,"stepAnime":false,"through":false,"trigger":0,"walkAnime":true,"list":[{"code":101,"indent":0,"parameters":["People2",5,0,2]},{"code":401,"indent":0,"parameters":["The strangest thing about the Crystal of Ivala is that all the funds for its construction seemed to appear out of thin air."]},{"code":101,"indent":0,"parameters":["People2",5,0,2]},{"code":401,"indent":0,"parameters":["Accountancy miracles are... uncommon."]},{"code":0,"indent":0,"parameters":[]}]}],"x":9,"y":7},
{"id":9,"name":"EV009","note":"","pages":[{"conditions":{"actorId":1,"actorValid":false,"itemId":1,"itemValid":false,"selfSwitchCh":"A","selfSwitchValid":false,"switch1Id":1,"switch1Valid":false,"switch2Id":1,"switch2Valid":false,"variableId":1,"variableValid":false,"variableValue":0},"directionFix":false,"image":{"tileId":0,"characterName":"","direction":2,"pattern":0,"characterIndex":0},"moveFrequency":3,"moveRoute":{"list":[{"code":0,"indent":null,"parameters":[]}],"repeat":true,"skippable":false,"wait":false},"moveSpeed":3,"moveType":0,"priorityType":0,"stepAnime":false,"through":false,"trigger":3,"walkAnime":true,"list":[{"code":101,"indent":0,"parameters":["1 Simon dark",0,0,2]},{"code":401,"indent":0,"parameters":["This is the Ivalan Bank, correct?"]},{"code":101,"indent":0,"parameters":["Carina emo",0,0,2]},{"code":401,"indent":0,"parameters":["That's right. I have mixed feelings about how they run things, but we need their support to finance all our operations."]},{"code":101,"indent":0,"parameters":["1 Simon dark",0,0,2]},{"code":401,"indent":0,"parameters":["What would you think of gaining some influence over how they run things?"]},{"code":101,"indent":0,"parameters":["Carina emo",1,0,2]},{"code":401,"indent":0,"parameters":["Oh, could we invest here? I suppose that might be a good idea."]},{"code":101,"indent":0,"parameters":["1 Simon dark",0,0,2]},{"code":401,"indent":0,"parameters":["It's at least worth considering. Can you inquire?"]},{"code":101,"indent":0,"parameters":["Carina emo",1,0,2]},{"code":401,"indent":0,"parameters":["Sure."]},{"code":123,"indent":0,"parameters":["A",0]},{"code":0,"indent":0,"parameters":[]}]},{"conditions":{"actorId":1,"actorValid":false,"itemId":1,"itemValid":false,"selfSwitchCh":"A","selfSwitchValid":true,"switch1Id":1,"switch1Valid":false,"switch2Id":1,"switch2Valid":false,"variableId":1,"variableValid":false,"variableValue":0},"directionFix":false,"image":{"tileId":0,"characterName":"","direction":2,"pattern":0,"characterIndex":0},"moveFrequency":3,"moveRoute":{"list":[{"code":0,"indent":null,"parameters":[]}],"repeat":true,"skippable":false,"wait":false},"moveSpeed":3,"moveType":0,"priorityType":0,"stepAnime":false,"through":false,"trigger":0,"walkAnime":true,"list":[{"code":0,"indent":0,"parameters":[]}]},{"conditions":{"actorId":1,"actorValid":false,"itemId":1,"itemValid":false,"selfSwitchCh":"A","selfSwitchValid":false,"switch1Id":2602,"switch1Valid":true,"switch2Id":1,"switch2Valid":false,"variableId":1,"variableValid":false,"variableValue":0},"directionFix":false,"image":{"tileId":0,"characterName":"","direction":2,"pattern":0,"characterIndex":0},"moveFrequency":3,"moveRoute":{"list":[{"code":0,"indent":null,"parameters":[]}],"repeat":true,"skippable":false,"wait":false},"moveSpeed":3,"moveType":0,"priorityType":0,"stepAnime":false,"through":false,"trigger":0,"walkAnime":true,"list":[{"code":0,"indent":0,"parameters":[]}]}],"x":0,"y":0}
]
}