{
"autoplayBgm":false,"autoplayBgs":false,"battleback1Name":"","battleback2Name":"","bgm":{"name":"","pan":0,"pitch":100,"volume":100},"bgs":{"name":"","pan":0,"pitch":100,"volume":80},"disableDashing":false,"displayName":"Domain of Magic","encounterList":[],"encounterStep":30,"height":26,"note":"","parallaxLoopX":false,"parallaxLoopY":false,"parallaxName":"","parallaxShow":false,"parallaxSx":0,"parallaxSy":0,"scrollType":0,"specifyBattleback":false,"tilesetId":23,"width":17,
"data":[0,0,0,0,0,0,0,0,0,0,0,0,0,0,0,0,0,0,0,0,0,0,0,0,0,0,0,0,0,0,0,0,0,0,0,0,7699,7697,7697,7697,7697,7697,7697,7697,7697,7697,7697,7697,7701,0,0,0,0,7696,8050,8050,8050,8050,8050,8050,8050,8050,8050,8050,8050,7696,0,0,0,0,7696,8056,8056,8056,8056,8056,8056,8056,8056,8056,8056,8056,7696,0,0,0,0,7696,1571,1571,1571,1571,1571,1571,1571,1571,1571,1571,1571,7696,0,0,0,0,7696,1571,1571,1571,1571,1571,1571,1571,1571,1571,1571,1571,7696,0,0,0,0,7696,1571,1571,1571,1571,1571,1571,1571,1571,1571,1571,1571,7696,0,0,0,0,7705,7697,7697,7701,1571,1571,1571,1571,1571,7699,7697,7697,7703,0,0,0,0,8051,8050,8050,7683,7697,7709,1571,7707,7697,7691,8050,8050,8054,0,0,0,0,8057,8056,8056,7696,8050,8054,1571,8051,8050,7696,8056,8056,8060,0,0,0,0,1544,1544,1544,7696,8056,8060,1571,8057,8056,7696,1544,1544,1544,0,0,0,0,1544,1544,1544,7696,1571,1571,1571,1571,1571,7696,1544,1544,1544,0,0,0,0,0,0,0,7696,1571,1571,1571,1571,1571,7696,0,0,0,0,0,0,0,0,0,0,7696,1571,1571,1571,1571,1571,7696,0,0,0,0,0,0,0,0,0,0,7696,1571,1571,1571,1571,1571,7696,0,0,0,0,0,0,0,0,0,0,7696,1571,1571,1571,1571,1571,7696,0,0,0,0,0,0,0,0,0,0,7696,1571,1571,1571,1571,1571,7696,0,0,0,0,0,0,0,0,0,0,7696,1571,1571,1571,1571,1571,7696,0,0,0,0,0,0,0,0,0,0,7696,1571,1571,1571,1571,1571,7696,0,0,0,0,0,0,0,0,0,0,7696,1571,1571,1571,1571,1571,7696,0,0,0,0,0,0,0,0,0,0,7705,7697,7697,7697,7697,7697,7703,0,0,0,0,0,0,0,0,0,0,8051,8050,8050,8050,8050,8050,8054,0,0,0,0,0,0,0,0,0,0,8057,8056,8056,8056,8056,8056,8060,0,0,0,0,0,0,0,0,0,0,0,0,0,0,0,0,0,0,0,0,0,0,0,0,0,0,0,0,0,0,0,0,0,0,0,0,0,0,0,0,0,0,0,0,0,0,0,0,0,0,0,0,0,0,0,0,0,0,0,0,0,0,0,0,0,0,0,0,0,0,0,0,0,0,0,0,0,0,0,0,0,0,0,0,0,0,0,0,0,0,0,0,0,0,0,0,0,0,0,0,0,0,0,0,0,0,0,0,0,0,0,0,0,0,0,0,0,0,0,0,0,0,0,0,0,0,0,0,0,0,0,0,0,0,0,0,0,0,0,0,0,0,0,0,0,0,0,0,0,0,0,0,0,0,0,0,0,0,0,0,0,0,0,0,0,0,0,0,0,0,0,0,0,0,0,0,0,0,0,0,0,0,0,0,0,0,0,0,0,0,0,0,0,0,0,0,0,0,0,0,0,0,0,0,0,0,0,0,0,0,0,0,0,0,0,0,0,0,0,0,0,0,0,0,0,0,0,0,0,0,0,0,0,0,0,0,0,0,0,0,0,0,0,0,0,0,0,0,0,0,0,0,0,0,0,0,0,0,0,0,0,0,0,0,0,0,0,0,0,0,0,0,0,0,0,0,0,0,0,0,0,0,0,0,0,0,0,0,0,0,0,0,0,0,0,0,0,0,0,0,0,0,0,0,0,0,0,0,0,0,0,0,0,0,0,0,0,0,0,0,0,0,0,0,0,0,0,0,0,0,0,0,0,0,0,0,0,0,0,0,0,0,0,0,0,0,0,0,0,0,0,0,0,0,0,0,0,0,0,0,0,0,0,0,0,0,0,0,0,0,0,0,0,0,0,0,0,0,0,0,0,0,0,0,0,0,0,0,0,0,0,0,0,0,0,0,0,0,0,0,0,0,0,0,0,0,0,0,0,0,0,0,0,0,0,0,0,0,0,0,0,0,0,0,0,0,0,0,0,0,0,0,0,0,0,0,0,0,0,0,0,0,0,0,0,0,0,0,0,0,0,0,0,0,0,0,0,0,0,0,0,0,0,0,0,0,0,0,0,0,0,0,0,0,0,0,0,0,0,0,0,0,0,0,0,0,0,0,0,0,0,0,0,0,0,0,0,0,0,0,0,0,0,0,0,0,0,0,0,0,0,0,0,0,0,0,0,0,0,0,0,0,0,0,0,0,0,0,0,0,0,0,0,0,0,0,0,0,0,0,0,0,0,0,0,0,0,0,0,0,0,0,0,0,0,0,0,0,0,0,0,0,0,0,0,0,0,0,0,0,0,0,0,0,0,0,0,0,0,0,0,0,0,0,0,0,0,0,0,0,0,0,0,0,0,0,0,0,0,0,0,0,0,0,0,0,0,0,0,0,0,0,0,0,0,0,0,0,0,0,0,0,0,0,0,0,0,0,0,0,0,0,0,0,0,0,0,0,0,0,0,0,0,0,0,0,0,0,0,0,0,0,0,0,0,0,0,0,0,0,0,0,0,0,0,0,0,0,0,0,0,0,0,0,0,0,0,0,0,0,0,0,0,0,0,0,0,0,0,0,0,0,0,0,0,0,0,0,0,0,0,0,0,0,0,0,0,0,0,0,0,0,0,0,0,0,0,0,0,0,0,0,0,0,0,0,0,0,0,0,0,0,0,0,0,0,0,0,0,0,0,0,0,0,0,0,0,0,0,0,0,0,0,0,0,0,0,0,0,0,0,0,0,0,0,0,0,0,0,0,0,0,0,0,0,0,0,0,0,0,0,0,0,0,0,0,0,0,0,0,0,0,0,0,0,0,0,0,0,0,0,0,0,0,0,0,0,0,0,0,0,0,0,0,0,0,0,0,0,0,0,0,0,0,0,0,0,0,0,0,0,0,0,0,0,0,0,0,0,0,0,0,0,0,0,0,0,0,0,0,0,0,0,0,0,0,0,0,0,0,0,0,0,0,0,0,0,0,0,0,0,0,0,0,0,0,0,0,0,0,0,0,0,0,0,0,0,0,0,0,0,0,0,0,0,0,0,0,0,0,0,0,0,0,0,0,0,0,0,0,0,0,0,0,0,0,0,0,0,0,0,0,0,0,0,0,0,0,0,0,0,0,0,0,0,0,0,0,0,0,0,0,0,0,0,0,0,0,0,0,0,0,0,0,0,0,0,0,0,0,0,0,0,0,0,0,0,0,0,0,0,0,0,0,0,0,0,0,0,0,0,0,0,0,0,0,0,0,0,0,0,0,0,0,0,0,0,0,0,0,0,0,0,0,0,0,0,0,0,0,0,481,482,483,0,0,0,0,0,481,482,483,0,0,0,0,0,0,489,490,491,293,294,0,293,294,489,490,491,0,0,0,0,0,0,497,498,499,301,302,0,301,302,497,498,499,0,0,0,0,0,0,0,0,0,0,0,0,0,0,0,0,0,0,0,0,0,0,0,0,0,0,0,0,0,0,0,0,0,0,0,0,0,0,0,0,0,0,0,0,0,0,0,0,0,0,0,0,0,0,0,0,0,0,0,0,0,309,0,309,0,0,0,0,0,0,0,0,0,0,0,0,0,0,317,0,300,0,0,0,0,0,0,0,0,0,0,0,0,0,0,0,0,0,0,0,0,0,0,0,0,0,0,0,0,0,0,0,309,0,309,0,0,0,0,0,0,0,0,0,0,0,0,0,0,300,0,300,0,0,0,0,0,0,0,0,0,0,0,0,0,0,0,0,0,0,0,0,0,0,0,0,0,0,0,0,0,0,0,309,0,309,0,0,0,0,0,0,0,0,0,0,0,0,0,0,300,0,300,0,0,0,0,0,0,0,0,0,0,0,0,0,0,484,485,486,0,0,0,0,0,0,0,0,0,0,0,0,0,309,492,493,494,309,0,0,0,0,0,0,0,0,0,0,0,0,0,0,0,0,0,0,0,0,0,0,0,0,0,0,0,0,0,0,0,0,0,0,0,0,0,0,0,0,0,0,0,0,0,0,0,0,0,0,0,0,0,0,0,0,0,0,0,0,0,0,0,0,0,0,0,0,0,0,0,0,0,0,0,0,0,0,0,0,0,0,0,0,0,0,0,0,0,0,0,0,0,0,0,0,0,0,0,0,0,0,0,0,0,0,0,0,0,0,0,0,0,0,0,0,0,0,0,0,0,0,0,0,0,0,0,0,0,0,0,0,0,0,0,0,0,0,0,0,0,0,0,0,0,0,0,0,0,0,0,0,0,0,0,0,0,0,0,0,0,0,0,0,0,0,0,0,0,0,0,0,0,0,0,0,0,0,0,5,0,0,0,0,0,0,0,0,0,0,0,0,0,0,0,0,5,0,0,0,0,0,0,0,0,0,0,0,0,0,0,0,0,5,0,0,0,0,0,0,0,0,0,0,0,0,0,0,0,0,0,0,0,0,0,0,0,0,0,0,0,0,0,0,0,0,0,0,0,0,0,0,0,0,0,0,0,0,0,0,0,0,0,0,0,0,0,0,0,5,0,0,0,0,0,0,0,0,0,0,0,0,0,0,0,0,5,0,0,0,5,0,0,0,0,0,0,0,0,0,0,5,0,0,0,0,0,5,0,0,0,0,0,0,0,0,0,0,5,0,0,0,0,0,0,0,0,0,0,0,0,0,0,0,0,5,0,0,0,0,0,0,0,0,0,0,0,0,0,0,0,0,5,0,0,0,0,0,0,0,0,0,0,0,0,0,0,0,0,5,0,0,0,0,0,0,0,0,0,0,0,0,0,0,0,0,5,0,0,0,0,0,0,0,0,0,0,0,0,0,0,0,0,5,0,0,0,0,0,0,0,0,0,0,0,0,0,0,0,0,5,0,0,0,0,0,0,0,0,0,0,0,0,0,0,0,0,5,0,0,0,0,0,0,0,0,0,0,0,0,0,0,0,0,0,0,0,0,0,0,0,0,0,0,0,0,0,0,0,0,0,0,0,0,0,0,0,0,0,0,0,0,0,0,0,0,0,0,0,0,0,0,0,0,0,0,0,0,0,0,0,0,0,0,0,0,0,0,0,0,0,0,0,0,0,0,0,0,0,0,0,0,0,0,0,0,0,0,0,0,0,0,0,0,0,0,0,0,0,0,0,0,0,0,0,0,0,0,0,0,0,0,0,0,0,0,0,0,0,0,0,0,0,0,0,0,0,0,0,0,0,0,0,0,0,0,0,0,0,0,0,0,0,0,0,0,0,0,0,0,0,0,0,0,0,0,0,0,0,0,0,0,0,0,0,0,0,0,0,0,0,0,0,0,0,0,0,0,0,0,0,0,0,0,0,0,0,0,0,0,0,0,0,0,0,0,0,0,0,0,0,0,0,0,0,0,0,0,0,0,0,0,0,0,0,0,0,0,0,0,0,0,0,0,0,0,0,0,0,0,0,0,0,0,0,0,0,0,0,0,0,0,0,0,0,0,0,0,0,0,0,0,0,0,0,0,0,0,0,0,0,0,0,0,0,0,0,0,0,0,0,0,0,0,0,0,0,0,0,0,0,0,0,0,0,0,0,0,0,0,0,0,0,0,0,0,0,0,0,0,0,0,0,0,0,0,0,0,0,0,0,0,0,0,0,0,0,0,0,0,0,0,0,0,0,0,0,0,0,0,0,0,0,0,0,0,0,0,0,0,0,0,0,0,0,0,0,0,0,0,0,0,0,0,0,0,0,0,0,0,0,0,0,0,0,0,0,0,0,0,0,0,0,0,0,0,0,0,0,0,0,0,0,0,0,0,0,0,0,0,0,0,0,0,0,0,0,0,0,0,0,0,0,0,0,0,0,0,0,0,0,0,0,0,0,0,0,0,0,0,0,0,0,0,0,0,0,0,0,0,0,0,0,0,0,0,0,0,0,0,0,0,0,0,0,0,0,0,0,0,0,0,0,0,0,0,0,0,0,0,0,0,0,0,0,0,0,0,0,0,0,0,0,0,0,0,0,0,0,0,0,0,0,0,0,0,0,0,0,0,0,0,0,0,0,0,0,0,0,0,0,0,0,0,0,0,0,0,0,0,0,0,0,0,0,0,0,0,0,0,0,0,0,0,0,0,0,0,0,0,0,0,0,0,0],
"events":[
null,
{"id":1,"name":"EV001","note":"","pages":[{"conditions":{"actorId":1,"actorValid":false,"itemId":1,"itemValid":false,"selfSwitchCh":"A","selfSwitchValid":false,"switch1Id":1,"switch1Valid":false,"switch2Id":1,"switch2Valid":false,"variableId":1,"variableValid":false,"variableValue":0},"directionFix":false,"image":{"tileId":0,"characterName":"Evil","direction":2,"pattern":1,"characterIndex":3},"moveFrequency":3,"moveRoute":{"list":[{"code":0,"indent":null,"parameters":[]}],"repeat":true,"skippable":false,"wait":false},"moveSpeed":3,"moveType":0,"priorityType":1,"stepAnime":false,"through":false,"trigger":0,"walkAnime":true,"list":[{"code":121,"indent":0,"parameters":[392,392,0]},{"code":101,"indent":0,"parameters":["Evil",3,0,2]},{"code":401,"indent":0,"parameters":["You have entered the Domain of Magic. What do you desire?"]},{"code":302,"indent":0,"parameters":[1,31,0,0,true]},{"code":605,"indent":0,"parameters":[1,32,0,0]},{"code":605,"indent":0,"parameters":[1,33,0,0]},{"code":605,"indent":0,"parameters":[1,34,0,0]},{"code":605,"indent":0,"parameters":[1,35,0,0]},{"code":605,"indent":0,"parameters":[1,36,0,0]},{"code":605,"indent":0,"parameters":[2,24,1,3000]},{"code":605,"indent":0,"parameters":[2,20,0,0]},{"code":605,"indent":0,"parameters":[2,23,0,0]},{"code":605,"indent":0,"parameters":[2,21,0,0]},{"code":605,"indent":0,"parameters":[2,22,0,0]},{"code":605,"indent":0,"parameters":[2,61,0,0]},{"code":605,"indent":0,"parameters":[2,62,0,0]},{"code":605,"indent":0,"parameters":[2,63,0,0]},{"code":605,"indent":0,"parameters":[2,100,0,0]},{"code":605,"indent":0,"parameters":[2,101,0,0]},{"code":605,"indent":0,"parameters":[2,102,0,0]},{"code":605,"indent":0,"parameters":[2,103,0,0]},{"code":605,"indent":0,"parameters":[2,134,0,0]},{"code":605,"indent":0,"parameters":[2,135,0,0]},{"code":605,"indent":0,"parameters":[2,138,0,0]},{"code":605,"indent":0,"parameters":[2,139,0,0]},{"code":605,"indent":0,"parameters":[2,145,0,0]},{"code":111,"indent":0,"parameters":[0,1235,0]},{"code":101,"indent":1,"parameters":["Orilise emo",6,0,2]},{"code":401,"indent":1,"parameters":["Wait... did they use a teleport spell, the hallway, and all this magic... for a STORE?"]},{"code":101,"indent":1,"parameters":["Lynine emo",2,0,2]},{"code":401,"indent":1,"parameters":["Is this... a Yhilini thing?"]},{"code":101,"indent":1,"parameters":["Aka emo2",1,0,2]},{"code":401,"indent":1,"parameters":["Haha, I had the same reaction. They're just trying to stand out from all the other magic stores."]},{"code":123,"indent":1,"parameters":["A",0]},{"code":0,"indent":1,"parameters":[]},{"code":412,"indent":0,"parameters":[]},{"code":0,"indent":0,"parameters":[]}]},{"conditions":{"actorId":1,"actorValid":false,"itemId":1,"itemValid":false,"selfSwitchCh":"A","selfSwitchValid":true,"switch1Id":1,"switch1Valid":false,"switch2Id":1,"switch2Valid":false,"variableId":1,"variableValid":false,"variableValue":0},"directionFix":false,"image":{"tileId":0,"characterName":"Evil","direction":2,"pattern":1,"characterIndex":3},"moveFrequency":3,"moveRoute":{"list":[{"code":0,"indent":null,"parameters":[]}],"repeat":true,"skippable":false,"wait":false},"moveSpeed":3,"moveType":0,"priorityType":1,"stepAnime":false,"through":false,"trigger":0,"walkAnime":true,"list":[{"code":121,"indent":0,"parameters":[392,392,0]},{"code":101,"indent":0,"parameters":["Evil",3,0,2]},{"code":401,"indent":0,"parameters":["You have entered the Domain of Magic. What do you desire?"]},{"code":302,"indent":0,"parameters":[1,31,0,0,true]},{"code":605,"indent":0,"parameters":[1,32,0,0]},{"code":605,"indent":0,"parameters":[1,33,0,0]},{"code":605,"indent":0,"parameters":[1,34,0,0]},{"code":605,"indent":0,"parameters":[1,35,0,0]},{"code":605,"indent":0,"parameters":[1,36,0,0]},{"code":605,"indent":0,"parameters":[2,24,1,3000]},{"code":605,"indent":0,"parameters":[2,20,0,0]},{"code":605,"indent":0,"parameters":[2,23,0,0]},{"code":605,"indent":0,"parameters":[2,21,0,0]},{"code":605,"indent":0,"parameters":[2,22,0,0]},{"code":605,"indent":0,"parameters":[2,61,0,0]},{"code":605,"indent":0,"parameters":[2,62,0,0]},{"code":605,"indent":0,"parameters":[2,63,0,0]},{"code":605,"indent":0,"parameters":[2,100,0,0]},{"code":605,"indent":0,"parameters":[2,101,0,0]},{"code":605,"indent":0,"parameters":[2,102,0,0]},{"code":605,"indent":0,"parameters":[2,103,0,0]},{"code":605,"indent":0,"parameters":[2,134,0,0]},{"code":605,"indent":0,"parameters":[2,135,0,0]},{"code":605,"indent":0,"parameters":[2,138,0,0]},{"code":605,"indent":0,"parameters":[2,139,0,0]},{"code":605,"indent":0,"parameters":[2,145,0,0]},{"code":111,"indent":0,"parameters":[0,1639,0]},{"code":101,"indent":1,"parameters":["Uyae emo",0,0,2]},{"code":401,"indent":1,"parameters":["\\C[1]Is all of this finery truly just adornment for a place of commerce?"]},{"code":101,"indent":1,"parameters":["1 Simon dark",0,0,2]},{"code":401,"indent":1,"parameters":["\\C[1]Yes."]},{"code":101,"indent":1,"parameters":["Uyae emo",6,0,2]},{"code":401,"indent":1,"parameters":["\\C[1]How delightfully extravagant!"]},{"code":123,"indent":1,"parameters":["B",0]},{"code":0,"indent":1,"parameters":[]},{"code":412,"indent":0,"parameters":[]},{"code":0,"indent":0,"parameters":[]}]},{"conditions":{"actorId":1,"actorValid":false,"itemId":1,"itemValid":false,"selfSwitchCh":"B","selfSwitchValid":true,"switch1Id":1,"switch1Valid":false,"switch2Id":1,"switch2Valid":false,"variableId":1,"variableValid":false,"variableValue":0},"directionFix":false,"image":{"tileId":0,"characterName":"Evil","direction":2,"pattern":1,"characterIndex":3},"moveFrequency":3,"moveRoute":{"list":[{"code":0,"indent":null,"parameters":[]}],"repeat":true,"skippable":false,"wait":false},"moveSpeed":3,"moveType":0,"priorityType":1,"stepAnime":false,"through":false,"trigger":0,"walkAnime":true,"list":[{"code":121,"indent":0,"parameters":[392,392,0]},{"code":101,"indent":0,"parameters":["Evil",3,0,2]},{"code":401,"indent":0,"parameters":["You have entered the Domain of Magic. What do you desire?"]},{"code":302,"indent":0,"parameters":[1,31,0,0,true]},{"code":605,"indent":0,"parameters":[1,32,0,0]},{"code":605,"indent":0,"parameters":[1,33,0,0]},{"code":605,"indent":0,"parameters":[1,34,0,0]},{"code":605,"indent":0,"parameters":[1,35,0,0]},{"code":605,"indent":0,"parameters":[1,36,0,0]},{"code":605,"indent":0,"parameters":[2,24,1,3000]},{"code":605,"indent":0,"parameters":[2,20,0,0]},{"code":605,"indent":0,"parameters":[2,23,0,0]},{"code":605,"indent":0,"parameters":[2,21,0,0]},{"code":605,"indent":0,"parameters":[2,22,0,0]},{"code":605,"indent":0,"parameters":[2,61,0,0]},{"code":605,"indent":0,"parameters":[2,62,0,0]},{"code":605,"indent":0,"parameters":[2,63,0,0]},{"code":605,"indent":0,"parameters":[2,100,0,0]},{"code":605,"indent":0,"parameters":[2,101,0,0]},{"code":605,"indent":0,"parameters":[2,102,0,0]},{"code":605,"indent":0,"parameters":[2,103,0,0]},{"code":605,"indent":0,"parameters":[2,134,0,0]},{"code":605,"indent":0,"parameters":[2,135,0,0]},{"code":605,"indent":0,"parameters":[2,138,0,0]},{"code":605,"indent":0,"parameters":[2,139,0,0]},{"code":605,"indent":0,"parameters":[2,145,0,0]},{"code":0,"indent":0,"parameters":[]}]},{"conditions":{"actorId":1,"actorValid":false,"itemId":1,"itemValid":false,"selfSwitchCh":"B","selfSwitchValid":false,"switch1Id":2099,"switch1Valid":true,"switch2Id":1,"switch2Valid":false,"variableId":1,"variableValid":false,"variableValue":0},"directionFix":false,"image":{"tileId":0,"characterName":"Evil","direction":2,"pattern":1,"characterIndex":3},"moveFrequency":3,"moveRoute":{"list":[{"code":0,"indent":null,"parameters":[]}],"repeat":true,"skippable":false,"wait":false},"moveSpeed":3,"moveType":0,"priorityType":1,"stepAnime":false,"through":false,"trigger":0,"walkAnime":true,"list":[{"code":121,"indent":0,"parameters":[392,392,0]},{"code":101,"indent":0,"parameters":["Evil",3,0,2]},{"code":401,"indent":0,"parameters":["You have entered the Domain of Magic. What do you desire?"]},{"code":302,"indent":0,"parameters":[1,31,0,0,true]},{"code":605,"indent":0,"parameters":[1,32,0,0]},{"code":605,"indent":0,"parameters":[1,33,0,0]},{"code":605,"indent":0,"parameters":[1,34,0,0]},{"code":605,"indent":0,"parameters":[1,35,0,0]},{"code":605,"indent":0,"parameters":[1,36,0,0]},{"code":605,"indent":0,"parameters":[2,24,1,3000]},{"code":605,"indent":0,"parameters":[2,20,0,0]},{"code":605,"indent":0,"parameters":[2,23,0,0]},{"code":605,"indent":0,"parameters":[2,21,0,0]},{"code":605,"indent":0,"parameters":[2,22,0,0]},{"code":605,"indent":0,"parameters":[2,61,0,0]},{"code":605,"indent":0,"parameters":[2,62,0,0]},{"code":605,"indent":0,"parameters":[2,63,0,0]},{"code":605,"indent":0,"parameters":[2,100,0,0]},{"code":605,"indent":0,"parameters":[2,101,0,0]},{"code":605,"indent":0,"parameters":[2,102,0,0]},{"code":605,"indent":0,"parameters":[2,103,0,0]},{"code":605,"indent":0,"parameters":[2,134,0,0]},{"code":605,"indent":0,"parameters":[2,135,0,0]},{"code":605,"indent":0,"parameters":[2,138,0,0]},{"code":605,"indent":0,"parameters":[2,139,0,0]},{"code":605,"indent":0,"parameters":[2,145,0,0]},{"code":0,"indent":0,"parameters":[]}]}],"x":8,"y":5},
{"id":2,"name":"EV002","note":"","pages":[{"conditions":{"actorId":1,"actorValid":false,"itemId":1,"itemValid":false,"selfSwitchCh":"A","selfSwitchValid":false,"switch1Id":1,"switch1Valid":false,"switch2Id":1,"switch2Valid":false,"variableId":1,"variableValid":false,"variableValue":0},"directionFix":false,"image":{"tileId":0,"characterName":"","direction":2,"pattern":0,"characterIndex":0},"moveFrequency":3,"moveRoute":{"list":[{"code":0,"indent":null,"parameters":[]}],"repeat":true,"skippable":false,"wait":false},"moveSpeed":3,"moveType":0,"priorityType":0,"stepAnime":false,"through":false,"trigger":1,"walkAnime":true,"list":[{"code":250,"indent":0,"parameters":[{"name":"Teleport","pan":0,"pitch":100,"volume":80}]},{"code":201,"indent":0,"parameters":[0,293,11,10,2,0]},{"code":0,"indent":0,"parameters":[]}]}],"x":8,"y":20},
{"id":3,"name":"EV003","note":"","pages":[{"conditions":{"actorId":1,"actorValid":false,"itemId":1,"itemValid":false,"selfSwitchCh":"A","selfSwitchValid":false,"switch1Id":2100,"switch1Valid":true,"switch2Id":1298,"switch2Valid":false,"variableId":340,"variableValid":true,"variableValue":1},"directionFix":false,"image":{"tileId":0,"characterName":"Monster2","direction":8,"pattern":1,"characterIndex":3},"moveFrequency":3,"moveRoute":{"list":[{"code":0,"indent":null,"parameters":[]}],"repeat":true,"skippable":false,"wait":false},"moveSpeed":3,"moveType":0,"priorityType":1,"stepAnime":false,"through":false,"trigger":0,"walkAnime":true,"list":[{"code":101,"indent":0,"parameters":["Z succubus_a",1,0,2]},{"code":401,"indent":0,"parameters":["They have such wonderful magic balls here!"]},{"code":0,"indent":0,"parameters":[]}]}],"x":9,"y":16}
]
}