{
"autoplayBgm":false,"autoplayBgs":false,"battleback1Name":"","battleback2Name":"","bgm":{"name":"","pan":0,"pitch":100,"volume":100},"bgs":{"name":"","pan":0,"pitch":100,"volume":80},"disableDashing":false,"displayName":"","encounterList":[],"encounterStep":30,"height":30,"note":"","parallaxLoopX":false,"parallaxLoopY":false,"parallaxName":"","parallaxShow":false,"parallaxSx":0,"parallaxSy":0,"scrollType":0,"specifyBattleback":false,"tilesetId":34,"width":25,
"data":[0,0,0,0,0,0,0,0,0,0,0,0,0,0,0,0,0,0,0,0,0,0,0,0,0,0,0,0,0,0,0,0,0,0,0,0,0,0,0,0,0,0,0,0,0,0,0,0,0,0,0,0,0,0,6883,6881,6881,6881,6871,6881,6881,6881,6881,6881,6881,6881,6871,6881,6881,6881,6885,0,0,0,0,0,0,0,0,6880,7234,7234,7234,6892,7234,7234,7234,7234,7234,7234,7234,6892,7234,7234,7234,6880,0,0,0,0,0,0,0,0,6880,7240,7240,7240,7239,7240,7240,7240,7240,7240,7240,7240,7239,7240,7240,7240,6880,0,0,0,0,0,0,0,0,6880,4098,4084,4100,7245,4098,4084,4084,4084,4084,4084,4100,7245,4098,4084,4100,6880,0,0,0,0,0,0,0,0,6880,4080,4064,4070,4097,4073,4064,4064,4064,4064,4064,4070,4097,4073,4064,4088,6880,0,0,0,0,0,0,0,0,6880,4104,4092,4102,6890,4080,4064,4064,4064,4064,4064,4088,6890,4104,4092,4102,6880,0,0,0,0,0,0,0,0,6867,6881,6881,6881,6875,4080,4064,4064,4064,4064,4064,4088,6867,6881,6881,6881,6875,0,0,0,0,0,0,0,0,6880,7234,7234,7234,6892,4080,4064,4064,4064,4064,4064,4088,6892,7234,7234,7234,6880,0,0,0,0,0,0,0,0,6880,7240,7240,7240,7239,4080,4064,4064,4064,4064,4064,4088,7239,7240,7240,7240,6880,0,0,0,0,0,0,0,0,6880,4098,4084,4100,7245,4080,4064,4064,4064,4064,4064,4088,7245,4098,4084,4100,6880,0,0,0,0,0,0,0,0,6880,4080,4064,4070,4097,4073,4064,4064,4064,4064,4064,4070,4097,4073,4064,4088,6880,0,0,0,0,0,0,0,0,6880,4104,4092,4102,6890,4080,4064,4064,4064,4064,4064,4088,6890,4104,4092,4102,6880,0,0,0,0,0,0,0,0,6867,6881,6881,6881,6875,4080,4064,4064,4064,4064,4064,4088,6867,6881,6881,6881,6875,0,0,0,0,0,0,0,0,6880,7234,7234,7234,6892,4080,4064,4064,4064,4064,4064,4088,6892,7234,7234,7234,6880,0,0,0,0,0,0,0,0,6880,7240,7240,7240,7239,4080,4064,4064,4064,4064,4064,4088,7239,7240,7240,7240,6880,0,0,0,0,0,0,0,0,6880,4098,4084,4100,7245,4080,4064,4064,4064,4064,4064,4088,7245,4098,4084,4100,6880,0,0,0,0,0,0,0,0,6880,4080,4064,4070,4097,4073,4064,4064,4064,4064,4064,4070,4097,4073,4064,4088,6880,0,0,0,0,0,0,0,0,6880,4104,4092,4102,6890,4104,4092,4072,4064,4068,4092,4102,6890,4104,4092,4102,6880,0,0,0,0,0,0,0,0,6889,6881,6881,6881,6879,6881,6893,4080,4064,4088,6891,6881,6879,6881,6881,6881,6887,0,0,0,0,0,0,0,0,7235,7234,7234,7234,7234,7234,7238,4080,4064,4088,7235,7234,7234,7234,7234,7234,7238,0,0,0,0,0,0,0,0,7241,7240,7240,7240,7240,7240,7244,4104,4092,4102,7241,7240,7240,7240,7240,7240,7244,0,0,0,0,0,0,0,0,0,0,0,0,0,0,0,0,0,0,0,0,0,0,0,0,0,0,0,0,0,0,0,0,0,0,0,0,0,0,0,0,0,0,0,0,0,0,0,0,0,0,0,0,0,0,0,0,0,0,0,0,0,0,0,0,0,0,0,0,0,0,0,0,0,0,0,0,0,0,0,0,0,0,0,0,0,0,0,0,0,0,0,0,0,0,0,0,0,0,0,0,0,0,0,0,0,0,0,0,0,0,0,0,0,0,0,0,0,0,0,0,0,0,0,0,0,0,0,0,0,0,0,0,0,0,0,0,0,0,0,0,0,0,0,0,0,0,0,0,0,0,0,0,0,0,0,0,0,0,0,0,0,0,0,0,0,0,0,0,0,0,0,0,0,0,0,0,0,0,0,0,0,0,0,0,0,0,0,0,0,0,0,0,0,0,0,0,0,0,0,0,0,0,0,0,0,0,0,0,0,0,0,0,0,0,0,0,0,0,0,0,0,0,0,0,0,0,0,0,0,0,0,0,0,0,0,0,0,0,0,0,0,0,0,0,0,0,0,0,0,0,0,0,0,0,0,0,0,0,0,0,0,0,0,0,0,0,0,0,0,0,0,0,0,0,0,0,0,0,0,0,0,0,0,0,0,0,0,0,0,0,0,0,0,0,0,0,0,0,0,0,0,0,0,0,0,0,0,0,0,0,0,0,0,0,0,0,0,0,0,0,0,0,0,0,0,0,0,0,0,0,0,0,0,0,0,3582,0,0,0,0,3570,3556,3572,0,0,0,0,3582,0,0,0,0,0,0,0,0,0,0,0,0,0,0,0,0,0,3552,3536,3560,0,0,0,0,0,0,0,0,0,0,0,0,0,0,0,0,0,0,0,0,0,0,3552,3536,3560,0,0,0,0,0,0,0,0,0,0,0,0,0,0,0,0,0,0,0,0,0,0,3552,3536,3560,0,0,0,0,0,0,0,0,0,0,0,0,0,0,0,0,0,0,0,0,0,0,3552,3536,3560,0,0,0,0,0,0,0,0,0,0,0,0,0,0,0,0,0,0,0,0,0,0,3552,3536,3560,0,0,0,0,0,0,0,0,0,0,0,0,0,0,0,0,0,3582,0,0,0,0,3552,3536,3560,0,0,0,0,3582,0,0,0,0,0,0,0,0,0,0,0,0,0,0,0,0,0,3552,3536,3560,0,0,0,0,0,0,0,0,0,0,0,0,0,0,0,0,0,0,0,0,0,0,3552,3536,3560,0,0,0,0,0,0,0,0,0,0,0,0,0,0,0,0,0,0,0,0,0,0,3552,3536,3560,0,0,0,0,0,0,0,0,0,0,0,0,0,0,0,0,0,0,0,0,0,0,3576,3564,3574,0,0,0,0,0,0,0,0,0,0,0,0,0,0,0,0,0,0,0,0,0,0,0,0,0,0,0,0,0,0,0,0,0,0,0,0,0,0,0,0,0,0,3582,0,0,0,0,0,0,0,0,0,0,0,3582,0,0,0,0,0,0,0,0,0,0,0,0,0,0,0,0,0,0,0,0,0,0,0,0,0,0,0,0,0,0,0,0,0,0,0,0,0,0,0,0,0,0,0,0,0,0,0,0,0,0,0,0,0,0,0,0,0,0,0,0,0,0,0,0,0,0,0,0,0,0,0,0,0,0,0,0,0,0,0,0,0,0,0,0,0,0,0,0,0,0,0,0,0,0,0,0,0,0,0,0,0,0,0,0,0,0,0,0,0,0,0,0,0,0,0,0,0,0,0,0,0,0,0,0,0,0,0,0,0,0,0,0,0,0,0,0,0,0,0,0,0,0,0,0,0,0,0,0,0,0,0,0,0,0,0,0,0,0,0,0,0,0,0,0,0,0,0,0,0,0,0,0,0,0,0,0,0,0,0,0,0,0,0,0,0,0,0,0,0,0,0,0,0,0,0,0,0,0,0,0,0,0,0,0,0,0,0,0,0,0,0,0,0,0,0,0,0,0,0,0,0,0,0,0,0,0,0,0,0,0,0,0,0,0,0,0,0,0,0,0,0,0,0,0,0,0,0,0,0,0,0,0,0,0,0,0,0,0,0,0,0,0,0,0,0,0,0,0,0,0,0,0,0,0,0,0,0,0,0,0,0,0,0,0,0,0,0,0,0,0,0,0,0,0,0,0,0,0,0,0,0,0,0,0,0,0,0,0,0,0,0,0,0,0,0,0,0,0,0,0,0,0,0,0,0,0,0,0,0,0,0,0,0,0,0,0,0,0,0,0,0,0,0,0,0,0,0,0,0,0,0,0,0,0,0,0,0,0,0,0,0,0,0,0,0,0,0,0,0,0,0,0,0,0,0,0,0,0,0,0,0,0,0,0,0,0,0,0,0,0,0,0,0,0,0,0,0,0,0,0,0,0,0,0,0,0,0,0,0,0,0,0,0,0,0,0,0,0,0,0,0,0,0,0,0,0,0,0,0,0,0,0,0,0,0,0,0,0,0,0,0,0,0,0,0,0,0,0,0,0,0,0,0,0,0,0,0,0,0,0,0,0,0,0,0,0,0,0,0,0,0,0,0,0,0,0,0,0,0,0,0,0,0,0,0,0,0,0,0,0,0,0,0,0,0,0,0,0,0,0,0,0,0,0,0,0,0,0,0,0,0,0,0,0,0,0,0,0,0,0,0,0,0,0,0,0,0,0,0,0,0,0,0,0,0,0,0,0,0,0,0,0,0,0,0,0,0,0,0,0,0,0,0,0,0,0,0,0,0,0,0,0,0,0,0,0,0,0,0,0,0,0,0,0,0,0,0,0,0,0,0,0,0,0,0,0,0,0,0,0,0,0,0,0,0,0,0,0,0,0,0,0,0,0,0,0,0,0,0,0,0,0,0,0,0,0,0,0,0,0,0,0,0,0,0,0,0,0,0,0,0,0,0,0,0,0,0,0,0,0,0,0,0,0,0,0,0,0,0,0,0,0,0,0,0,0,0,0,0,0,0,0,0,0,0,0,0,0,0,0,0,0,0,0,0,0,0,0,0,0,0,0,0,0,0,0,0,0,0,0,0,0,0,0,0,0,0,0,0,0,0,0,0,0,0,0,0,0,0,0,0,0,0,0,0,0,0,0,0,0,0,0,0,0,0,0,0,0,0,0,0,0,0,0,0,0,0,0,0,0,0,0,0,0,0,0,0,0,0,0,0,0,0,0,0,0,0,0,0,0,0,0,0,0,0,0,0,0,0,0,0,0,0,0,0,0,0,0,0,0,0,0,0,0,0,0,0,0,0,0,0,0,0,0,0,0,0,0,0,0,0,0,0,0,0,0,0,0,0,0,0,0,0,0,0,0,0,0,0,0,0,0,0,0,0,0,0,0,0,0,0,0,0,0,0,0,0,0,0,0,0,0,0,0,0,0,0,0,0,0,0,0,0,0,0,0,0,0,0,0,0,0,0,0,0,0,0,0,0,0,0,0,0,0,0,0,0,0,0,0,0,0,0,0,0,0,0,0,0,0,0,0,0,0,0,0,0,0,0,0,0,0,0,0,0,0,0,0,0,0,0,0,0,0,0,0,0,0,0,0,0,0,0,0,0,0,0,0,0,0,0,0,0,0,0,0,0,0,0,0,0,0,0,0,0,0,0,0,0,0,0,0,0,0,0,0,0,0,0,0,0,0,0,0,0,0,0,0,0,0,0,0,0,0,0,0,0,0,0,0,0,0,0,0,0,0,0,0,0,0,0,0,0,0,0,0,0,0,0,0,0,0,0,0,0,0,0,0,0,0,0,0,0,0,0,0,0,0,0,0,0,0,0,0,0,0,0,0,0,0,0,0,0,0,0,0,0,0,0,0,0,0,0,0,0,0,0,0,0,0,0,0,0,0,0,0,0,0,0,0,0,0,0,0,0,0,0,0,0,0,0,0,0,0,0,0,0,0,0,0,0,0,0,0,0,0,0,0,0,0,0,0,0,0,0,0,0,0,0,0,0,0,0,0,0,0,0,0,0,0,0,0,0,0,0,0,769,0,785,0,769,0,0,0,0,0,0,0,0,0,0,0,0,0,0,0,0,0,0,0,0,777,0,793,0,777,0,0,0,0,0,0,0,0,0,0,0,0,0,0,0,0,0,0,0,0,0,800,801,802,0,0,0,0,0,0,0,0,0,0,0,0,0,0,0,0,0,0,0,0,0,775,0,0,0,774,0,0,0,0,0,0,0,0,0,0,0,0,0,0,0,0,0,0,0,0,783,0,0,0,782,0,0,0,0,0,0,0,0,0,0,0,0,0,0,0,0,0,0,0,0,775,0,0,0,774,0,0,0,0,0,0,0,0,0,0,0,0,0,0,0,0,0,0,0,0,783,0,0,0,782,0,0,0,0,0,0,0,0,0,0,0,0,0,0,0,0,0,0,0,0,775,0,0,0,774,0,0,0,0,0,0,0,0,0,0,0,0,0,0,0,0,0,0,0,0,783,0,0,0,782,0,0,0,0,0,0,0,0,0,0,0,0,0,0,0,0,0,0,0,0,775,0,0,0,774,0,0,0,0,0,0,0,0,0,0,0,0,0,0,0,0,0,0,0,0,783,0,0,0,782,0,0,0,0,0,0,0,0,0,0,0,0,0,0,0,0,0,0,0,0,775,0,0,0,774,0,0,0,0,0,0,0,0,0,0,0,0,0,0,0,0,0,0,0,0,783,0,0,0,782,0,0,0,0,0,0,0,0,0,0,0,0,0,0,0,0,0,0,0,0,0,0,0,0,0,0,0,0,0,0,0,0,0,0,0,0,0,0,0,0,0,0,0,0,0,0,0,0,0,0,0,0,0,0,0,0,0,0,0,0,0,0,0,0,0,0,0,0,0,0,0,0,0,0,0,0,0,0,0,0,0,0,0,0,0,0,0,0,0,0,0,0,0,0,0,0,0,0,0,0,0,0,0,0,0,0,0,0,0,0,0,0,0,0,0,0,0,0,0,0,0,0,0,0,0,0,0,0,0,0,0,0,0,0,0,0,0,0,0,0,0,0,0,0,0,0,0,0,0,0,0,0,0,0,0,0,0,0,0,0,0,0,0,0,0,0,0,0,0,0,0,0,0,0,0,0,0,0,0,0,0,0,0,0,0,0,0,0,0,0,0,0,0,0,0,0,0,0,0,0,0,0,0,0,0,0,0,0,0,0,0,0,0,0,0,0,0,0,0,0,0,0,0,0,0,0,0,0,0,0,0,0,0,0,0,0,0,0,0,0,0,0,0,0,0,0,0,0,0,0,0,0,0,0,0,0,0,0,0,0,0,0,0,0,0,0,0,0,0,0,0,0,0,0,0,0,0,0,0,0,0,0,0,0,0,0,0,0,0,0,0,0,0,0,0,0,0,0,0,0,0,0,0,0,0,0,0,0,0,0,0,0,0,0,0,0,0,0,0,0,0,0,0,0,0,0,0,0,0,0,0,0,0,0,0,0,0,0,0,0,0,0,0,0,0,0,0,0,0,0,0,0,0,0,0,0,0,0,0,0,0,0,0,0,0,0,0,0,0,0,0,0,0,0,0,0,0,0,0,0,0,0,0,0,0,0,0,0,0,0,0,0,0,0,0,0,0,0,0,0,0,0,0,0,0,0,0,0,0,0,0,0,0,0,0,0,0,0,0,0,0,0,0,0,0,0,0,0,0,0,0,0,0,0,0,0,0,0,0,0,0,0,0,0,0,0,0,0,0,0,0,0,0,0,0,0,0,0,0,0,0,0,0,0,0,0,0,0,0,0,0,0,0,0,0,0,0,0,0,0,0,0,0,0,0,0,0,0,0,0,5,0,0,0,5,0,0,0,0,0,0,0,5,0,0,0,0,0,0,0,0,0,0,0,0,5,0,0,0,0,0,0,0,0,0,0,0,0,0,0,0,0,0,0,0,0,0,0,0,0,5,0,0,0,0,0,0,0,0,0,0,0,0,0,0,0,0,0,0,0,0,0,0,0,0,0,0,0,0,5,0,0,0,0,0,0,0,0,0,0,0,0,0,0,0,0,0,0,0,0,0,0,0,0,5,0,0,0,0,0,0,0,0,0,0,0,0,0,0,0,0,0,0,0,0,0,0,0,0,5,0,0,0,0,0,0,0,0,0,0,0,0,0,0,0,0,0,0,0,0,5,0,0,0,5,0,0,0,0,0,0,0,5,0,0,0,0,0,0,0,0,0,0,0,0,5,0,0,0,0,0,0,0,0,0,0,0,0,0,0,0,0,0,0,0,0,0,0,0,0,5,0,0,0,0,0,0,0,0,0,0,0,0,0,0,0,0,0,0,0,0,0,0,0,0,0,0,0,0,5,0,0,0,0,0,0,0,0,0,0,0,0,0,0,0,0,0,0,0,0,0,0,0,0,5,0,0,0,0,0,0,0,0,0,0,0,0,0,0,0,0,0,0,0,0,0,0,0,0,5,0,0,0,0,0,0,0,0,0,0,0,0,0,0,0,0,0,0,0,0,5,0,0,0,5,0,0,0,0,0,0,0,5,0,0,0,0,0,0,0,0,0,0,0,0,5,0,0,0,0,0,0,0,0,0,0,0,0,0,0,0,0,0,0,0,0,0,0,0,0,5,0,0,0,0,0,0,0,0,0,0,0,0,0,0,0,0,0,0,0,0,0,0,0,0,0,0,0,0,0,0,0,0,0,0,0,0,0,0,0,0,0,0,0,0,0,0,0,0,0,0,0,0,0,0,0,5,0,0,0,0,0,0,0,0,0,0,0,0,0,0,0,0,0,0,0,0,0,0,0,0,5,0,0,0,0,0,0,0,0,0,0,0,0,0,0,0,0,0,0,0,0,0,0,0,0,0,0,0,0,0,0,0,0,0,0,0,0,0,0,0,0,0,0,0,0,0,0,0,0,0,0,0,0,0,0,0,0,0,0,0,0,0,0,0,0,0,0,0,0,0,0,0,0,0,0,0,0,0,0,0,0,0,0,0,0,0,0,0,0,0,0,0,0,0,0,0,0,0,0,0,0,0,0,0,0,0,0,0,0,0,0,0,0,0,0,0,0,0,0,0,0,0,0,0,0,0,0,0,0,0,0,0,0,0,0,0,0,0,0,0,0,0,0,0,0,0,0,0,0,0,0,0,0,0,0,0,0,0,0,0,0,0,0,0,0,0,0,0,0,0,0,0,0,0,0,0,0,0,0,0,0,0,0,0,0,0,0,0,0,0,0,0,0,0,0,0,0,0,0,0,0,0,0,0,0,0,0,0,0,0,0,0,0,0,0,0,0,0,0,0,0,0,0,0,0,0,0,0,0,0,0,0,0,0,0,0,0,0,0,0,0,0,0,0,0,0,0,0,0,0,0,0,0,0,0,0,0,0,0,0,0,0,0,0,0,0,0,0,0,0,0,0,0,0,0,0,0,0,0,0,0,0,0,0,0,0,0,0,0,0,0,0,0,0,0,0,0,0,0,0,0,0,0,0,0,0,0,0,0,0,0,0,0,0,0,0,0,0,0,0,0,0,0,0,0,0,0,0,0,0,0,0,0,0,0,0,0,0,0,0,0,0,0,0,0,0,0,0,0,0,0,0,0,0,0,0,0,0,0,0,0,0,0,0,0,0,0,0,0,0,0,0,0,0,0,0,0,0,0,0,0,0,0,0,0,0,0,0,0,0,0,0,0,0,0,0,0,0,0,0,0,0,0,0,0,0,0,0,0,0,0,0,0,0,0,0,0,0,0,0,0,0,0,0,0,0,0,0,0,0,0,0,0,0,0,0,0,0,0,0,0,0,0,0,0,0,0,0,0,0,0,0,0,0,0,0,0,0,0,0,0,0,0,0,0,0,0,0,0,0,0,0,0,0,0,0,0,0,0,0,0,0,0,0,0,0,0,0,0,0,0,0,0,0,0,0,0,0,0,0,0,0,0,0,0,0,0,0,0,0,0,0,0,0,0,0,0,0,0,0,0,0,0,0,0,0,0,0,0,0,0,0,0,0,0,0,0,0,0,0,0,0,0,0,0,0,0,0,0,0,0,0,0,0,0,0,0,0,0,0,0,0,0,0,0,0,0,0,0,0,0,0,0,0,0,0,0,0,0,0,0,0,0,0,0,0,0,0,0,0,0,0,0,0,0,0,0,0,0,0,0,0,0,0,0,0,0,0,0,0,0,0,0,0,0,0,0,0,0,0,0,0,0,0,0,0,0,0,0,0,0,0,0,0,0,0,0,0,0,0,0,0,0,0,0,0,0,0,0,0,0,0,0,0,0,0,0,0,0,0,0,0,0,0,0,0,0,0,0,0,0,0,0,0,0,0,0,0,0,0,0,0,0,0,0,0,0,0,0,0,0,0,0,0,0,0,0,0,0,0,0,0,0,0,0,0,0,0,0,0,0,0,0,0,0,0,0,0,0,0,0,0,0,0,0,0,0,0,0,0,0,0,0,0,0,0,0,0,0,0,0,0,0,0,0,0,0,0,0,0,0,0,0,0,0,0,0,0,0,0,0,0,0,0,0,0,0,0,0,0,0,0,0,0,0,0,0,0,0,0,0,0,0,0,0,0,0,0,0,0,0,0,0,0,0,0,0,0,0,0,0,0,0,0,0,0,0,0,0,0,0,0,0,0,0,0,0,0,0,0,0,0,0,0,0,0,0,0,0,0,0,0,0,0,0,0,0,0,0,0,0,0,0,0,0,0,0,0,0,0,0,0,0,0,0,0,0,0,0,0,0,0,0,0,0,0,0,0,0,0,0,0,0,0,0,0,0,0,0,0,0,0,0,0,0,0,0,0,0,0,0,0,0,0,0,0,0,0,0,0,0,0,0,0,0,0,0,0,0,0,0,0,0,0,0,0,0,0,0,0,0,0,0,0,0,0,0,0,0,0,0,0,0,0,0,0,0,0,0],
"events":[
null,
{"id":1,"name":"Aide","note":"","pages":[{"conditions":{"actorId":1,"actorValid":false,"itemId":1,"itemValid":false,"selfSwitchCh":"A","selfSwitchValid":false,"switch1Id":1,"switch1Valid":false,"switch2Id":1,"switch2Valid":false,"variableId":1,"variableValid":false,"variableValue":0},"directionFix":false,"image":{"tileId":0,"characterName":"People3","direction":4,"pattern":1,"characterIndex":3},"moveFrequency":3,"moveRoute":{"list":[{"code":0,"indent":null,"parameters":[]}],"repeat":true,"skippable":false,"wait":false},"moveSpeed":3,"moveType":0,"priorityType":1,"stepAnime":false,"through":false,"trigger":0,"walkAnime":true,"list":[{"code":101,"indent":0,"parameters":["People3",3,0,2]},{"code":401,"indent":0,"parameters":[""]},{"code":0,"indent":0,"parameters":[]}]}],"x":17,"y":6},
{"id":2,"name":"Yhilin Ambassador","note":"","pages":[{"conditions":{"actorId":1,"actorValid":false,"itemId":1,"itemValid":false,"selfSwitchCh":"B","selfSwitchValid":false,"switch1Id":381,"switch1Valid":false,"switch2Id":1,"switch2Valid":false,"variableId":1,"variableValid":false,"variableValue":0},"directionFix":false,"image":{"tileId":0,"characterName":"Y DS_chara04","direction":6,"pattern":1,"characterIndex":3},"moveFrequency":3,"moveRoute":{"list":[{"code":0,"indent":null,"parameters":[]}],"repeat":true,"skippable":false,"wait":false},"moveSpeed":3,"moveType":0,"priorityType":1,"stepAnime":false,"through":false,"trigger":0,"walkAnime":true,"list":[{"code":101,"indent":0,"parameters":["Y DS_Actor04",3,0,2]},{"code":401,"indent":0,"parameters":["This will be your last chance to discuss matters with any of the representatives before the vote. Take advantage of it."]},{"code":101,"indent":0,"parameters":["Y DS_Actor04",3,0,2]},{"code":401,"indent":0,"parameters":["Not only might you learn how they'll vote, they might be willing to strike deals."]},{"code":101,"indent":0,"parameters":["Y DS_Actor04",3,0,2]},{"code":401,"indent":0,"parameters":["Once you're ready, come talk to me and we'll discuss Yhilin's vote."]},{"code":101,"indent":0,"parameters":["1 Simon dark",0,0,2]},{"code":401,"indent":0,"parameters":["I'll return. I'd also like to speak with the girl who presented."]},{"code":101,"indent":0,"parameters":["Y DS_Actor04",3,0,2]},{"code":401,"indent":0,"parameters":["You should find her in the Ardan room."]},{"code":111,"indent":0,"parameters":[0,309,0]},{"code":101,"indent":1,"parameters":["Megail emo2",0,0,2]},{"code":401,"indent":1,"parameters":["We should also see if our dwarven contact got his embassy set up."]},{"code":0,"indent":1,"parameters":[]},{"code":412,"indent":0,"parameters":[]},{"code":123,"indent":0,"parameters":["A",0]},{"code":0,"indent":0,"parameters":[]}]},{"conditions":{"actorId":1,"actorValid":false,"itemId":1,"itemValid":false,"selfSwitchCh":"A","selfSwitchValid":true,"switch1Id":381,"switch1Valid":false,"switch2Id":1,"switch2Valid":false,"variableId":1,"variableValid":false,"variableValue":0},"directionFix":false,"image":{"tileId":0,"characterName":"Y DS_chara04","direction":6,"pattern":1,"characterIndex":3},"moveFrequency":3,"moveRoute":{"list":[{"code":0,"indent":null,"parameters":[]}],"repeat":true,"skippable":false,"wait":false},"moveSpeed":3,"moveType":0,"priorityType":1,"stepAnime":false,"through":false,"trigger":0,"walkAnime":true,"list":[{"code":111,"indent":0,"parameters":[0,756,1]},{"code":101,"indent":1,"parameters":["Y DS_Actor04",3,0,2]},{"code":401,"indent":1,"parameters":["You ready?"]},{"code":101,"indent":1,"parameters":["1 Simon dark",0,0,2]},{"code":401,"indent":1,"parameters":["There's someone I'd like to speak to first."]},{"code":115,"indent":1,"parameters":[]},{"code":0,"indent":1,"parameters":[]},{"code":412,"indent":0,"parameters":[]},{"code":111,"indent":0,"parameters":[0,309,0]},{"code":111,"indent":1,"parameters":[0,761,1]},{"code":101,"indent":2,"parameters":["Y DS_Actor04",3,0,2]},{"code":401,"indent":2,"parameters":["You ready?"]},{"code":101,"indent":2,"parameters":["1 Simon dark",0,0,2]},{"code":401,"indent":2,"parameters":["There's someone I'd like to speak to first."]},{"code":115,"indent":2,"parameters":[]},{"code":0,"indent":2,"parameters":[]},{"code":412,"indent":1,"parameters":[]},{"code":0,"indent":1,"parameters":[]},{"code":412,"indent":0,"parameters":[]},{"code":101,"indent":0,"parameters":["Y DS_Actor04",3,0,2]},{"code":401,"indent":0,"parameters":["Are you sure you're ready to vote now?"]},{"code":102,"indent":0,"parameters":[["Not yet","Decide vote"],0,0,2,0]},{"code":402,"indent":0,"parameters":[0,"Not yet"]},{"code":101,"indent":1,"parameters":["Y DS_Actor04",3,0,2]},{"code":401,"indent":1,"parameters":["Then I advise you decide, the break will end soon."]},{"code":0,"indent":1,"parameters":[]},{"code":402,"indent":0,"parameters":[1,"Decide vote"]},{"code":101,"indent":1,"parameters":["Y DS_Actor04",3,0,2]},{"code":401,"indent":1,"parameters":["So, how do you believe Yhilin should vote?"]},{"code":102,"indent":1,"parameters":[["Vote for war","Vote against war"],-1,0,2,0]},{"code":402,"indent":1,"parameters":[0,"Vote for war"]},{"code":121,"indent":2,"parameters":[762,762,0]},{"code":122,"indent":2,"parameters":[103,103,1,0,3]},{"code":122,"indent":2,"parameters":[105,105,1,0,3]},{"code":122,"indent":2,"parameters":[113,113,1,0,3]},{"code":122,"indent":2,"parameters":[117,117,1,0,3]},{"code":122,"indent":2,"parameters":[127,127,1,0,3]},{"code":111,"indent":2,"parameters":[0,264,0]},{"code":122,"indent":3,"parameters":[123,123,2,0,2]},{"code":0,"indent":3,"parameters":[]},{"code":412,"indent":2,"parameters":[]},{"code":122,"indent":2,"parameters":[101,101,2,0,2]},{"code":122,"indent":2,"parameters":[109,109,2,0,2]},{"code":122,"indent":2,"parameters":[111,111,2,0,2]},{"code":122,"indent":2,"parameters":[121,121,2,0,2]},{"code":101,"indent":2,"parameters":["Y DS_Actor04",3,0,2]},{"code":401,"indent":2,"parameters":["Truly? But to risk so much destruction, just for a potential preemptive advantage."]},{"code":101,"indent":2,"parameters":["1 Simon dark",0,0,2]},{"code":401,"indent":2,"parameters":["The risk of waiting is also great. Too great to ignore, in my opinion."]},{"code":101,"indent":2,"parameters":["Y DS_Actor04",3,0,2]},{"code":401,"indent":2,"parameters":["But to just charge off into the wastelands..."]},{"code":101,"indent":2,"parameters":["1 Simon dark",0,0,2]},{"code":401,"indent":2,"parameters":["I never suggested that. There will be days of voting left, yes? We can make sure this war is not a foolhardy one."]},{"code":101,"indent":2,"parameters":["Y DS_Actor04",3,0,2]},{"code":401,"indent":2,"parameters":["..."]},{"code":101,"indent":2,"parameters":["Y DS_Actor04",3,0,2]},{"code":401,"indent":2,"parameters":["Very well, I see your point. We will vote for war."]},{"code":0,"indent":2,"parameters":[]},{"code":402,"indent":1,"parameters":[1,"Vote against war"]},{"code":111,"indent":2,"parameters":[0,264,0]},{"code":122,"indent":3,"parameters":[123,123,1,0,3]},{"code":0,"indent":3,"parameters":[]},{"code":412,"indent":2,"parameters":[]},{"code":122,"indent":2,"parameters":[101,101,1,0,3]},{"code":122,"indent":2,"parameters":[109,109,1,0,3]},{"code":122,"indent":2,"parameters":[111,111,1,0,3]},{"code":122,"indent":2,"parameters":[121,121,1,0,3]},{"code":111,"indent":2,"parameters":[0,1003,0]},{"code":0,"indent":3,"parameters":[]},{"code":411,"indent":2,"parameters":[]},{"code":122,"indent":3,"parameters":[103,103,2,0,2]},{"code":0,"indent":3,"parameters":[]},{"code":412,"indent":2,"parameters":[]},{"code":111,"indent":2,"parameters":[0,1004,0]},{"code":0,"indent":3,"parameters":[]},{"code":411,"indent":2,"parameters":[]},{"code":122,"indent":3,"parameters":[105,105,2,0,2]},{"code":0,"indent":3,"parameters":[]},{"code":412,"indent":2,"parameters":[]},{"code":122,"indent":2,"parameters":[113,113,2,0,2]},{"code":122,"indent":2,"parameters":[117,117,2,0,2]},{"code":122,"indent":2,"parameters":[127,127,2,0,2]},{"code":101,"indent":2,"parameters":["Y DS_Actor04",3,0,2]},{"code":401,"indent":2,"parameters":["Good, you need not convince me of this. We can ill afford a war such as this."]},{"code":101,"indent":2,"parameters":["1 Simon dark",0,0,2]},{"code":401,"indent":2,"parameters":["I hope that you will vote for further preparations, however."]},{"code":101,"indent":2,"parameters":["Y DS_Actor04",3,0,2]},{"code":401,"indent":2,"parameters":["Of course, but that is what the remaining days of the summit are for."]},{"code":0,"indent":2,"parameters":[]},{"code":404,"indent":1,"parameters":[]},{"code":101,"indent":1,"parameters":["Y DS_Actor04",3,0,2]},{"code":401,"indent":1,"parameters":["Now, let's get back into position. The voting will start soon."]},{"code":121,"indent":1,"parameters":[763,763,0]},{"code":201,"indent":1,"parameters":[0,222,5,12,6,0]},{"code":0,"indent":1,"parameters":[]},{"code":404,"indent":0,"parameters":[]},{"code":0,"indent":0,"parameters":[]}]},{"conditions":{"actorId":1,"actorValid":false,"itemId":1,"itemValid":false,"selfSwitchCh":"A","selfSwitchValid":false,"switch1Id":854,"switch1Valid":true,"switch2Id":1,"switch2Valid":false,"variableId":1,"variableValid":false,"variableValue":0},"directionFix":false,"image":{"tileId":0,"characterName":"Y DS_chara04","direction":6,"pattern":1,"characterIndex":3},"moveFrequency":3,"moveRoute":{"list":[{"code":0,"indent":null,"parameters":[]}],"repeat":true,"skippable":false,"wait":false},"moveSpeed":3,"moveType":0,"priorityType":1,"stepAnime":false,"through":false,"trigger":0,"walkAnime":true,"list":[{"code":101,"indent":0,"parameters":["1 Simon dark",0,0,2]},{"code":401,"indent":0,"parameters":["We can trust you to resolve the remaining issues?"]},{"code":101,"indent":0,"parameters":["Y DS_Actor04",3,0,2]},{"code":401,"indent":0,"parameters":["Yes, this will all be about direct negotiation - I thrive on this kind of thing."]},{"code":101,"indent":0,"parameters":["Y DS_Actor04",3,0,2]},{"code":401,"indent":0,"parameters":["You're heading out?"]},{"code":101,"indent":0,"parameters":["1 Simon dark",0,0,2]},{"code":401,"indent":0,"parameters":["We have some other business to deal with."]},{"code":101,"indent":0,"parameters":["Y DS_Actor04",3,0,2]},{"code":401,"indent":0,"parameters":["Well, I'll be here until you're ready to return to Yhilin."]},{"code":123,"indent":0,"parameters":["B",0]},{"code":0,"indent":0,"parameters":[]}]},{"conditions":{"actorId":1,"actorValid":false,"itemId":1,"itemValid":false,"selfSwitchCh":"B","selfSwitchValid":true,"switch1Id":381,"switch1Valid":false,"switch2Id":1,"switch2Valid":false,"variableId":1,"variableValid":false,"variableValue":0},"directionFix":false,"image":{"tileId":0,"characterName":"Y DS_chara04","direction":6,"pattern":1,"characterIndex":3},"moveFrequency":3,"moveRoute":{"list":[{"code":0,"indent":null,"parameters":[]}],"repeat":true,"skippable":false,"wait":false},"moveSpeed":3,"moveType":0,"priorityType":1,"stepAnime":false,"through":false,"trigger":0,"walkAnime":true,"list":[{"code":101,"indent":0,"parameters":["Y DS_Actor04",3,0,2]},{"code":401,"indent":0,"parameters":["Most of the ambassadors will be leaving soon after the summit completes, but I have work to do anyway."]},{"code":0,"indent":0,"parameters":[]}]}],"x":5,"y":12},
{"id":3,"name":"Zirantian Ambassador","note":"","pages":[{"conditions":{"actorId":1,"actorValid":false,"itemId":1,"itemValid":false,"selfSwitchCh":"A","selfSwitchValid":false,"switch1Id":1,"switch1Valid":false,"switch2Id":1,"switch2Valid":false,"variableId":1,"variableValid":false,"variableValue":0},"directionFix":false,"image":{"tileId":0,"characterName":"Z Ziramb char","direction":6,"pattern":1,"characterIndex":1},"moveFrequency":3,"moveRoute":{"list":[{"code":0,"indent":null,"parameters":[]}],"repeat":true,"skippable":false,"wait":false},"moveSpeed":3,"moveType":0,"priorityType":1,"stepAnime":false,"through":false,"trigger":0,"walkAnime":true,"list":[{"code":101,"indent":0,"parameters":["Z Zirantian ambassador",0,0,2]},{"code":401,"indent":0,"parameters":["I suppose we'll get no support from you Yhilini whatsoever."]},{"code":101,"indent":0,"parameters":["1 Simon dark",0,0,2]},{"code":401,"indent":0,"parameters":["Why do you say that?"]},{"code":101,"indent":0,"parameters":["Z Zirantian ambassador",2,0,2]},{"code":401,"indent":0,"parameters":["Because you can hide behind your mountains while the Incubus King destroys everyone else!"]},{"code":101,"indent":0,"parameters":["Z Zirantian ambassador",2,0,2]},{"code":401,"indent":0,"parameters":["Mark my words, you'll just be buying yourselves a little time! We have to exterminate him!"]},{"code":101,"indent":0,"parameters":["1 Simon dark",0,0,2]},{"code":401,"indent":0,"parameters":["Your vote doesn't seem in doubt."]},{"code":101,"indent":0,"parameters":["Z Zirantian ambassador",2,0,2]},{"code":401,"indent":0,"parameters":["Our very nation is built on the Incubus King's destruction! It cannot happen again!"]},{"code":123,"indent":0,"parameters":["A",0]},{"code":0,"indent":0,"parameters":[]}]},{"conditions":{"actorId":1,"actorValid":false,"itemId":1,"itemValid":false,"selfSwitchCh":"A","selfSwitchValid":true,"switch1Id":1,"switch1Valid":false,"switch2Id":1,"switch2Valid":false,"variableId":1,"variableValid":false,"variableValue":0},"directionFix":false,"image":{"tileId":0,"characterName":"Z Ziramb char","direction":6,"pattern":1,"characterIndex":0},"moveFrequency":3,"moveRoute":{"list":[{"code":0,"indent":null,"parameters":[]}],"repeat":true,"skippable":false,"wait":false},"moveSpeed":3,"moveType":0,"priorityType":1,"stepAnime":false,"through":false,"trigger":0,"walkAnime":true,"list":[{"code":101,"indent":0,"parameters":["Z Zirantian ambassador",0,0,2]},{"code":401,"indent":0,"parameters":["Perhaps if we lead the charge into the war, we will gain the respect we're due."]},{"code":0,"indent":0,"parameters":[]}]},{"conditions":{"actorId":1,"actorValid":false,"itemId":1,"itemValid":false,"selfSwitchCh":"A","selfSwitchValid":false,"switch1Id":854,"switch1Valid":true,"switch2Id":1,"switch2Valid":false,"variableId":1,"variableValid":false,"variableValue":0},"directionFix":false,"image":{"tileId":0,"characterName":"Z Ziramb char","direction":6,"pattern":1,"characterIndex":0},"moveFrequency":3,"moveRoute":{"list":[{"code":0,"indent":null,"parameters":[]}],"repeat":true,"skippable":false,"wait":false},"moveSpeed":3,"moveType":0,"priorityType":1,"stepAnime":false,"through":false,"trigger":0,"walkAnime":true,"list":[{"code":111,"indent":0,"parameters":[0,815,0]},{"code":101,"indent":1,"parameters":["Z Zirantian ambassador",2,0,2]},{"code":401,"indent":1,"parameters":["Don't try to talk to me now. You had your chance to deal fairly with us."]},{"code":0,"indent":1,"parameters":[]},{"code":411,"indent":0,"parameters":[]},{"code":101,"indent":1,"parameters":["Z Zirantian ambassador",0,0,2]},{"code":401,"indent":1,"parameters":["So, it's done. Zirantia has proved itself a worthy power on the world stage."]},{"code":101,"indent":1,"parameters":["Z Zirantian ambassador",4,0,2]},{"code":401,"indent":1,"parameters":["I can only hope this helps stabilize things at home."]},{"code":101,"indent":1,"parameters":["1 Simon dark",0,0,2]},{"code":401,"indent":1,"parameters":["Things aren't going well?"]},{"code":101,"indent":1,"parameters":["Z Zirantian ambassador",0,0,2]},{"code":401,"indent":1,"parameters":["..."]},{"code":101,"indent":1,"parameters":["Z Zirantian ambassador",0,0,2]},{"code":401,"indent":1,"parameters":["You could say that. Nothing but a learning curve, I once thought, but now..."]},{"code":111,"indent":1,"parameters":[0,816,0]},{"code":101,"indent":2,"parameters":["Z Zirantian ambassador",0,0,2]},{"code":401,"indent":2,"parameters":["I don't suppose you know anything about Zirantian politics?"]},{"code":101,"indent":2,"parameters":["1 Simon dark",0,0,2]},{"code":401,"indent":2,"parameters":["I've been gone for quite some time, but I did fight there for several years after the war."]},{"code":101,"indent":2,"parameters":["Z Zirantian ambassador",0,0,2]},{"code":401,"indent":2,"parameters":["Then you don't know anything about the modern situation. It's chaos between factions preaching different kinds of traditionalism."]},{"code":101,"indent":2,"parameters":["Z Zirantian ambassador",6,0,2]},{"code":401,"indent":2,"parameters":["But those are our own problems. Please, don't concern yourself with them - hopefully we can meet again on better terms."]},{"code":122,"indent":2,"parameters":[85,85,1,0,1]},{"code":0,"indent":2,"parameters":[]},{"code":411,"indent":1,"parameters":[]},{"code":101,"indent":2,"parameters":["Z Zirantian ambassador",0,0,2]},{"code":401,"indent":2,"parameters":["Well, we'll see. It's our affair, there's no need for outsiders to concern themselves with it."]},{"code":0,"indent":2,"parameters":[]},{"code":412,"indent":1,"parameters":[]},{"code":0,"indent":1,"parameters":[]},{"code":412,"indent":0,"parameters":[]},{"code":123,"indent":0,"parameters":["B",0]},{"code":0,"indent":0,"parameters":[]}]},{"conditions":{"actorId":1,"actorValid":false,"itemId":1,"itemValid":false,"selfSwitchCh":"B","selfSwitchValid":true,"switch1Id":1,"switch1Valid":false,"switch2Id":1,"switch2Valid":false,"variableId":1,"variableValid":false,"variableValue":0},"directionFix":false,"image":{"tileId":0,"characterName":"Z Ziramb char","direction":6,"pattern":1,"characterIndex":0},"moveFrequency":3,"moveRoute":{"list":[{"code":0,"indent":null,"parameters":[]}],"repeat":true,"skippable":false,"wait":false},"moveSpeed":3,"moveType":0,"priorityType":1,"stepAnime":false,"through":false,"trigger":0,"walkAnime":true,"list":[{"code":101,"indent":0,"parameters":["Z Zirantian ambassador",0,0,2]},{"code":401,"indent":0,"parameters":["I'm headed back to Zirantia just as soon as the details are resolved."]},{"code":0,"indent":0,"parameters":[]}]}],"x":10,"y":11},
{"id":4,"name":"Hester","note":"","pages":[{"conditions":{"actorId":1,"actorValid":false,"itemId":1,"itemValid":false,"selfSwitchCh":"A","selfSwitchValid":false,"switch1Id":212,"switch1Valid":false,"switch2Id":1,"switch2Valid":false,"variableId":1,"variableValid":false,"variableValue":0},"directionFix":false,"image":{"tileId":0,"characterName":"Hester char","direction":4,"pattern":1,"characterIndex":0},"moveFrequency":3,"moveRoute":{"list":[{"code":0,"indent":null,"parameters":[]}],"repeat":true,"skippable":false,"wait":false},"moveSpeed":3,"moveType":0,"priorityType":1,"stepAnime":false,"through":false,"trigger":0,"walkAnime":true,"list":[{"code":101,"indent":0,"parameters":["Hester emo",1,0,2]},{"code":401,"indent":0,"parameters":["Ah, hello again. You'll have to forgive me, I remember your face, but not your name."]},{"code":101,"indent":0,"parameters":["1 Simon dark",0,0,2]},{"code":401,"indent":0,"parameters":["That's fine. It's rather easier to remember your name, High Priestess Hester."]},{"code":101,"indent":0,"parameters":["Hester emo",5,0,2]},{"code":401,"indent":0,"parameters":["Oh, please. You may be much younger than me, but you're close enough to ignore my title."]},{"code":101,"indent":0,"parameters":["Hester emo",6,0,2]},{"code":401,"indent":0,"parameters":["So, to business - how will Yhilin be voting?"]},{"code":101,"indent":0,"parameters":["1 Simon dark",0,0,2]},{"code":401,"indent":0,"parameters":["I'm not sure yet. "]},{"code":101,"indent":0,"parameters":["Hester emo",6,0,2]},{"code":401,"indent":0,"parameters":["Fair enough. I won't make you ask: the Church will be voting against a preemptive war."]},{"code":101,"indent":0,"parameters":["1 Simon dark",0,0,2]},{"code":401,"indent":0,"parameters":["Oh?"]},{"code":101,"indent":0,"parameters":["Hester emo",3,0,2]},{"code":401,"indent":0,"parameters":["Not because we think we can avoid this conflict forever. But because now isn't the time."]},{"code":101,"indent":0,"parameters":["Hester emo",4,0,2]},{"code":401,"indent":0,"parameters":["You'll scoff, but we must wait on Ivala if we are to attain balance in all things."]},{"code":101,"indent":0,"parameters":["1 Simon dark",0,0,2]},{"code":401,"indent":0,"parameters":["..."]},{"code":101,"indent":0,"parameters":["Hester emo",2,0,2]},{"code":401,"indent":0,"parameters":["Well, thank you for not scoffing."]},{"code":101,"indent":0,"parameters":["1 Simon dark",1,0,2]},{"code":401,"indent":0,"parameters":["I won't scoff at anyone who's trying to do the right thing intelligently."]},{"code":101,"indent":0,"parameters":["Hester emo",3,0,2]},{"code":401,"indent":0,"parameters":["I only wish the right thing seemed clear more often."]},{"code":101,"indent":0,"parameters":["Hester emo",1,0,2]},{"code":401,"indent":0,"parameters":["In any case, I am making no secret of my agenda: I will vote against any violence now, but for all preparation for future wars."]},{"code":101,"indent":0,"parameters":["1 Simon dark",0,0,2]},{"code":401,"indent":0,"parameters":["Thank you for being so direct."]},{"code":101,"indent":0,"parameters":["Hester emo",1,0,2]},{"code":401,"indent":0,"parameters":["I'm old, boy. Too old for any more nonsense."]},{"code":205,"indent":0,"parameters":[-1,{"list":[{"code":3,"indent":null,"parameters":[]},{"code":3,"indent":null,"parameters":[]},{"code":4,"indent":null,"parameters":[]},{"code":0,"indent":null,"parameters":[]}],"repeat":false,"skippable":false,"wait":true}]},{"code":505,"indent":0,"parameters":[{"code":3,"indent":null,"parameters":[]}]},{"code":505,"indent":0,"parameters":[{"code":3,"indent":null,"parameters":[]}]},{"code":505,"indent":0,"parameters":[{"code":4,"indent":null,"parameters":[]}]},{"code":101,"indent":0,"parameters":["Trin emo2",7,0,2]},{"code":401,"indent":0,"parameters":["Dammit, she's a sharp one."]},{"code":101,"indent":0,"parameters":["1 Simon dark",0,0,2]},{"code":401,"indent":0,"parameters":["How so?"]},{"code":101,"indent":0,"parameters":["Trin emo",0,0,2]},{"code":401,"indent":0,"parameters":["I was hoping I could convince you to let me try some copies during the summit, but that lady is paying closer attention to everyone than I'd like."]},{"code":101,"indent":0,"parameters":["1 Simon dark",0,0,2]},{"code":401,"indent":0,"parameters":["I'd rather avoid that risk anyway, given the sensitivity of all the moving parts involved."]},{"code":101,"indent":0,"parameters":["Trin emo",5,0,2]},{"code":401,"indent":0,"parameters":["Well, it's easier to stay focused in one region anyway..."]},{"code":123,"indent":0,"parameters":["A",0]},{"code":0,"indent":0,"parameters":[]}]},{"conditions":{"actorId":1,"actorValid":false,"itemId":1,"itemValid":false,"selfSwitchCh":"A","selfSwitchValid":true,"switch1Id":212,"switch1Valid":false,"switch2Id":1,"switch2Valid":false,"variableId":1,"variableValid":false,"variableValue":0},"directionFix":false,"image":{"tileId":0,"characterName":"Hester char","direction":4,"pattern":1,"characterIndex":0},"moveFrequency":3,"moveRoute":{"list":[{"code":0,"indent":null,"parameters":[]}],"repeat":true,"skippable":false,"wait":false},"moveSpeed":3,"moveType":0,"priorityType":1,"stepAnime":false,"through":false,"trigger":0,"walkAnime":true,"list":[{"code":101,"indent":0,"parameters":["Hester emo",6,0,2]},{"code":401,"indent":0,"parameters":["I doubt we will see a vote in favor of war, and I will certainly not support it."]},{"code":0,"indent":0,"parameters":[]}]},{"conditions":{"actorId":1,"actorValid":false,"itemId":1,"itemValid":false,"selfSwitchCh":"A","selfSwitchValid":false,"switch1Id":854,"switch1Valid":true,"switch2Id":1,"switch2Valid":false,"variableId":1,"variableValid":false,"variableValue":0},"directionFix":false,"image":{"tileId":0,"characterName":"Hester char","direction":4,"pattern":1,"characterIndex":0},"moveFrequency":3,"moveRoute":{"list":[{"code":0,"indent":null,"parameters":[]}],"repeat":true,"skippable":false,"wait":false},"moveSpeed":3,"moveType":0,"priorityType":1,"stepAnime":false,"through":false,"trigger":0,"walkAnime":true,"list":[{"code":101,"indent":0,"parameters":["Hester emo",6,0,2]},{"code":401,"indent":0,"parameters":["So... it is finished for now."]},{"code":101,"indent":0,"parameters":["1 Simon dark",0,0,2]},{"code":401,"indent":0,"parameters":["Yes. How do you feel about how the summit went?"]},{"code":101,"indent":0,"parameters":["Hester emo",3,0,2]},{"code":401,"indent":0,"parameters":["Some good, some evil... as always. The world is a chaotic, unbalanced place."]},{"code":101,"indent":0,"parameters":["Hester emo",6,0,2]},{"code":401,"indent":0,"parameters":["But in a sense, it doesn't matter. The changes that have been made will affect many lives, but by other frames of reference they are small issues."]},{"code":101,"indent":0,"parameters":["Hester emo",4,0,2]},{"code":401,"indent":0,"parameters":["It makes one wish there was another way."]},{"code":101,"indent":0,"parameters":["1 Simon dark",0,0,2]},{"code":401,"indent":0,"parameters":["...it has been nice speaking to you, High Priestess Hester."]},{"code":101,"indent":0,"parameters":["Hester emo",2,0,2]},{"code":401,"indent":0,"parameters":["You too. Enjoy your youth while you can."]},{"code":101,"indent":0,"parameters":["1 Simon dark",1,0,2]},{"code":401,"indent":0,"parameters":["Heh."]},{"code":123,"indent":0,"parameters":["B",0]},{"code":0,"indent":0,"parameters":[]}]},{"conditions":{"actorId":1,"actorValid":false,"itemId":1,"itemValid":false,"selfSwitchCh":"B","selfSwitchValid":true,"switch1Id":212,"switch1Valid":false,"switch2Id":1,"switch2Valid":false,"variableId":1,"variableValid":false,"variableValue":0},"directionFix":false,"image":{"tileId":0,"characterName":"Hester char","direction":4,"pattern":1,"characterIndex":0},"moveFrequency":3,"moveRoute":{"list":[{"code":0,"indent":null,"parameters":[]}],"repeat":true,"skippable":false,"wait":false},"moveSpeed":3,"moveType":0,"priorityType":1,"stepAnime":false,"through":false,"trigger":0,"walkAnime":true,"list":[{"code":101,"indent":0,"parameters":["Hester emo",0,0,2]},{"code":401,"indent":0,"parameters":["This has been a nice change of pace, but now I face a return to my true work."]},{"code":0,"indent":0,"parameters":[]}]}],"x":7,"y":18},
{"id":5,"name":"Ghenalese Ambassador","note":"","pages":[{"conditions":{"actorId":1,"actorValid":false,"itemId":1,"itemValid":false,"selfSwitchCh":"A","selfSwitchValid":false,"switch1Id":1,"switch1Valid":false,"switch2Id":1,"switch2Valid":false,"variableId":1,"variableValid":false,"variableValue":0},"directionFix":false,"image":{"tileId":0,"characterName":"Y Ghenalese ambassador","direction":6,"pattern":1,"characterIndex":0},"moveFrequency":3,"moveRoute":{"list":[{"code":0,"indent":null,"parameters":[]}],"repeat":true,"skippable":false,"wait":false},"moveSpeed":3,"moveType":0,"priorityType":1,"stepAnime":false,"through":false,"trigger":0,"walkAnime":true,"list":[{"code":101,"indent":0,"parameters":["Y Ghenalon1",0,0,2]},{"code":401,"indent":0,"parameters":["So, how will you be voting?"]},{"code":101,"indent":0,"parameters":["1 Simon dark",0,0,2]},{"code":401,"indent":0,"parameters":["That's... remarkably direct."]},{"code":101,"indent":0,"parameters":["Y Ghenalon1",0,0,2]},{"code":401,"indent":0,"parameters":["I'm tired of being presumed a scheming foreigner. Direct works on Arclent."]},{"code":101,"indent":0,"parameters":["1 Simon dark",0,0,2]},{"code":401,"indent":0,"parameters":["Then I'll be direct and tell you we could go either way. You?"]},{"code":101,"indent":0,"parameters":["Y Ghenalon1",0,0,2]},{"code":401,"indent":0,"parameters":["We're voting in favor. Lower profits in the short term, perhaps, but Arclent will be more profitable without that Incubus King."]},{"code":101,"indent":0,"parameters":["1 Simon dark",0,0,2]},{"code":401,"indent":0,"parameters":["Especially since the war would cost you very little."]},{"code":101,"indent":0,"parameters":["Y Ghenalon1",0,0,2]},{"code":401,"indent":0,"parameters":["That's correct."]},{"code":123,"indent":0,"parameters":["A",0]},{"code":0,"indent":0,"parameters":[]}]},{"conditions":{"actorId":1,"actorValid":false,"itemId":1,"itemValid":false,"selfSwitchCh":"A","selfSwitchValid":true,"switch1Id":1,"switch1Valid":false,"switch2Id":1,"switch2Valid":false,"variableId":1,"variableValid":false,"variableValue":0},"directionFix":false,"image":{"tileId":0,"characterName":"Y Ghenalese ambassador","direction":6,"pattern":1,"characterIndex":0},"moveFrequency":3,"moveRoute":{"list":[{"code":0,"indent":null,"parameters":[]}],"repeat":true,"skippable":false,"wait":false},"moveSpeed":3,"moveType":0,"priorityType":1,"stepAnime":false,"through":false,"trigger":0,"walkAnime":true,"list":[{"code":101,"indent":0,"parameters":["Y Ghenalon1",0,0,2]},{"code":401,"indent":0,"parameters":["I have no shame in voting for another continent's war. I'm not here to represent your peoples."]},{"code":0,"indent":0,"parameters":[]}]},{"conditions":{"actorId":1,"actorValid":false,"itemId":1,"itemValid":false,"selfSwitchCh":"A","selfSwitchValid":false,"switch1Id":854,"switch1Valid":true,"switch2Id":1,"switch2Valid":false,"variableId":1,"variableValid":false,"variableValue":0},"directionFix":false,"image":{"tileId":0,"characterName":"","direction":2,"pattern":0,"characterIndex":0},"moveFrequency":3,"moveRoute":{"list":[{"code":0,"indent":null,"parameters":[]}],"repeat":true,"skippable":false,"wait":false},"moveSpeed":3,"moveType":0,"priorityType":0,"stepAnime":false,"through":false,"trigger":0,"walkAnime":true,"list":[{"code":0,"indent":0,"parameters":[]}]}],"x":11,"y":19},
{"id":6,"name":"Ardan Ambassador","note":"","pages":[{"conditions":{"actorId":1,"actorValid":false,"itemId":1,"itemValid":false,"selfSwitchCh":"A","selfSwitchValid":false,"switch1Id":1,"switch1Valid":false,"switch2Id":1,"switch2Valid":false,"variableId":1,"variableValid":false,"variableValue":0},"directionFix":false,"image":{"tileId":0,"characterName":"People3","direction":6,"pattern":1,"characterIndex":2},"moveFrequency":3,"moveRoute":{"list":[{"code":0,"indent":null,"parameters":[]}],"repeat":true,"skippable":false,"wait":false},"moveSpeed":3,"moveType":0,"priorityType":1,"stepAnime":false,"through":false,"trigger":0,"walkAnime":true,"list":[{"code":101,"indent":0,"parameters":["People3",2,0,2]},{"code":401,"indent":0,"parameters":["Ah, hello there! You're our friends in Yhilin, are you?"]},{"code":101,"indent":0,"parameters":["1 Simon dark",0,0,2]},{"code":401,"indent":0,"parameters":["Have we met?"]},{"code":101,"indent":0,"parameters":["People3",2,0,2]},{"code":401,"indent":0,"parameters":["I don't believe so. But if you're the one advising the Yhilini ambassador, I approve of your work."]},{"code":101,"indent":0,"parameters":["1 Simon dark",0,0,2]},{"code":401,"indent":0,"parameters":["Hmm. I thought you were advocating more for war than Yhilin."]},{"code":101,"indent":0,"parameters":["People3",2,0,2]},{"code":401,"indent":0,"parameters":["That's true, but it's only because I have to represent my consitituents. I'd much rather have peace."]},{"code":101,"indent":0,"parameters":["People3",2,0,2]},{"code":401,"indent":0,"parameters":["If I can get a successful vote for war, however, I will have leverage to make it a much less brutal war."]},{"code":101,"indent":0,"parameters":["1 Simon dark",0,0,2]},{"code":401,"indent":0,"parameters":["There are non-brutal wars?"]},{"code":101,"indent":0,"parameters":["People3",2,0,2]},{"code":401,"indent":0,"parameters":["Heh, fair enough. But I could make a difference - for example, I could prevent the conscription of peasants into expendable legions."]},{"code":101,"indent":0,"parameters":["1 Simon dark",0,0,2]},{"code":401,"indent":0,"parameters":["...so you want a yes vote in exchange for cooperation later."]},{"code":101,"indent":0,"parameters":["People3",2,0,2]},{"code":401,"indent":0,"parameters":["Ah, no, I wouldn't pressure you so early in negotiations. But if you find it in your heart to vote yes, I'll remember it."]},{"code":101,"indent":0,"parameters":["1 Simon dark",0,0,2]},{"code":401,"indent":0,"parameters":["..."]},{"code":102,"indent":0,"parameters":[["Agree to vote yes","No agreement","Promise to vote no"],1,0,2,0]},{"code":402,"indent":0,"parameters":[0,"Agree to vote yes"]},{"code":101,"indent":1,"parameters":["People3",2,0,2]},{"code":401,"indent":1,"parameters":["Excellent! I'll forgive you if you can't change the ambassador's mind, but I appreciate your efforts."]},{"code":121,"indent":1,"parameters":[757,757,0]},{"code":0,"indent":1,"parameters":[]},{"code":402,"indent":0,"parameters":[1,"No agreement"]},{"code":101,"indent":1,"parameters":["People3",2,0,2]},{"code":401,"indent":1,"parameters":["Playing your cards close to the chest? Well, I hope you can cooperate later, we need to work together if we're to have any peace."]},{"code":0,"indent":1,"parameters":[]},{"code":402,"indent":0,"parameters":[2,"Promise to vote no"]},{"code":101,"indent":1,"parameters":["People3",2,0,2]},{"code":401,"indent":1,"parameters":["Ah, no need to be offended. You're free to vote your conscience."]},{"code":121,"indent":1,"parameters":[758,758,0]},{"code":0,"indent":1,"parameters":[]},{"code":404,"indent":0,"parameters":[]},{"code":123,"indent":0,"parameters":["A",0]},{"code":0,"indent":0,"parameters":[]}]},{"conditions":{"actorId":1,"actorValid":false,"itemId":1,"itemValid":false,"selfSwitchCh":"A","selfSwitchValid":true,"switch1Id":1,"switch1Valid":false,"switch2Id":1,"switch2Valid":false,"variableId":1,"variableValid":false,"variableValue":0},"directionFix":false,"image":{"tileId":0,"characterName":"People3","direction":6,"pattern":1,"characterIndex":2},"moveFrequency":3,"moveRoute":{"list":[{"code":0,"indent":null,"parameters":[]}],"repeat":true,"skippable":false,"wait":false},"moveSpeed":3,"moveType":0,"priorityType":1,"stepAnime":false,"through":false,"trigger":0,"walkAnime":true,"list":[{"code":111,"indent":0,"parameters":[0,757,0]},{"code":101,"indent":1,"parameters":["People3",2,0,2]},{"code":401,"indent":1,"parameters":["Hopefully other votes will overwhelm the one I will be forced to cast."]},{"code":0,"indent":1,"parameters":[]},{"code":411,"indent":0,"parameters":[]},{"code":101,"indent":1,"parameters":["People3",2,0,2]},{"code":401,"indent":1,"parameters":["Ardoheim must vote for war no matter what, unfortunately."]},{"code":0,"indent":1,"parameters":[]},{"code":412,"indent":0,"parameters":[]},{"code":0,"indent":0,"parameters":[]}]},{"conditions":{"actorId":1,"actorValid":false,"itemId":1,"itemValid":false,"selfSwitchCh":"A","selfSwitchValid":false,"switch1Id":854,"switch1Valid":true,"switch2Id":1,"switch2Valid":false,"variableId":1,"variableValid":false,"variableValue":0},"directionFix":false,"image":{"tileId":0,"characterName":"People3","direction":6,"pattern":1,"characterIndex":2},"moveFrequency":3,"moveRoute":{"list":[{"code":0,"indent":null,"parameters":[]}],"repeat":true,"skippable":false,"wait":false},"moveSpeed":3,"moveType":0,"priorityType":1,"stepAnime":false,"through":false,"trigger":0,"walkAnime":true,"list":[{"code":111,"indent":0,"parameters":[0,757,0]},{"code":111,"indent":1,"parameters":[0,841,0]},{"code":101,"indent":2,"parameters":["1 Simon dark",0,0,2]},{"code":401,"indent":2,"parameters":["...you didn't do what you said."]},{"code":101,"indent":2,"parameters":["People3",2,0,2]},{"code":401,"indent":2,"parameters":["And that surprises you? Ivala, you're naive."]},{"code":101,"indent":2,"parameters":["People3",2,0,2]},{"code":401,"indent":2,"parameters":["You actually trusted what I said, even going so far as to tell me your plans? Idiot."]},{"code":101,"indent":2,"parameters":["1 Simon dark",0,0,2]},{"code":401,"indent":2,"parameters":["..."]},{"code":101,"indent":2,"parameters":["People3",2,0,2]},{"code":401,"indent":2,"parameters":["Manipulating rubes like you is one of the reasons I love this job."]},{"code":123,"indent":2,"parameters":["B",0]},{"code":0,"indent":2,"parameters":[]},{"code":411,"indent":1,"parameters":[]},{"code":101,"indent":2,"parameters":["1 Simon dark",0,0,2]},{"code":401,"indent":2,"parameters":["...you didn't do as you promised."]},{"code":101,"indent":2,"parameters":["People3",2,0,2]},{"code":401,"indent":2,"parameters":["And that surprises you? Ivala, you're naive."]},{"code":101,"indent":2,"parameters":["People3",2,0,2]},{"code":401,"indent":2,"parameters":["The moment you started trusting me was the moment you started blundering. You're a fool."]},{"code":101,"indent":2,"parameters":["1 Simon dark",0,0,2]},{"code":401,"indent":2,"parameters":["..."]},{"code":101,"indent":2,"parameters":["People3",2,0,2]},{"code":401,"indent":2,"parameters":["Manipulating rubes like you is one of the reasons I love this job."]},{"code":123,"indent":2,"parameters":["B",0]},{"code":0,"indent":2,"parameters":[]},{"code":412,"indent":1,"parameters":[]},{"code":0,"indent":1,"parameters":[]},{"code":411,"indent":0,"parameters":[]},{"code":111,"indent":1,"parameters":[0,841,0]},{"code":101,"indent":2,"parameters":["1 Simon dark",0,0,2]},{"code":401,"indent":2,"parameters":["...you didn't do as you promised."]},{"code":101,"indent":2,"parameters":["People3",2,0,2]},{"code":401,"indent":2,"parameters":["And that surprises you? Ivala, you're naive."]},{"code":101,"indent":2,"parameters":["People3",2,0,2]},{"code":401,"indent":2,"parameters":["You actually trusted what I said, even going so far as to tell me your plans? Idiot."]},{"code":101,"indent":2,"parameters":["1 Simon dark",0,0,2]},{"code":401,"indent":2,"parameters":["..."]},{"code":101,"indent":2,"parameters":["People3",2,0,2]},{"code":401,"indent":2,"parameters":["Manipulating rubes like you is one of the reasons I love this job."]},{"code":123,"indent":2,"parameters":["B",0]},{"code":0,"indent":2,"parameters":[]},{"code":411,"indent":1,"parameters":[]},{"code":111,"indent":2,"parameters":[0,842,0]},{"code":101,"indent":3,"parameters":["People3",2,0,2]},{"code":401,"indent":3,"parameters":["Thank you for your contributions! I hope we-"]},{"code":101,"indent":3,"parameters":["1 Simon dark",0,0,2]},{"code":401,"indent":3,"parameters":["What's your game?"]},{"code":101,"indent":3,"parameters":["People3",2,0,2]},{"code":401,"indent":3,"parameters":["..."]},{"code":101,"indent":3,"parameters":["People3",2,0,2]},{"code":401,"indent":3,"parameters":["So you're not as dumb as you look. You were right not to trust me."]},{"code":101,"indent":3,"parameters":["People3",2,0,2]},{"code":401,"indent":3,"parameters":["So from one manipulator to another... good luck."]},{"code":122,"indent":3,"parameters":[15,15,1,0,1]},{"code":122,"indent":3,"parameters":[81,81,1,0,1]},{"code":123,"indent":3,"parameters":["B",0]},{"code":0,"indent":3,"parameters":[]},{"code":411,"indent":2,"parameters":[]},{"code":101,"indent":3,"parameters":["People3",2,0,2]},{"code":401,"indent":3,"parameters":["Well, the summit is nearly over. I'm kind of disappointed I didn't get to play more."]},{"code":0,"indent":3,"parameters":[]},{"code":412,"indent":2,"parameters":[]},{"code":0,"indent":2,"parameters":[]},{"code":412,"indent":1,"parameters":[]},{"code":0,"indent":1,"parameters":[]},{"code":412,"indent":0,"parameters":[]},{"code":0,"indent":0,"parameters":[]}]},{"conditions":{"actorId":1,"actorValid":false,"itemId":1,"itemValid":false,"selfSwitchCh":"B","selfSwitchValid":true,"switch1Id":1,"switch1Valid":false,"switch2Id":1,"switch2Valid":false,"variableId":1,"variableValid":false,"variableValue":0},"directionFix":false,"image":{"tileId":0,"characterName":"People3","direction":6,"pattern":1,"characterIndex":2},"moveFrequency":3,"moveRoute":{"list":[{"code":0,"indent":null,"parameters":[]}],"repeat":true,"skippable":false,"wait":false},"moveSpeed":3,"moveType":0,"priorityType":1,"stepAnime":false,"through":false,"trigger":0,"walkAnime":true,"list":[{"code":101,"indent":0,"parameters":["1 Simon dark",0,0,2]},{"code":401,"indent":0,"parameters":["..."]},{"code":101,"indent":0,"parameters":["People3",2,0,2]},{"code":401,"indent":0,"parameters":["..."]},{"code":0,"indent":0,"parameters":[]}]}],"x":16,"y":6},
{"id":7,"name":"Aramite Ambassador","note":"","pages":[{"conditions":{"actorId":1,"actorValid":false,"itemId":1,"itemValid":false,"selfSwitchCh":"A","selfSwitchValid":false,"switch1Id":1,"switch1Valid":false,"switch2Id":1,"switch2Valid":false,"variableId":1,"variableValid":false,"variableValue":0},"directionFix":false,"image":{"tileId":0,"characterName":"Y DS_chara09","direction":4,"pattern":1,"characterIndex":2},"moveFrequency":3,"moveRoute":{"list":[{"code":0,"indent":null,"parameters":[]}],"repeat":true,"skippable":false,"wait":false},"moveSpeed":3,"moveType":0,"priorityType":1,"stepAnime":false,"through":false,"trigger":0,"walkAnime":true,"list":[{"code":101,"indent":0,"parameters":["Y Aram4",2,0,2]},{"code":401,"indent":0,"parameters":["Here we go - a proper military man!"]},{"code":101,"indent":0,"parameters":["1 Simon dark",0,0,2]},{"code":401,"indent":0,"parameters":["I take it you're a veteran yourself?"]},{"code":101,"indent":0,"parameters":["Y Aram4",2,0,2]},{"code":401,"indent":0,"parameters":["Naturally. We may not make the smoothest ambassadors, but we won't fly into wars without reason. We know the cost."]},{"code":101,"indent":0,"parameters":["1 Simon dark",0,0,2]},{"code":401,"indent":0,"parameters":["So, you're not convinced the Incubus King is a threat to all nations?"]},{"code":101,"indent":0,"parameters":["Y Aram4",2,0,2]},{"code":401,"indent":0,"parameters":["No, I remember the war."]},{"code":101,"indent":0,"parameters":["Y Aram4",2,0,2]},{"code":401,"indent":0,"parameters":["But striking back in response to this... provocation? It's the wrong way to start a war."]},{"code":101,"indent":0,"parameters":["1 Simon dark",0,0,2]},{"code":401,"indent":0,"parameters":["Is Aram preparing for war with the Incubus King, then?"]},{"code":101,"indent":0,"parameters":["Y Aram4",2,0,2]},{"code":401,"indent":0,"parameters":["Hah, you'll get no state secrets from me."]},{"code":101,"indent":0,"parameters":["Y Aram4",2,0,2]},{"code":401,"indent":0,"parameters":["But listen, do me a favor - convince that Yhilini fop to vote against the war and I'll owe you a favor."]},{"code":101,"indent":0,"parameters":["1 Simon dark",0,0,2]},{"code":401,"indent":0,"parameters":["You expect him to vote yes?"]},{"code":101,"indent":0,"parameters":["Y Aram4",2,0,2]},{"code":401,"indent":0,"parameters":["Of course! Ardoheim and Aram would take the brunt of the damage - it would just put Yhilin in a better position."]},{"code":101,"indent":0,"parameters":["Y Aram4",2,0,2]},{"code":401,"indent":0,"parameters":["Will you persuade the ambassador to vote against the war?"]},{"code":102,"indent":0,"parameters":[["Agree to vote no","No promises","Promise to vote yes"],1,0,2,0]},{"code":402,"indent":0,"parameters":[0,"Agree to vote no"]},{"code":121,"indent":1,"parameters":[759,759,0]},{"code":101,"indent":1,"parameters":["Y Aram4",2,0,2]},{"code":401,"indent":1,"parameters":["Good, good! Of course, the proof is in the voting."]},{"code":101,"indent":1,"parameters":["Y Aram4",2,0,2]},{"code":401,"indent":1,"parameters":["You convince the man to vote against the war, I'll chalk one up for you."]},{"code":0,"indent":1,"parameters":[]},{"code":402,"indent":0,"parameters":[1,"No promises"]},{"code":101,"indent":1,"parameters":["Y Aram4",2,0,2]},{"code":401,"indent":1,"parameters":["Fair enough, fair enough. I don't like this part of the politicking either."]},{"code":0,"indent":1,"parameters":[]},{"code":402,"indent":0,"parameters":[2,"Promise to vote yes"]},{"code":121,"indent":1,"parameters":[760,760,0]},{"code":101,"indent":1,"parameters":["Y Aram4",2,0,2]},{"code":401,"indent":1,"parameters":["Hahaha! Don't like to be pushed around, huh? Fair enough, but you'll get no mercy from me!"]},{"code":0,"indent":1,"parameters":[]},{"code":404,"indent":0,"parameters":[]},{"code":123,"indent":0,"parameters":["A",0]},{"code":0,"indent":0,"parameters":[]}]},{"conditions":{"actorId":1,"actorValid":false,"itemId":1,"itemValid":false,"selfSwitchCh":"A","selfSwitchValid":true,"switch1Id":1,"switch1Valid":false,"switch2Id":1,"switch2Valid":false,"variableId":1,"variableValid":false,"variableValue":0},"directionFix":false,"image":{"tileId":0,"characterName":"Y DS_chara09","direction":4,"pattern":1,"characterIndex":2},"moveFrequency":3,"moveRoute":{"list":[{"code":0,"indent":null,"parameters":[]}],"repeat":true,"skippable":false,"wait":false},"moveSpeed":3,"moveType":0,"priorityType":1,"stepAnime":false,"through":false,"trigger":0,"walkAnime":true,"list":[{"code":111,"indent":0,"parameters":[0,759,0]},{"code":101,"indent":1,"parameters":["Y Aram4",2,0,2]},{"code":401,"indent":1,"parameters":["You better keep your promise!"]},{"code":0,"indent":1,"parameters":[]},{"code":411,"indent":0,"parameters":[]},{"code":101,"indent":1,"parameters":["Y Aram4",2,0,2]},{"code":401,"indent":1,"parameters":["If this fucking war motion actually passes..."]},{"code":0,"indent":1,"parameters":[]},{"code":412,"indent":0,"parameters":[]},{"code":0,"indent":0,"parameters":[]}]},{"conditions":{"actorId":1,"actorValid":false,"itemId":1,"itemValid":false,"selfSwitchCh":"A","selfSwitchValid":false,"switch1Id":854,"switch1Valid":true,"switch2Id":1,"switch2Valid":false,"variableId":1,"variableValid":false,"variableValue":0},"directionFix":false,"image":{"tileId":0,"characterName":"Y DS_chara09","direction":4,"pattern":1,"characterIndex":2},"moveFrequency":3,"moveRoute":{"list":[{"code":0,"indent":null,"parameters":[]}],"repeat":true,"skippable":false,"wait":false},"moveSpeed":3,"moveType":0,"priorityType":1,"stepAnime":false,"through":false,"trigger":0,"walkAnime":true,"list":[{"code":111,"indent":0,"parameters":[0,833,0]},{"code":111,"indent":1,"parameters":[0,832,0]},{"code":101,"indent":2,"parameters":["Y Aram4",2,0,2]},{"code":401,"indent":2,"parameters":["Let's get a drink again sometime!"]},{"code":0,"indent":2,"parameters":[]},{"code":411,"indent":1,"parameters":[]},{"code":101,"indent":2,"parameters":["Y Aram4",2,0,2]},{"code":401,"indent":2,"parameters":["You better have a damn good reason for standing me up!"]},{"code":0,"indent":2,"parameters":[]},{"code":412,"indent":1,"parameters":[]},{"code":0,"indent":1,"parameters":[]},{"code":411,"indent":0,"parameters":[]},{"code":101,"indent":1,"parameters":["Y Aram4",2,0,2]},{"code":401,"indent":1,"parameters":["Well, what's done is done. The rest is details."]},{"code":0,"indent":1,"parameters":[]},{"code":412,"indent":0,"parameters":[]},{"code":0,"indent":0,"parameters":[]}]}],"x":14,"y":9},
{"id":8,"name":"Elven Ambassador","note":"","pages":[{"conditions":{"actorId":1,"actorValid":false,"itemId":1,"itemValid":false,"selfSwitchCh":"A","selfSwitchValid":false,"switch1Id":1,"switch1Valid":false,"switch2Id":1,"switch2Valid":false,"variableId":1,"variableValid":false,"variableValue":0},"directionFix":false,"image":{"tileId":0,"characterName":"Y Elves hats","direction":4,"pattern":1,"characterIndex":0},"moveFrequency":3,"moveRoute":{"list":[{"code":0,"indent":null,"parameters":[]}],"repeat":true,"skippable":false,"wait":false},"moveSpeed":3,"moveType":0,"priorityType":1,"stepAnime":false,"through":false,"trigger":0,"walkAnime":true,"list":[{"code":101,"indent":0,"parameters":["Z Elven ambassador",4,0,2]},{"code":401,"indent":0,"parameters":["I wonder... why is the king even here, if he intends to say nothing?"]},{"code":101,"indent":0,"parameters":["1 Simon dark",0,0,2]},{"code":401,"indent":0,"parameters":["I think he's paying more attention than we think."]},{"code":101,"indent":0,"parameters":["Z Elven ambassador",5,0,2]},{"code":401,"indent":0,"parameters":["Ah, but for what purpose?"]},{"code":101,"indent":0,"parameters":["1 Simon dark",0,0,2]},{"code":401,"indent":0,"parameters":["..."]},{"code":101,"indent":0,"parameters":["Z Elven ambassador",0,0,2]},{"code":401,"indent":0,"parameters":["Forgive me, I did not mean to distract you with my own musings. I assume you wish to talk business?"]},{"code":101,"indent":0,"parameters":["Z Elven ambassador",2,0,2]},{"code":401,"indent":0,"parameters":["I hope you will be not be voting for war. You humans seem too eager to throw your lives away."]},{"code":101,"indent":0,"parameters":["1 Simon dark",0,0,2]},{"code":401,"indent":0,"parameters":["So you're definitely voting against?"]},{"code":101,"indent":0,"parameters":["Z Elven ambassador",0,0,2]},{"code":401,"indent":0,"parameters":["Yes. Even though your nations would take the brunt of the losses, we do not wish for unnecessary conflict."]},{"code":123,"indent":0,"parameters":["A",0]},{"code":0,"indent":0,"parameters":[]}]},{"conditions":{"actorId":1,"actorValid":false,"itemId":1,"itemValid":false,"selfSwitchCh":"A","selfSwitchValid":true,"switch1Id":1,"switch1Valid":false,"switch2Id":1,"switch2Valid":false,"variableId":1,"variableValid":false,"variableValue":0},"directionFix":false,"image":{"tileId":0,"characterName":"Y Elves hats","direction":4,"pattern":1,"characterIndex":0},"moveFrequency":3,"moveRoute":{"list":[{"code":0,"indent":null,"parameters":[]}],"repeat":true,"skippable":false,"wait":false},"moveSpeed":3,"moveType":0,"priorityType":1,"stepAnime":false,"through":false,"trigger":0,"walkAnime":true,"list":[{"code":101,"indent":0,"parameters":["Z Elven ambassador",0,0,2]},{"code":401,"indent":0,"parameters":["Darghelon will be voting against a war."]},{"code":0,"indent":0,"parameters":[]}]},{"conditions":{"actorId":1,"actorValid":false,"itemId":1,"itemValid":false,"selfSwitchCh":"A","selfSwitchValid":false,"switch1Id":854,"switch1Valid":true,"switch2Id":1,"switch2Valid":false,"variableId":1,"variableValid":false,"variableValue":0},"directionFix":false,"image":{"tileId":0,"characterName":"Y Elves hats","direction":4,"pattern":1,"characterIndex":0},"moveFrequency":3,"moveRoute":{"list":[{"code":0,"indent":null,"parameters":[]}],"repeat":true,"skippable":false,"wait":false},"moveSpeed":3,"moveType":0,"priorityType":1,"stepAnime":false,"through":false,"trigger":0,"walkAnime":true,"list":[{"code":111,"indent":0,"parameters":[0,828,0]},{"code":101,"indent":1,"parameters":["Z Elven ambassador",0,0,2]},{"code":401,"indent":1,"parameters":["Ah, hello. Still haven't sated your appetite for politics?"]},{"code":101,"indent":1,"parameters":["1 Simon dark",0,0,2]},{"code":401,"indent":1,"parameters":["How does Darghelon feel about the summit's results?"]},{"code":101,"indent":1,"parameters":["Z Elven ambassador",5,0,2]},{"code":401,"indent":1,"parameters":["They are what they are. We feel we have represented ourselves adequately and gotten roughly the terms we could have expected."]},{"code":101,"indent":1,"parameters":["Z Elven ambassador",1,0,2]},{"code":401,"indent":1,"parameters":["But it was nice to meet you. Perhaps we can work together again in the future."]},{"code":0,"indent":1,"parameters":[]},{"code":411,"indent":0,"parameters":[]},{"code":101,"indent":1,"parameters":["Z Elven ambassador",6,0,2]},{"code":401,"indent":1,"parameters":["After so much talk, you still want more?"]},{"code":101,"indent":1,"parameters":["1 Simon dark",0,0,2]},{"code":401,"indent":1,"parameters":["How does Darghelon feel about the summit's results?"]},{"code":101,"indent":1,"parameters":["Z Elven ambassador",5,0,2]},{"code":401,"indent":1,"parameters":["They are what they are. We feel we have represented ourselves adequately and gotten roughly the terms we could have expected."]},{"code":0,"indent":1,"parameters":[]},{"code":412,"indent":0,"parameters":[]},{"code":123,"indent":0,"parameters":["B",0]},{"code":0,"indent":0,"parameters":[]}]},{"conditions":{"actorId":1,"actorValid":false,"itemId":1,"itemValid":false,"selfSwitchCh":"B","selfSwitchValid":true,"switch1Id":1,"switch1Valid":false,"switch2Id":1,"switch2Valid":false,"variableId":1,"variableValid":false,"variableValue":0},"directionFix":false,"image":{"tileId":0,"characterName":"Y Elves hats","direction":4,"pattern":1,"characterIndex":0},"moveFrequency":3,"moveRoute":{"list":[{"code":0,"indent":null,"parameters":[]}],"repeat":true,"skippable":false,"wait":false},"moveSpeed":3,"moveType":0,"priorityType":1,"stepAnime":false,"through":false,"trigger":0,"walkAnime":true,"list":[{"code":101,"indent":0,"parameters":["Z Elven ambassador",5,0,2]},{"code":401,"indent":0,"parameters":["I confess, this summit has left me tired. Perhaps I need some time back in Darghelon."]},{"code":0,"indent":0,"parameters":[]}]}],"x":14,"y":5},
{"id":9,"name":"Dwarven Ambassador","note":"","pages":[{"conditions":{"actorId":1,"actorValid":false,"itemId":1,"itemValid":false,"selfSwitchCh":"A","selfSwitchValid":false,"switch1Id":1,"switch1Valid":false,"switch2Id":1,"switch2Valid":false,"variableId":1,"variableValid":false,"variableValue":0},"directionFix":false,"image":{"tileId":0,"characterName":"Actor3","direction":2,"pattern":1,"characterIndex":6},"moveFrequency":3,"moveRoute":{"list":[{"code":0,"indent":null,"parameters":[]}],"repeat":true,"skippable":false,"wait":false},"moveSpeed":3,"moveType":0,"priorityType":1,"stepAnime":false,"through":false,"trigger":0,"walkAnime":true,"list":[{"code":111,"indent":0,"parameters":[0,309,0]},{"code":121,"indent":1,"parameters":[761,761,0]},{"code":101,"indent":1,"parameters":["Actor3",6,0,2]},{"code":401,"indent":1,"parameters":["Ah, hello there! Many thanks for helping us complete our embassy!"]},{"code":101,"indent":1,"parameters":["Megail emo2",0,0,2]},{"code":401,"indent":1,"parameters":["You had success, I take it?"]},{"code":101,"indent":1,"parameters":["Actor3",6,0,2]},{"code":401,"indent":1,"parameters":["Great success. We are now deeply in your debt."]},{"code":101,"indent":1,"parameters":["1 Simon dark",0,0,2]},{"code":401,"indent":1,"parameters":["So, if we had opinions about how you should vote..."]},{"code":101,"indent":1,"parameters":["Actor3",6,0,2]},{"code":401,"indent":1,"parameters":["We would take them quite seriously. "]},{"code":101,"indent":1,"parameters":["Actor3",6,0,2]},{"code":401,"indent":1,"parameters":["But having said that, we cannot afford to overstay our welcome, and we must serve our interests first."]},{"code":101,"indent":1,"parameters":["Actor3",6,0,2]},{"code":401,"indent":1,"parameters":["In this matter of war... you could perhaps persuade us to vote against, but we would rather abstain. It is not our blood to be spilled, either way."]},{"code":101,"indent":1,"parameters":["Megail emo2",0,0,2]},{"code":401,"indent":1,"parameters":["That's as good as a no under these rules."]},{"code":101,"indent":1,"parameters":["1 Simon dark",0,0,2]},{"code":401,"indent":1,"parameters":["Yes, and we don't want to push you against your conscience."]},{"code":101,"indent":1,"parameters":["Actor3",6,0,2]},{"code":401,"indent":1,"parameters":["In most matters, however, we have no opinion. We are happy to gain one in return for your assistance."]},{"code":0,"indent":1,"parameters":[]},{"code":411,"indent":0,"parameters":[]},{"code":101,"indent":1,"parameters":["Actor3",6,0,2]},{"code":401,"indent":1,"parameters":["Good day. As we are still setting up our embassy, we cannot afford to become embroiled in politics."]},{"code":101,"indent":1,"parameters":["1 Simon dark",0,0,2]},{"code":401,"indent":1,"parameters":["Then your vote...?"]},{"code":101,"indent":1,"parameters":["Actor3",6,0,2]},{"code":401,"indent":1,"parameters":["We vote against war with the Incubus King."]},{"code":123,"indent":1,"parameters":["A",0]},{"code":0,"indent":1,"parameters":[]},{"code":412,"indent":0,"parameters":[]},{"code":0,"indent":0,"parameters":[]}]},{"conditions":{"actorId":1,"actorValid":false,"itemId":1,"itemValid":false,"selfSwitchCh":"A","selfSwitchValid":true,"switch1Id":1,"switch1Valid":false,"switch2Id":1,"switch2Valid":false,"variableId":1,"variableValid":false,"variableValue":0},"directionFix":false,"image":{"tileId":0,"characterName":"Actor3","direction":2,"pattern":1,"characterIndex":6},"moveFrequency":3,"moveRoute":{"list":[{"code":0,"indent":null,"parameters":[]}],"repeat":true,"skippable":false,"wait":false},"moveSpeed":3,"moveType":0,"priorityType":1,"stepAnime":false,"through":false,"trigger":0,"walkAnime":true,"list":[{"code":101,"indent":0,"parameters":["Actor3",6,0,2]},{"code":401,"indent":0,"parameters":["We vote against war."]},{"code":0,"indent":0,"parameters":[]}]},{"conditions":{"actorId":1,"actorValid":false,"itemId":1,"itemValid":false,"selfSwitchCh":"A","selfSwitchValid":false,"switch1Id":761,"switch1Valid":true,"switch2Id":1,"switch2Valid":false,"variableId":1,"variableValid":false,"variableValue":0},"directionFix":false,"image":{"tileId":0,"characterName":"Actor3","direction":2,"pattern":1,"characterIndex":6},"moveFrequency":3,"moveRoute":{"list":[{"code":0,"indent":null,"parameters":[]}],"repeat":true,"skippable":false,"wait":false},"moveSpeed":3,"moveType":0,"priorityType":1,"stepAnime":false,"through":false,"trigger":0,"walkAnime":true,"list":[{"code":101,"indent":0,"parameters":["Actor3",6,0,2]},{"code":401,"indent":0,"parameters":["Depending on the decisions we'll vote on, we may be able to vote in your favor several times."]},{"code":0,"indent":0,"parameters":[]}]},{"conditions":{"actorId":1,"actorValid":false,"itemId":1,"itemValid":false,"selfSwitchCh":"A","selfSwitchValid":false,"switch1Id":854,"switch1Valid":true,"switch2Id":1,"switch2Valid":false,"variableId":1,"variableValid":false,"variableValue":0},"directionFix":false,"image":{"tileId":0,"characterName":"Actor3","direction":2,"pattern":1,"characterIndex":6},"moveFrequency":3,"moveRoute":{"list":[{"code":0,"indent":null,"parameters":[]}],"repeat":true,"skippable":false,"wait":false},"moveSpeed":3,"moveType":0,"priorityType":1,"stepAnime":false,"through":false,"trigger":0,"walkAnime":true,"list":[{"code":101,"indent":0,"parameters":["Actor3",6,0,2]},{"code":401,"indent":0,"parameters":["Truth be told, we are glad to return to our own affairs."]},{"code":0,"indent":0,"parameters":[]}]}],"x":18,"y":11},
{"id":10,"name":"Guild Rep","note":"","pages":[{"conditions":{"actorId":1,"actorValid":false,"itemId":1,"itemValid":false,"selfSwitchCh":"A","selfSwitchValid":false,"switch1Id":1,"switch1Valid":false,"switch2Id":1,"switch2Valid":false,"variableId":1,"variableValid":false,"variableValue":0},"directionFix":false,"image":{"tileId":0,"characterName":"Actor3","direction":4,"pattern":1,"characterIndex":2},"moveFrequency":3,"moveRoute":{"list":[{"code":0,"indent":null,"parameters":[]}],"repeat":true,"skippable":false,"wait":false},"moveSpeed":3,"moveType":0,"priorityType":1,"stepAnime":false,"through":false,"trigger":0,"walkAnime":true,"list":[{"code":101,"indent":0,"parameters":["Actor3",2,0,2]},{"code":401,"indent":0,"parameters":["..."]},{"code":101,"indent":0,"parameters":["1 Simon dark",0,0,2]},{"code":401,"indent":0,"parameters":["So you represent the guilds?"]},{"code":101,"indent":0,"parameters":["Actor3",2,0,2]},{"code":401,"indent":0,"parameters":["I do, and they're not interested in chatting."]},{"code":101,"indent":0,"parameters":["1 Simon dark",0,0,2]},{"code":401,"indent":0,"parameters":["I see. As you wish."]},{"code":123,"indent":0,"parameters":["A",0]},{"code":0,"indent":0,"parameters":[]}]},{"conditions":{"actorId":1,"actorValid":false,"itemId":1,"itemValid":false,"selfSwitchCh":"A","selfSwitchValid":true,"switch1Id":1,"switch1Valid":false,"switch2Id":1,"switch2Valid":false,"variableId":1,"variableValid":false,"variableValue":0},"directionFix":false,"image":{"tileId":0,"characterName":"Actor3","direction":4,"pattern":1,"characterIndex":2},"moveFrequency":3,"moveRoute":{"list":[{"code":0,"indent":null,"parameters":[]}],"repeat":true,"skippable":false,"wait":false},"moveSpeed":3,"moveType":0,"priorityType":1,"stepAnime":false,"through":false,"trigger":0,"walkAnime":true,"list":[{"code":101,"indent":0,"parameters":["Actor3",2,0,2]},{"code":401,"indent":0,"parameters":["Our business is our own... as is our vote."]},{"code":0,"indent":0,"parameters":[]}]},{"conditions":{"actorId":1,"actorValid":false,"itemId":1,"itemValid":false,"selfSwitchCh":"A","selfSwitchValid":false,"switch1Id":854,"switch1Valid":true,"switch2Id":1,"switch2Valid":false,"variableId":1,"variableValid":false,"variableValue":0},"directionFix":false,"image":{"tileId":0,"characterName":"Actor3","direction":4,"pattern":1,"characterIndex":2},"moveFrequency":3,"moveRoute":{"list":[{"code":0,"indent":null,"parameters":[]}],"repeat":true,"skippable":false,"wait":false},"moveSpeed":3,"moveType":0,"priorityType":1,"stepAnime":false,"through":false,"trigger":0,"walkAnime":true,"list":[{"code":111,"indent":0,"parameters":[0,853,0]},{"code":101,"indent":1,"parameters":["Actor3",2,0,2]},{"code":401,"indent":1,"parameters":["Well, that went well. And I'm fairly certain you had something to do with it."]},{"code":101,"indent":1,"parameters":["1 Simon dark",0,0,2]},{"code":401,"indent":1,"parameters":["So you'll keep your word?"]},{"code":101,"indent":1,"parameters":["Actor3",2,0,2]},{"code":401,"indent":1,"parameters":["100,000 ProN, as promised."]},{"code":122,"indent":1,"parameters":[10,10,1,0,100000]},{"code":101,"indent":1,"parameters":["",2,0,2]},{"code":401,"indent":1,"parameters":["Received 100,000 ProN."]},{"code":101,"indent":1,"parameters":["Aka emo",5,0,2]},{"code":401,"indent":1,"parameters":["Damn, I see why politicians get corrupt."]},{"code":101,"indent":1,"parameters":["1 Simon dark",0,0,2]},{"code":401,"indent":1,"parameters":["Let's make sure we put it to good use."]},{"code":123,"indent":1,"parameters":["B",0]},{"code":121,"indent":1,"parameters":[855,855,0]},{"code":0,"indent":1,"parameters":[]},{"code":411,"indent":0,"parameters":[]},{"code":101,"indent":1,"parameters":["Actor3",2,0,2]},{"code":401,"indent":1,"parameters":["...we have nothing to say formally about the summit. Personally, I wish I could have made more of a profit."]},{"code":0,"indent":1,"parameters":[]},{"code":412,"indent":0,"parameters":[]},{"code":0,"indent":0,"parameters":[]}]},{"conditions":{"actorId":1,"actorValid":false,"itemId":1,"itemValid":false,"selfSwitchCh":"B","selfSwitchValid":true,"switch1Id":1,"switch1Valid":false,"switch2Id":1,"switch2Valid":false,"variableId":1,"variableValid":false,"variableValue":0},"directionFix":false,"image":{"tileId":0,"characterName":"Actor3","direction":4,"pattern":1,"characterIndex":2},"moveFrequency":3,"moveRoute":{"list":[{"code":0,"indent":null,"parameters":[]}],"repeat":true,"skippable":false,"wait":false},"moveSpeed":3,"moveType":0,"priorityType":1,"stepAnime":false,"through":false,"trigger":0,"walkAnime":true,"list":[{"code":101,"indent":0,"parameters":["Actor3",2,0,2]},{"code":401,"indent":0,"parameters":["Hopefully we'll do business again sometime."]},{"code":0,"indent":0,"parameters":[]}]}],"x":14,"y":15},
{"id":11,"name":"EV011","note":"","pages":[{"conditions":{"actorId":1,"actorValid":false,"itemId":1,"itemValid":false,"selfSwitchCh":"A","selfSwitchValid":false,"switch1Id":1,"switch1Valid":false,"switch2Id":1,"switch2Valid":false,"variableId":1,"variableValid":false,"variableValue":0},"directionFix":false,"image":{"tileId":0,"characterName":"","direction":2,"pattern":0,"characterIndex":0},"moveFrequency":3,"moveRoute":{"list":[{"code":0,"indent":null,"parameters":[]}],"repeat":true,"skippable":false,"wait":false},"moveSpeed":3,"moveType":0,"priorityType":0,"stepAnime":false,"through":false,"trigger":1,"walkAnime":true,"list":[{"code":101,"indent":0,"parameters":["1 Simon dark",0,0,2]},{"code":401,"indent":0,"parameters":["We should stay focused on the summit."]},{"code":205,"indent":0,"parameters":[-1,{"list":[{"code":4,"indent":null,"parameters":[]},{"code":0,"indent":null,"parameters":[]}],"repeat":false,"skippable":false,"wait":true}]},{"code":505,"indent":0,"parameters":[{"code":4,"indent":null,"parameters":[]}]},{"code":0,"indent":0,"parameters":[]}]},{"conditions":{"actorId":1,"actorValid":false,"itemId":1,"itemValid":false,"selfSwitchCh":"A","selfSwitchValid":false,"switch1Id":854,"switch1Valid":true,"switch2Id":1,"switch2Valid":false,"variableId":1,"variableValid":false,"variableValue":0},"directionFix":false,"image":{"tileId":0,"characterName":"","direction":2,"pattern":0,"characterIndex":0},"moveFrequency":3,"moveRoute":{"list":[{"code":0,"indent":null,"parameters":[]}],"repeat":true,"skippable":false,"wait":false},"moveSpeed":3,"moveType":0,"priorityType":0,"stepAnime":false,"through":false,"trigger":1,"walkAnime":true,"list":[{"code":101,"indent":0,"parameters":["1 Simon dark",0,0,2]},{"code":401,"indent":0,"parameters":["Have we spoken with everyone we need to? We may not get another chance."]},{"code":102,"indent":0,"parameters":[["Stay","Go"],0,0,2,0]},{"code":402,"indent":0,"parameters":[0,"Stay"]},{"code":205,"indent":1,"parameters":[-1,{"list":[{"code":4,"indent":null,"parameters":[]},{"code":0,"indent":null,"parameters":[]}],"repeat":false,"skippable":false,"wait":true}]},{"code":505,"indent":1,"parameters":[{"code":4,"indent":null,"parameters":[]}]},{"code":0,"indent":1,"parameters":[]},{"code":402,"indent":0,"parameters":[1,"Go"]},{"code":201,"indent":1,"parameters":[0,217,49,74,0,0]},{"code":0,"indent":1,"parameters":[]},{"code":404,"indent":0,"parameters":[]},{"code":0,"indent":0,"parameters":[]}]}],"x":11,"y":21},
{"id":12,"name":"EV012","note":"","pages":[{"conditions":{"actorId":1,"actorValid":false,"itemId":1,"itemValid":false,"selfSwitchCh":"A","selfSwitchValid":false,"switch1Id":1,"switch1Valid":false,"switch2Id":1,"switch2Valid":false,"variableId":1,"variableValid":false,"variableValue":0},"directionFix":false,"image":{"tileId":0,"characterName":"","direction":2,"pattern":0,"characterIndex":0},"moveFrequency":3,"moveRoute":{"list":[{"code":0,"indent":null,"parameters":[]}],"repeat":true,"skippable":false,"wait":false},"moveSpeed":3,"moveType":0,"priorityType":0,"stepAnime":false,"through":false,"trigger":1,"walkAnime":true,"list":[{"code":101,"indent":0,"parameters":["1 Simon dark",0,0,2]},{"code":401,"indent":0,"parameters":["We should stay focused on the summit."]},{"code":205,"indent":0,"parameters":[-1,{"list":[{"code":4,"indent":null,"parameters":[]},{"code":0,"indent":null,"parameters":[]}],"repeat":false,"skippable":false,"wait":true}]},{"code":505,"indent":0,"parameters":[{"code":4,"indent":null,"parameters":[]}]},{"code":0,"indent":0,"parameters":[]}]},{"conditions":{"actorId":1,"actorValid":false,"itemId":1,"itemValid":false,"selfSwitchCh":"A","selfSwitchValid":false,"switch1Id":854,"switch1Valid":true,"switch2Id":1,"switch2Valid":false,"variableId":1,"variableValid":false,"variableValue":0},"directionFix":false,"image":{"tileId":0,"characterName":"","direction":2,"pattern":0,"characterIndex":0},"moveFrequency":3,"moveRoute":{"list":[{"code":0,"indent":null,"parameters":[]}],"repeat":true,"skippable":false,"wait":false},"moveSpeed":3,"moveType":0,"priorityType":0,"stepAnime":false,"through":false,"trigger":1,"walkAnime":true,"list":[{"code":101,"indent":0,"parameters":["1 Simon dark",0,0,2]},{"code":401,"indent":0,"parameters":["Have we spoken with everyone we need to? We may not get another chance."]},{"code":102,"indent":0,"parameters":[["Stay","Go"],0,0,2,0]},{"code":402,"indent":0,"parameters":[0,"Stay"]},{"code":205,"indent":1,"parameters":[-1,{"list":[{"code":4,"indent":null,"parameters":[]},{"code":0,"indent":null,"parameters":[]}],"repeat":false,"skippable":false,"wait":true}]},{"code":505,"indent":1,"parameters":[{"code":4,"indent":null,"parameters":[]}]},{"code":0,"indent":1,"parameters":[]},{"code":402,"indent":0,"parameters":[1,"Go"]},{"code":201,"indent":1,"parameters":[0,217,49,74,0,0]},{"code":0,"indent":1,"parameters":[]},{"code":404,"indent":0,"parameters":[]},{"code":0,"indent":0,"parameters":[]}]}],"x":12,"y":21},
{"id":13,"name":"EV013","note":"","pages":[{"conditions":{"actorId":1,"actorValid":false,"itemId":1,"itemValid":false,"selfSwitchCh":"A","selfSwitchValid":false,"switch1Id":1,"switch1Valid":false,"switch2Id":1,"switch2Valid":false,"variableId":1,"variableValid":false,"variableValue":0},"directionFix":false,"image":{"tileId":0,"characterName":"","direction":2,"pattern":0,"characterIndex":0},"moveFrequency":3,"moveRoute":{"list":[{"code":0,"indent":null,"parameters":[]}],"repeat":true,"skippable":false,"wait":false},"moveSpeed":3,"moveType":0,"priorityType":0,"stepAnime":false,"through":false,"trigger":1,"walkAnime":true,"list":[{"code":101,"indent":0,"parameters":["1 Simon dark",0,0,2]},{"code":401,"indent":0,"parameters":["We should stay focused on the summit."]},{"code":205,"indent":0,"parameters":[-1,{"list":[{"code":4,"indent":null,"parameters":[]},{"code":0,"indent":null,"parameters":[]}],"repeat":false,"skippable":false,"wait":true}]},{"code":505,"indent":0,"parameters":[{"code":4,"indent":null,"parameters":[]}]},{"code":0,"indent":0,"parameters":[]}]},{"conditions":{"actorId":1,"actorValid":false,"itemId":1,"itemValid":false,"selfSwitchCh":"A","selfSwitchValid":false,"switch1Id":854,"switch1Valid":true,"switch2Id":1,"switch2Valid":false,"variableId":1,"variableValid":false,"variableValue":0},"directionFix":false,"image":{"tileId":0,"characterName":"","direction":2,"pattern":0,"characterIndex":0},"moveFrequency":3,"moveRoute":{"list":[{"code":0,"indent":null,"parameters":[]}],"repeat":true,"skippable":false,"wait":false},"moveSpeed":3,"moveType":0,"priorityType":0,"stepAnime":false,"through":false,"trigger":1,"walkAnime":true,"list":[{"code":101,"indent":0,"parameters":["1 Simon dark",0,0,2]},{"code":401,"indent":0,"parameters":["Have we spoken with everyone we need to? We may not get another chance."]},{"code":102,"indent":0,"parameters":[["Stay","Go"],0,0,2,0]},{"code":402,"indent":0,"parameters":[0,"Stay"]},{"code":205,"indent":1,"parameters":[-1,{"list":[{"code":4,"indent":null,"parameters":[]},{"code":0,"indent":null,"parameters":[]}],"repeat":false,"skippable":false,"wait":true}]},{"code":505,"indent":1,"parameters":[{"code":4,"indent":null,"parameters":[]}]},{"code":0,"indent":1,"parameters":[]},{"code":402,"indent":0,"parameters":[1,"Go"]},{"code":201,"indent":1,"parameters":[0,217,49,74,0,0]},{"code":0,"indent":1,"parameters":[]},{"code":404,"indent":0,"parameters":[]},{"code":0,"indent":0,"parameters":[]}]}],"x":13,"y":21},
{"id":14,"name":"EV014","note":"","pages":[{"conditions":{"actorId":1,"actorValid":false,"itemId":1,"itemValid":false,"selfSwitchCh":"A","selfSwitchValid":false,"switch1Id":1,"switch1Valid":false,"switch2Id":1,"switch2Valid":false,"variableId":1,"variableValid":false,"variableValue":0},"directionFix":false,"image":{"tileId":0,"characterName":"$Tyna char","direction":2,"pattern":1,"characterIndex":0},"moveFrequency":3,"moveRoute":{"list":[{"code":0,"indent":null,"parameters":[]}],"repeat":true,"skippable":false,"wait":false},"moveSpeed":3,"moveType":0,"priorityType":1,"stepAnime":false,"through":false,"trigger":0,"walkAnime":true,"list":[{"code":101,"indent":0,"parameters":["Tyna emo",4,0,2]},{"code":401,"indent":0,"parameters":["Ah, hello! You're part of the Yhilini delegation, right?"]},{"code":101,"indent":0,"parameters":["1 Simon dark",0,0,2]},{"code":401,"indent":0,"parameters":["That's correct."]},{"code":101,"indent":0,"parameters":["Tyna emo",0,0,2]},{"code":401,"indent":0,"parameters":["But you're not Yhilini yourself, so you must be advisors of some kind. I see Yhilin is quite prepared."]},{"code":101,"indent":0,"parameters":["1 Simon dark",0,0,2]},{"code":401,"indent":0,"parameters":["As are you. The information you gave us... while apparently accurate, it was also very carefully crafted to lead to certain conclusions."]},{"code":101,"indent":0,"parameters":["Tyna emo",3,0,2]},{"code":401,"indent":0,"parameters":["Ah, maybe I wasn't subtle enough."]},{"code":101,"indent":0,"parameters":["1 Simon dark",0,0,2]},{"code":401,"indent":0,"parameters":["I haven't heard anyone else mentioning it, so you're probably fine."]},{"code":101,"indent":0,"parameters":["1 Simon dark",1,0,2]},{"code":401,"indent":0,"parameters":["I should introduce myself: my name is Simon, pleased to meet you."]},{"code":101,"indent":0,"parameters":["Tyna emo",1,0,2]},{"code":401,"indent":0,"parameters":["I'm Tyna! It's a relief to meet someone who values me for my work for once!"]},{"code":101,"indent":0,"parameters":["1 Simon dark",0,0,2]},{"code":401,"indent":0,"parameters":["...judging from your implication, I'm guessing you're a noble of some kind?"]},{"code":101,"indent":0,"parameters":["Tyna emo",4,0,2]},{"code":401,"indent":0,"parameters":["I'm the King's niece."]},{"code":101,"indent":0,"parameters":["1 Simon dark",0,0,2]},{"code":401,"indent":0,"parameters":["Hmm. Based on the royal family that survived the war, you must be the daughter of... Alonon's youngest sister."]},{"code":101,"indent":0,"parameters":["Tyna emo",0,0,2]},{"code":401,"indent":0,"parameters":["That's correct!"]},{"code":101,"indent":0,"parameters":["Tyna emo",3,0,2]},{"code":401,"indent":0,"parameters":["My mother died when I was quite young. The King was apparently very close to her, so he took me in."]},{"code":101,"indent":0,"parameters":["1 Simon dark",0,0,2]},{"code":401,"indent":0,"parameters":["I'm sorry for your loss."]},{"code":101,"indent":0,"parameters":["Tyna emo",4,0,2]},{"code":401,"indent":0,"parameters":["That's okay, I've had a long time to grieve. And while the King is very distant, he has always been kind to me."]},{"code":101,"indent":0,"parameters":["Tyna emo",6,0,2]},{"code":401,"indent":0,"parameters":["But that means that no one believes I've earned anything I have!"]},{"code":101,"indent":0,"parameters":["1 Simon dark",0,0,2]},{"code":401,"indent":0,"parameters":["If they let you work at this summit, you must be highly competent. "]},{"code":101,"indent":0,"parameters":["Tyna emo",1,0,2]},{"code":401,"indent":0,"parameters":["Thank you so much!"]},{"code":101,"indent":0,"parameters":["1 Simon dark",1,0,2]},{"code":401,"indent":0,"parameters":["I'll look forward to working with you in the future, then."]},{"code":101,"indent":0,"parameters":["Tyna emo",1,0,2]},{"code":401,"indent":0,"parameters":["Sure! You can find me around the castle during off sessions, there's lots of work to do!"]},{"code":205,"indent":0,"parameters":[-1,{"list":[{"code":1,"indent":null,"parameters":[]},{"code":0,"indent":null,"parameters":[]}],"repeat":false,"skippable":false,"wait":true}]},{"code":505,"indent":0,"parameters":[{"code":1,"indent":null,"parameters":[]}]},{"code":101,"indent":0,"parameters":["Nalili emo1",4,0,2]},{"code":401,"indent":0,"parameters":["So, I wanted to suggest that she fuck the king, but I didn't. Was that right?"]},{"code":101,"indent":0,"parameters":["Aka emo",7,0,2]},{"code":401,"indent":0,"parameters":["Good job."]},{"code":101,"indent":0,"parameters":["Yarra emo2",0,0,2]},{"code":401,"indent":0,"parameters":["She seems like a bright young thing."]},{"code":101,"indent":0,"parameters":["Yarra emo2",6,0,2]},{"code":401,"indent":0,"parameters":["Simon, how do you feel about bright young things?"]},{"code":101,"indent":0,"parameters":["1 Simon dark",0,0,2]},{"code":401,"indent":0,"parameters":["I have a good impression of her, but I know what you're asking. No, my feelings for her are... fatherly, if anything."]},{"code":101,"indent":0,"parameters":["Yarra emo2",0,0,2]},{"code":401,"indent":0,"parameters":["Fair enough! I do kind of want to see her fuck, though, I think she'd be adorably earnest."]},{"code":101,"indent":0,"parameters":["Robin blond emo",0,0,2]},{"code":401,"indent":0,"parameters":["..."]},{"code":123,"indent":0,"parameters":["A",0]},{"code":121,"indent":0,"parameters":[756,756,0]},{"code":0,"indent":0,"parameters":[]}]},{"conditions":{"actorId":1,"actorValid":false,"itemId":1,"itemValid":false,"selfSwitchCh":"A","selfSwitchValid":true,"switch1Id":1,"switch1Valid":false,"switch2Id":1,"switch2Valid":false,"variableId":1,"variableValid":false,"variableValue":0},"directionFix":false,"image":{"tileId":0,"characterName":"$Tyna char","direction":2,"pattern":1,"characterIndex":0},"moveFrequency":3,"moveRoute":{"list":[{"code":0,"indent":null,"parameters":[]}],"repeat":true,"skippable":false,"wait":false},"moveSpeed":3,"moveType":0,"priorityType":1,"stepAnime":false,"through":false,"trigger":0,"walkAnime":true,"list":[{"code":101,"indent":0,"parameters":["Tyna emo",4,0,2]},{"code":401,"indent":0,"parameters":["I think I can see how this vote will go, but after that it gets far less clear."]},{"code":0,"indent":0,"parameters":[]}]},{"conditions":{"actorId":1,"actorValid":false,"itemId":1,"itemValid":false,"selfSwitchCh":"A","selfSwitchValid":false,"switch1Id":854,"switch1Valid":true,"switch2Id":1,"switch2Valid":false,"variableId":1,"variableValid":false,"variableValue":0},"directionFix":false,"image":{"tileId":0,"characterName":"$Tyna char","direction":2,"pattern":1,"characterIndex":0},"moveFrequency":3,"moveRoute":{"list":[{"code":0,"indent":null,"parameters":[]}],"repeat":true,"skippable":false,"wait":false},"moveSpeed":3,"moveType":0,"priorityType":1,"stepAnime":false,"through":false,"trigger":0,"walkAnime":true,"list":[{"code":101,"indent":0,"parameters":["Tyna emo",4,0,2]},{"code":401,"indent":0,"parameters":["Ah, are you leaving?"]},{"code":101,"indent":0,"parameters":["1 Simon dark",0,0,2]},{"code":401,"indent":0,"parameters":["Yes, but we won't be leaving Ardford too soon."]},{"code":101,"indent":0,"parameters":["Tyna emo",4,0,2]},{"code":401,"indent":0,"parameters":["Well, I will keep working here to see that the details are worked out in a satisfactory fashion."]},{"code":101,"indent":0,"parameters":["Tyna emo",0,0,2]},{"code":401,"indent":0,"parameters":["I wish I had gotten a better chance to show my skill to the politicians, but I'm happy to have helped at least a little."]},{"code":123,"indent":0,"parameters":["B",0]},{"code":0,"indent":0,"parameters":[]}]},{"conditions":{"actorId":1,"actorValid":false,"itemId":1,"itemValid":false,"selfSwitchCh":"B","selfSwitchValid":true,"switch1Id":1,"switch1Valid":false,"switch2Id":1,"switch2Valid":false,"variableId":1,"variableValid":false,"variableValue":0},"directionFix":false,"image":{"tileId":0,"characterName":"$Tyna char","direction":2,"pattern":1,"characterIndex":0},"moveFrequency":3,"moveRoute":{"list":[{"code":0,"indent":null,"parameters":[]}],"repeat":true,"skippable":false,"wait":false},"moveSpeed":3,"moveType":0,"priorityType":1,"stepAnime":false,"through":false,"trigger":0,"walkAnime":true,"list":[{"code":101,"indent":0,"parameters":["Tyna emo",0,0,2]},{"code":401,"indent":0,"parameters":["See you later!"]},{"code":0,"indent":0,"parameters":[]}]}],"x":6,"y":5},
{"id":15,"name":"EV015","note":"","pages":[{"conditions":{"actorId":1,"actorValid":false,"itemId":1,"itemValid":false,"selfSwitchCh":"A","selfSwitchValid":false,"switch1Id":1,"switch1Valid":false,"switch2Id":1,"switch2Valid":false,"variableId":1,"variableValid":false,"variableValue":0},"directionFix":false,"image":{"tileId":0,"characterName":"People4","direction":2,"pattern":1,"characterIndex":5},"moveFrequency":3,"moveRoute":{"list":[{"code":0,"indent":null,"parameters":[]}],"repeat":true,"skippable":false,"wait":false},"moveSpeed":3,"moveType":0,"priorityType":1,"stepAnime":false,"through":false,"trigger":0,"walkAnime":true,"list":[{"code":101,"indent":0,"parameters":["People4",5,0,2]},{"code":401,"indent":0,"parameters":[""]},{"code":0,"indent":0,"parameters":[]}]}],"x":18,"y":5},
{"id":16,"name":"EV016","note":"","pages":[{"conditions":{"actorId":1,"actorValid":false,"itemId":1,"itemValid":false,"selfSwitchCh":"A","selfSwitchValid":false,"switch1Id":1,"switch1Valid":false,"switch2Id":1,"switch2Valid":false,"variableId":1,"variableValid":false,"variableValue":0},"directionFix":false,"image":{"tileId":0,"characterName":"People2","direction":2,"pattern":1,"characterIndex":1},"moveFrequency":3,"moveRoute":{"list":[{"code":0,"indent":null,"parameters":[]}],"repeat":true,"skippable":false,"wait":false},"moveSpeed":3,"moveType":0,"priorityType":1,"stepAnime":false,"through":false,"trigger":0,"walkAnime":true,"list":[{"code":101,"indent":0,"parameters":["People2",1,0,2]},{"code":401,"indent":0,"parameters":[""]},{"code":0,"indent":0,"parameters":[]}]}],"x":6,"y":17},
{"id":17,"name":"EV017","note":"","pages":[{"conditions":{"actorId":1,"actorValid":false,"itemId":1,"itemValid":false,"selfSwitchCh":"A","selfSwitchValid":false,"switch1Id":1,"switch1Valid":false,"switch2Id":1,"switch2Valid":false,"variableId":1,"variableValid":false,"variableValue":0},"directionFix":false,"image":{"tileId":0,"characterName":"People2","direction":6,"pattern":1,"characterIndex":1},"moveFrequency":3,"moveRoute":{"list":[{"code":0,"indent":null,"parameters":[]}],"repeat":true,"skippable":false,"wait":false},"moveSpeed":3,"moveType":0,"priorityType":1,"stepAnime":false,"through":false,"trigger":0,"walkAnime":true,"list":[{"code":101,"indent":0,"parameters":["People2",1,0,2]},{"code":401,"indent":0,"parameters":[""]},{"code":0,"indent":0,"parameters":[]}]}],"x":5,"y":18},
{"id":18,"name":"EV018","note":"","pages":[{"conditions":{"actorId":1,"actorValid":false,"itemId":1,"itemValid":false,"selfSwitchCh":"A","selfSwitchValid":false,"switch1Id":1,"switch1Valid":false,"switch2Id":1,"switch2Valid":false,"variableId":1,"variableValid":false,"variableValue":0},"directionFix":false,"image":{"tileId":0,"characterName":"People2","direction":8,"pattern":1,"characterIndex":1},"moveFrequency":3,"moveRoute":{"list":[{"code":0,"indent":null,"parameters":[]}],"repeat":true,"skippable":false,"wait":false},"moveSpeed":3,"moveType":0,"priorityType":1,"stepAnime":false,"through":false,"trigger":0,"walkAnime":true,"list":[{"code":101,"indent":0,"parameters":["People2",1,0,2]},{"code":401,"indent":0,"parameters":[""]},{"code":0,"indent":0,"parameters":[]}]}],"x":6,"y":19},
null,
{"id":20,"name":"EV020","note":"","pages":[{"conditions":{"actorId":1,"actorValid":false,"itemId":1,"itemValid":false,"selfSwitchCh":"A","selfSwitchValid":false,"switch1Id":1,"switch1Valid":false,"switch2Id":1,"switch2Valid":false,"variableId":1,"variableValid":false,"variableValue":0},"directionFix":false,"image":{"tileId":0,"characterName":"People3","direction":6,"pattern":1,"characterIndex":5},"moveFrequency":3,"moveRoute":{"list":[{"code":0,"indent":null,"parameters":[]}],"repeat":true,"skippable":false,"wait":false},"moveSpeed":3,"moveType":1,"priorityType":1,"stepAnime":false,"through":false,"trigger":0,"walkAnime":true,"list":[{"code":101,"indent":0,"parameters":["People3",5,0,2]},{"code":401,"indent":0,"parameters":["Ah, don't mind me. I'm not a representative, I'm just cleaning up between sessions."]},{"code":0,"indent":0,"parameters":[]}]},{"conditions":{"actorId":1,"actorValid":false,"itemId":1,"itemValid":false,"selfSwitchCh":"A","selfSwitchValid":false,"switch1Id":854,"switch1Valid":true,"switch2Id":1,"switch2Valid":false,"variableId":1,"variableValid":false,"variableValue":0},"directionFix":false,"image":{"tileId":0,"characterName":"People3","direction":6,"pattern":1,"characterIndex":5},"moveFrequency":3,"moveRoute":{"list":[{"code":0,"indent":null,"parameters":[]}],"repeat":true,"skippable":false,"wait":false},"moveSpeed":3,"moveType":1,"priorityType":1,"stepAnime":false,"through":false,"trigger":0,"walkAnime":true,"list":[{"code":101,"indent":0,"parameters":["People3",5,0,2]},{"code":401,"indent":0,"parameters":["Thank Ivala this is over... I'm sick of cleaning out these rooms every single day."]},{"code":0,"indent":0,"parameters":[]}]}],"x":17,"y":17},
{"id":21,"name":"NPC Blocker","note":"","pages":[{"conditions":{"actorId":1,"actorValid":false,"itemId":1,"itemValid":false,"selfSwitchCh":"A","selfSwitchValid":false,"switch1Id":1,"switch1Valid":false,"switch2Id":1,"switch2Valid":false,"variableId":1,"variableValid":false,"variableValue":0},"directionFix":false,"image":{"tileId":0,"characterName":"","direction":2,"pattern":0,"characterIndex":0},"moveFrequency":3,"moveRoute":{"list":[{"code":0,"indent":null,"parameters":[]}],"repeat":true,"skippable":false,"wait":false},"moveSpeed":3,"moveType":0,"priorityType":0,"stepAnime":false,"through":false,"trigger":0,"walkAnime":true,"list":[{"code":0,"indent":0,"parameters":[]}]}],"x":16,"y":18},
{"id":22,"name":"EV022","note":"","pages":[{"conditions":{"actorId":1,"actorValid":false,"itemId":1,"itemValid":false,"selfSwitchCh":"A","selfSwitchValid":false,"switch1Id":1,"switch1Valid":false,"switch2Id":1,"switch2Valid":false,"variableId":1,"variableValid":false,"variableValue":0},"directionFix":false,"image":{"tileId":0,"characterName":"People4","direction":8,"pattern":1,"characterIndex":5},"moveFrequency":3,"moveRoute":{"list":[{"code":0,"indent":null,"parameters":[]}],"repeat":true,"skippable":false,"wait":false},"moveSpeed":3,"moveType":0,"priorityType":1,"stepAnime":false,"through":false,"trigger":0,"walkAnime":true,"list":[{"code":101,"indent":0,"parameters":["People4",5,0,2]},{"code":401,"indent":0,"parameters":["Don't bother me, I'm preparing for the next session."]},{"code":0,"indent":0,"parameters":[]}]},{"conditions":{"actorId":1,"actorValid":false,"itemId":1,"itemValid":false,"selfSwitchCh":"A","selfSwitchValid":false,"switch1Id":854,"switch1Valid":true,"switch2Id":1,"switch2Valid":false,"variableId":1,"variableValid":false,"variableValue":0},"directionFix":false,"image":{"tileId":0,"characterName":"","direction":8,"pattern":1,"characterIndex":5},"moveFrequency":3,"moveRoute":{"list":[{"code":0,"indent":null,"parameters":[]}],"repeat":true,"skippable":false,"wait":false},"moveSpeed":3,"moveType":0,"priorityType":0,"stepAnime":false,"through":false,"trigger":0,"walkAnime":true,"list":[{"code":0,"indent":0,"parameters":[]}]}],"x":6,"y":7}
]
}