{
"autoplayBgm":false,"autoplayBgs":false,"battleback1Name":"","battleback2Name":"","bgm":{"name":"","pan":0,"pitch":100,"volume":100},"bgs":{"name":"","pan":0,"pitch":100,"volume":80},"disableDashing":false,"displayName":"","encounterList":[],"encounterStep":30,"height":16,"note":"","parallaxLoopX":false,"parallaxLoopY":false,"parallaxName":"","parallaxShow":false,"parallaxSx":0,"parallaxSy":0,"scrollType":0,"specifyBattleback":false,"tilesetId":34,"width":18,
"data":[0,0,0,0,0,0,0,0,0,0,0,0,0,0,0,0,0,0,0,0,0,0,0,0,0,0,0,0,0,0,0,0,0,0,0,0,0,0,5923,5921,5921,5921,5921,5921,5921,5921,5921,5921,5921,5921,5921,5925,0,0,0,0,5920,6274,6274,6274,6274,6274,6274,6274,6274,6274,6274,6274,6274,5920,0,0,0,0,5920,6280,6280,6280,6280,6280,6280,6280,6280,6280,6280,6280,6280,5920,0,0,0,0,5920,4098,4084,4084,4084,4084,4084,4084,4084,4084,4084,4084,4100,5920,0,0,0,0,5920,4080,4064,4064,4064,4064,4064,4064,4064,4064,4064,4064,4088,5920,0,0,0,0,5920,4080,4064,4064,4064,4064,4064,4064,4064,4064,4064,4064,4088,5920,0,0,0,0,5920,4080,4064,4064,4064,4064,4064,4064,4064,4064,4064,4064,4088,5920,0,0,0,0,5920,4080,4064,4064,4064,4064,4064,4064,4064,4064,4064,4064,4088,5920,0,0,0,0,5920,4104,4092,4092,4092,4092,4072,4068,4092,4092,4092,4092,4102,5920,0,0,0,0,5929,5921,5921,5921,5921,5933,4104,4102,5931,5921,5921,5921,5921,5927,0,0,0,0,6275,6274,6274,6274,6274,6274,6274,6274,6274,6274,6274,6274,6274,6278,0,0,0,0,6281,6280,6280,6280,6280,6280,6280,6280,6280,6280,6280,6280,6280,6284,0,0,0,0,0,0,0,0,0,0,0,0,0,0,0,0,0,0,0,0,0,0,0,0,0,0,0,0,0,0,0,0,0,0,0,0,0,0,0,0,0,0,0,0,0,0,0,0,0,0,0,0,0,0,0,0,0,0,0,0,0,0,0,0,0,0,0,0,0,0,0,0,0,0,0,0,0,0,0,0,0,0,0,0,0,0,0,0,0,0,0,0,0,0,0,0,0,0,0,0,0,0,0,0,0,0,0,0,0,0,0,0,0,0,0,0,0,0,0,0,0,0,0,0,0,0,0,0,0,0,0,0,0,0,0,0,0,0,0,0,0,0,0,0,0,0,0,0,0,0,0,0,0,0,0,0,0,0,0,0,0,0,0,0,0,0,0,0,0,0,0,0,0,0,0,0,0,0,0,0,0,0,0,0,0,0,0,0,0,0,0,0,0,0,0,0,0,0,0,0,0,0,0,0,0,0,0,0,0,0,0,0,0,0,0,0,0,0,0,0,0,0,0,0,0,0,0,0,0,0,0,0,0,0,0,0,0,0,0,0,0,0,0,0,0,0,0,0,0,0,0,0,0,0,0,0,0,0,0,0,0,0,0,0,0,0,0,0,0,0,0,0,0,0,0,0,0,0,0,0,0,0,0,0,0,0,0,0,0,0,0,0,0,0,0,0,0,0,0,0,0,0,0,0,0,0,0,0,0,0,0,0,0,0,0,0,0,0,0,0,0,0,0,0,0,0,0,0,0,0,0,0,0,0,0,0,0,0,0,0,0,0,0,0,0,0,0,0,0,0,0,0,0,0,0,0,0,0,0,0,0,0,0,0,0,0,0,0,0,0,0,0,0,0,0,0,0,0,0,0,0,0,0,0,0,0,0,0,0,0,0,0,0,0,0,0,0,0,0,0,0,0,0,0,0,0,0,0,0,0,0,0,0,0,0,0,0,0,0,0,0,0,0,0,0,0,0,0,0,0,0,0,0,0,0,0,0,0,0,0,0,0,0,0,0,0,0,0,0,0,0,0,0,0,0,0,0,0,0,0,0,0,0,0,0,0,0,0,0,0,0,0,0,0,0,0,0,0,0,0,0,0,0,0,0,0,0,0,0,0,0,0,0,0,0,0,0,0,0,0,0,0,0,0,0,0,0,0,0,0,0,0,0,0,0,0,0,0,0,0,0,0,0,0,0,0,0,0,0,0,0,0,0,0,0,0,0,0,0,0,0,0,0,0,0,0,0,0,0,0,0,0,0,0,0,0,0,0,0,0,0,0,0,0,0,0,0,0,0,0,0,0,0,0,0,0,0,0,0,0,0,0,0,0,0,0,0,0,0,0,0,0,0,0,0,0,0,0,0,0,0,0,0,0,0,0,0,0,0,0,0,0,0,0,0,0,0,0,0,0,0,0,0,0,0,0,0,0,0,0,0,0,0,0,0,0,0,0,0,0,0,0,0,0,0,0,0,0,0,0,0,0,0,0,0,0,0,0,0,0,0,0,0,0,0,0,0,0,0,0,0,0,769,0,769,808,828,829,808,769,0,769,0,0,0,0,0,0,0,0,777,0,777,816,836,837,816,777,0,777,0,0,0,0,0,0,0,0,0,0,0,0,0,0,0,0,0,0,0,0,0,0,0,0,0,0,787,788,789,0,0,0,0,784,0,784,0,0,0,0,0,0,0,0,795,796,797,0,0,0,0,792,0,792,0,0,0,0,0,0,0,791,0,0,0,790,0,0,0,784,640,784,0,0,0,0,0,0,0,799,0,0,0,798,0,0,0,792,0,792,0,0,0,0,0,0,0,807,773,773,773,806,0,0,0,0,0,0,0,0,0,0,0,0,0,0,0,0,0,0,0,0,0,0,0,0,0,0,0,0,0,0,0,0,0,0,0,0,0,0,0,0,0,0,0,0,0,0,0,0,0,0,0,0,0,0,0,0,0,0,0,0,0,0,0,0,0,0,0,0,0,0,0,0,0,0,0,0,0,0,0,0,0,0,0,0,0,0,0,0,0,0,0,0,0,0,0,0,0,0,0,0,0,0,0,0,0,0,0,0,0,0,0,0,0,0,0,0,0,0,0,0,0,0,0,0,0,0,0,0,0,0,0,0,0,0,0,0,0,0,0,0,0,0,0,0,0,0,0,0,0,0,0,0,0,0,0,0,0,0,0,0,0,0,0,0,0,0,0,0,0,0,0,0,0,0,0,0,0,0,0,0,0,0,0,0,0,0,0,0,0,0,0,0,0,5,0,0,0,0,0,0,0,0,0,0,0,0,0,0,0,0,0,5,0,0,0,0,0,0,0,0,0,0,0,0,0,0,0,0,0,5,0,0,0,0,0,0,0,0,0,0,0,0,0,0,0,0,0,5,0,0,0,0,0,0,0,0,0,0,0,0,0,0,0,0,0,5,0,0,0,0,0,0,0,0,0,0,0,0,0,0,0,0,0,5,0,0,0,0,0,0,0,0,0,0,0,0,0,0,0,0,0,0,0,0,0,0,0,0,0,0,0,0,0,0,0,0,0,0,0,0,0,0,0,0,0,0,0,0,0,0,0,0,0,0,0,0,0,0,0,0,0,0,0,0,0,0,0,0,0,0,0,0,0,0,0,0,0,0,0,0,0,0,0,0,0,0,0,0,0,0,0,0,0,0,0,0,0,0,0,0,0,0,0,0,0,0,0,0,0,0,0,0,0,0,0,0,0,0,0,0,0,0,0,0,0,0,0,0,0,0,0,0,0,0,0,0,0,0,0,0,0,0,0,0,0,0,0,0,0,0,0,0,0,0,0,0,0,0,0,0,0,0,0,0,0,0,0,0,0,0,0,0,0,0,0,0,0,0,0,0,0,0,0,0,0,0,0,0,0,0,0,0,0,0,0,0,0,0,0,0,0,0,0,0,0,0,0,0,0,0,0,0,0,0,0,0,0,0,0,0,0,0,0,0,0,0,0,0,0,0,0,0,0,0,0,0,0,0,0,0,0,0,0,0,0,0,0,0,0,0,0,0,0,0,0,0,0,0,0,0,0,0,0,0,0,0,0,0,0,0,0,0,0,0,0,0,0,0,0,0,0,0,0,0,0,0,0,0,0,0,0,0,0,0,0,0,0,0,0,0,0,0,0,0,0,0,0,0,0,0,0,0,0,0,0,0,0,0,0,0,0,0,0,0,0,0,0,0,0,0,0,0,0,0,0,0,0,0,0,0,0,0,0,0,0,0,0,0,0,0,0,0,0,0,0,0,0,0,0,0,0,0,0,0,0,0,0,0,0,0,0,0,0,0,0,0,0,0,0,0,0,0,0,0,0,0,0,0,0,0,0,0,0,0,0,0],
"events":[
null,
{"id":1,"name":"Yhilin Ambassador","note":"","pages":[{"conditions":{"actorId":1,"actorValid":false,"itemId":1,"itemValid":false,"selfSwitchCh":"A","selfSwitchValid":false,"switch1Id":381,"switch1Valid":false,"switch2Id":1,"switch2Valid":false,"variableId":1,"variableValid":false,"variableValue":0},"directionFix":false,"image":{"tileId":0,"characterName":"Y DS_chara04","direction":8,"pattern":1,"characterIndex":3},"moveFrequency":3,"moveRoute":{"list":[{"code":0,"indent":null,"parameters":[]}],"repeat":true,"skippable":false,"wait":false},"moveSpeed":4,"moveType":0,"priorityType":1,"stepAnime":false,"through":false,"trigger":0,"walkAnime":true,"list":[{"code":101,"indent":0,"parameters":["1 Simon dark",0,0,2]},{"code":401,"indent":0,"parameters":["Despite the length of time we've been traveling together, I don't believe we've really met."]},{"code":111,"indent":0,"parameters":[0,459,0]},{"code":101,"indent":1,"parameters":["Y DS_Actor04",3,0,2]},{"code":401,"indent":1,"parameters":["We haven't, but I have met some of your comrades. The fact that they speak well of you itself speaks well of you."]},{"code":101,"indent":1,"parameters":["1 Simon dark",1,0,2]},{"code":401,"indent":1,"parameters":["I'm glad to hear it. But I wanted to discuss our strategy during the summit."]},{"code":0,"indent":1,"parameters":[]},{"code":411,"indent":0,"parameters":[]},{"code":101,"indent":1,"parameters":["Y DS_Actor04",3,0,2]},{"code":401,"indent":1,"parameters":["That's true, we haven't. If Queen Janine wants you along, we really should speak."]},{"code":101,"indent":1,"parameters":["1 Simon dark",0,0,2]},{"code":401,"indent":1,"parameters":["We'll be working together a great deal, if we're attending the summit together."]},{"code":0,"indent":1,"parameters":[]},{"code":412,"indent":0,"parameters":[]},{"code":101,"indent":0,"parameters":["Y DS_Actor04",3,0,2]},{"code":401,"indent":0,"parameters":["Yes, this summit... it will be quite a strange affair."]},{"code":101,"indent":0,"parameters":["Y DS_Actor04",3,0,2]},{"code":401,"indent":0,"parameters":["No leaders were trusting enough to come in person, so it will all be through proxies."]},{"code":101,"indent":0,"parameters":["Y DS_Actor04",3,0,2]},{"code":401,"indent":0,"parameters":["I can speak to the Queen via mage if necessary, but ultimately I will have to make the best decisions I can."]},{"code":101,"indent":0,"parameters":["Y DS_Actor04",3,0,2]},{"code":401,"indent":0,"parameters":["And they ARE my decisions. If the Queen wants you here, I'll take your words seriously, but ultimately I'll be the one casting the votes."]},{"code":101,"indent":0,"parameters":["1 Simon dark",0,0,2]},{"code":401,"indent":0,"parameters":["I feel certain we want most of the same things."]},{"code":101,"indent":0,"parameters":["Y DS_Actor04",3,0,2]},{"code":401,"indent":0,"parameters":["Yes, but the remaining things and how we get them... that's why we need a summit."]},{"code":101,"indent":0,"parameters":["1 Simon dark",0,0,2]},{"code":401,"indent":0,"parameters":["Will you be able to speak with us before the voting sessions?"]},{"code":101,"indent":0,"parameters":["Y DS_Actor04",3,0,2]},{"code":401,"indent":0,"parameters":["I understand that each day we'll decide the next day's agenda, so yes, we should be able to discuss it."]},{"code":101,"indent":0,"parameters":["1 Simon dark",0,0,2]},{"code":401,"indent":0,"parameters":["Good. I look forward to working with you."]},{"code":101,"indent":0,"parameters":["Y DS_Actor04",3,0,2]},{"code":401,"indent":0,"parameters":["Likewise."]},{"code":123,"indent":0,"parameters":["A",0]},{"code":121,"indent":0,"parameters":[744,744,0]},{"code":0,"indent":0,"parameters":[]}]},{"conditions":{"actorId":1,"actorValid":false,"itemId":1,"itemValid":false,"selfSwitchCh":"A","selfSwitchValid":true,"switch1Id":381,"switch1Valid":false,"switch2Id":1,"switch2Valid":false,"variableId":1,"variableValid":false,"variableValue":0},"directionFix":false,"image":{"tileId":0,"characterName":"Y DS_chara04","direction":8,"pattern":1,"characterIndex":3},"moveFrequency":3,"moveRoute":{"list":[{"code":0,"indent":null,"parameters":[]}],"repeat":true,"skippable":false,"wait":false},"moveSpeed":4,"moveType":0,"priorityType":1,"stepAnime":false,"through":false,"trigger":0,"walkAnime":true,"list":[{"code":101,"indent":0,"parameters":["Y DS_Actor04",3,0,2]},{"code":401,"indent":0,"parameters":["To be honest, I'm nervous. I've been ambassador to Ardoheim a long time, but this will be by far the most serious task I've undertaken."]},{"code":0,"indent":0,"parameters":[]}]}],"x":8,"y":5},
{"id":2,"name":"EV002","note":"","pages":[{"conditions":{"actorId":1,"actorValid":false,"itemId":1,"itemValid":false,"selfSwitchCh":"A","selfSwitchValid":false,"switch1Id":1,"switch1Valid":false,"switch2Id":1,"switch2Valid":false,"variableId":1,"variableValid":false,"variableValue":0},"directionFix":false,"image":{"tileId":0,"characterName":"","direction":2,"pattern":0,"characterIndex":0},"moveFrequency":3,"moveRoute":{"list":[{"code":0,"indent":null,"parameters":[]}],"repeat":true,"skippable":false,"wait":false},"moveSpeed":3,"moveType":0,"priorityType":1,"stepAnime":false,"through":false,"trigger":0,"walkAnime":true,"list":[{"code":101,"indent":0,"parameters":["1 Simon dark",0,0,2]},{"code":401,"indent":0,"parameters":["A sacred book of an Ivalan sect. It doesn't hold anything for me."]},{"code":0,"indent":0,"parameters":[]}]}],"x":12,"y":8},
{"id":3,"name":"EV003","note":"","pages":[{"conditions":{"actorId":1,"actorValid":false,"itemId":1,"itemValid":false,"selfSwitchCh":"A","selfSwitchValid":false,"switch1Id":1,"switch1Valid":false,"switch2Id":1,"switch2Valid":false,"variableId":1,"variableValid":false,"variableValue":0},"directionFix":false,"image":{"tileId":0,"characterName":"","direction":2,"pattern":0,"characterIndex":0},"moveFrequency":3,"moveRoute":{"list":[{"code":0,"indent":null,"parameters":[]}],"repeat":true,"skippable":false,"wait":false},"moveSpeed":3,"moveType":0,"priorityType":0,"stepAnime":false,"through":false,"trigger":1,"walkAnime":true,"list":[{"code":250,"indent":0,"parameters":[{"name":"Move","pan":0,"pitch":100,"volume":80}]},{"code":201,"indent":0,"parameters":[0,224,12,8,0,0]},{"code":0,"indent":0,"parameters":[]}]}],"x":8,"y":11},
{"id":4,"name":"EV004","note":"","pages":[{"conditions":{"actorId":1,"actorValid":false,"itemId":1,"itemValid":false,"selfSwitchCh":"A","selfSwitchValid":false,"switch1Id":1,"switch1Valid":false,"switch2Id":1,"switch2Valid":false,"variableId":1,"variableValid":false,"variableValue":0},"directionFix":false,"image":{"tileId":0,"characterName":"","direction":2,"pattern":0,"characterIndex":0},"moveFrequency":3,"moveRoute":{"list":[{"code":0,"indent":null,"parameters":[]}],"repeat":true,"skippable":false,"wait":false},"moveSpeed":3,"moveType":0,"priorityType":0,"stepAnime":false,"through":false,"trigger":1,"walkAnime":true,"list":[{"code":250,"indent":0,"parameters":[{"name":"Move","pan":0,"pitch":100,"volume":80}]},{"code":201,"indent":0,"parameters":[0,224,13,8,0,0]},{"code":0,"indent":0,"parameters":[]}]}],"x":9,"y":11},
{"id":5,"name":"Chapter End","note":"","pages":[{"conditions":{"actorId":1,"actorValid":false,"itemId":1,"itemValid":false,"selfSwitchCh":"A","selfSwitchValid":false,"switch1Id":858,"switch1Valid":true,"switch2Id":1,"switch2Valid":false,"variableId":1,"variableValid":false,"variableValue":0},"directionFix":false,"image":{"tileId":0,"characterName":"","direction":2,"pattern":0,"characterIndex":0},"moveFrequency":3,"moveRoute":{"list":[{"code":0,"indent":null,"parameters":[]}],"repeat":true,"skippable":false,"wait":false},"moveSpeed":3,"moveType":0,"priorityType":0,"stepAnime":false,"through":false,"trigger":3,"walkAnime":true,"list":[{"code":230,"indent":0,"parameters":[60]},{"code":250,"indent":0,"parameters":[{"name":"Move","pan":0,"pitch":100,"volume":80}]},{"code":230,"indent":0,"parameters":[60]},{"code":101,"indent":0,"parameters":["Aka emo",4,0,2]},{"code":401,"indent":0,"parameters":["This trip is so long..."]},{"code":101,"indent":0,"parameters":["Yarra emo",5,0,2]},{"code":401,"indent":0,"parameters":["Seriously. I look forward to the day when we have a better method."]},{"code":111,"indent":0,"parameters":[0,804,0]},{"code":111,"indent":1,"parameters":[0,805,0]},{"code":111,"indent":2,"parameters":[0,888,0]},{"code":111,"indent":3,"parameters":[0,890,0]},{"code":101,"indent":4,"parameters":["Yarra emo2",6,0,2]},{"code":401,"indent":4,"parameters":["But I have something in mind to make the next part of the trip a lot more fun..."]},{"code":230,"indent":4,"parameters":[60]},{"code":117,"indent":4,"parameters":[166]},{"code":356,"indent":4,"parameters":["AddCommonEventMenu 166"]},{"code":121,"indent":4,"parameters":[900,900,0]},{"code":122,"indent":4,"parameters":[101,101,1,0,2]},{"code":122,"indent":4,"parameters":[103,103,1,0,2]},{"code":122,"indent":4,"parameters":[105,105,1,0,2]},{"code":122,"indent":4,"parameters":[109,109,1,0,2]},{"code":122,"indent":4,"parameters":[113,113,1,0,2]},{"code":122,"indent":4,"parameters":[117,117,1,0,5]},{"code":122,"indent":4,"parameters":[127,127,1,0,2]},{"code":111,"indent":4,"parameters":[0,263,0]},{"code":122,"indent":5,"parameters":[123,123,1,0,2]},{"code":0,"indent":5,"parameters":[]},{"code":411,"indent":4,"parameters":[]},{"code":122,"indent":5,"parameters":[123,123,1,0,5]},{"code":0,"indent":5,"parameters":[]},{"code":412,"indent":4,"parameters":[]},{"code":230,"indent":4,"parameters":[60]},{"code":0,"indent":4,"parameters":[]},{"code":411,"indent":3,"parameters":[]},{"code":101,"indent":4,"parameters":["Yarra emo",6,0,2]},{"code":401,"indent":4,"parameters":["Guess we just have to look forward to working the kinks out, if you know what I mean."]},{"code":0,"indent":4,"parameters":[]},{"code":412,"indent":3,"parameters":[]},{"code":0,"indent":3,"parameters":[]},{"code":411,"indent":2,"parameters":[]},{"code":101,"indent":3,"parameters":["Yarra emo",6,0,2]},{"code":401,"indent":3,"parameters":["Guess we just have to look forward to working the kinks out, if you know what I mean."]},{"code":0,"indent":3,"parameters":[]},{"code":412,"indent":2,"parameters":[]},{"code":0,"indent":2,"parameters":[]},{"code":411,"indent":1,"parameters":[]},{"code":101,"indent":2,"parameters":["Yarra emo",6,0,2]},{"code":401,"indent":2,"parameters":["Guess we just have to look forward to working the kinks out, if you know what I mean."]},{"code":0,"indent":2,"parameters":[]},{"code":412,"indent":1,"parameters":[]},{"code":0,"indent":1,"parameters":[]},{"code":411,"indent":0,"parameters":[]},{"code":101,"indent":1,"parameters":["Yarra emo",6,0,2]},{"code":401,"indent":1,"parameters":["Guess we just have to look forward to working the kinks out, if you know what I mean."]},{"code":0,"indent":1,"parameters":[]},{"code":412,"indent":0,"parameters":[]},{"code":230,"indent":0,"parameters":[60]},{"code":250,"indent":0,"parameters":[{"name":"Move","pan":0,"pitch":100,"volume":80}]},{"code":230,"indent":0,"parameters":[60]},{"code":101,"indent":0,"parameters":["Nalili emo1",5,0,2]},{"code":401,"indent":0,"parameters":["Oh, Simon! I'm glad we're in the same carriage again!"]},{"code":111,"indent":0,"parameters":[0,900,0]},{"code":101,"indent":1,"parameters":["1 Simon dark",0,0,2]},{"code":401,"indent":1,"parameters":["Don't tell me you expect a repeat of the previous orgy..."]},{"code":0,"indent":1,"parameters":[]},{"code":411,"indent":0,"parameters":[]},{"code":101,"indent":1,"parameters":["1 Simon dark",0,0,2]},{"code":401,"indent":1,"parameters":["I'm not sure this is the best place to have sex..."]},{"code":0,"indent":1,"parameters":[]},{"code":412,"indent":0,"parameters":[]},{"code":101,"indent":0,"parameters":["Nalili emo2",5,0,2]},{"code":401,"indent":0,"parameters":["No, no, silly, I have something serious to talk about this time!"]},{"code":101,"indent":0,"parameters":["Nalili emo1",4,0,2]},{"code":401,"indent":0,"parameters":["I know I'm not as strong as your other fighters. But I understand we're going to spend a while on preparation."]},{"code":101,"indent":0,"parameters":["Nalili emo1",1,0,2]},{"code":401,"indent":0,"parameters":["So I thought I could spend it training to try to catch up!"]},{"code":101,"indent":0,"parameters":["1 Simon dark",1,0,2]},{"code":401,"indent":0,"parameters":["That's a good idea."]},{"code":101,"indent":0,"parameters":["Nalili emo1",5,0,2]},{"code":401,"indent":0,"parameters":["Thanks!"]},{"code":101,"indent":0,"parameters":["Nalili emo1",3,0,2]},{"code":401,"indent":0,"parameters":["But... I'm not sure who I should train with. Do you have any ideas?"]},{"code":102,"indent":0,"parameters":[["Train with Aka","Train with Hilstara","Train with Varia","Train with me"],-1,0,2,0]},{"code":402,"indent":0,"parameters":[0,"Train with Aka"]},{"code":121,"indent":1,"parameters":[798,798,0]},{"code":101,"indent":1,"parameters":["Nalili emo1",5,0,2]},{"code":401,"indent":1,"parameters":["Great! I really like Aka, she fights a lot like me!"]},{"code":122,"indent":1,"parameters":[127,127,1,0,3]},{"code":122,"indent":1,"parameters":[101,101,1,0,2]},{"code":0,"indent":1,"parameters":[]},{"code":402,"indent":0,"parameters":[1,"Train with Hilstara"]},{"code":121,"indent":1,"parameters":[799,799,0]},{"code":101,"indent":1,"parameters":["Nalili emo1",1,0,2]},{"code":401,"indent":1,"parameters":["Okay! She has a lot of experience, maybe I can learn more about how humans fight!"]},{"code":122,"indent":1,"parameters":[127,127,1,0,2]},{"code":122,"indent":1,"parameters":[109,109,1,0,3]},{"code":0,"indent":1,"parameters":[]},{"code":402,"indent":0,"parameters":[2,"Train with Varia"]},{"code":121,"indent":1,"parameters":[800,800,0]},{"code":111,"indent":1,"parameters":[0,263,0]},{"code":101,"indent":2,"parameters":["Nalili emo1",2,0,2]},{"code":401,"indent":2,"parameters":["The fucktoy, really?"]},{"code":101,"indent":2,"parameters":["Nalili emo1",1,0,2]},{"code":401,"indent":2,"parameters":["Well, I'll do my best to learn everything I can from her!"]},{"code":122,"indent":2,"parameters":[127,127,2,0,2]},{"code":122,"indent":2,"parameters":[123,123,2,0,3]},{"code":0,"indent":2,"parameters":[]},{"code":411,"indent":1,"parameters":[]},{"code":101,"indent":2,"parameters":["Nalili emo1",1,0,2]},{"code":401,"indent":2,"parameters":["Okay! She's pretty dangerous, fighting with two weapons at once, maybe that'll be fun!"]},{"code":122,"indent":2,"parameters":[127,127,1,0,2]},{"code":122,"indent":2,"parameters":[123,123,1,0,3]},{"code":0,"indent":2,"parameters":[]},{"code":412,"indent":1,"parameters":[]},{"code":0,"indent":1,"parameters":[]},{"code":402,"indent":0,"parameters":[3,"Train with me"]},{"code":101,"indent":1,"parameters":["Nalili emo1",7,0,2]},{"code":401,"indent":1,"parameters":["Aww, that's nice of you..."]},{"code":101,"indent":1,"parameters":["Nalili emo1",4,0,2]},{"code":401,"indent":1,"parameters":["But seriously, I know you'll be super busy. You have a great harem, make use of it!"]},{"code":122,"indent":1,"parameters":[127,127,1,0,5]},{"code":102,"indent":1,"parameters":[["Train with Aka","Train with Hilstara","Train with Varia"],-1,0,2,0]},{"code":402,"indent":1,"parameters":[0,"Train with Aka"]},{"code":121,"indent":2,"parameters":[798,798,0]},{"code":101,"indent":2,"parameters":["Nalili emo1",5,0,2]},{"code":401,"indent":2,"parameters":["Great! I really like Aka, she fights a lot like me!"]},{"code":122,"indent":2,"parameters":[127,127,1,0,1]},{"code":122,"indent":2,"parameters":[101,101,1,0,1]},{"code":0,"indent":2,"parameters":[]},{"code":402,"indent":1,"parameters":[1,"Train with Hilstara"]},{"code":121,"indent":2,"parameters":[799,799,0]},{"code":101,"indent":2,"parameters":["Nalili emo1",1,0,2]},{"code":401,"indent":2,"parameters":["Okay! She has a lot of experience, maybe I can learn more about how humans fight!"]},{"code":122,"indent":2,"parameters":[109,109,1,0,1]},{"code":0,"indent":2,"parameters":[]},{"code":402,"indent":1,"parameters":[2,"Train with Varia"]},{"code":121,"indent":2,"parameters":[800,800,0]},{"code":111,"indent":2,"parameters":[0,263,0]},{"code":101,"indent":3,"parameters":["Nalili emo1",2,0,2]},{"code":401,"indent":3,"parameters":["The fucktoy, really?"]},{"code":101,"indent":3,"parameters":["Nalili emo1",1,0,2]},{"code":401,"indent":3,"parameters":["Well, I'll do my best to learn everything I can from her!"]},{"code":122,"indent":3,"parameters":[127,127,2,0,1]},{"code":122,"indent":3,"parameters":[123,123,2,0,2]},{"code":0,"indent":3,"parameters":[]},{"code":411,"indent":2,"parameters":[]},{"code":101,"indent":3,"parameters":["Nalili emo1",1,0,2]},{"code":401,"indent":3,"parameters":["Okay! She's pretty dangerous, fighting with two weapons at once, maybe that'll be fun!"]},{"code":122,"indent":3,"parameters":[123,123,1,0,1]},{"code":0,"indent":3,"parameters":[]},{"code":412,"indent":2,"parameters":[]},{"code":0,"indent":2,"parameters":[]},{"code":404,"indent":1,"parameters":[]},{"code":0,"indent":1,"parameters":[]},{"code":404,"indent":0,"parameters":[]},{"code":101,"indent":0,"parameters":["Nalili emo1",5,0,2]},{"code":401,"indent":0,"parameters":["Maybe by the time you're ready to start the big plan, I'll be more help!"]},{"code":101,"indent":0,"parameters":["1 Simon dark",1,0,2]},{"code":401,"indent":0,"parameters":["I look forward to seeing your progress."]},{"code":230,"indent":0,"parameters":[60]},{"code":250,"indent":0,"parameters":[{"name":"Move","pan":0,"pitch":100,"volume":80}]},{"code":230,"indent":0,"parameters":[60]},{"code":101,"indent":0,"parameters":["Y DS_Actor04",3,0,2]},{"code":401,"indent":0,"parameters":["Ah, here we are. Simon, would you come this way?"]},{"code":203,"indent":0,"parameters":[1,0,12,7,2]},{"code":201,"indent":0,"parameters":[0,225,12,9,8,2]},{"code":222,"indent":0,"parameters":[]},{"code":101,"indent":0,"parameters":["Y DS_Actor04",3,0,2]},{"code":401,"indent":0,"parameters":["This text has been made into a magical channel to Queen Janine. We've discussed business, but she wanted to speak to you."]},{"code":101,"indent":0,"parameters":["1 Simon dark",0,0,2]},{"code":401,"indent":0,"parameters":["Then I'm happy to speak with her."]},{"code":101,"indent":0,"parameters":["Y DS_Actor04",3,0,2]},{"code":401,"indent":0,"parameters":["She wanted it to be alone, so... I'll be on my way. Janine will start the connection once it's ready."]},{"code":205,"indent":0,"parameters":[1,{"list":[{"code":37,"indent":null,"parameters":[]},{"code":4,"indent":null,"parameters":[]},{"code":2,"indent":null,"parameters":[]},{"code":2,"indent":null,"parameters":[]},{"code":2,"indent":null,"parameters":[]},{"code":1,"indent":null,"parameters":[]},{"code":1,"indent":null,"parameters":[]},{"code":1,"indent":null,"parameters":[]},{"code":1,"indent":null,"parameters":[]},{"code":1,"indent":null,"parameters":[]},{"code":39,"indent":null,"parameters":[]},{"code":0,"indent":null,"parameters":[]}],"repeat":false,"skippable":false,"wait":true}]},{"code":505,"indent":0,"parameters":[{"code":37,"indent":null,"parameters":[]}]},{"code":505,"indent":0,"parameters":[{"code":4,"indent":null,"parameters":[]}]},{"code":505,"indent":0,"parameters":[{"code":2,"indent":null,"parameters":[]}]},{"code":505,"indent":0,"parameters":[{"code":2,"indent":null,"parameters":[]}]},{"code":505,"indent":0,"parameters":[{"code":2,"indent":null,"parameters":[]}]},{"code":505,"indent":0,"parameters":[{"code":1,"indent":null,"parameters":[]}]},{"code":505,"indent":0,"parameters":[{"code":1,"indent":null,"parameters":[]}]},{"code":505,"indent":0,"parameters":[{"code":1,"indent":null,"parameters":[]}]},{"code":505,"indent":0,"parameters":[{"code":1,"indent":null,"parameters":[]}]},{"code":505,"indent":0,"parameters":[{"code":1,"indent":null,"parameters":[]}]},{"code":505,"indent":0,"parameters":[{"code":39,"indent":null,"parameters":[]}]},{"code":101,"indent":0,"parameters":["1 Simon dark",0,0,2]},{"code":401,"indent":0,"parameters":["..."]},{"code":101,"indent":0,"parameters":["Janine emo2",0,0,2]},{"code":401,"indent":0,"parameters":["Simon?"]},{"code":101,"indent":0,"parameters":["1 Simon dark",4,0,2]},{"code":401,"indent":0,"parameters":["I'm here, Janine."]},{"code":101,"indent":0,"parameters":["Janine emo3",1,0,2]},{"code":401,"indent":0,"parameters":["You have no idea how good it is to hear your voice again."]},{"code":101,"indent":0,"parameters":["Janine emo3",5,0,2]},{"code":401,"indent":0,"parameters":["So much has happened during the summit... I want to talk to you about everything."]},{"code":101,"indent":0,"parameters":["Janine emo2",0,0,2]},{"code":401,"indent":0,"parameters":["But there's a small chance of our discussion being overheard, so we can't risk it. I have only one thing to say."]},{"code":101,"indent":0,"parameters":["1 Simon dark",0,0,2]},{"code":401,"indent":0,"parameters":["...yes?"]},{"code":101,"indent":0,"parameters":["Janine emo2",5,0,2]},{"code":401,"indent":0,"parameters":["The situation in Yhilin has grown worse. I fear unless something happens to disrupt the status quo, it will bring our nation to ruin."]},{"code":101,"indent":0,"parameters":["Janine emo2",0,0,2]},{"code":401,"indent":0,"parameters":["Will something like that happen?"]},{"code":101,"indent":0,"parameters":["1 Simon dark",0,0,2]},{"code":401,"indent":0,"parameters":["Yes. And soon."]},{"code":101,"indent":0,"parameters":["Janine emo3",1,0,2]},{"code":401,"indent":0,"parameters":["Truly?"]},{"code":101,"indent":0,"parameters":["1 Simon dark",0,0,2]},{"code":401,"indent":0,"parameters":["Our work has been long delayed. But our preparations are almost at an end."]},{"code":101,"indent":0,"parameters":["1 Simon dark",0,0,2]},{"code":401,"indent":0,"parameters":["It's time for Yhilin to have a King again."]},{"code":242,"indent":0,"parameters":[3]},{"code":223,"indent":0,"parameters":[[-255,-255,-255,0],240,true]},{"code":231,"indent":0,"parameters":[1,"chapterend",0,0,0,0,100,100,255,0]},{"code":230,"indent":0,"parameters":[120]},{"code":221,"indent":0,"parameters":[]},{"code":223,"indent":0,"parameters":[[0,0,0,0],1,true]},{"code":235,"indent":0,"parameters":[1]},{"code":201,"indent":0,"parameters":[0,257,8,6,0,2]},{"code":205,"indent":0,"parameters":[-1,{"list":[{"code":39,"indent":null,"parameters":[]},{"code":0,"indent":null,"parameters":[]}],"repeat":false,"skippable":false,"wait":true}]},{"code":505,"indent":0,"parameters":[{"code":39,"indent":null,"parameters":[]}]},{"code":222,"indent":0,"parameters":[]},{"code":123,"indent":0,"parameters":["A",0]},{"code":0,"indent":0,"parameters":[]}]},{"conditions":{"actorId":1,"actorValid":false,"itemId":1,"itemValid":false,"selfSwitchCh":"A","selfSwitchValid":true,"switch1Id":1,"switch1Valid":false,"switch2Id":1,"switch2Valid":false,"variableId":1,"variableValid":false,"variableValue":0},"directionFix":false,"image":{"tileId":0,"characterName":"","direction":2,"pattern":0,"characterIndex":0},"moveFrequency":3,"moveRoute":{"list":[{"code":0,"indent":null,"parameters":[]}],"repeat":true,"skippable":false,"wait":false},"moveSpeed":3,"moveType":0,"priorityType":0,"stepAnime":false,"through":false,"trigger":0,"walkAnime":true,"list":[{"code":0,"indent":0,"parameters":[]}]}],"x":0,"y":0}
]
}