{
"autoplayBgm":false,"autoplayBgs":false,"battleback1Name":"","battleback2Name":"","bgm":{"name":"","pan":0,"pitch":100,"volume":100},"bgs":{"name":"","pan":0,"pitch":100,"volume":80},"disableDashing":false,"displayName":"Archon Inn: Wynn's Room","encounterList":[],"encounterStep":30,"height":15,"note":"","parallaxLoopX":false,"parallaxLoopY":false,"parallaxName":"","parallaxShow":false,"parallaxSx":0,"parallaxSy":0,"scrollType":0,"specifyBattleback":false,"tilesetId":11,"width":18,
"data":[0,0,0,0,0,0,0,0,0,0,0,0,0,0,0,0,0,0,0,0,0,0,0,0,0,0,0,0,0,0,0,0,0,0,0,0,0,0,6835,6833,6833,6833,6833,6823,6833,6833,6833,6823,6833,6833,6833,6837,0,0,0,0,6832,5602,5602,5602,5602,6832,5602,5602,5602,6832,5602,5602,5602,6832,0,0,0,0,6832,5608,5608,5608,5608,6832,5608,5608,5608,6832,5608,5608,5608,6832,0,0,0,0,6832,1568,1568,1568,1568,6832,1568,1568,1568,6832,1568,1568,1568,6832,0,0,0,0,6832,1568,1568,1568,1568,6844,1568,1568,1568,6844,1568,1568,1568,6832,0,0,0,0,6832,1568,1568,1568,1568,5607,1568,1568,1568,5607,1568,1568,1568,6832,0,0,0,0,6832,1568,1568,1568,1568,5613,1568,1568,1568,5613,1568,1568,1568,6832,0,0,0,0,6832,1568,1568,1568,1568,1568,1568,1568,1568,1568,1568,1568,1568,6832,0,0,0,0,6841,6833,6833,6833,6833,6833,6833,6833,6833,6833,6833,6833,6833,6839,0,0,0,0,5603,5602,5602,5602,5602,5602,5602,5602,5602,5602,5602,5602,5602,5606,0,0,0,0,5609,5608,5608,5608,5608,5608,5608,5608,5608,5608,5608,5608,5608,5612,0,0,0,0,0,0,0,0,0,0,0,0,0,0,0,0,0,0,0,0,0,0,0,0,0,0,0,0,0,0,0,0,0,0,0,0,0,0,0,0,0,0,0,0,0,0,0,0,0,0,0,0,0,0,0,0,0,0,0,0,0,0,0,0,0,0,0,0,0,0,0,0,0,0,0,0,0,0,0,0,0,0,0,0,0,0,0,0,0,0,0,0,0,0,0,0,0,0,0,0,0,0,0,0,0,0,0,0,0,0,0,0,0,0,0,0,0,0,0,0,0,0,0,0,0,0,0,0,0,0,0,3906,3892,3892,3908,0,0,0,0,0,0,0,0,0,0,0,0,0,0,3888,3872,3872,3896,0,0,3579,3581,0,0,0,0,0,0,0,0,0,0,3888,3872,3872,3896,0,0,0,0,0,0,0,0,0,0,0,0,0,0,3888,3872,3872,3896,0,0,0,0,0,0,0,0,0,0,0,0,0,0,3912,3900,3900,3910,0,0,0,0,0,0,0,0,0,0,0,0,0,0,0,0,0,0,0,0,0,0,0,0,0,0,0,0,0,0,0,0,0,0,0,0,0,0,0,0,0,0,0,0,0,0,0,0,0,0,0,0,0,0,0,0,0,0,0,0,0,0,0,0,0,0,0,0,0,0,0,0,0,0,0,0,0,0,0,0,0,0,0,0,0,0,0,0,0,0,0,0,0,0,0,0,0,0,0,0,0,0,0,0,0,0,0,0,0,0,0,0,0,0,0,0,0,0,0,0,0,0,0,0,0,0,0,0,0,0,0,0,0,0,0,0,0,0,0,0,0,0,0,0,0,0,0,0,0,0,0,0,0,0,0,0,0,0,0,0,0,0,0,0,0,0,0,0,0,0,0,0,0,0,0,0,0,0,0,0,0,0,0,0,0,0,0,0,0,0,0,0,0,0,0,0,0,0,0,0,0,0,0,0,0,0,0,0,0,0,0,0,0,0,0,0,0,0,0,0,0,0,0,0,0,0,0,0,0,0,0,0,0,0,0,0,0,0,0,0,0,0,0,0,0,0,0,0,0,0,0,0,0,0,0,0,0,0,0,0,0,0,0,0,0,0,0,0,0,0,0,0,0,0,0,0,0,0,0,0,0,0,0,0,0,0,0,0,0,0,0,0,0,0,0,0,0,0,0,0,0,0,0,0,0,0,0,0,0,0,0,0,0,0,0,0,0,0,0,0,0,0,0,0,0,0,0,0,0,0,0,0,0,0,0,0,0,0,0,0,0,0,0,0,0,0,0,0,0,0,0,0,0,0,0,0,0,0,0,0,0,0,0,0,0,0,0,0,0,0,0,0,0,0,0,0,0,0,0,0,0,0,0,0,0,0,0,0,0,0,0,0,0,0,0,0,0,0,0,0,0,0,0,0,0,0,0,0,0,0,0,0,0,0,0,0,0,0,0,0,0,0,0,0,0,0,0,0,0,935,935,0,0,0,532,0,0,0,934,0,0,0,0,0,0,0,656,741,676,644,0,0,0,0,0,0,0,0,0,0,0,0,0,0,664,0,684,652,0,0,0,0,0,931,932,933,0,0,0,0,0,0,672,0,685,0,0,0,0,738,0,939,940,941,0,0,0,0,0,0,662,0,0,0,0,0,0,0,0,0,0,0,0,0,0,0,0,0,670,0,0,0,0,0,0,0,0,0,0,0,0,0,0,0,0,0,678,0,0,0,0,0,513,0,0,0,0,0,0,0,0,0,0,0,0,0,0,0,0,0,0,0,0,0,0,0,0,0,0,0,0,0,0,0,0,0,0,0,0,0,0,0,0,0,0,0,0,0,0,0,0,0,0,0,0,0,0,0,0,0,0,0,0,0,0,0,0,0,0,0,0,0,0,0,0,0,0,0,0,0,0,0,0,0,0,0,0,0,0,0,0,0,0,0,0,0,0,0,0,0,0,0,0,0,0,0,0,0,0,0,0,0,0,0,0,0,0,0,0,0,0,0,0,0,0,0,0,0,0,0,0,0,0,0,0,0,0,0,0,0,0,0,0,0,0,0,0,0,0,0,0,0,0,0,0,0,0,0,0,0,0,0,0,0,0,0,0,0,0,0,0,0,0,0,0,0,0,0,0,0,0,0,0,0,0,0,0,0,0,0,0,0,0,0,5,0,0,0,0,5,0,0,0,5,0,0,0,0,0,0,0,0,5,0,0,0,0,5,0,0,0,5,0,0,0,0,0,0,0,0,5,0,0,0,0,5,0,0,0,5,0,0,0,0,0,0,0,0,5,0,0,0,0,5,0,0,0,5,0,0,0,0,0,0,0,0,5,0,0,0,0,0,0,0,0,0,0,0,0,0,0,0,0,0,0,0,0,0,0,0,0,0,0,0,0,0,0,0,0,0,0,0,0,0,0,0,0,0,0,0,0,0,0,0,0,0,0,0,0,0,0,0,0,0,0,0,0,0,0,0,0,0,0,0,0,0,0,0,0,0,0,0,0,0,0,0,0,0,0,0,0,0,0,0,0,0,0,0,0,0,0,0,0,0,0,0,0,0,0,0,0,0,0,0,0,0,0,0,0,0,0,0,0,0,0,0,0,0,0,0,0,0,0,0,0,0,0,0,0,0,0,0,0,0,0,0,0,0,0,0,0,0,0,0,0,0,0,0,0,0,0,0,0,0,0,0,0,0,0,0,0,0,0,0,0,0,0,0,0,0,0,0,0,0,0,0,0,0,0,0,0,0,0,0,0,0,0,0,0,0,0,0,0,0,0,0,0,0,0,0,0,0,0,0,0,0,0,0,0,0,0,0,0,0,0,0,0,0,0,0,0,0,0,0,0,0,0,0,0,0,0,0,0,0,0,0,0,0,0,0,0,0,0,0,0,0,0,0,0,0,0,0,0,0,0,0,0,0,0,0,0,0,0,0,0,0,0,0,0,0,0,0,0,0,0,0,0,0,0,0,0,0,0,0,0,0,0,0,0,0,0,0,0,0,0,0,0,0,0,0,0,0,0,0,0,0,0,0,0,0,0,0,0,0,0,0,0,0,0,0,0,0,0,0,0,0,0,0,0,0,0,0,0,0,0,0,0,0,0,0,0,0,0,0,0,0,0,0,0,0,0,0,0,0,0,0,0,0,0,0,0,0,0,0,0,0,0,0,0,0,0],
"events":[
null,
{"id":1,"name":"Wynn","note":"","pages":[{"conditions":{"actorId":1,"actorValid":false,"itemId":1,"itemValid":false,"selfSwitchCh":"A","selfSwitchValid":false,"switch1Id":1481,"switch1Valid":true,"switch2Id":1,"switch2Valid":false,"variableId":1,"variableValid":false,"variableValue":0},"directionFix":false,"image":{"tileId":0,"characterName":"$Wynn char","direction":8,"pattern":1,"characterIndex":0},"moveFrequency":3,"moveRoute":{"list":[{"code":0,"indent":null,"parameters":[]}],"repeat":true,"skippable":false,"wait":false},"moveSpeed":3,"moveType":0,"priorityType":1,"stepAnime":false,"through":false,"trigger":0,"walkAnime":true,"list":[{"code":101,"indent":0,"parameters":["Wynn emo",0,0,2]},{"code":401,"indent":0,"parameters":["...I know you probably don't want to talk to me now. I'll shut up and do whatever work you give me."]},{"code":101,"indent":0,"parameters":["1 Simon dark",0,0,2]},{"code":401,"indent":0,"parameters":["...okay."]},{"code":123,"indent":0,"parameters":["A",0]},{"code":0,"indent":0,"parameters":[]}]},{"conditions":{"actorId":1,"actorValid":false,"itemId":1,"itemValid":false,"selfSwitchCh":"A","selfSwitchValid":true,"switch1Id":1481,"switch1Valid":true,"switch2Id":1,"switch2Valid":false,"variableId":1,"variableValid":false,"variableValue":0},"directionFix":false,"image":{"tileId":0,"characterName":"$Wynn char","direction":8,"pattern":1,"characterIndex":0},"moveFrequency":3,"moveRoute":{"list":[{"code":0,"indent":null,"parameters":[]}],"repeat":true,"skippable":false,"wait":false},"moveSpeed":3,"moveType":0,"priorityType":1,"stepAnime":false,"through":false,"trigger":0,"walkAnime":true,"list":[{"code":117,"indent":0,"parameters":[48]},{"code":101,"indent":0,"parameters":["Wynn emo",0,0,2]},{"code":401,"indent":0,"parameters":["<c:0|0,6000,0>Wynn"]},{"code":401,"indent":0,"parameters":["\\V[142]"]},{"code":401,"indent":0,"parameters":["Wynn's Affection: \\V[141]"]},{"code":401,"indent":0,"parameters":["Simon's Anger: \\V[169]"]},{"code":101,"indent":0,"parameters":["Wynn emo",0,0,2]},{"code":401,"indent":0,"parameters":["What?"]},{"code":102,"indent":0,"parameters":[["Chat","Nothing"],-2,0,2,0]},{"code":402,"indent":0,"parameters":[0,"Chat"]},{"code":101,"indent":1,"parameters":["Wynn emo",2,0,2]},{"code":401,"indent":1,"parameters":["Being stuck out here is obnoxious, but I guess I deserve whatever punishment you mete out..."]},{"code":0,"indent":1,"parameters":[]},{"code":402,"indent":0,"parameters":[1,"Nothing"]},{"code":101,"indent":1,"parameters":["Wynn emo",0,0,2]},{"code":401,"indent":1,"parameters":["..."]},{"code":0,"indent":1,"parameters":[]},{"code":403,"indent":0,"parameters":[]},{"code":0,"indent":1,"parameters":[]},{"code":404,"indent":0,"parameters":[]},{"code":355,"indent":0,"parameters":["Galv.Mpup.clear();"]},{"code":0,"indent":0,"parameters":[]}]},{"conditions":{"actorId":1,"actorValid":false,"itemId":1,"itemValid":false,"selfSwitchCh":"A","selfSwitchValid":false,"switch1Id":1524,"switch1Valid":true,"switch2Id":1,"switch2Valid":false,"variableId":1,"variableValid":false,"variableValue":0},"directionFix":false,"image":{"tileId":0,"characterName":"$Wynn char","direction":8,"pattern":1,"characterIndex":0},"moveFrequency":3,"moveRoute":{"list":[{"code":0,"indent":null,"parameters":[]}],"repeat":true,"skippable":false,"wait":false},"moveSpeed":3,"moveType":0,"priorityType":1,"stepAnime":false,"through":false,"trigger":0,"walkAnime":true,"list":[{"code":101,"indent":0,"parameters":["Wynn emo",4,0,2]},{"code":401,"indent":0,"parameters":["Based on what I've seen from Robin and Qum, you have an incredibly slick operation going on here."]},{"code":101,"indent":0,"parameters":["1 Simon dark",0,0,2]},{"code":401,"indent":0,"parameters":["..."]},{"code":101,"indent":0,"parameters":["Wynn emo",4,0,2]},{"code":401,"indent":0,"parameters":["Honestly, why obey this Doom King? You could probably backstab him and take over yourself."]},{"code":101,"indent":0,"parameters":["1 Simon dark",0,0,2]},{"code":401,"indent":0,"parameters":["Who's to say I'm not already planning that?"]},{"code":101,"indent":0,"parameters":["Wynn emo",2,0,2]},{"code":401,"indent":0,"parameters":["Yeah, maybe that's what you're keeping from me."]},{"code":101,"indent":0,"parameters":["Wynn emo",1,0,2]},{"code":401,"indent":0,"parameters":["But it's fine. I'm just happy to see you taking so much initiative. "]},{"code":101,"indent":0,"parameters":["1 Simon dark",0,0,2]},{"code":401,"indent":0,"parameters":["..."]},{"code":101,"indent":0,"parameters":["Wynn emo",1,0,2]},{"code":401,"indent":0,"parameters":["I'm serious. I thought you'd never be able to change, you'd stay a bitter old man forever."]},{"code":101,"indent":0,"parameters":["Wynn emo",4,0,2]},{"code":401,"indent":0,"parameters":["But instead, you're surrounded by extraordinary women. And you seem to make them really happy. She'd be proud."]},{"code":101,"indent":0,"parameters":["1 Simon dark",3,0,2]},{"code":401,"indent":0,"parameters":["You had better actually mean that."]},{"code":101,"indent":0,"parameters":["Wynn emo",7,0,2]},{"code":401,"indent":0,"parameters":["You think I'm trying to manipulate you? Come on, you think I have the social awareness for that?"]},{"code":101,"indent":0,"parameters":["1 Simon dark",5,0,2]},{"code":401,"indent":0,"parameters":["No, probably not. You really think so?"]},{"code":101,"indent":0,"parameters":["Wynn emo",0,0,2]},{"code":401,"indent":0,"parameters":["...what, are you seriously worried? You think Wendis would disapprove?"]},{"code":101,"indent":0,"parameters":["1 Simon dark",0,0,2]},{"code":401,"indent":0,"parameters":["There's a difference between the two of us having sex with other people and... whatever this is."]},{"code":101,"indent":0,"parameters":["Wynn emo",0,0,2]},{"code":401,"indent":0,"parameters":["Okay, look, I'm bad at this kind of thing. So you probably don't count what I think, even if you care."]},{"code":101,"indent":0,"parameters":["Wynn emo",5,0,2]},{"code":401,"indent":0,"parameters":["But I think there's no way Wendis would be unhappy! She'd never want you to be sad or alone."]},{"code":101,"indent":0,"parameters":["Wynn emo",4,0,2]},{"code":401,"indent":0,"parameters":["And this harem? She'd love it! As much as she liked meeting new people, you should know she wished she had more steady relationships."]},{"code":101,"indent":0,"parameters":["1 Simon dark",5,0,2]},{"code":401,"indent":0,"parameters":["I'll admit I've often thought that she'd enjoy many of the people here."]},{"code":101,"indent":0,"parameters":["Wynn emo",1,0,2]},{"code":401,"indent":0,"parameters":["Oh yeah, and in all kinds of ways. The woman knew how to have fun."]},{"code":101,"indent":0,"parameters":["1 Simon dark",5,0,2]},{"code":401,"indent":0,"parameters":["..."]},{"code":101,"indent":0,"parameters":["Wynn emo",0,0,2]},{"code":401,"indent":0,"parameters":["..."]},{"code":101,"indent":0,"parameters":["1 Simon dark",0,0,2]},{"code":401,"indent":0,"parameters":["..."]},{"code":101,"indent":0,"parameters":["Wynn emo",0,0,2]},{"code":401,"indent":0,"parameters":["I'm... going to keep working. Tell me if you need anything from me."]},{"code":122,"indent":0,"parameters":[169,169,2,0,5]},{"code":123,"indent":0,"parameters":["B",0]},{"code":0,"indent":0,"parameters":[]}]},{"conditions":{"actorId":1,"actorValid":false,"itemId":1,"itemValid":false,"selfSwitchCh":"B","selfSwitchValid":true,"switch1Id":1481,"switch1Valid":true,"switch2Id":1,"switch2Valid":false,"variableId":1,"variableValid":false,"variableValue":0},"directionFix":false,"image":{"tileId":0,"characterName":"$Wynn char","direction":8,"pattern":1,"characterIndex":0},"moveFrequency":3,"moveRoute":{"list":[{"code":0,"indent":null,"parameters":[]}],"repeat":true,"skippable":false,"wait":false},"moveSpeed":3,"moveType":0,"priorityType":1,"stepAnime":false,"through":false,"trigger":0,"walkAnime":true,"list":[{"code":117,"indent":0,"parameters":[48]},{"code":101,"indent":0,"parameters":["Wynn emo",0,0,2]},{"code":401,"indent":0,"parameters":["<c:0|0,6000,0>Wynn"]},{"code":401,"indent":0,"parameters":["\\V[142]"]},{"code":401,"indent":0,"parameters":["Wynn's Affection: \\V[141]"]},{"code":401,"indent":0,"parameters":["Simon's Anger: \\V[169]"]},{"code":101,"indent":0,"parameters":["Wynn emo",0,0,2]},{"code":401,"indent":0,"parameters":["What?"]},{"code":102,"indent":0,"parameters":[["Chat","Nothing"],-2,0,2,0]},{"code":402,"indent":0,"parameters":[0,"Chat"]},{"code":101,"indent":1,"parameters":["Wynn emo",7,0,2]},{"code":401,"indent":1,"parameters":["..."]},{"code":0,"indent":1,"parameters":[]},{"code":402,"indent":0,"parameters":[1,"Nothing"]},{"code":101,"indent":1,"parameters":["Wynn emo",0,0,2]},{"code":401,"indent":1,"parameters":["..."]},{"code":0,"indent":1,"parameters":[]},{"code":403,"indent":0,"parameters":[]},{"code":0,"indent":1,"parameters":[]},{"code":404,"indent":0,"parameters":[]},{"code":355,"indent":0,"parameters":["Galv.Mpup.clear();"]},{"code":0,"indent":0,"parameters":[]}]},{"conditions":{"actorId":1,"actorValid":false,"itemId":1,"itemValid":false,"selfSwitchCh":"B","selfSwitchValid":true,"switch1Id":1639,"switch1Valid":true,"switch2Id":1,"switch2Valid":false,"variableId":1,"variableValid":false,"variableValue":0},"directionFix":false,"image":{"tileId":0,"characterName":"$Wynn char","direction":8,"pattern":1,"characterIndex":0},"moveFrequency":3,"moveRoute":{"list":[{"code":0,"indent":null,"parameters":[]}],"repeat":true,"skippable":false,"wait":false},"moveSpeed":3,"moveType":0,"priorityType":1,"stepAnime":false,"through":false,"trigger":0,"walkAnime":true,"list":[{"code":101,"indent":0,"parameters":["1 Simon dark",0,0,2]},{"code":401,"indent":0,"parameters":["Wynn, we're going to need your help if this comes to war. I'm not sure what concessions you need, b-"]},{"code":101,"indent":0,"parameters":["Wynn emo",0,0,2]},{"code":401,"indent":0,"parameters":["None. I'll do everything in my power to help."]},{"code":101,"indent":0,"parameters":["1 Simon dark",0,0,2]},{"code":401,"indent":0,"parameters":["..."]},{"code":101,"indent":0,"parameters":["Wynn emo",3,0,2]},{"code":401,"indent":0,"parameters":["You didn't seriously think I would sit and pout when the continent went to war, did you? Let's finish the Incubus Emperor off!"]},{"code":101,"indent":0,"parameters":["1 Simon dark",0,0,2]},{"code":401,"indent":0,"parameters":["Honestly, I wasn't sure how much you cared. During the war, you seemed somewhat ambivalent."]},{"code":101,"indent":0,"parameters":["Wynn emo",2,0,2]},{"code":401,"indent":0,"parameters":["That was before they killed my Wendis. I don't give a shit if you think I'm trying to manipulate you with that."]},{"code":101,"indent":0,"parameters":["Wynn emo",6,0,2]},{"code":401,"indent":0,"parameters":["The Incubus Emperor needs to die!"]},{"code":101,"indent":0,"parameters":["1 Simon dark",0,0,2]},{"code":401,"indent":0,"parameters":["..."]},{"code":101,"indent":0,"parameters":["Wynn emo",0,0,2]},{"code":401,"indent":0,"parameters":["Right now, you're the one who has the best chance to kill him. And if he can't die by my hand... yours is fine."]},{"code":101,"indent":0,"parameters":["Wynn emo",0,0,2]},{"code":401,"indent":0,"parameters":["So just let me know what needs to be done. I'll be fighting with you until the end."]},{"code":101,"indent":0,"parameters":["1 Simon dark",0,0,2]},{"code":401,"indent":0,"parameters":["...very well. Thank you, Wynn. I'll let you know how to direct your efforts as we approach war."]},{"code":122,"indent":0,"parameters":[141,141,1,0,5]},{"code":122,"indent":0,"parameters":[186,186,1,0,1]},{"code":123,"indent":0,"parameters":["C",0]},{"code":0,"indent":0,"parameters":[]}]},{"conditions":{"actorId":1,"actorValid":false,"itemId":1,"itemValid":false,"selfSwitchCh":"C","selfSwitchValid":true,"switch1Id":1481,"switch1Valid":true,"switch2Id":1,"switch2Valid":false,"variableId":1,"variableValid":false,"variableValue":0},"directionFix":false,"image":{"tileId":0,"characterName":"$Wynn char","direction":8,"pattern":1,"characterIndex":0},"moveFrequency":3,"moveRoute":{"list":[{"code":0,"indent":null,"parameters":[]}],"repeat":true,"skippable":false,"wait":false},"moveSpeed":3,"moveType":0,"priorityType":1,"stepAnime":false,"through":false,"trigger":0,"walkAnime":true,"list":[{"code":117,"indent":0,"parameters":[48]},{"code":101,"indent":0,"parameters":["Wynn emo",0,0,2]},{"code":401,"indent":0,"parameters":["<c:0|0,6000,0>Wynn"]},{"code":401,"indent":0,"parameters":["\\V[142]"]},{"code":401,"indent":0,"parameters":["Wynn's Affection: \\V[141]"]},{"code":401,"indent":0,"parameters":["Simon's Anger: \\V[169]"]},{"code":101,"indent":0,"parameters":["Wynn emo",0,0,2]},{"code":401,"indent":0,"parameters":["What?"]},{"code":102,"indent":0,"parameters":[["Chat","Nothing"],-2,0,2,0]},{"code":402,"indent":0,"parameters":[0,"Chat"]},{"code":101,"indent":1,"parameters":["Wynn emo",0,0,2]},{"code":401,"indent":1,"parameters":["War again... let's try to end this one faster than the last."]},{"code":0,"indent":1,"parameters":[]},{"code":402,"indent":0,"parameters":[1,"Nothing"]},{"code":101,"indent":1,"parameters":["Wynn emo",0,0,2]},{"code":401,"indent":1,"parameters":["..."]},{"code":0,"indent":1,"parameters":[]},{"code":403,"indent":0,"parameters":[]},{"code":0,"indent":1,"parameters":[]},{"code":404,"indent":0,"parameters":[]},{"code":355,"indent":0,"parameters":["Galv.Mpup.clear();"]},{"code":0,"indent":0,"parameters":[]}]}],"x":13,"y":7},
{"id":2,"name":"EV002","note":"","pages":[{"conditions":{"actorId":1,"actorValid":false,"itemId":1,"itemValid":false,"selfSwitchCh":"A","selfSwitchValid":false,"switch1Id":1,"switch1Valid":false,"switch2Id":1,"switch2Valid":false,"variableId":1,"variableValid":false,"variableValue":0},"directionFix":false,"image":{"tileId":0,"characterName":"","direction":2,"pattern":1,"characterIndex":0},"moveFrequency":3,"moveRoute":{"list":[{"code":0,"indent":null,"parameters":[]}],"repeat":true,"skippable":false,"wait":false},"moveSpeed":3,"moveType":0,"priorityType":0,"stepAnime":false,"through":false,"trigger":3,"walkAnime":true,"list":[{"code":221,"indent":0,"parameters":[]},{"code":121,"indent":0,"parameters":[1522,1522,0]},{"code":205,"indent":0,"parameters":[-1,{"list":[{"code":39,"indent":null,"parameters":[]},{"code":0,"indent":null,"parameters":[]}],"repeat":false,"skippable":false,"wait":true}]},{"code":505,"indent":0,"parameters":[{"code":39,"indent":null,"parameters":[]}]},{"code":222,"indent":0,"parameters":[]},{"code":101,"indent":0,"parameters":["Wynn emo",0,0,2]},{"code":401,"indent":0,"parameters":["We're going to need augmented crystals for this, I'm afraid."]},{"code":101,"indent":0,"parameters":["Robin blond emo",0,0,2]},{"code":401,"indent":0,"parameters":["That won't be a problem. I'll bring some next time I come by."]},{"code":101,"indent":0,"parameters":["Wynn emo",1,0,2]},{"code":401,"indent":0,"parameters":["Good, I'm glad they're not an obstacle in Yhilin. Having said that..."]},{"code":101,"indent":0,"parameters":["Wynn emo",2,0,2]},{"code":401,"indent":0,"parameters":["This would all be so much easier if you just let me work in your main lab!"]},{"code":101,"indent":0,"parameters":["Robin blond emo",0,0,2]},{"code":401,"indent":0,"parameters":["The decision is out of my hands, I'm afraid."]},{"code":101,"indent":0,"parameters":["Wynn emo",7,0,2]},{"code":401,"indent":0,"parameters":["Fine, fine..."]},{"code":101,"indent":0,"parameters":["Qum D'umpe emo",0,0,2]},{"code":401,"indent":0,"parameters":["Tricksy... tricksy... annnnnnnd..."]},{"code":101,"indent":0,"parameters":["Qum D'umpe emo",1,0,2]},{"code":401,"indent":0,"parameters":["Cumdump is done! Now it is pretty!"]},{"code":101,"indent":0,"parameters":["Wynn emo",0,0,2]},{"code":401,"indent":0,"parameters":["Hmm, that's unorthodox, but it works. Why didn't you add anything to compensate for all the atmospheric magic around here, though?"]},{"code":101,"indent":0,"parameters":["Qum D'umpe emo",4,0,2]},{"code":401,"indent":0,"parameters":["That part confuses Cumdump... everything is so murky..."]},{"code":101,"indent":0,"parameters":["Robin blond emo",0,0,2]},{"code":401,"indent":0,"parameters":["It's usually possible to create a shell around Qum's spells, letting them function while interacting with the rest."]},{"code":101,"indent":0,"parameters":["Wynn emo",7,0,2]},{"code":401,"indent":0,"parameters":["Efficient enough, but that offends me aesthetically. Let me see if I can't do something..."]},{"code":101,"indent":0,"parameters":["Wynn emo",5,0,2]},{"code":401,"indent":0,"parameters":["Aha!"]},{"code":101,"indent":0,"parameters":["Qum D'umpe emo",3,0,2]},{"code":401,"indent":0,"parameters":["Ooooooh! Grumpy Mage understands Cumdump's pretties!"]},{"code":101,"indent":0,"parameters":["Robin blond emo",3,0,2]},{"code":401,"indent":0,"parameters":["You... actually modified her spell to integrate with the rest? That was... very deftly done."]},{"code":101,"indent":0,"parameters":["Wynn emo",1,0,2]},{"code":401,"indent":0,"parameters":["I've got a lot of experience. Haven't met any mages quite as idiosyncratic as Qum here, but I've seen some strange spells."]},{"code":101,"indent":0,"parameters":["Qum D'umpe emo",1,0,2]},{"code":401,"indent":0,"parameters":["Grumpy Mage is smart!"]},{"code":101,"indent":0,"parameters":["Wynn emo",4,0,2]},{"code":401,"indent":0,"parameters":["You're surprisingly skilled yourself. I see your utility now."]},{"code":101,"indent":0,"parameters":["Qum D'umpe emo",6,0,2]},{"code":401,"indent":0,"parameters":["Cumdump knows that is how Grumpy Mage says \"I love you!\""]},{"code":101,"indent":0,"parameters":["Wynn emo",0,0,2]},{"code":401,"indent":0,"parameters":["Uh... sure, whatever."]},{"code":101,"indent":0,"parameters":["Robin blond emo",0,0,2]},{"code":401,"indent":0,"parameters":["Wynn, I'm beginning to question your commitment to your idea of killing all but 1% of the population."]},{"code":101,"indent":0,"parameters":["Wynn emo",0,0,2]},{"code":401,"indent":0,"parameters":["What? I'm dead serious."]},{"code":101,"indent":0,"parameters":["Robin blond emo",0,0,2]},{"code":401,"indent":0,"parameters":["Is there ANYONE in our group who doesn't meet your criteria?"]},{"code":101,"indent":0,"parameters":["Wynn emo",3,0,2]},{"code":401,"indent":0,"parameters":["I see what you're saying, but you're wrong: the problem is sampling error."]},{"code":101,"indent":0,"parameters":["Qum D'umpe emo",0,0,2]},{"code":401,"indent":0,"parameters":["Huh?"]},{"code":101,"indent":0,"parameters":["Wynn emo",0,0,2]},{"code":401,"indent":0,"parameters":["Simon isn't going to grab every nice pair of tits that walks by. He's formed a group that's far above average."]},{"code":101,"indent":0,"parameters":["Wynn emo",1,0,2]},{"code":401,"indent":0,"parameters":["Maybe a few are borderline, I don't know everyone well yet, but as a whole this group is a lot like the kind of society I'd like to see."]},{"code":101,"indent":0,"parameters":["Qum D'umpe emo",6,0,2]},{"code":401,"indent":0,"parameters":["Cumdump thinks Grumpy Mage just needs to meet lots more people! She'll like them too!"]},{"code":101,"indent":0,"parameters":["Wynn emo",2,0,2]},{"code":401,"indent":0,"parameters":["I assure you, you are incorrect."]},{"code":101,"indent":0,"parameters":["Robin blond emo",0,0,2]},{"code":401,"indent":0,"parameters":["You're correct that Simon has formed a group that has a certain type of community."]},{"code":101,"indent":0,"parameters":["Robin blond emo",0,0,2]},{"code":401,"indent":0,"parameters":["How much thought have you given as to whether or not you belong in that community?"]},{"code":230,"indent":0,"parameters":[30]},{"code":213,"indent":0,"parameters":[1,8,true]},{"code":230,"indent":0,"parameters":[30]},{"code":101,"indent":0,"parameters":["Robin blond emo",5,0,2]},{"code":401,"indent":0,"parameters":["Well, regardless, let's return to work."]},{"code":221,"indent":0,"parameters":[]},{"code":121,"indent":0,"parameters":[1522,1522,1]},{"code":205,"indent":0,"parameters":[-1,{"list":[{"code":40,"indent":null,"parameters":[]},{"code":0,"indent":null,"parameters":[]}],"repeat":false,"skippable":false,"wait":true}]},{"code":505,"indent":0,"parameters":[{"code":40,"indent":null,"parameters":[]}]},{"code":222,"indent":0,"parameters":[]},{"code":121,"indent":0,"parameters":[1523,1523,0]},{"code":123,"indent":0,"parameters":["A",0]},{"code":0,"indent":0,"parameters":[]}]},{"conditions":{"actorId":1,"actorValid":false,"itemId":1,"itemValid":false,"selfSwitchCh":"A","selfSwitchValid":true,"switch1Id":1,"switch1Valid":false,"switch2Id":1,"switch2Valid":false,"variableId":1,"variableValid":false,"variableValue":0},"directionFix":false,"image":{"tileId":0,"characterName":"","direction":2,"pattern":0,"characterIndex":0},"moveFrequency":3,"moveRoute":{"list":[{"code":0,"indent":null,"parameters":[]}],"repeat":true,"skippable":false,"wait":false},"moveSpeed":3,"moveType":0,"priorityType":0,"stepAnime":false,"through":false,"trigger":0,"walkAnime":true,"list":[{"code":0,"indent":0,"parameters":[]}]}],"x":0,"y":0},
{"id":3,"name":"Robin","note":"","pages":[{"conditions":{"actorId":1,"actorValid":false,"itemId":1,"itemValid":false,"selfSwitchCh":"A","selfSwitchValid":false,"switch1Id":1522,"switch1Valid":true,"switch2Id":1,"switch2Valid":false,"variableId":1,"variableValid":false,"variableValue":0},"directionFix":false,"image":{"tileId":0,"characterName":"Robin blond","direction":8,"pattern":1,"characterIndex":0},"moveFrequency":3,"moveRoute":{"list":[{"code":0,"indent":null,"parameters":[]}],"repeat":true,"skippable":false,"wait":false},"moveSpeed":3,"moveType":0,"priorityType":1,"stepAnime":false,"through":false,"trigger":0,"walkAnime":true,"list":[{"code":0,"indent":0,"parameters":[]}]}],"x":12,"y":7},
{"id":4,"name":"Qum","note":"","pages":[{"conditions":{"actorId":1,"actorValid":false,"itemId":1,"itemValid":false,"selfSwitchCh":"A","selfSwitchValid":false,"switch1Id":1522,"switch1Valid":true,"switch2Id":1,"switch2Valid":false,"variableId":1,"variableValid":false,"variableValue":0},"directionFix":false,"image":{"tileId":0,"characterName":"$Qum Nude","direction":8,"pattern":1,"characterIndex":0},"moveFrequency":3,"moveRoute":{"list":[{"code":0,"indent":null,"parameters":[]}],"repeat":true,"skippable":false,"wait":false},"moveSpeed":3,"moveType":0,"priorityType":1,"stepAnime":false,"through":false,"trigger":0,"walkAnime":true,"list":[{"code":0,"indent":0,"parameters":[]}]}],"x":14,"y":7},
{"id":5,"name":"EV005","note":"","pages":[{"conditions":{"actorId":1,"actorValid":false,"itemId":1,"itemValid":false,"selfSwitchCh":"A","selfSwitchValid":false,"switch1Id":1,"switch1Valid":false,"switch2Id":1,"switch2Valid":false,"variableId":1,"variableValid":false,"variableValue":0},"directionFix":false,"image":{"tileId":0,"characterName":"","direction":2,"pattern":0,"characterIndex":0},"moveFrequency":3,"moveRoute":{"list":[{"code":0,"indent":null,"parameters":[]}],"repeat":true,"skippable":false,"wait":false},"moveSpeed":3,"moveType":0,"priorityType":0,"stepAnime":false,"through":false,"trigger":1,"walkAnime":true,"list":[{"code":250,"indent":0,"parameters":[{"name":"Move","pan":0,"pitch":100,"volume":80}]},{"code":201,"indent":0,"parameters":[0,278,12,6,2,0]},{"code":0,"indent":0,"parameters":[]}]}],"x":9,"y":9}
]
}