{
"autoplayBgm":false,"autoplayBgs":false,"battleback1Name":"GrassMaze","battleback2Name":"Forest1","bgm":{"name":"Strings and Things (calm)","pan":0,"pitch":120,"volume":100},"bgs":{"name":"","pan":0,"pitch":100,"volume":80},"disableDashing":false,"displayName":"Private Training Ground","encounterList":[],"encounterStep":30,"height":20,"note":"","parallaxLoopX":false,"parallaxLoopY":false,"parallaxName":"","parallaxShow":false,"parallaxSx":0,"parallaxSy":0,"scrollType":0,"specifyBattleback":true,"tilesetId":11,"width":17,
"data":[7472,7472,7472,7472,7472,7472,7472,7472,7472,7472,7472,7472,7472,7472,7472,7472,7472,7500,7500,7500,7500,7500,7500,7500,7500,7500,7500,7500,7500,7480,7472,7472,7472,7472,7810,7810,7810,7810,7810,7810,7810,7810,7810,7810,7810,7810,7512,7500,7500,7480,7472,7816,7816,7816,7816,7816,7816,7816,7816,7816,7816,7816,7816,7811,7810,7810,7488,7472,2836,2836,2836,2836,2836,2836,2836,2836,2836,2836,2836,2852,7817,7816,7816,7488,7472,2816,2816,2816,2816,2816,2816,2816,2816,2816,2816,2816,2818,2836,2836,2852,7488,7472,2816,2816,2816,2816,2816,2816,2816,2816,2816,2816,2816,2816,2816,2816,2840,7512,7500,2816,2816,2816,2816,2816,2816,2816,2816,2816,2816,2816,2816,2816,2816,2840,7811,7810,2816,2816,2816,2816,2816,2816,2816,2816,2816,2816,2816,2816,2816,2816,2840,7817,7816,2816,2816,2816,2816,2816,2816,2816,2816,2816,2816,2816,2816,2816,2816,2818,2836,2836,2816,2816,2816,2816,2816,2816,2816,2816,2816,2816,2816,2816,2816,2816,2816,2816,2816,2816,2816,2816,2816,2816,2816,2816,2816,2816,2816,2816,2816,2816,2816,2816,2816,2816,2816,2816,2816,2816,2816,2816,2816,2816,2816,2816,2816,2816,2816,2816,2816,2816,2816,2816,2816,2816,2816,2816,2816,2816,2816,2816,2816,2816,2816,2816,2816,2816,2816,2816,2816,2816,2816,2816,2816,2816,2816,2816,2816,2816,2816,2816,2816,2816,2816,2816,2816,2816,2816,2816,2816,2816,2816,2816,2816,2816,2816,2816,2816,2816,2816,2816,2816,2816,2816,2816,2816,2816,2816,2816,2816,2816,2816,2816,2816,2816,2816,2816,2816,2816,2816,2816,2816,2816,2816,2816,2816,2816,2816,2816,2816,2816,2816,2816,2816,2816,2816,2816,2816,2816,2816,2816,2816,2816,2816,2816,2816,2816,2816,2816,2816,2816,2816,2816,2816,2816,2816,2816,2816,2816,2816,2816,2816,2816,2816,2816,2816,2816,2816,2816,2816,2816,0,0,0,0,0,0,0,0,0,0,0,0,0,0,0,0,0,0,0,0,0,0,0,0,0,0,0,0,0,0,0,0,0,0,0,0,0,0,0,0,0,0,0,0,0,0,0,0,0,0,0,0,0,0,0,0,0,0,0,0,0,0,0,0,0,0,0,0,0,0,0,0,0,0,0,0,0,0,0,0,0,0,0,0,0,0,0,0,0,0,0,0,0,0,0,0,0,0,0,0,0,0,0,0,0,0,0,0,0,0,0,0,0,0,0,0,0,0,0,0,0,0,0,0,0,0,0,0,0,0,0,0,0,0,0,0,0,0,0,0,0,0,0,0,0,0,0,0,0,0,0,0,0,0,0,0,0,0,0,0,0,0,0,0,0,0,0,0,0,0,0,0,0,0,0,0,0,0,0,0,0,0,0,0,0,0,0,0,0,0,0,0,0,0,0,0,0,0,0,0,0,0,0,0,0,0,0,0,0,0,0,0,0,0,0,0,0,0,0,0,0,0,0,0,0,0,0,0,0,0,0,0,0,0,0,0,0,0,0,0,0,0,0,0,0,0,0,0,0,0,0,0,0,0,0,0,0,0,0,0,0,0,0,0,0,0,0,0,0,0,0,0,0,0,0,0,0,0,0,0,0,0,0,0,0,0,0,0,0,0,0,0,0,0,0,0,0,0,0,0,0,0,0,0,0,0,0,0,0,0,0,0,0,0,0,0,0,0,0,0,0,0,0,0,0,0,0,0,0,0,0,0,0,0,0,0,0,0,0,0,0,0,0,0,0,0,0,0,0,0,0,0,0,0,0,0,0,0,0,0,0,0,0,0,0,0,0,0,0,0,0,0,0,0,0,0,0,0,0,0,0,0,0,0,0,0,0,0,0,0,0,0,0,0,0,0,0,0,0,0,0,0,0,0,0,0,0,0,0,0,0,0,0,0,0,0,0,0,0,0,0,0,0,0,0,0,0,0,0,0,0,0,0,0,0,0,0,0,0,0,0,0,0,0,0,0,0,0,0,0,0,0,0,0,0,0,0,0,0,0,0,0,0,0,0,0,0,0,0,0,0,0,0,0,0,0,0,0,0,0,0,0,0,0,0,0,0,0,0,0,0,0,0,0,0,0,0,0,0,0,0,0,0,0,0,0,0,0,0,0,0,0,0,0,0,0,0,0,0,0,0,0,0,0,0,0,0,0,0,0,0,0,0,0,0,0,0,0,0,0,0,0,0,0,0,0,0,0,0,0,0,0,0,0,0,0,0,0,0,0,0,0,0,0,0,0,0,0,0,0,0,0,0,0,0,0,0,0,0,0,0,0,0,0,0,0,0,0,0,0,0,0,0,0,0,0,0,0,0,0,0,0,0,0,0,0,0,0,0,0,0,0,0,0,0,0,0,0,0,0,0,0,0,0,0,0,0,0,0,0,0,0,0,0,0,0,0,0,0,0,0,0,0,0,0,0,0,0,0,0,0,0,0,0,0,0,0,0,0,0,0,0,0,0,0,0,0,0,0,0,0,0,0,0,0,0,0,0,0,0,0,0,0,46,47,0,32,0,0,35,0,0,32,0,38,39,32,0,35,0,32,0,0,0,0,32,0,0,0,35,0,46,47,0,0,0,0,0,0,0,0,801,0,0,0,0,0,0,0,0,32,38,39,38,39,38,39,0,809,0,0,38,39,0,0,0,35,0,54,55,54,55,54,47,0,0,33,38,54,55,39,38,39,0,0,62,63,62,63,62,39,35,0,0,46,62,63,62,63,47,0,35,54,55,54,55,54,47,0,0,0,38,54,55,54,55,39,0,0,55,54,55,54,47,0,0,0,0,46,62,63,62,63,47,0,0,63,62,63,47,33,0,0,0,0,0,46,55,54,55,39,38,39,55,54,47,35,0,0,0,0,0,0,0,46,62,63,62,63,62,63,62,39,38,39,0,0,0,0,0,35,38,54,55,54,55,54,55,54,55,54,47,0,0,0,0,0,0,46,62,63,62,63,62,63,62,63,62,39,36,0,0,0,0,36,38,54,55,54,55,54,55,54,55,54,47,0,0,0,0,0,0,46,62,63,62,63,62,63,62,63,62,39,0,0,0,0,0,33,38,54,55,54,55,54,55,54,55,54,47,0,0,0,0,0,0,46,62,63,62,63,62,63,62,63,47,36,0,0,35,0,0,0,38,54,55,54,55,54,55,54,55,39,38,39,38,39,32,38,39,46,55,54,55,54,55,63,62,63,62,63,62,63,62,39,46,47,35,46,62,63,62,63,55,54,55,54,55,54,55,54,55,39,38,39,38,54,55,54,55,0,0,0,0,0,0,0,0,0,0,0,0,0,0,0,0,0,0,0,0,0,0,0,0,0,0,0,0,0,0,0,0,0,0,0,0,0,0,0,0,0,0,0,0,0,0,0,0,0,0,0,0,0,0,0,0,0,0,0,0,0,0,0,0,0,0,0,0,0,0,0,0,0,0,0,0,0,0,0,0,0,0,0,0,0,0,0,0,0,0,0,0,0,0,0,0,0,0,0,0,0,0,0,0,0,0,0,0,0,0,0,0,0,0,0,0,0,0,0,0,0,0,0,0,0,0,0,0,0,0,0,0,0,0,0,0,0,0,0,0,0,0,0,0,0,0,0,0,0,0,0,0,0,0,0,0,0,0,0,0,0,0,0,0,0,0,0,0,0,0,0,0,0,0,0,0,0,0,0,0,0,0,0,0,0,0,0,0,0,0,0,0,0,0,0,0,0,0,0,0,0,0,0,0,0,0,0,0,0,0,0,0,0,0,0,0,0,0,0,0,0,0,0,0,0,0,0,0,0,0,0,0,0,0,0,0,0,0,0,0,0,0,0,0,0,0,0,0,0,0,0,0,0,0,0,0,0,0,0,0,0,0,0,0,0,0,0,0,0,0,0,0,0,0,0,0,0,0,0,0,0,0,0,0,0,0,0,0,0,0,0,0,0,0,0,0,0,0,0,0,0,0,0,0,0,0,0,0,0,0,0,0,0,0,0,0,0,0,0,0,0,0,0,0,0,0,0,0,0,0,0,0,0,0,0,0,0,0,0,0,0,0,0,0,0,0,0,0,0,0,0,0,0,0,0,0,0,0,0,0,0,0,0,0,0,0,0,0,0,0,0,0,0,0,0,0,0,0,0,0,0,0,0,0,0,0,0,0,0,0,0,0,0,0,0,0,0,0,0,0,0,0,0,0,0,0,0,0,0,0,0,0,0,0,0,0,0,0,0,0,0,0,0,0,0,0,0,0,0,0,0,0,0,0,0,0,0,0,0,0,0,0,0,0,0,0,0,0,0,0,0,0,0,0,0,0,0,0,0,0,0,0,0,0,0,0,0,0,0,0,0,0,0,0,0,0,0,0,0,0,0,0,0,0,0,0,0,0,0,0,0,0,0,0,0,0,0,0,0,0,0,0,0,0,0,0,0,0,0,0,0,0,0,0,0,0,0,0,0,0,0,0,0,0,0,0,0,0,0,0,0,0,0,0,0,0,0,0,0,0,0,0,0,0,0,0,0,0,0,0,0,0,0,0,0,0,0,0,0,0,0,0,0,0,0,0,0,0,0,0,0,0,0,0,0,0,0,0,0,0,0,0,0,0,0,0,0,0,0,0,0,0,0,0,0,0,0,0,0,0,0,0,0,0,0,0,0,0,0,0,0,0,0,0,0,0,0,0,0,0,0,0,0,0,0,0,0,0,0,0,0,0,0,0,0,0,0,0,0,0,0,0,0,0,0,0,0,0,0,0,0,0,0,0,0,0,0,0,0,0,0,0,0,0,0,0,0,0,0,0,0,0,0,0,0,0,0,0,0,0],
"events":[
null,
{"id":1,"name":"EV001","note":"","pages":[{"conditions":{"actorId":1,"actorValid":false,"itemId":1,"itemValid":false,"selfSwitchCh":"A","selfSwitchValid":false,"switch1Id":1,"switch1Valid":false,"switch2Id":1,"switch2Valid":false,"variableId":1,"variableValid":false,"variableValue":0},"directionFix":false,"image":{"tileId":0,"characterName":"","direction":2,"pattern":0,"characterIndex":0},"moveFrequency":3,"moveRoute":{"list":[{"code":0,"indent":null,"parameters":[]}],"repeat":true,"skippable":false,"wait":false},"moveSpeed":3,"moveType":0,"priorityType":0,"stepAnime":false,"through":false,"trigger":1,"walkAnime":true,"list":[{"code":250,"indent":0,"parameters":[{"name":"Move","pan":0,"pitch":100,"volume":80}]},{"code":201,"indent":0,"parameters":[0,288,34,32,4,0]},{"code":0,"indent":0,"parameters":[]}]},{"conditions":{"actorId":1,"actorValid":false,"itemId":1,"itemValid":false,"selfSwitchCh":"A","selfSwitchValid":false,"switch1Id":2099,"switch1Valid":true,"switch2Id":1,"switch2Valid":false,"variableId":1,"variableValid":false,"variableValue":0},"directionFix":false,"image":{"tileId":0,"characterName":"","direction":2,"pattern":0,"characterIndex":0},"moveFrequency":3,"moveRoute":{"list":[{"code":0,"indent":null,"parameters":[]}],"repeat":true,"skippable":false,"wait":false},"moveSpeed":3,"moveType":0,"priorityType":0,"stepAnime":false,"through":false,"trigger":1,"walkAnime":true,"list":[{"code":250,"indent":0,"parameters":[{"name":"Move","pan":0,"pitch":100,"volume":80}]},{"code":201,"indent":0,"parameters":[0,286,17,5,2,0]},{"code":0,"indent":0,"parameters":[]}]}],"x":7,"y":3},
{"id":2,"name":"EV002","note":"","pages":[{"conditions":{"actorId":1,"actorValid":false,"itemId":1,"itemValid":false,"selfSwitchCh":"A","selfSwitchValid":false,"switch1Id":1,"switch1Valid":false,"switch2Id":1,"switch2Valid":false,"variableId":1,"variableValid":false,"variableValue":0},"directionFix":false,"image":{"tileId":0,"characterName":"Monster2","direction":4,"pattern":1,"characterIndex":3},"moveFrequency":3,"moveRoute":{"list":[{"code":0,"indent":null,"parameters":[]}],"repeat":true,"skippable":false,"wait":false},"moveSpeed":3,"moveType":0,"priorityType":1,"stepAnime":false,"through":false,"trigger":0,"walkAnime":true,"list":[{"code":101,"indent":0,"parameters":["Z succubus_a",1,0,2]},{"code":401,"indent":0,"parameters":["We covered the entrance with a mix of transplanted trees and careful illusions. So don't worry, you can get out this way if need be."]},{"code":0,"indent":0,"parameters":[]}]},{"conditions":{"actorId":1,"actorValid":false,"itemId":1,"itemValid":false,"selfSwitchCh":"A","selfSwitchValid":false,"switch1Id":2099,"switch1Valid":true,"switch2Id":1,"switch2Valid":false,"variableId":1,"variableValid":false,"variableValue":0},"directionFix":false,"image":{"tileId":0,"characterName":"Monster2","direction":4,"pattern":1,"characterIndex":3},"moveFrequency":3,"moveRoute":{"list":[{"code":0,"indent":null,"parameters":[]}],"repeat":true,"skippable":false,"wait":false},"moveSpeed":3,"moveType":0,"priorityType":1,"stepAnime":false,"through":false,"trigger":0,"walkAnime":true,"list":[{"code":101,"indent":0,"parameters":["Z succubus_a",2,0,2]},{"code":401,"indent":0,"parameters":["Though we're a little sad you all aren't here anymore, this is a great place for a private fuck!"]},{"code":0,"indent":0,"parameters":[]}]},{"conditions":{"actorId":1,"actorValid":false,"itemId":1,"itemValid":false,"selfSwitchCh":"A","selfSwitchValid":false,"switch1Id":2100,"switch1Valid":true,"switch2Id":1,"switch2Valid":false,"variableId":340,"variableValid":true,"variableValue":1},"directionFix":false,"image":{"tileId":0,"characterName":"Monster2","direction":4,"pattern":1,"characterIndex":3},"moveFrequency":3,"moveRoute":{"list":[{"code":0,"indent":null,"parameters":[]}],"repeat":true,"skippable":false,"wait":false},"moveSpeed":3,"moveType":0,"priorityType":1,"stepAnime":false,"through":false,"trigger":0,"walkAnime":true,"list":[{"code":101,"indent":0,"parameters":["Z succubus_a",3,0,2]},{"code":401,"indent":0,"parameters":["Wait, you still use your private fuckzone for training?"]},{"code":0,"indent":0,"parameters":[]}]}],"x":8,"y":17},
{"id":3,"name":"Aka","note":"","pages":[{"conditions":{"actorId":1,"actorValid":false,"itemId":1,"itemValid":false,"selfSwitchCh":"A","selfSwitchValid":false,"switch1Id":688,"switch1Valid":false,"switch2Id":689,"switch2Valid":false,"variableId":1,"variableValid":false,"variableValue":0},"directionFix":false,"image":{"tileId":0,"characterName":"Aka char2","direction":4,"pattern":1,"characterIndex":0},"moveFrequency":3,"moveRoute":{"list":[{"code":0,"indent":null,"parameters":[]}],"repeat":true,"skippable":false,"wait":false},"moveSpeed":3,"moveType":0,"priorityType":1,"stepAnime":false,"through":false,"trigger":0,"walkAnime":true,"list":[{"code":101,"indent":0,"parameters":["Aka emo2",1,0,2]},{"code":401,"indent":0,"parameters":["Hey, Simon! Check out this new training area, it works pretty well!"]},{"code":101,"indent":0,"parameters":["1 Simon dark",1,0,2]},{"code":401,"indent":0,"parameters":["Yes, it seems very useful to have a location where we can train in private."]},{"code":101,"indent":0,"parameters":["Aka emo2",1,0,2]},{"code":401,"indent":0,"parameters":["Seems like everybody chipped in to help: the orcs moved trees around, the succubi handled the illusions, mages set up spells to keep it hidden."]},{"code":101,"indent":0,"parameters":["Aka emo2",0,0,2]},{"code":401,"indent":0,"parameters":["Anyway, I think I'll take this opportunity to practice some assassination techniques."]},{"code":101,"indent":0,"parameters":["1 Simon dark",0,0,2]},{"code":401,"indent":0,"parameters":["Hmm. Aside from subterfuge, does it involve that many different techniques?"]},{"code":101,"indent":0,"parameters":["Aka emo2",0,0,2]},{"code":401,"indent":0,"parameters":["Definitely. Completely different kind of stabbing."]},{"code":101,"indent":0,"parameters":["Aka emo2",1,0,2]},{"code":401,"indent":0,"parameters":["In combat, you want to put everything you have into a blow."]},{"code":101,"indent":0,"parameters":["Aka emo2",0,0,2]},{"code":401,"indent":0,"parameters":["But when trying to kill someone sneakily, you need to add the force at the very last second or you'll get noticed."]},{"code":101,"indent":0,"parameters":["1 Simon dark",0,0,2]},{"code":401,"indent":0,"parameters":["I can understand that, but I doubt I could manage after so much time working to maximize damage done."]},{"code":101,"indent":0,"parameters":["Aka emo2",6,0,2]},{"code":401,"indent":0,"parameters":["Hey, that's what you have me for!"]},{"code":123,"indent":0,"parameters":["A",0]},{"code":0,"indent":0,"parameters":[]}]},{"conditions":{"actorId":1,"actorValid":false,"itemId":1,"itemValid":false,"selfSwitchCh":"A","selfSwitchValid":true,"switch1Id":688,"switch1Valid":false,"switch2Id":689,"switch2Valid":false,"variableId":1,"variableValid":false,"variableValue":0},"directionFix":false,"image":{"tileId":0,"characterName":"Aka char2","direction":4,"pattern":1,"characterIndex":0},"moveFrequency":3,"moveRoute":{"list":[{"code":0,"indent":null,"parameters":[]}],"repeat":true,"skippable":false,"wait":false},"moveSpeed":3,"moveType":0,"priorityType":1,"stepAnime":false,"through":false,"trigger":0,"walkAnime":true,"list":[{"code":101,"indent":0,"parameters":["Aka emo2",5,0,2]},{"code":401,"indent":0,"parameters":["In one sense I hope we don't need to assassinate anyone, but in another..."]},{"code":101,"indent":0,"parameters":["Aka emo2",0,0,2]},{"code":401,"indent":0,"parameters":["I also have another idea, but I'm still working on it. Maybe I'll figure it out later..."]},{"code":0,"indent":0,"parameters":[]}]},{"conditions":{"actorId":1,"actorValid":false,"itemId":1,"itemValid":false,"selfSwitchCh":"A","selfSwitchValid":true,"switch1Id":1501,"switch1Valid":true,"switch2Id":689,"switch2Valid":false,"variableId":1,"variableValid":false,"variableValue":0},"directionFix":false,"image":{"tileId":0,"characterName":"Aka char2","direction":4,"pattern":1,"characterIndex":0},"moveFrequency":3,"moveRoute":{"list":[{"code":0,"indent":null,"parameters":[]}],"repeat":true,"skippable":false,"wait":false},"moveSpeed":3,"moveType":0,"priorityType":1,"stepAnime":false,"through":false,"trigger":0,"walkAnime":true,"list":[{"code":101,"indent":0,"parameters":["Aka emo2",1,0,2]},{"code":401,"indent":0,"parameters":["Hey, Simon. I've got something new to show off."]},{"code":101,"indent":0,"parameters":["1 Simon dark",1,0,2]},{"code":401,"indent":0,"parameters":["Yes?"]},{"code":101,"indent":0,"parameters":["Aka emo2",0,0,2]},{"code":401,"indent":0,"parameters":["I was trying to figure out a magic attack, but I just don't have the talent."]},{"code":101,"indent":0,"parameters":["Aka emo2",1,0,2]},{"code":401,"indent":0,"parameters":["So finally, I talked to Robin. She was very helpful about it, I'm glad I did."]},{"code":101,"indent":0,"parameters":["Aka emo2",0,0,2]},{"code":401,"indent":0,"parameters":["I won't be able to pull it off alone, but..."]},{"code":101,"indent":0,"parameters":["Aka emo2",6,0,2]},{"code":401,"indent":0,"parameters":["Now I can stab things with fire!"]},{"code":318,"indent":0,"parameters":[0,5,0,403]},{"code":101,"indent":0,"parameters":["",0,0,2]},{"code":401,"indent":0,"parameters":["Aka learned Flaming Stab! {Robin Synergy}"]},{"code":123,"indent":0,"parameters":["B",0]},{"code":0,"indent":0,"parameters":[]}]},{"conditions":{"actorId":1,"actorValid":false,"itemId":1,"itemValid":false,"selfSwitchCh":"B","selfSwitchValid":true,"switch1Id":688,"switch1Valid":false,"switch2Id":689,"switch2Valid":false,"variableId":1,"variableValid":false,"variableValue":0},"directionFix":false,"image":{"tileId":0,"characterName":"Aka char2","direction":4,"pattern":1,"characterIndex":0},"moveFrequency":3,"moveRoute":{"list":[{"code":0,"indent":null,"parameters":[]}],"repeat":true,"skippable":false,"wait":false},"moveSpeed":3,"moveType":0,"priorityType":1,"stepAnime":false,"through":false,"trigger":0,"walkAnime":true,"list":[{"code":101,"indent":0,"parameters":["Aka emo2",5,0,2]},{"code":401,"indent":0,"parameters":["In one sense I hope we don't need to assassinate anyone, but in another..."]},{"code":0,"indent":0,"parameters":[]}]},{"conditions":{"actorId":1,"actorValid":false,"itemId":1,"itemValid":false,"selfSwitchCh":"A","selfSwitchValid":false,"switch1Id":2099,"switch1Valid":true,"switch2Id":1,"switch2Valid":false,"variableId":1,"variableValid":false,"variableValue":0},"directionFix":false,"image":{"tileId":0,"characterName":"","direction":2,"pattern":0,"characterIndex":0},"moveFrequency":3,"moveRoute":{"list":[{"code":0,"indent":null,"parameters":[]}],"repeat":true,"skippable":false,"wait":false},"moveSpeed":3,"moveType":0,"priorityType":0,"stepAnime":false,"through":false,"trigger":0,"walkAnime":true,"list":[{"code":0,"indent":0,"parameters":[]}]}],"x":8,"y":6},
{"id":4,"name":"Yarra","note":"","pages":[{"conditions":{"actorId":1,"actorValid":false,"itemId":1,"itemValid":false,"selfSwitchCh":"A","selfSwitchValid":false,"switch1Id":1552,"switch1Valid":true,"switch2Id":1,"switch2Valid":false,"variableId":1,"variableValid":false,"variableValue":0},"directionFix":false,"image":{"tileId":0,"characterName":"$Yarra char","direction":6,"pattern":1,"characterIndex":0},"moveFrequency":3,"moveRoute":{"list":[{"code":0,"indent":null,"parameters":[]}],"repeat":true,"skippable":false,"wait":false},"moveSpeed":3,"moveType":0,"priorityType":1,"stepAnime":false,"through":false,"trigger":0,"walkAnime":true,"list":[{"code":101,"indent":0,"parameters":["Yarra emo2",0,0,2]},{"code":401,"indent":0,"parameters":["Since Hilstara and I have been getting along so well, I was thinking we might be able to figure out a new technique together!"]},{"code":101,"indent":0,"parameters":["1 Simon dark",0,0,2]},{"code":401,"indent":0,"parameters":["Together?"]},{"code":101,"indent":0,"parameters":["Yarra emo2",1,0,2]},{"code":401,"indent":0,"parameters":["See, I know I'm not much use against enemies resistant to sexual magic. That means Hilstara has to carry a lot more weight."]},{"code":101,"indent":0,"parameters":["Yarra emo2",0,0,2]},{"code":401,"indent":0,"parameters":["But, with just a little sip of her soul, I could put a lot of force into a blow!"]},{"code":101,"indent":0,"parameters":["1 Simon dark",0,0,2]},{"code":401,"indent":0,"parameters":["That wouldn't harm her?"]},{"code":101,"indent":0,"parameters":["Yarra emo2",6,0,2]},{"code":401,"indent":0,"parameters":["No, I've already gotten a good taste and it was enjoyed all around."]},{"code":101,"indent":0,"parameters":["Yarra emo2",0,0,2]},{"code":401,"indent":0,"parameters":["Now, we just need to be close enough together in combat and I should be able to use a new skill!"]},{"code":318,"indent":0,"parameters":[0,6,0,401]},{"code":101,"indent":0,"parameters":["",0,0,2]},{"code":401,"indent":0,"parameters":["Yarra learned Forceful Kiss! {Hilstara Synergy}"]},{"code":221,"indent":0,"parameters":[]},{"code":123,"indent":0,"parameters":["A",0]},{"code":222,"indent":0,"parameters":[]},{"code":0,"indent":0,"parameters":[]}]},{"conditions":{"actorId":1,"actorValid":false,"itemId":1,"itemValid":false,"selfSwitchCh":"A","selfSwitchValid":true,"switch1Id":1,"switch1Valid":false,"switch2Id":1,"switch2Valid":false,"variableId":1,"variableValid":false,"variableValue":0},"directionFix":false,"image":{"tileId":0,"characterName":"","direction":2,"pattern":0,"characterIndex":0},"moveFrequency":3,"moveRoute":{"list":[{"code":0,"indent":null,"parameters":[]}],"repeat":true,"skippable":false,"wait":false},"moveSpeed":3,"moveType":0,"priorityType":0,"stepAnime":false,"through":false,"trigger":0,"walkAnime":true,"list":[{"code":0,"indent":0,"parameters":[]}]}],"x":5,"y":9},
{"id":5,"name":"EV005","note":"","pages":[{"conditions":{"actorId":1,"actorValid":false,"itemId":1,"itemValid":false,"selfSwitchCh":"A","selfSwitchValid":false,"switch1Id":1,"switch1Valid":false,"switch2Id":1,"switch2Valid":false,"variableId":1,"variableValid":false,"variableValue":0},"directionFix":false,"image":{"tileId":0,"characterName":"Monster1","direction":4,"pattern":1,"characterIndex":2},"moveFrequency":3,"moveRoute":{"list":[{"code":0,"indent":null,"parameters":[]}],"repeat":true,"skippable":false,"wait":false},"moveSpeed":3,"moveType":0,"priorityType":1,"stepAnime":false,"through":false,"trigger":0,"walkAnime":true,"list":[{"code":101,"indent":0,"parameters":["Monster1",2,0,2]},{"code":401,"indent":0,"parameters":["You want hit us? Can hit."]},{"code":101,"indent":0,"parameters":["1 Simon dark",0,0,2]},{"code":401,"indent":0,"parameters":["What's this?"]},{"code":101,"indent":0,"parameters":["Monster1",2,0,2]},{"code":401,"indent":0,"parameters":["Balia send us to training ground, be hit much. Get stronger."]},{"code":101,"indent":0,"parameters":["1 Simon dark",0,0,2]},{"code":401,"indent":0,"parameters":["Ah, I see. We'll talk to you if we need to practice our skills."]},{"code":101,"indent":0,"parameters":["Monster1",2,0,2]},{"code":401,"indent":0,"parameters":["Good good. Want get stronger, want help Master."]},{"code":123,"indent":0,"parameters":["A",0]},{"code":0,"indent":0,"parameters":[]}]},{"conditions":{"actorId":1,"actorValid":false,"itemId":1,"itemValid":false,"selfSwitchCh":"A","selfSwitchValid":true,"switch1Id":1,"switch1Valid":false,"switch2Id":1,"switch2Valid":false,"variableId":1,"variableValid":false,"variableValue":0},"directionFix":false,"image":{"tileId":0,"characterName":"Monster1","direction":4,"pattern":1,"characterIndex":2},"moveFrequency":3,"moveRoute":{"list":[{"code":0,"indent":null,"parameters":[]}],"repeat":true,"skippable":false,"wait":false},"moveSpeed":3,"moveType":0,"priorityType":1,"stepAnime":false,"through":false,"trigger":0,"walkAnime":true,"list":[{"code":101,"indent":0,"parameters":["Monster1",2,0,2]},{"code":401,"indent":0,"parameters":["You want hit?"]},{"code":111,"indent":0,"parameters":[0,1093,0]},{"code":102,"indent":1,"parameters":[["Not now","Training fight","Training fight (magic)","Training fight (sex)"],0,0,2,0]},{"code":402,"indent":1,"parameters":[0,"Not now"]},{"code":0,"indent":2,"parameters":[]},{"code":402,"indent":1,"parameters":[1,"Training fight"]},{"code":301,"indent":2,"parameters":[0,490,true,true]},{"code":601,"indent":2,"parameters":[]},{"code":101,"indent":3,"parameters":["Monster1",2,0,2]},{"code":401,"indent":3,"parameters":["Ow... Master's females very strong..."]},{"code":0,"indent":3,"parameters":[]},{"code":602,"indent":2,"parameters":[]},{"code":0,"indent":3,"parameters":[]},{"code":603,"indent":2,"parameters":[]},{"code":0,"indent":3,"parameters":[]},{"code":604,"indent":2,"parameters":[]},{"code":0,"indent":2,"parameters":[]},{"code":402,"indent":1,"parameters":[2,"Training fight (magic)"]},{"code":301,"indent":2,"parameters":[0,491,true,true]},{"code":601,"indent":2,"parameters":[]},{"code":101,"indent":3,"parameters":["Monster1",2,0,2]},{"code":401,"indent":3,"parameters":["Ow... Master's females very strong..."]},{"code":0,"indent":3,"parameters":[]},{"code":602,"indent":2,"parameters":[]},{"code":0,"indent":3,"parameters":[]},{"code":603,"indent":2,"parameters":[]},{"code":0,"indent":3,"parameters":[]},{"code":604,"indent":2,"parameters":[]},{"code":0,"indent":2,"parameters":[]},{"code":402,"indent":1,"parameters":[3,"Training fight (sex)"]},{"code":301,"indent":2,"parameters":[0,492,true,true]},{"code":601,"indent":2,"parameters":[]},{"code":101,"indent":3,"parameters":["Monster1",2,0,2]},{"code":401,"indent":3,"parameters":["...this is best job."]},{"code":0,"indent":3,"parameters":[]},{"code":602,"indent":2,"parameters":[]},{"code":0,"indent":3,"parameters":[]},{"code":603,"indent":2,"parameters":[]},{"code":0,"indent":3,"parameters":[]},{"code":604,"indent":2,"parameters":[]},{"code":0,"indent":2,"parameters":[]},{"code":404,"indent":1,"parameters":[]},{"code":0,"indent":1,"parameters":[]},{"code":411,"indent":0,"parameters":[]},{"code":102,"indent":1,"parameters":[["Not now","Training fight"],0,0,2,0]},{"code":402,"indent":1,"parameters":[0,"Not now"]},{"code":0,"indent":2,"parameters":[]},{"code":402,"indent":1,"parameters":[1,"Training fight"]},{"code":301,"indent":2,"parameters":[0,490,true,true]},{"code":601,"indent":2,"parameters":[]},{"code":101,"indent":3,"parameters":["Monster1",2,0,2]},{"code":401,"indent":3,"parameters":["Ow... Master's females very strong..."]},{"code":0,"indent":3,"parameters":[]},{"code":602,"indent":2,"parameters":[]},{"code":0,"indent":3,"parameters":[]},{"code":603,"indent":2,"parameters":[]},{"code":0,"indent":3,"parameters":[]},{"code":604,"indent":2,"parameters":[]},{"code":0,"indent":2,"parameters":[]},{"code":404,"indent":1,"parameters":[]},{"code":0,"indent":1,"parameters":[]},{"code":412,"indent":0,"parameters":[]},{"code":0,"indent":0,"parameters":[]}]}],"x":9,"y":13},
{"id":6,"name":"EV006","note":"","pages":[{"conditions":{"actorId":1,"actorValid":false,"itemId":1,"itemValid":false,"selfSwitchCh":"A","selfSwitchValid":false,"switch1Id":1,"switch1Valid":false,"switch2Id":1,"switch2Valid":false,"variableId":56,"variableValid":false,"variableValue":3},"directionFix":true,"image":{"tileId":0,"characterName":"$Nalili char","direction":2,"pattern":1,"characterIndex":0},"moveFrequency":3,"moveRoute":{"list":[{"code":0,"indent":null,"parameters":[]}],"repeat":true,"skippable":false,"wait":false},"moveSpeed":3,"moveType":0,"priorityType":1,"stepAnime":true,"through":false,"trigger":0,"walkAnime":true,"list":[{"code":101,"indent":0,"parameters":["Nalili emo2",0,0,2]},{"code":401,"indent":0,"parameters":["Gnnnh. I want to get stronger to help everybody, but I can't think of any good ideas."]},{"code":101,"indent":0,"parameters":["1 Simon dark",0,0,2]},{"code":401,"indent":0,"parameters":["Perhaps I can help. Why do you keep winking and throwing sexual magic in combat?"]},{"code":101,"indent":0,"parameters":["Nalili emo1",1,0,2]},{"code":401,"indent":0,"parameters":["It's a sex attack! You know, like succubi do!"]},{"code":101,"indent":0,"parameters":["1 Simon dark",0,0,2]},{"code":401,"indent":0,"parameters":["..."]},{"code":101,"indent":0,"parameters":["Nalili emo1",0,0,2]},{"code":401,"indent":0,"parameters":["Okay, it doesn't work on you - even though my boobs are great - but it's enough to stun a lot of people!"]},{"code":101,"indent":0,"parameters":["1 Simon dark",0,0,2]},{"code":401,"indent":0,"parameters":["It won't work against stronger opponents. I think you'd be better served with a skill that plays to your physical strengths."]},{"code":101,"indent":0,"parameters":["Nalili emo1",0,0,2]},{"code":401,"indent":0,"parameters":["Hmm... but I kind of feel like I should be able to use sexual magic that way..."]},{"code":101,"indent":0,"parameters":["1 Simon dark",0,0,2]},{"code":401,"indent":0,"parameters":["Because you want to, or because you feel other people expect you to?"]},{"code":101,"indent":0,"parameters":["Nalili emo1",0,0,2]},{"code":401,"indent":0,"parameters":["Hmm..."]},{"code":101,"indent":0,"parameters":["1 Simon dark",0,0,2]},{"code":401,"indent":0,"parameters":["Your combat style fueled by sexual magic works for you. Why try to copy what other succubi are doing?"]},{"code":101,"indent":0,"parameters":["Nalili emo1",0,0,2]},{"code":401,"indent":0,"parameters":["..."]},{"code":101,"indent":0,"parameters":["Nalili emo1",1,0,2]},{"code":401,"indent":0,"parameters":["Maybe you're right. I'll give it a try!"]},{"code":221,"indent":0,"parameters":[]},{"code":230,"indent":0,"parameters":[60]},{"code":121,"indent":0,"parameters":[627,627,0]},{"code":318,"indent":0,"parameters":[0,14,1,192]},{"code":318,"indent":0,"parameters":[0,14,0,193]},{"code":101,"indent":0,"parameters":["",0,0,2]},{"code":401,"indent":0,"parameters":["Sex Appeal became Cleavage!"]},{"code":222,"indent":0,"parameters":[]},{"code":101,"indent":0,"parameters":["Nalili emo1",5,0,2]},{"code":401,"indent":0,"parameters":["Wow, this is so much better! Thanks, Simon!"]},{"code":101,"indent":0,"parameters":["1 Simon dark",1,0,2]},{"code":401,"indent":0,"parameters":["You're welcome. Use it well."]},{"code":221,"indent":0,"parameters":[]},{"code":123,"indent":0,"parameters":["A",0]},{"code":222,"indent":0,"parameters":[]},{"code":0,"indent":0,"parameters":[]}]},{"conditions":{"actorId":1,"actorValid":false,"itemId":1,"itemValid":false,"selfSwitchCh":"A","selfSwitchValid":false,"switch1Id":627,"switch1Valid":true,"switch2Id":1,"switch2Valid":false,"variableId":1,"variableValid":false,"variableValue":0},"directionFix":false,"image":{"tileId":0,"characterName":"$Nalili char","direction":2,"pattern":1,"characterIndex":0},"moveFrequency":3,"moveRoute":{"list":[{"code":0,"indent":null,"parameters":[]}],"repeat":true,"skippable":false,"wait":false},"moveSpeed":3,"moveType":0,"priorityType":1,"stepAnime":false,"through":false,"trigger":0,"walkAnime":true,"list":[{"code":101,"indent":0,"parameters":["Nalili emo1",5,0,2]},{"code":401,"indent":0,"parameters":["Hey Simon! It's neat that we finally have a training ground to ourselves here!"]},{"code":101,"indent":0,"parameters":["1 Simon dark",0,0,2]},{"code":401,"indent":0,"parameters":["Glad to see you're making use of it."]},{"code":101,"indent":0,"parameters":["Nalili emo1",1,0,2]},{"code":401,"indent":0,"parameters":["Yeah! I don't have any great ideas, but I'm trying to learn from the others and get a little stronger!"]},{"code":221,"indent":0,"parameters":[]},{"code":317,"indent":0,"parameters":[0,14,2,0,0,2]},{"code":317,"indent":0,"parameters":[0,14,3,0,0,2]},{"code":101,"indent":0,"parameters":["",0,0,2]},{"code":401,"indent":0,"parameters":["Nalili's stats increased."]},{"code":123,"indent":0,"parameters":["A",0]},{"code":222,"indent":0,"parameters":[]},{"code":0,"indent":0,"parameters":[]}]},{"conditions":{"actorId":1,"actorValid":false,"itemId":1,"itemValid":false,"selfSwitchCh":"A","selfSwitchValid":true,"switch1Id":1,"switch1Valid":false,"switch2Id":1,"switch2Valid":false,"variableId":1,"variableValid":false,"variableValue":0},"directionFix":false,"image":{"tileId":0,"characterName":"","direction":2,"pattern":0,"characterIndex":0},"moveFrequency":3,"moveRoute":{"list":[{"code":0,"indent":null,"parameters":[]}],"repeat":true,"skippable":false,"wait":false},"moveSpeed":3,"moveType":0,"priorityType":0,"stepAnime":false,"through":false,"trigger":0,"walkAnime":true,"list":[{"code":0,"indent":0,"parameters":[]}]},{"conditions":{"actorId":1,"actorValid":false,"itemId":1,"itemValid":false,"selfSwitchCh":"A","selfSwitchValid":true,"switch1Id":1489,"switch1Valid":true,"switch2Id":1,"switch2Valid":false,"variableId":1,"variableValid":false,"variableValue":0},"directionFix":false,"image":{"tileId":0,"characterName":"$Nalili char","direction":2,"pattern":1,"characterIndex":0},"moveFrequency":3,"moveRoute":{"list":[{"code":0,"indent":null,"parameters":[]}],"repeat":true,"skippable":false,"wait":false},"moveSpeed":3,"moveType":0,"priorityType":1,"stepAnime":false,"through":false,"trigger":0,"walkAnime":true,"list":[{"code":101,"indent":0,"parameters":["Nalili emo1",1,0,2]},{"code":401,"indent":0,"parameters":["Hey, Simon! I had another idea for training!"]},{"code":101,"indent":0,"parameters":["Nalili emo1",0,0,2]},{"code":401,"indent":0,"parameters":["I want to be helpful to Carina, but I'm not very good at that sort of thing when it doesn't involve sex."]},{"code":101,"indent":0,"parameters":["Nalili emo1",4,0,2]},{"code":401,"indent":0,"parameters":["But then, I had the idea that I could make her job easier in combat! So she doesn't have to heal me as much, you know?"]},{"code":101,"indent":0,"parameters":["Nalili emo1",5,0,2]},{"code":401,"indent":0,"parameters":["So we worked together, and I found a way to do it!"]},{"code":318,"indent":0,"parameters":[0,14,0,402]},{"code":101,"indent":0,"parameters":["",0,0,2]},{"code":401,"indent":0,"parameters":["Nalili learned Healing Masturbation! {Carina Synergy}"]},{"code":101,"indent":0,"parameters":["1 Simon dark",0,0,2]},{"code":401,"indent":0,"parameters":["...I shouldn't have been surprised."]},{"code":101,"indent":0,"parameters":["Nalili emo1",5,0,2]},{"code":401,"indent":0,"parameters":["It feels great, too! If I can't fuck Carina, I can at least masturbate to her magic!"]},{"code":221,"indent":0,"parameters":[]},{"code":123,"indent":0,"parameters":["B",0]},{"code":222,"indent":0,"parameters":[]},{"code":0,"indent":0,"parameters":[]}]},{"conditions":{"actorId":1,"actorValid":false,"itemId":1,"itemValid":false,"selfSwitchCh":"B","selfSwitchValid":true,"switch1Id":1,"switch1Valid":false,"switch2Id":1,"switch2Valid":false,"variableId":1,"variableValid":false,"variableValue":0},"directionFix":false,"image":{"tileId":0,"characterName":"","direction":2,"pattern":0,"characterIndex":0},"moveFrequency":3,"moveRoute":{"list":[{"code":0,"indent":null,"parameters":[]}],"repeat":true,"skippable":false,"wait":false},"moveSpeed":3,"moveType":0,"priorityType":0,"stepAnime":false,"through":false,"trigger":0,"walkAnime":true,"list":[{"code":0,"indent":0,"parameters":[]}]}],"x":6,"y":15},
{"id":7,"name":"EV007","note":"","pages":[{"conditions":{"actorId":1,"actorValid":false,"itemId":1,"itemValid":false,"selfSwitchCh":"A","selfSwitchValid":false,"switch1Id":639,"switch1Valid":false,"switch2Id":619,"switch2Valid":false,"variableId":56,"variableValid":false,"variableValue":3},"directionFix":true,"image":{"tileId":0,"characterName":"!Flame","direction":2,"pattern":1,"characterIndex":6},"moveFrequency":3,"moveRoute":{"list":[{"code":0,"indent":null,"parameters":[]}],"repeat":true,"skippable":false,"wait":false},"moveSpeed":3,"moveType":0,"priorityType":1,"stepAnime":true,"through":false,"trigger":0,"walkAnime":true,"list":[{"code":122,"indent":0,"parameters":[1,1,0,0,0]},{"code":101,"indent":0,"parameters":["1 Simon dark",0,0,2]},{"code":401,"indent":0,"parameters":["I have experiences I haven't reflected on. I should take this opportunity to try to improve myself qualitatively instead of merely accumulating power."]},{"code":101,"indent":0,"parameters":["1 Simon dark eyes",0,0,2]},{"code":401,"indent":0,"parameters":["Hmmm..."]},{"code":250,"indent":0,"parameters":[{"name":"Stare","pan":0,"pitch":60,"volume":80}]},{"code":230,"indent":0,"parameters":[60]},{"code":356,"indent":0,"parameters":["ChangeTpMode Actor 2 to 5"]},{"code":111,"indent":0,"parameters":[0,629,0]},{"code":122,"indent":1,"parameters":[1,1,1,0,1]},{"code":0,"indent":1,"parameters":[]},{"code":411,"indent":0,"parameters":[]},{"code":318,"indent":1,"parameters":[0,2,1,14]},{"code":318,"indent":1,"parameters":[0,2,1,10]},{"code":318,"indent":1,"parameters":[0,2,1,11]},{"code":318,"indent":1,"parameters":[0,2,1,12]},{"code":318,"indent":1,"parameters":[0,2,0,21]},{"code":101,"indent":1,"parameters":["",0,0,2]},{"code":401,"indent":1,"parameters":["Simon sacrificed Heroic Imitation. <br>"]},{"code":401,"indent":1,"parameters":["Blinding Strike, Silencing Strike, and Stunning Strike became Unified Strike!"]},{"code":0,"indent":1,"parameters":[]},{"code":412,"indent":0,"parameters":[]},{"code":111,"indent":0,"parameters":[4,2,3,182]},{"code":122,"indent":1,"parameters":[1,1,1,0,1]},{"code":0,"indent":1,"parameters":[]},{"code":411,"indent":0,"parameters":[]},{"code":318,"indent":1,"parameters":[0,2,0,182]},{"code":101,"indent":1,"parameters":["",0,0,2]},{"code":401,"indent":1,"parameters":["Simon learned Dominate!"]},{"code":0,"indent":1,"parameters":[]},{"code":412,"indent":0,"parameters":[]},{"code":111,"indent":0,"parameters":[4,2,3,183]},{"code":122,"indent":1,"parameters":[1,1,1,0,1]},{"code":0,"indent":1,"parameters":[]},{"code":411,"indent":0,"parameters":[]},{"code":318,"indent":1,"parameters":[0,2,0,183]},{"code":101,"indent":1,"parameters":["",0,0,2]},{"code":401,"indent":1,"parameters":["Simon learned Corrupt!"]},{"code":0,"indent":1,"parameters":[]},{"code":412,"indent":0,"parameters":[]},{"code":111,"indent":0,"parameters":[4,2,3,181]},{"code":122,"indent":1,"parameters":[1,1,1,0,1]},{"code":0,"indent":1,"parameters":[]},{"code":411,"indent":0,"parameters":[]},{"code":318,"indent":1,"parameters":[0,2,1,180]},{"code":318,"indent":1,"parameters":[0,2,0,181]},{"code":101,"indent":1,"parameters":["",0,0,2]},{"code":401,"indent":1,"parameters":["Suppress Lust became Lust Renewal!"]},{"code":0,"indent":1,"parameters":[]},{"code":412,"indent":0,"parameters":[]},{"code":111,"indent":0,"parameters":[4,2,3,184]},{"code":122,"indent":1,"parameters":[1,1,1,0,1]},{"code":0,"indent":1,"parameters":[]},{"code":411,"indent":0,"parameters":[]},{"code":318,"indent":1,"parameters":[0,2,0,184]},{"code":101,"indent":1,"parameters":["",0,0,2]},{"code":401,"indent":1,"parameters":["Simon learned King's Aura!"]},{"code":0,"indent":1,"parameters":[]},{"code":412,"indent":0,"parameters":[]},{"code":111,"indent":0,"parameters":[1,1,0,5,1]},{"code":121,"indent":1,"parameters":[1513,1513,0]},{"code":356,"indent":1,"parameters":["ChangeTpMode Actor 2 to 6"]},{"code":101,"indent":1,"parameters":["1 Simon dark eyes",1,0,2]},{"code":401,"indent":1,"parameters":["...good. I feel like I can control an increased flow of lust now."]},{"code":0,"indent":1,"parameters":[]},{"code":411,"indent":0,"parameters":[]},{"code":101,"indent":1,"parameters":["1 Simon dark",0,0,2]},{"code":401,"indent":1,"parameters":["Hopefully these new skills will be more helpful to everyone."]},{"code":0,"indent":1,"parameters":[]},{"code":412,"indent":0,"parameters":[]},{"code":121,"indent":0,"parameters":[1512,1512,0]},{"code":0,"indent":0,"parameters":[]}]},{"conditions":{"actorId":1,"actorValid":false,"itemId":1,"itemValid":false,"selfSwitchCh":"A","selfSwitchValid":false,"switch1Id":1512,"switch1Valid":true,"switch2Id":1,"switch2Valid":false,"variableId":1,"variableValid":false,"variableValue":0},"directionFix":false,"image":{"tileId":0,"characterName":"","direction":2,"pattern":0,"characterIndex":0},"moveFrequency":3,"moveRoute":{"list":[{"code":0,"indent":null,"parameters":[]}],"repeat":true,"skippable":false,"wait":false},"moveSpeed":3,"moveType":0,"priorityType":0,"stepAnime":false,"through":false,"trigger":0,"walkAnime":true,"list":[{"code":0,"indent":0,"parameters":[]}]}],"x":7,"y":10},
{"id":8,"name":"Qum","note":"","pages":[{"conditions":{"actorId":1,"actorValid":false,"itemId":1,"itemValid":false,"selfSwitchCh":"A","selfSwitchValid":false,"switch1Id":1664,"switch1Valid":true,"switch2Id":1,"switch2Valid":false,"variableId":1,"variableValid":false,"variableValue":0},"directionFix":false,"image":{"tileId":0,"characterName":"$Qum Nude","direction":2,"pattern":1,"characterIndex":0},"moveFrequency":3,"moveRoute":{"list":[{"code":0,"indent":null,"parameters":[]}],"repeat":true,"skippable":false,"wait":false},"moveSpeed":3,"moveType":0,"priorityType":1,"stepAnime":false,"through":false,"trigger":0,"walkAnime":true,"list":[{"code":101,"indent":0,"parameters":["Qum D'umpe emo",1,0,2]},{"code":401,"indent":0,"parameters":["Simon! Cumdump has an idea!"]},{"code":101,"indent":0,"parameters":["Qum D'umpe emo",0,0,2]},{"code":401,"indent":0,"parameters":["Cumdump is not very good at nomming enemies..."]},{"code":101,"indent":0,"parameters":["Qum D'umpe emo",6,0,2]},{"code":401,"indent":0,"parameters":["But Yarra is! We can do a special thing together!"]},{"code":101,"indent":0,"parameters":["1 Simon dark",1,0,2]},{"code":401,"indent":0,"parameters":["That sounds potentially useful."]},{"code":101,"indent":0,"parameters":["Qum D'umpe emo",6,0,2]},{"code":401,"indent":0,"parameters":["Yup yup! Cumdump will suck up a bunch of life from the enemies and then kiss it back into everyone!"]},{"code":318,"indent":0,"parameters":[0,7,0,405]},{"code":101,"indent":0,"parameters":["",0,0,2]},{"code":401,"indent":0,"parameters":["Qum learned Mass Kiss! {Yarra Synergy}"]},{"code":221,"indent":0,"parameters":[]},{"code":123,"indent":0,"parameters":["A",0]},{"code":222,"indent":0,"parameters":[]},{"code":0,"indent":0,"parameters":[]}]},{"conditions":{"actorId":1,"actorValid":false,"itemId":1,"itemValid":false,"selfSwitchCh":"A","selfSwitchValid":true,"switch1Id":1,"switch1Valid":false,"switch2Id":1,"switch2Valid":false,"variableId":1,"variableValid":false,"variableValue":0},"directionFix":false,"image":{"tileId":0,"characterName":"","direction":2,"pattern":0,"characterIndex":0},"moveFrequency":3,"moveRoute":{"list":[{"code":0,"indent":null,"parameters":[]}],"repeat":true,"skippable":false,"wait":false},"moveSpeed":3,"moveType":0,"priorityType":0,"stepAnime":false,"through":false,"trigger":0,"walkAnime":true,"list":[{"code":0,"indent":0,"parameters":[]}]}],"x":10,"y":11},
{"id":9,"name":"Yarra","note":"","pages":[{"conditions":{"actorId":1,"actorValid":false,"itemId":1,"itemValid":false,"selfSwitchCh":"A","selfSwitchValid":false,"switch1Id":1662,"switch1Valid":true,"switch2Id":1,"switch2Valid":false,"variableId":1,"variableValid":false,"variableValue":0},"directionFix":false,"image":{"tileId":0,"characterName":"$Yarra char","direction":4,"pattern":1,"characterIndex":0},"moveFrequency":3,"moveRoute":{"list":[{"code":0,"indent":null,"parameters":[]}],"repeat":true,"skippable":false,"wait":false},"moveSpeed":3,"moveType":0,"priorityType":1,"stepAnime":false,"through":false,"trigger":0,"walkAnime":true,"list":[{"code":111,"indent":0,"parameters":[0,1552,0]},{"code":101,"indent":1,"parameters":["1 Simon dark",1,0,2]},{"code":401,"indent":1,"parameters":["Well, you're quite active here."]},{"code":101,"indent":1,"parameters":["Yarra emo2",0,0,2]},{"code":401,"indent":1,"parameters":["I'm the Harem Mistress! I've gotta get along with everybody!"]},{"code":101,"indent":1,"parameters":["Yarra emo2",0,0,2]},{"code":401,"indent":1,"parameters":["In this case, I'm doing my best with Aka."]},{"code":0,"indent":1,"parameters":[]},{"code":411,"indent":0,"parameters":[]},{"code":101,"indent":1,"parameters":["Yarra emo2",0,0,2]},{"code":401,"indent":1,"parameters":["Hey! I've been working with Aka on something new."]},{"code":0,"indent":1,"parameters":[]},{"code":412,"indent":0,"parameters":[]},{"code":101,"indent":0,"parameters":["Yarra emo2",0,0,2]},{"code":401,"indent":0,"parameters":["The two of us don't always see eye-to-eye, but we definitely have each other's backs in combat!"]},{"code":101,"indent":0,"parameters":["1 Simon dark",1,0,2]},{"code":401,"indent":0,"parameters":["Ah, did she let you take a sip of her soul?"]},{"code":101,"indent":0,"parameters":["Yarra emo2",1,0,2]},{"code":401,"indent":0,"parameters":["I wish, but no. "]},{"code":101,"indent":0,"parameters":["Yarra emo2",0,0,2]},{"code":401,"indent":0,"parameters":["But though she refused, she suggested another way for us to work together! And it actually worked out great!"]},{"code":101,"indent":0,"parameters":["Yarra emo2",0,0,2]},{"code":401,"indent":0,"parameters":["With her help, I can shift my sexual magic a little: it's less sexy, but more efficient!"]},{"code":318,"indent":0,"parameters":[0,6,0,408]},{"code":101,"indent":0,"parameters":["",0,0,2]},{"code":401,"indent":0,"parameters":["Yarra learned Combat Flirt! {Aka Synergy}"]},{"code":101,"indent":0,"parameters":["1 Simon dark",1,0,2]},{"code":401,"indent":0,"parameters":["Always glad to see you two getting along."]},{"code":101,"indent":0,"parameters":["Yarra emo2",6,0,2]},{"code":401,"indent":0,"parameters":["I hope at this rate we'll get along much, MUCH better soon..."]},{"code":221,"indent":0,"parameters":[]},{"code":123,"indent":0,"parameters":["A",0]},{"code":222,"indent":0,"parameters":[]},{"code":0,"indent":0,"parameters":[]}]},{"conditions":{"actorId":1,"actorValid":false,"itemId":1,"itemValid":false,"selfSwitchCh":"A","selfSwitchValid":true,"switch1Id":1,"switch1Valid":false,"switch2Id":1,"switch2Valid":false,"variableId":1,"variableValid":false,"variableValue":0},"directionFix":false,"image":{"tileId":0,"characterName":"","direction":2,"pattern":0,"characterIndex":0},"moveFrequency":3,"moveRoute":{"list":[{"code":0,"indent":null,"parameters":[]}],"repeat":true,"skippable":false,"wait":false},"moveSpeed":3,"moveType":0,"priorityType":0,"stepAnime":false,"through":false,"trigger":0,"walkAnime":true,"list":[{"code":0,"indent":0,"parameters":[]}]}],"x":10,"y":16},
{"id":10,"name":"Hilstara","note":"","pages":[{"conditions":{"actorId":1,"actorValid":false,"itemId":1,"itemValid":false,"selfSwitchCh":"A","selfSwitchValid":false,"switch1Id":1663,"switch1Valid":true,"switch2Id":1,"switch2Valid":false,"variableId":1,"variableValid":false,"variableValue":0},"directionFix":false,"image":{"tileId":0,"characterName":"Hilstara char","direction":6,"pattern":1,"characterIndex":0},"moveFrequency":3,"moveRoute":{"list":[{"code":0,"indent":null,"parameters":[]}],"repeat":true,"skippable":false,"wait":false},"moveSpeed":3,"moveType":0,"priorityType":1,"stepAnime":false,"through":false,"trigger":0,"walkAnime":true,"list":[{"code":101,"indent":0,"parameters":["Hilstara emo",4,0,2]},{"code":401,"indent":0,"parameters":["Carina has been pretty directionless lately, hasn't she?"]},{"code":101,"indent":0,"parameters":["1 Simon dark",0,0,2]},{"code":401,"indent":0,"parameters":["Yes. I think she's stable, but I'd prefer she wasn't suffering like this."]},{"code":101,"indent":0,"parameters":["Hilstara emo",5,0,2]},{"code":401,"indent":0,"parameters":["Well, I made an attempt. I thought if I got her out here and physically active her mood might improve."]},{"code":101,"indent":0,"parameters":["Hilstara emo",1,0,2]},{"code":401,"indent":0,"parameters":["The good news is that we've developed a technique together. Now I should be more useful against magic as well."]},{"code":318,"indent":0,"parameters":[0,8,0,409]},{"code":101,"indent":0,"parameters":["",0,0,2]},{"code":401,"indent":0,"parameters":["Hilstara learned Holy Shieldwall! {Carina Synergy}"]},{"code":101,"indent":0,"parameters":["Hilstara emo",0,0,2]},{"code":401,"indent":0,"parameters":["The bad news is that it only lifted her spirits for a very brief while."]},{"code":101,"indent":0,"parameters":["1 Simon dark",1,0,2]},{"code":401,"indent":0,"parameters":["I'm sure she noticed and appreciated your kindness, though."]},{"code":101,"indent":0,"parameters":["1 Simon dark",0,0,2]},{"code":401,"indent":0,"parameters":["I'm afraid what Carina needs is not a change in attitude, but answers. And I'm afraid I don't have any."]},{"code":101,"indent":0,"parameters":["Hilstara emo",5,0,2]},{"code":401,"indent":0,"parameters":["I wish I could do more, but you're probably right."]},{"code":221,"indent":0,"parameters":[]},{"code":123,"indent":0,"parameters":["A",0]},{"code":222,"indent":0,"parameters":[]},{"code":0,"indent":0,"parameters":[]}]},{"conditions":{"actorId":1,"actorValid":false,"itemId":1,"itemValid":false,"selfSwitchCh":"A","selfSwitchValid":true,"switch1Id":1,"switch1Valid":false,"switch2Id":1,"switch2Valid":false,"variableId":1,"variableValid":false,"variableValue":0},"directionFix":false,"image":{"tileId":0,"characterName":"","direction":2,"pattern":0,"characterIndex":0},"moveFrequency":3,"moveRoute":{"list":[{"code":0,"indent":null,"parameters":[]}],"repeat":true,"skippable":false,"wait":false},"moveSpeed":3,"moveType":0,"priorityType":0,"stepAnime":false,"through":false,"trigger":0,"walkAnime":true,"list":[{"code":0,"indent":0,"parameters":[]}]}],"x":5,"y":13},
{"id":11,"name":"Robin","note":"","pages":[{"conditions":{"actorId":1,"actorValid":false,"itemId":1,"itemValid":false,"selfSwitchCh":"A","selfSwitchValid":false,"switch1Id":1639,"switch1Valid":true,"switch2Id":1,"switch2Valid":false,"variableId":1,"variableValid":false,"variableValue":0},"directionFix":false,"image":{"tileId":0,"characterName":"Robin blond","direction":4,"pattern":1,"characterIndex":0},"moveFrequency":3,"moveRoute":{"list":[{"code":0,"indent":null,"parameters":[]}],"repeat":true,"skippable":false,"wait":false},"moveSpeed":3,"moveType":0,"priorityType":1,"stepAnime":false,"through":false,"trigger":0,"walkAnime":true,"list":[{"code":101,"indent":0,"parameters":["1 Simon dark",1,0,2]},{"code":401,"indent":0,"parameters":["I didn't expect to see you here."]},{"code":101,"indent":0,"parameters":["Robin blond emo",1,0,2]},{"code":401,"indent":0,"parameters":["Though the majority of my time is spent on research, I'm trying to become more useful to everyone in combat as well."]},{"code":111,"indent":0,"parameters":[0,1553,0]},{"code":101,"indent":1,"parameters":["Robin blond emo",0,0,2]},{"code":401,"indent":1,"parameters":["Since I've been working so closely with Qum on her project, I've been pondering her essence, and I think I've uncovered something useful."]},{"code":0,"indent":1,"parameters":[]},{"code":411,"indent":0,"parameters":[]},{"code":101,"indent":1,"parameters":["Robin blond emo",0,0,2]},{"code":401,"indent":1,"parameters":["Since I've been working so closely with Qum, I've been pondering her essence, and I think I've uncovered something useful."]},{"code":0,"indent":1,"parameters":[]},{"code":412,"indent":0,"parameters":[]},{"code":101,"indent":0,"parameters":["Robin blond emo",0,0,2]},{"code":401,"indent":0,"parameters":["The chaotic nature of her magic has the potential to be very useful. I can't generate such chaotic energy myself, but I could utilize hers."]},{"code":101,"indent":0,"parameters":["1 Simon dark",0,0,2]},{"code":401,"indent":0,"parameters":["That sounds promising. What have you come up with?"]},{"code":101,"indent":0,"parameters":["Robin blond emo",1,0,2]},{"code":401,"indent":0,"parameters":["An attack that will attempt to disrupt an opponent's internal magic in many ways simultaneously. Hopefully I'll be able to disable enemies I can't defeat."]},{"code":101,"indent":0,"parameters":["1 Simon dark",1,0,2]},{"code":401,"indent":0,"parameters":["Good work, Robin."]},{"code":318,"indent":0,"parameters":[0,9,0,410]},{"code":101,"indent":0,"parameters":["",0,0,2]},{"code":401,"indent":0,"parameters":["Robin learned Disrupt! {Qum Synergy}"]},{"code":221,"indent":0,"parameters":[]},{"code":123,"indent":0,"parameters":["A",0]},{"code":222,"indent":0,"parameters":[]},{"code":0,"indent":0,"parameters":[]}]},{"conditions":{"actorId":1,"actorValid":false,"itemId":1,"itemValid":false,"selfSwitchCh":"A","selfSwitchValid":true,"switch1Id":1,"switch1Valid":false,"switch2Id":1,"switch2Valid":false,"variableId":1,"variableValid":false,"variableValue":0},"directionFix":false,"image":{"tileId":0,"characterName":"","direction":2,"pattern":0,"characterIndex":0},"moveFrequency":3,"moveRoute":{"list":[{"code":0,"indent":null,"parameters":[]}],"repeat":true,"skippable":false,"wait":false},"moveSpeed":3,"moveType":0,"priorityType":0,"stepAnime":false,"through":false,"trigger":0,"walkAnime":true,"list":[{"code":0,"indent":0,"parameters":[]}]}],"x":9,"y":8},
{"id":12,"name":"EV012","note":"","pages":[{"conditions":{"actorId":1,"actorValid":false,"itemId":1,"itemValid":false,"selfSwitchCh":"A","selfSwitchValid":false,"switch1Id":1639,"switch1Valid":true,"switch2Id":1,"switch2Valid":false,"variableId":1,"variableValid":false,"variableValue":0},"directionFix":false,"image":{"tileId":0,"characterName":"","direction":2,"pattern":0,"characterIndex":0},"moveFrequency":3,"moveRoute":{"list":[{"code":0,"indent":null,"parameters":[]}],"repeat":true,"skippable":false,"wait":false},"moveSpeed":3,"moveType":0,"priorityType":0,"stepAnime":false,"through":false,"trigger":3,"walkAnime":true,"list":[{"code":101,"indent":0,"parameters":["Uyae emo",1,0,2]},{"code":401,"indent":0,"parameters":["..."]},{"code":101,"indent":0,"parameters":["Nalili emo1",5,0,2]},{"code":401,"indent":0,"parameters":["Hello!"]},{"code":101,"indent":0,"parameters":["Uyae emo",1,0,2]},{"code":401,"indent":0,"parameters":["Ah... hello. I cannot yet speak well."]},{"code":101,"indent":0,"parameters":["Nalili emo1",5,0,2]},{"code":401,"indent":0,"parameters":["Sure you can! I've heard you chatting away with Aka!"]},{"code":101,"indent":0,"parameters":["Uyae emo",0,0,2]},{"code":401,"indent":0,"parameters":["..."]},{"code":101,"indent":0,"parameters":["Nalili emo1",0,0,2]},{"code":401,"indent":0,"parameters":["...not comfortable, huh? Well, that's okay."]},{"code":101,"indent":0,"parameters":["Nalili emo1",5,0,2]},{"code":401,"indent":0,"parameters":["You looked kinda happy earlier, though! Do you wanna spar or train with us?"]},{"code":101,"indent":0,"parameters":["Uyae emo",0,0,2]},{"code":401,"indent":0,"parameters":["Would you... show me more... uh, sexual magic?"]},{"code":101,"indent":0,"parameters":["Nalili emo2",5,0,2]},{"code":401,"indent":0,"parameters":["Ooh, I would love to! You look so soft!"]},{"code":101,"indent":0,"parameters":["Uyae emo",7,0,2]},{"code":401,"indent":0,"parameters":["..."]},{"code":101,"indent":0,"parameters":["Nalili emo1",4,0,2]},{"code":401,"indent":0,"parameters":["Haha, don't worry! I know you didn't mean that!"]},{"code":101,"indent":0,"parameters":["Nalili emo1",1,0,2]},{"code":401,"indent":0,"parameters":["Sure, I could show you some things! Don't need any talking to practice!"]},{"code":101,"indent":0,"parameters":["Uyae emo",1,0,2]},{"code":401,"indent":0,"parameters":["That is kind. You are very open with a foreigner."]},{"code":101,"indent":0,"parameters":["Nalili emo1",0,0,2]},{"code":401,"indent":0,"parameters":["Foreigner? I mean, you're not banging Simon, but..."]},{"code":101,"indent":0,"parameters":["Nalili emo1",5,0,2]},{"code":401,"indent":0,"parameters":["You know our secrets and you fight with us! You're an honorary harem member in my book!"]},{"code":101,"indent":0,"parameters":["Uyae emo",6,0,2]},{"code":401,"indent":0,"parameters":["...I will take this."]},{"code":101,"indent":0,"parameters":["Uyae emo",1,0,2]},{"code":401,"indent":0,"parameters":["What you said earlier... yes, I would like to train. This is a very nice place. Good people."]},{"code":101,"indent":0,"parameters":["Nalili emo1",1,0,2]},{"code":401,"indent":0,"parameters":["Alright, then, let's go!"]},{"code":122,"indent":0,"parameters":[143,143,1,0,1]},{"code":123,"indent":0,"parameters":["A",0]},{"code":0,"indent":0,"parameters":[]}]},{"conditions":{"actorId":1,"actorValid":false,"itemId":1,"itemValid":false,"selfSwitchCh":"A","selfSwitchValid":true,"switch1Id":1,"switch1Valid":false,"switch2Id":1,"switch2Valid":false,"variableId":1,"variableValid":false,"variableValue":0},"directionFix":false,"image":{"tileId":0,"characterName":"","direction":2,"pattern":0,"characterIndex":0},"moveFrequency":3,"moveRoute":{"list":[{"code":0,"indent":null,"parameters":[]}],"repeat":true,"skippable":false,"wait":false},"moveSpeed":3,"moveType":0,"priorityType":0,"stepAnime":false,"through":false,"trigger":0,"walkAnime":true,"list":[{"code":0,"indent":0,"parameters":[]}]},{"conditions":{"actorId":1,"actorValid":false,"itemId":1,"itemValid":false,"selfSwitchCh":"A","selfSwitchValid":false,"switch1Id":2099,"switch1Valid":true,"switch2Id":1,"switch2Valid":false,"variableId":1,"variableValid":false,"variableValue":0},"directionFix":false,"image":{"tileId":0,"characterName":"","direction":2,"pattern":0,"characterIndex":0},"moveFrequency":3,"moveRoute":{"list":[{"code":0,"indent":null,"parameters":[]}],"repeat":true,"skippable":false,"wait":false},"moveSpeed":3,"moveType":0,"priorityType":0,"stepAnime":false,"through":false,"trigger":0,"walkAnime":true,"list":[{"code":0,"indent":0,"parameters":[]}]}],"x":0,"y":0}
]
}