{
"autoplayBgm":true,"autoplayBgs":false,"battleback1Name":"","battleback2Name":"","bgm":{"name":"Town4","pan":0,"pitch":100,"volume":100},"bgs":{"name":"","pan":0,"pitch":100,"volume":80},"disableDashing":false,"displayName":"","encounterList":[],"encounterStep":30,"height":31,"note":"","parallaxLoopX":false,"parallaxLoopY":false,"parallaxName":"","parallaxShow":false,"parallaxSx":0,"parallaxSy":0,"scrollType":0,"specifyBattleback":false,"tilesetId":2,"width":28,
"data":[3584,3584,3608,6960,6968,3216,3200,3224,6960,6944,6944,6944,6944,6944,6944,6944,6944,6944,6944,6968,3216,3200,3224,6960,6968,3600,3584,3608,3584,3584,3608,6960,6968,3216,3200,3202,6945,6948,6972,6972,6972,6972,6972,6972,6972,6972,6952,6946,3201,3200,3224,6960,6968,3600,3584,3608,3584,3584,3608,6960,6968,3216,3200,3200,3200,3202,7331,7330,7330,7330,7330,7330,7330,7334,3201,3200,3200,3200,3224,6960,6968,3600,3584,3608,3584,3584,3608,6960,6968,3216,3200,3200,3200,3200,7329,7328,7328,7328,7328,7328,7328,7332,3200,3200,3200,3200,3224,6960,6968,3600,3584,3608,3584,3584,3608,6960,6968,3216,3200,3200,3200,3200,7329,7328,7328,7328,7328,7328,7328,7332,3200,3200,3200,3200,3224,6960,6968,3600,3584,3608,3584,3584,3608,6960,6968,3216,3200,3200,3200,3200,7337,7336,7336,7336,7336,7336,7336,7340,3200,3200,3200,3200,3224,6960,6968,3600,3584,3608,3584,3584,3608,6960,6968,3216,3200,3200,3200,3200,3200,3200,3200,3200,3200,3200,3200,3200,3200,3200,3200,3200,3224,6960,6968,3600,3584,3608,3584,3584,3608,6960,6968,3216,3200,3200,3200,3200,3200,3200,3200,3200,3200,3200,3200,3200,3200,3200,3200,3200,3224,6960,6968,3600,3584,3608,3584,3584,3608,6960,6968,3216,3200,3200,3200,3200,3200,3200,3200,3200,3200,3200,3200,3200,3200,3200,3200,3200,3224,6960,6968,3600,3584,3608,3584,3584,3608,6960,6968,3240,3228,3228,3228,3228,3228,3228,3228,3208,3204,3228,3228,3228,3228,3228,3228,3228,3238,6960,6968,3600,3584,3608,3584,3584,3608,6960,6946,6964,6964,6964,6964,6964,6964,6964,6980,3216,3224,6978,6964,6964,6964,6964,6964,6964,6964,6945,6968,3600,3584,3608,3584,3584,3608,6984,6972,6972,6972,6952,6948,6972,6972,6972,6982,3216,3224,6984,6972,6972,6972,6952,6948,6972,6972,6972,6982,3600,3584,3608,3584,3584,3608,7331,7330,7330,7330,6960,6968,7330,7330,7330,7334,3201,3202,7331,7330,7330,7330,6960,6968,7330,7330,7330,7334,3600,3584,3608,3584,3584,3608,7329,7328,7328,7328,6960,6968,7328,7328,7328,7332,3200,3200,7329,7328,7328,7328,6960,6968,7328,7328,7328,7332,3600,3584,3608,3584,3584,3608,7337,7336,7336,7336,6960,6968,7336,7336,7336,7340,3200,3200,7337,7336,7336,7336,6960,6968,7336,7336,7336,7340,3600,3584,3608,3584,3584,3586,3604,3604,3604,3620,6960,6968,3217,3220,3220,3220,3201,3202,3220,3220,3220,3226,6960,6968,3618,3604,3604,3604,3585,3584,3608,3584,3584,3584,3584,3584,3584,3608,6960,6968,3216,3200,3200,3200,3200,3200,3200,3200,3200,3224,6960,6968,3600,3584,3584,3584,3584,3584,3608,3584,3584,3584,3584,3584,3584,3608,6960,6968,3216,3200,3200,3200,3200,3200,3200,3200,3200,3224,6960,6968,3600,3584,3584,3584,3584,3584,3608,3584,3584,3584,3584,3584,3584,3608,6960,6968,3216,3200,3200,3200,3200,3200,3200,3200,3200,3224,6960,6968,3600,3584,3584,3584,3584,3584,3608,3584,3584,3584,3584,3584,3584,3608,6960,6968,3216,3200,3200,3200,3204,3200,3208,3200,3204,3224,6960,6968,3600,3584,3584,3584,3584,3584,3608,3584,3584,3584,3584,3584,3584,3608,6960,6968,3216,3200,3200,3200,3224,1553,3216,3200,3224,1553,6960,6968,3600,3584,3584,3584,3584,3584,3608,3584,3584,3584,3584,3584,3584,3608,6960,6968,3240,3228,3228,3228,3238,1553,3240,3228,3238,1553,6960,6968,3600,3584,3584,3584,3584,3584,3608,3584,3584,3584,3584,3584,3584,3608,6960,6946,6964,6964,6964,6980,1553,1553,6978,6964,6964,6964,6945,6968,3600,3584,3584,3584,3584,3584,3608,3584,3584,3584,3584,3584,3584,3608,6984,6972,6972,6972,6972,6982,1553,1553,6984,6972,6972,6972,6972,6982,3600,3584,3584,3584,3584,3584,3608,3584,3584,3584,3584,3584,3584,3608,7331,7330,7330,7330,7330,7334,1553,1553,7331,7330,7330,7330,7330,7334,3600,3584,3584,3584,3584,3584,3608,3584,3584,3584,3584,3584,3584,3608,7329,7328,7328,7328,7328,7332,1553,1553,7329,7328,7328,7328,7328,7332,3600,3584,3584,3584,3584,3584,3608,3584,3584,3584,3584,3584,3584,3608,7337,7336,7336,7336,7336,7340,1553,1553,7337,7336,7336,7336,7336,7340,3600,3584,3584,3584,3584,3584,3608,3584,3584,3584,3584,3584,3584,3586,3604,3604,3604,3604,3604,3604,3604,3604,3604,3604,3604,3604,3604,3604,3585,3584,3584,3584,3584,3584,3608,3584,3584,3584,3584,3584,3584,3584,3584,3584,3584,3584,3584,3584,3584,3584,3584,3584,3584,3584,3584,3584,3584,3584,3584,3584,3584,3584,3608,3584,3584,3584,3584,3584,3584,3584,3584,3584,3584,3584,3584,3584,3584,3584,3584,3584,3584,3584,3584,3584,3584,3584,3584,3584,3584,3584,3608,3612,3612,3612,3612,3612,3612,3612,3612,3612,3612,3612,3612,3612,3612,3612,3612,3612,3612,3612,3612,3612,3612,3612,3612,3612,3612,3612,3622,0,0,0,0,0,0,0,0,0,0,0,0,0,0,0,0,0,0,0,0,0,0,0,0,0,0,0,0,0,0,0,0,0,0,0,0,0,0,0,0,0,0,0,0,0,0,0,0,0,0,0,0,0,0,0,0,0,0,0,0,0,0,0,0,0,0,0,0,0,0,0,0,0,0,0,0,0,0,0,0,0,0,0,0,0,0,0,0,0,0,0,0,0,0,0,0,0,0,0,0,0,0,0,0,0,0,0,0,0,0,0,0,0,0,0,0,0,0,0,0,0,0,0,0,0,0,0,0,0,0,0,0,0,0,0,0,0,0,0,0,0,0,0,0,0,0,0,0,0,0,0,0,0,0,0,0,0,0,0,0,0,0,0,0,0,0,0,0,0,0,0,0,0,0,0,0,0,0,0,0,0,0,0,0,0,0,0,0,0,0,0,0,0,0,0,0,0,0,0,0,0,0,0,0,3146,0,0,0,0,0,0,0,0,0,0,3146,0,0,0,0,0,0,0,0,0,0,0,0,0,0,0,0,3136,0,0,0,0,0,0,0,0,0,0,3136,0,0,0,0,0,0,0,0,0,0,0,0,0,0,0,0,3148,0,0,0,0,0,0,0,0,0,0,3148,0,0,0,0,0,0,0,0,0,0,0,0,0,0,0,0,0,0,0,0,0,0,0,0,0,0,0,0,0,0,0,0,0,0,0,0,0,0,0,0,0,0,0,0,0,0,0,0,0,0,0,0,0,0,0,0,0,0,0,0,0,0,0,0,0,0,0,0,0,0,0,0,0,0,0,0,0,0,0,0,0,0,0,0,0,0,0,0,0,0,0,0,0,0,0,0,0,0,0,0,0,0,0,0,0,0,0,0,0,0,0,0,0,0,0,0,0,0,0,0,0,0,0,0,0,0,0,0,0,0,0,0,0,0,0,0,0,0,0,0,0,0,0,0,0,0,0,0,0,0,0,0,0,0,0,0,0,0,0,0,3146,0,0,3146,0,0,0,0,0,0,0,0,0,0,0,0,0,0,0,0,0,0,0,0,0,0,0,0,3136,0,0,3136,0,0,0,0,0,0,0,0,0,0,0,0,0,0,0,0,0,0,0,0,0,0,0,0,3136,0,0,3136,0,0,0,0,0,0,0,0,0,0,0,0,0,0,0,0,0,0,0,0,0,3150,0,3147,3143,0,0,3145,3149,0,3150,0,0,0,0,0,0,0,0,0,0,0,0,0,0,0,0,0,0,0,0,0,0,0,0,0,0,0,0,0,0,0,0,0,0,0,0,0,0,0,0,0,0,0,0,0,0,0,0,0,0,0,0,0,0,0,0,0,0,0,0,0,0,0,0,0,0,0,0,0,0,0,0,0,0,0,0,0,0,0,0,0,0,0,0,0,0,0,0,0,0,0,0,0,0,0,0,0,0,0,0,0,0,0,0,0,0,0,0,0,0,0,0,0,0,0,0,0,0,0,0,0,0,0,0,0,0,0,0,0,0,0,0,0,0,0,0,0,0,0,0,0,0,0,0,0,0,0,0,0,0,0,0,0,0,0,0,0,0,0,0,0,0,0,0,0,0,0,0,0,0,0,0,0,0,0,0,0,0,0,0,0,0,0,0,0,0,0,0,0,0,0,0,0,0,0,0,0,0,0,0,0,0,0,0,0,0,0,0,0,0,0,0,0,0,0,0,0,0,0,0,0,0,0,0,0,0,0,0,0,0,0,0,0,0,0,0,0,0,0,0,0,0,0,0,0,0,0,0,0,0,0,0,0,0,0,0,0,0,0,0,0,0,0,0,0,0,0,0,0,0,0,0,0,0,0,0,0,0,0,0,0,0,0,0,0,0,0,0,0,0,0,0,0,0,0,0,0,0,0,0,0,0,0,0,0,0,0,0,0,0,0,0,0,0,0,0,0,0,0,0,0,0,0,0,0,0,0,0,0,0,0,0,0,0,0,0,0,0,0,0,0,0,0,0,0,0,0,0,0,0,0,0,0,0,0,0,0,0,0,0,0,0,0,0,0,0,0,0,0,0,0,0,0,0,0,0,0,0,0,0,0,0,0,0,0,0,0,0,0,0,0,0,0,0,0,0,0,0,0,0,0,0,0,0,0,0,0,0,0,0,0,0,0,0,0,0,0,0,0,0,0,0,0,0,0,0,0,0,0,0,0,0,0,0,0,0,0,0,0,0,0,0,0,0,0,0,0,0,0,0,0,0,0,0,0,0,0,0,0,0,0,0,0,0,0,0,0,0,0,0,0,0,0,0,0,0,0,0,0,0,0,0,0,0,0,0,0,0,0,0,0,0,0,0,0,0,0,0,0,0,0,0,0,0,0,0,0,0,0,0,0,0,0,0,0,0,0,0,0,0,0,0,0,0,0,0,0,0,0,0,0,0,0,0,0,0,0,0,0,0,0,0,0,0,0,0,0,0,0,0,0,0,0,0,0,0,0,0,0,0,0,0,0,0,0,0,0,0,0,0,0,0,0,0,0,0,0,0,0,0,0,0,0,0,0,0,0,0,0,0,0,0,0,0,0,0,0,0,0,0,0,0,0,0,0,0,0,0,0,0,0,0,0,0,0,0,0,0,0,0,0,0,0,0,0,0,0,0,0,0,0,0,0,0,0,0,0,0,0,0,0,0,0,0,0,0,0,0,0,0,0,0,0,0,0,0,0,0,0,0,0,0,0,0,0,0,0,0,0,0,0,0,0,0,0,0,0,0,0,0,0,0,0,0,0,0,0,0,0,0,0,0,0,0,0,0,0,0,0,0,0,0,0,0,0,0,0,0,0,0,0,0,0,0,0,0,0,0,0,0,0,0,0,0,0,0,0,0,0,0,0,0,0,0,0,0,0,0,0,0,0,0,0,0,0,0,0,0,0,0,0,0,0,0,0,0,0,0,0,0,0,0,0,0,0,0,0,0,0,0,0,0,0,0,0,0,0,0,0,0,0,0,0,0,0,0,0,0,0,0,0,0,0,0,0,0,0,0,0,0,0,0,0,0,0,0,0,0,0,0,0,0,0,0,0,0,0,0,0,0,0,0,0,0,0,0,0,0,0,0,0,0,0,0,0,0,0,0,0,0,0,0,0,0,0,0,0,0,0,0,0,0,0,0,0,0,0,0,0,0,0,0,0,0,0,0,0,0,0,0,0,0,0,0,0,0,0,0,0,0,0,0,0,0,0,0,0,0,0,0,0,0,0,0,0,0,0,0,0,0,0,0,0,0,0,0,0,0,0,0,0,0,0,0,0,0,0,0,0,0,0,0,0,0,0,0,0,0,0,0,0,0,0,0,0,0,0,0,0,0,0,0,0,0,0,0,0,0,0,0,0,0,0,0,0,0,0,0,0,0,0,0,0,0,0,0,0,0,0,0,0,0,0,0,0,0,0,0,0,0,0,0,0,0,0,0,0,0,0,0,0,0,0,0,0,0,0,0,0,0,0,0,0,0,0,0,0,0,0,0,0,0,0,0,0,0,0,0,0,0,0,0,0,0,0,0,0,0,0,0,0,0,0,0,0,0,0,0,0,0,0,0,0,0,0,0,0,0,0,0,0,0,0,0,0,0,0,0,0,0,0,0,0,0,0,0,0,0,0,0,0,0,0,0,0,0,0,0,0,0,0,0,0,0,0,0,0,0,0,0,0,0,0,0,0,0,0,0,0,0,0,0,0,0,0,0,0,0,0,0,0,0,0,0,0,0,0,0,0,0,0,0,0,0,0,0,0,0,0,0,0,0,0,0,0,0,0,0,0,0,0,0,0,0,0,0,0,0,0,0,0,0,0,0,0,0,0,0,0,0,0,0,0,0,0,0,0,0,0,0,0,0,0,0,0,0,0,0,0,0,0,0,0,0,0,0,0,0,0,0,0,0,0,0,0,0,0,0,0,0,0,0,0,0,0,0,0,0,0,0,0,0,0,0,0,0,0,0,0,0,0,0,0,0,0,0,0,0,0,0,0,0,0,0,0,0,0,0,0,0,0,0,0,0,0,0,0,0,0,438,439,0,0,0,0,0,0,0,0,438,439,0,0,0,0,0,0,0,0,0,0,0,0,0,0,0,0,446,447,0,0,0,0,0,0,0,0,446,447,0,0,0,0,0,0,0,0,0,0,0,0,0,0,0,0,454,455,0,294,0,0,0,0,294,0,454,455,0,0,0,0,0,0,0,0,0,0,0,0,0,0,0,0,462,463,0,302,0,0,0,0,302,0,462,463,0,0,0,0,0,0,0,0,0,0,0,0,0,0,0,0,454,455,0,0,304,68,68,304,0,0,454,455,0,0,0,0,0,0,0,0,0,0,0,0,0,0,0,0,470,471,0,0,312,0,0,312,0,0,470,471,0,0,0,0,0,0,0,0,0,0,0,0,0,0,0,0,0,0,0,0,0,0,0,0,0,0,0,0,0,0,0,0,0,0,0,0,0,0,0,0,0,0,0,0,0,0,0,0,304,0,0,304,0,0,0,0,0,0,0,0,0,0,0,0,0,0,0,0,0,0,0,0,0,0,0,0,312,0,0,312,0,0,0,0,0,0,0,0,0,0,0,0,0,0,0,0,0,0,0,0,0,0,0,0,0,0,0,0,0,0,0,0,0,0,0,0,0,0,0,0,0,0,0,0,0,0,0,0,0,0,0,0,0,0,0,0,0,0,0,0,0,0,0,0,0,0,0,0,0,0,0,0,0,0,0,0,0,0,0,0,0,0,0,0,0,0,0,0,0,0,0,0,0,0,0,0,0,0,0,0,0,0,0,0,0,0,0,0,0,0,0,0,0,0,0,0,0,0,0,0,0,0,0,0,0,0,0,0,0,0,0,0,0,0,0,0,0,0,0,0,0,0,0,0,0,0,0,0,0,0,0,0,0,0,0,0,0,0,0,0,0,0,0,0,0,0,0,0,0,0,0,0,0,0,0,0,0,0,0,0,0,0,0,0,0,0,0,0,0,0,75,0,0,0,0,0,0,75,0,0,0,0,0,0,0,0,0,0,0,0,0,0,0,0,0,0,0,0,0,0,0,0,0,0,0,0,0,0,0,0,0,0,0,0,0,0,0,0,0,0,0,0,0,0,0,0,0,0,0,0,0,0,0,0,0,0,0,0,0,0,0,0,0,0,0,0,0,0,0,0,0,0,0,0,0,0,0,0,0,0,0,0,0,0,0,0,0,0,0,0,0,0,0,0,0,0,0,0,0,0,0,0,0,0,0,0,0,0,0,0,0,0,0,0,0,0,0,0,0,0,0,0,0,0,0,0,0,0,0,0,0,0,0,0,0,0,0,0,0,0,0,0,0,0,0,0,0,0,0,0,0,0,0,0,0,0,0,0,0,0,0,0,0,0,0,0,0,0,0,0,0,0,0,0,0,0,0,0,0,0,0,0,0,0,0,0,0,0,0,0,0,0,0,0,0,0,0,0,0,0,0,0,0,0,0,0,0,0,0,0,0,0,0,0,0,0,0,0,0,0,0,0,0,0,0,0,0,0,0,0,0,0,0,0,0,0,0,0,0,0,0,0,0,0,0,0,0,0,0,0,0,0,0,0,0,0,0,0,0,0,0,0,0,0,0,0,0,0,0,0,0,0,0,0,0,0,0,0,0,0,0,0,0,0,0,0,0,0,0,0,0,0,0,0,0,0,0,0,0,0,0,0,0,0,0,0,0,0,0,0,0,0,0,0,0,0,0,0,0,0,0,0,0,0,0,0,0,0,0,0,0,0,0,0,0,0,0,0,0,0,0,0,0,0,0,0,0,0,0,0,0,0,0,0,0,0,0,0,0,0,0,0,0,0,0,0,0,0,0,0,0,0,0,0,0,0,0,0,0,0,0,0,0,0,0,0,0,0,0,0,0,0,0,0,0,0,0,0,0,0,0,0,0,0,0,0,0,0,0,0,0,0,0,0,0,0,0,0,0,0,5,0,0,0,0,0,0,0,0,0,0,0,0,5,0,0,0,0,0,0,0,0,0,0,0,0,0,0,5,0,0,0,0,5,0,0,0,0,0,0,0,5,0,0,0,0,0,0,0,0,0,0,0,0,5,0,5,0,0,0,0,5,0,0,0,0,0,0,0,5,0,0,0,0,0,0,0,0,0,0,0,0,5,0,5,0,0,0,0,5,0,0,0,0,0,0,0,5,0,0,0,0,0,0,0,0,0,0,0,0,5,0,5,0,0,0,0,5,0,0,0,0,0,0,0,5,0,0,0,0,0,0,0,0,0,0,0,0,5,0,1,0,0,0,0,5,0,0,0,0,0,0,0,5,0,0,0,0,0,0,0,0,0,0,0,0,0,0,0,0,0,0,0,5,0,0,0,0,0,0,0,5,0,0,0,0,0,0,0,0,0,0,0,0,0,0,0,0,0,0,0,5,0,0,0,0,0,0,0,5,0,0,0,0,0,0,0,0,0,0,0,0,0,0,0,0,0,0,0,5,0,0,0,0,0,0,0,5,0,0,0,0,0,0,0,0,0,0,0,0,0,0,0,0,0,0,0,5,0,0,0,0,0,0,0,0,0,0,0,0,0,0,0,0,0,0,0,0,0,0,0,0,0,0,0,5,0,0,0,0,0,0,0,0,0,0,0,0,0,0,0,5,0,0,0,0,0,0,0,0,0,0,0,5,0,0,0,0,0,0,0,0,0,0,0,0,0,0,0,5,0,0,0,0,0,0,0,0,0,0,0,5,0,0,0,0,0,0,0,0,0,0,0,0,0,0,0,5,0,0,0,0,0,0,0,0,0,0,0,5,0,0,0,0,0,0,0,0,0,0,0,0,0,0,0,5,0,0,0,0,0,0,0,0,0,0,0,5,0,0,0,0,0,0,0,0,0,0,0,5,0,0,0,0,0,0,0,0,0,0,0,5,0,0,0,0,0,0,0,0,0,0,0,0,0,0,0,5,0,0,0,0,0,0,0,0,0,0,0,5,0,0,0,0,0,0,0,0,0,0,0,0,0,0,0,5,0,0,0,0,0,0,0,0,0,0,0,5,0,0,0,0,0,0,0,0,0,0,0,0,0,0,0,5,0,0,0,0,0,0,0,0,0,0,0,5,0,0,0,0,0,0,0,0,0,0,0,0,0,0,0,5,0,0,0,0,0,0,0,0,0,0,0,5,0,0,0,0,0,0,0,0,0,0,0,0,0,0,0,5,0,0,0,0,0,0,0,0,0,0,0,5,0,0,0,0,0,0,0,0,0,0,0,0,0,0,0,5,0,0,0,0,0,0,0,0,0,0,0,5,0,0,0,0,0,0,0,0,0,0,0,0,0,0,0,0,0,0,0,0,0,0,0,0,0,0,0,5,0,0,0,0,0,0,0,0,0,0,0,0,0,0,0,0,0,0,0,5,0,0,0,0,0,0,0,5,0,0,0,0,0,0,0,0,0,0,0,0,0,0,0,0,0,0,0,5,0,0,0,0,0,0,0,5,0,0,0,0,0,0,0,0,0,0,0,0,0,0,0,0,0,0,0,5,0,0,0,0,0,0,0,5,0,0,0,0,0,0,0,0,0,0,0,0,0,0,0,0,0,0,0,5,0,0,0,0,0,0,0,5,0,0,0,0,0,0,0,0,0,0,0,0,0,0,0,0,0,0,0,0,0,0,0,0,0,0,0,0,0,0,0,0,0,0,0,0,0,0,0,0,0,0,0,0,0,0,0,0,0,0,0,0,0,0,0,0,0,0,0,0,0,0,0,0,0,0,0,0,0,0,0,0,0,0,0,0,0,0,0,0,0,0,0,0,0,0,0,0,0,0,0,0,0,0,0,0,0,0,0,0,0,0,0,0,0,0,0,0,0,0,0,0,0,0,0,0,0,0,0,0,0,0,0,0,0,0,0,0,0,0,0,0,0,0,0,0,0,0,0,0,0,0,0,0,0,0,0,0,0,0,0,0,0,0,0,0,0,0,0,0,0,0,0,0,0,0,0,0,0,0,0,0,0,0,0,0,0,0,0,0,0,0,0,0,0,0,0,0,0,0,0,0,0,0,0,0,0,0,0,0,0,0,0,0,0,0,0,0,0,0,0,0,0,0,0,0,0,0,0,0,0,0,0,0,0,0,0,0,0,0,0,0,0,0,0,0,0,0,0,0,0,0,0,0,0,0,0,0,0,0,0,0,0,0,0,0,0,0,0,0,0,0,0,0,0,0,0,0,0,0,0,0,0,0,0,0,0,0,0,0,0,0,0,0,0,0,0,0,0,0,0,0,0,0,0,0,0,0,0,0,0,0,0,0,0,0,0,0,0,0,0,0,0,0,0,0,0,0,0,0,0,0,0,0,0,0,0,0,0,0,0,0,0,0,0,0,0,0,0,0,0,0,0,0,0,0,0,0,0,0,0,0,0,0,0,0,0,0,0,0,0,0,0,0,0,0,0,0,0,0,0,0,0,0,0,0,0,0,0,0,0,0,0,0,0,0,0,0,0,0,0,0,0,0,0,0,0,0,0,0,0,0,0,0,0,0,0,0,0,0,0,0,0,0,0,0,0,0,0,0,0,0,0,0,0,0,0,0,0,0,0,0,0,0,0,0,0,0,0,0,0,0,0,0,0,0,0,0,0,0,0,0,0,0,0,0,0,0,0,0,0,0,0,0,0,0,0,0,0,0,0,0,0,0,0,0,0,0,0,0,0,0,0,0,0,0,0,0,0,0,0,0,0,0,0,0,0,0,0,0,0,0,0,0,0,0,0,0,0,0,0,0,0,0,0,0,0,0,0,0,0,0,0,0,0,0,0,0,0,0,0,0,0,0,0,0,0,0,0,0,0,0,0,0,0,0,0,0,0,0,0,0,0,0,0,0,0,0,0,0,0,0,0,0,0,0,0,0,0,0,0,0,0,0,0,0,0,0,0,0,0,0,0,0,0,0,0,0,0,0,0,0,0,0,0,0,0,0,0,0,0,0,0,0,0,0,0,0,0,0,0,0,0,0,0,0,0,0,0,0,0,0,0,0,0,0,0,0,0,0,0,0,0,0,0,0,0,0,0,0,0,0,0,0,0,0,0,0,0,0,0,0,0,0,0,0,0,0,0,0,0,0,0,0,0,0,0,0,0,0,0,0,0,0,0,0,0,0,0,0,0,0,0,0,0,0,0,0,0,0,0,0,0,0,0,0,0,0,0,0,0,0,0,0,0,0,0,0,0,0,0,0,0,0,0,0,0,0,0,0,0,0,0,0,0,0,0,0,0,0,0,0,0,0,0,0,0,0,0,0,0,0,0,0,0,0,0,0,0,0,0,0,0,0,0,0,0,0,0,0,0,0,0,0,0,0,0,0,0,0,0,0,0,0,0,0,0,0,0,0,0,0,0,0,0,0,0,0,0,0,0,0,0,0,0,0,0,0,0,0,0,0,0,0,0,0,0,0,0,0,0,0,0,0,0,0,0,0,0,0,0,0,0,0,0,0,0,0,0,0,0,0,0,0,0,0,0,0,0,0,0,0,0,0,0,0,0,0,0,0,0,0,0,0,0,0,0,0,0,0,0,0,0,0,0,0,0,0,0,0,0,0,0,0,0,0,0,0,0,0,0,0,0,0,0,0,0,0,0,0,0,0,0,0,0,0,0,0,0,0,0,0,0,0,0,0,0,0,0,0,0,0,0,0,0,0,0,0,0,0,0,0,0,0,0,0,0,0,0,0,0,0,0,0,0,0,0,0,0,0,0,0,0,0,0,0,0,0,0,0,0,0,0,0,0,0,0,0,0,0,0,0,0,0,0,0,0,0,0,0,0,0,0,0,0,0,0,0,0,0,0,0,0,0,0,0],
"events":[
null,
{"id":1,"name":"EV001","note":"","pages":[{"conditions":{"actorId":1,"actorValid":false,"itemId":1,"itemValid":false,"selfSwitchCh":"A","selfSwitchValid":false,"switch1Id":1,"switch1Valid":false,"switch2Id":1,"switch2Valid":false,"variableId":1,"variableValid":false,"variableValue":0},"directionFix":false,"image":{"tileId":0,"characterName":"","direction":2,"pattern":0,"characterIndex":0},"moveFrequency":3,"moveRoute":{"list":[{"code":0,"indent":null,"parameters":[]}],"repeat":true,"skippable":false,"wait":false},"moveSpeed":3,"moveType":0,"priorityType":0,"stepAnime":false,"through":false,"trigger":1,"walkAnime":true,"list":[{"code":250,"indent":0,"parameters":[{"name":"Move","pan":0,"pitch":100,"volume":80}]},{"code":201,"indent":0,"parameters":[0,356,61,13,2,0]},{"code":0,"indent":0,"parameters":[]}]},{"conditions":{"actorId":1,"actorValid":false,"itemId":1,"itemValid":false,"selfSwitchCh":"A","selfSwitchValid":false,"switch1Id":3281,"switch1Valid":true,"switch2Id":1,"switch2Valid":false,"variableId":1,"variableValid":false,"variableValue":0},"directionFix":false,"image":{"tileId":0,"characterName":"","direction":2,"pattern":0,"characterIndex":0},"moveFrequency":3,"moveRoute":{"list":[{"code":0,"indent":null,"parameters":[]}],"repeat":true,"skippable":false,"wait":false},"moveSpeed":3,"moveType":0,"priorityType":0,"stepAnime":false,"through":false,"trigger":1,"walkAnime":true,"list":[{"code":250,"indent":0,"parameters":[{"name":"Teleport","pan":0,"pitch":100,"volume":80}]},{"code":221,"indent":0,"parameters":[]},{"code":201,"indent":0,"parameters":[0,556,16,5,2,0]},{"code":222,"indent":0,"parameters":[]},{"code":0,"indent":0,"parameters":[]}]}],"x":13,"y":25},
{"id":2,"name":"EV002","note":"","pages":[{"conditions":{"actorId":1,"actorValid":false,"itemId":1,"itemValid":false,"selfSwitchCh":"A","selfSwitchValid":false,"switch1Id":1,"switch1Valid":false,"switch2Id":1,"switch2Valid":false,"variableId":1,"variableValid":false,"variableValue":0},"directionFix":false,"image":{"tileId":0,"characterName":"","direction":2,"pattern":0,"characterIndex":0},"moveFrequency":3,"moveRoute":{"list":[{"code":0,"indent":null,"parameters":[]}],"repeat":true,"skippable":false,"wait":false},"moveSpeed":3,"moveType":0,"priorityType":0,"stepAnime":false,"through":false,"trigger":1,"walkAnime":true,"list":[{"code":250,"indent":0,"parameters":[{"name":"Move","pan":0,"pitch":100,"volume":80}]},{"code":201,"indent":0,"parameters":[0,356,61,13,2,0]},{"code":0,"indent":0,"parameters":[]}]},{"conditions":{"actorId":1,"actorValid":false,"itemId":1,"itemValid":false,"selfSwitchCh":"A","selfSwitchValid":false,"switch1Id":3281,"switch1Valid":true,"switch2Id":1,"switch2Valid":false,"variableId":1,"variableValid":false,"variableValue":0},"directionFix":false,"image":{"tileId":0,"characterName":"","direction":2,"pattern":0,"characterIndex":0},"moveFrequency":3,"moveRoute":{"list":[{"code":0,"indent":null,"parameters":[]}],"repeat":true,"skippable":false,"wait":false},"moveSpeed":3,"moveType":0,"priorityType":0,"stepAnime":false,"through":false,"trigger":1,"walkAnime":true,"list":[{"code":250,"indent":0,"parameters":[{"name":"Teleport","pan":0,"pitch":100,"volume":80}]},{"code":221,"indent":0,"parameters":[]},{"code":201,"indent":0,"parameters":[0,556,16,5,2,0]},{"code":222,"indent":0,"parameters":[]},{"code":0,"indent":0,"parameters":[]}]}],"x":14,"y":25},
{"id":3,"name":"Gate Guard","note":"","pages":[{"conditions":{"actorId":1,"actorValid":false,"itemId":1,"itemValid":false,"selfSwitchCh":"A","selfSwitchValid":false,"switch1Id":1,"switch1Valid":false,"switch2Id":1,"switch2Valid":false,"variableId":1,"variableValid":false,"variableValue":0},"directionFix":false,"image":{"tileId":0,"characterName":"soldier alts","direction":4,"pattern":1,"characterIndex":0},"moveFrequency":3,"moveRoute":{"list":[{"code":0,"indent":null,"parameters":[]}],"repeat":true,"skippable":false,"wait":false},"moveSpeed":3,"moveType":0,"priorityType":1,"stepAnime":false,"through":false,"trigger":0,"walkAnime":true,"list":[{"code":101,"indent":0,"parameters":["People4",7,0,2]},{"code":401,"indent":0,"parameters":["No funny business!"]},{"code":0,"indent":0,"parameters":[]}]},{"conditions":{"actorId":1,"actorValid":false,"itemId":1,"itemValid":false,"selfSwitchCh":"A","selfSwitchValid":false,"switch1Id":2099,"switch1Valid":true,"switch2Id":1,"switch2Valid":false,"variableId":1,"variableValid":false,"variableValue":0},"directionFix":false,"image":{"tileId":0,"characterName":"soldier alts","direction":4,"pattern":1,"characterIndex":0},"moveFrequency":3,"moveRoute":{"list":[{"code":0,"indent":null,"parameters":[]}],"repeat":true,"skippable":false,"wait":false},"moveSpeed":3,"moveType":0,"priorityType":1,"stepAnime":false,"through":false,"trigger":0,"walkAnime":true,"list":[{"code":101,"indent":0,"parameters":["People4",7,0,2]},{"code":401,"indent":0,"parameters":["We'll be watching - you shouldn't be here at all, as far as I'm concerned!"]},{"code":0,"indent":0,"parameters":[]}]},{"conditions":{"actorId":1,"actorValid":false,"itemId":1,"itemValid":false,"selfSwitchCh":"A","selfSwitchValid":false,"switch1Id":3281,"switch1Valid":true,"switch2Id":1,"switch2Valid":false,"variableId":1,"variableValid":false,"variableValue":0},"directionFix":false,"image":{"tileId":0,"characterName":"soldier alts","direction":4,"pattern":1,"characterIndex":0},"moveFrequency":3,"moveRoute":{"list":[{"code":0,"indent":null,"parameters":[]}],"repeat":true,"skippable":false,"wait":false},"moveSpeed":3,"moveType":0,"priorityType":1,"stepAnime":false,"through":false,"trigger":0,"walkAnime":true,"list":[{"code":101,"indent":0,"parameters":["People4",7,0,2]},{"code":401,"indent":0,"parameters":["Watch yourselves! The Aramite High Priestesses might accept you, but the military doesn't have to!"]},{"code":0,"indent":0,"parameters":[]}]}],"x":15,"y":21},
{"id":4,"name":"Soldier Talk","note":"","pages":[{"conditions":{"actorId":1,"actorValid":false,"itemId":1,"itemValid":false,"selfSwitchCh":"A","selfSwitchValid":false,"switch1Id":1,"switch1Valid":false,"switch2Id":1,"switch2Valid":false,"variableId":1,"variableValid":false,"variableValue":0},"directionFix":false,"image":{"tileId":0,"characterName":"soldier alts","direction":8,"pattern":1,"characterIndex":0},"moveFrequency":3,"moveRoute":{"list":[{"code":0,"indent":null,"parameters":[]}],"repeat":true,"skippable":false,"wait":false},"moveSpeed":3,"moveType":0,"priorityType":1,"stepAnime":false,"through":false,"trigger":0,"walkAnime":true,"list":[{"code":101,"indent":0,"parameters":["People4",7,0,2]},{"code":401,"indent":0,"parameters":["The fortress was built here because we have easy access to two different reservoirs, one shallower and one deeper."]},{"code":0,"indent":0,"parameters":[]}]},{"conditions":{"actorId":1,"actorValid":false,"itemId":1,"itemValid":false,"selfSwitchCh":"A","selfSwitchValid":false,"switch1Id":3281,"switch1Valid":true,"switch2Id":1,"switch2Valid":false,"variableId":1,"variableValid":false,"variableValue":0},"directionFix":false,"image":{"tileId":0,"characterName":"soldier alts","direction":8,"pattern":1,"characterIndex":0},"moveFrequency":3,"moveRoute":{"list":[{"code":0,"indent":null,"parameters":[]}],"repeat":true,"skippable":false,"wait":false},"moveSpeed":3,"moveType":0,"priorityType":1,"stepAnime":false,"through":false,"trigger":0,"walkAnime":true,"list":[{"code":111,"indent":0,"parameters":[0,3078,0]},{"code":101,"indent":1,"parameters":["People4",7,0,2]},{"code":401,"indent":1,"parameters":["Succubi being allowed in the Church? What's become of us?"]},{"code":0,"indent":1,"parameters":[]},{"code":411,"indent":0,"parameters":[]},{"code":111,"indent":1,"parameters":[0,3079,0]},{"code":101,"indent":2,"parameters":["People4",7,0,2]},{"code":401,"indent":2,"parameters":["I don't like this Church divergance. I always counted on the Church being stable while others were uncertain..."]},{"code":0,"indent":2,"parameters":[]},{"code":411,"indent":1,"parameters":[]},{"code":111,"indent":2,"parameters":[0,3080,0]},{"code":101,"indent":3,"parameters":["People4",7,0,2]},{"code":401,"indent":3,"parameters":["Good riddance to the succubi, I say."]},{"code":0,"indent":3,"parameters":[]},{"code":411,"indent":2,"parameters":[]},{"code":101,"indent":3,"parameters":["People4",7,0,2]},{"code":401,"indent":3,"parameters":["Succubi being allowed in the Church? What's become of us?"]},{"code":0,"indent":3,"parameters":[]},{"code":412,"indent":2,"parameters":[]},{"code":0,"indent":2,"parameters":[]},{"code":412,"indent":1,"parameters":[]},{"code":0,"indent":1,"parameters":[]},{"code":412,"indent":0,"parameters":[]},{"code":0,"indent":0,"parameters":[]}]}],"x":10,"y":17},
{"id":5,"name":"EV005","note":"","pages":[{"conditions":{"actorId":1,"actorValid":false,"itemId":1,"itemValid":false,"selfSwitchCh":"A","selfSwitchValid":false,"switch1Id":1,"switch1Valid":false,"switch2Id":1,"switch2Valid":false,"variableId":1,"variableValid":false,"variableValue":0},"directionFix":false,"image":{"tileId":0,"characterName":"soldier alts","direction":2,"pattern":1,"characterIndex":0},"moveFrequency":3,"moveRoute":{"list":[{"code":0,"indent":null,"parameters":[]}],"repeat":true,"skippable":false,"wait":false},"moveSpeed":3,"moveType":0,"priorityType":1,"stepAnime":false,"through":false,"trigger":0,"walkAnime":true,"list":[{"code":121,"indent":0,"parameters":[1601,1601,0]},{"code":0,"indent":0,"parameters":[]}]},{"conditions":{"actorId":1,"actorValid":false,"itemId":1,"itemValid":false,"selfSwitchCh":"A","selfSwitchValid":false,"switch1Id":1601,"switch1Valid":true,"switch2Id":1,"switch2Valid":false,"variableId":1,"variableValid":false,"variableValue":0},"directionFix":false,"image":{"tileId":0,"characterName":"soldier alts","direction":2,"pattern":1,"characterIndex":0},"moveFrequency":3,"moveRoute":{"list":[{"code":0,"indent":null,"parameters":[]}],"repeat":true,"skippable":false,"wait":false},"moveSpeed":3,"moveType":0,"priorityType":1,"stepAnime":false,"through":false,"trigger":0,"walkAnime":true,"list":[{"code":101,"indent":0,"parameters":["People4",7,0,2]},{"code":401,"indent":0,"parameters":["Stay in the front yards where we can see you. This is a military base, after all."]},{"code":111,"indent":0,"parameters":[0,1590,0]},{"code":121,"indent":1,"parameters":[1603,1603,0]},{"code":0,"indent":1,"parameters":[]},{"code":412,"indent":0,"parameters":[]},{"code":0,"indent":0,"parameters":[]}]},{"conditions":{"actorId":1,"actorValid":false,"itemId":1,"itemValid":false,"selfSwitchCh":"A","selfSwitchValid":false,"switch1Id":1605,"switch1Valid":true,"switch2Id":1,"switch2Valid":false,"variableId":1,"variableValid":false,"variableValue":0},"directionFix":false,"image":{"tileId":0,"characterName":"","direction":2,"pattern":0,"characterIndex":0},"moveFrequency":3,"moveRoute":{"list":[{"code":0,"indent":null,"parameters":[]}],"repeat":true,"skippable":false,"wait":false},"moveSpeed":3,"moveType":0,"priorityType":0,"stepAnime":false,"through":false,"trigger":0,"walkAnime":true,"list":[{"code":0,"indent":0,"parameters":[]}]}],"x":13,"y":6},
{"id":6,"name":"EV006","note":"","pages":[{"conditions":{"actorId":1,"actorValid":false,"itemId":1,"itemValid":false,"selfSwitchCh":"A","selfSwitchValid":false,"switch1Id":1,"switch1Valid":false,"switch2Id":1,"switch2Valid":false,"variableId":1,"variableValid":false,"variableValue":0},"directionFix":false,"image":{"tileId":0,"characterName":"","direction":2,"pattern":0,"characterIndex":0},"moveFrequency":3,"moveRoute":{"list":[{"code":0,"indent":null,"parameters":[]}],"repeat":true,"skippable":false,"wait":false},"moveSpeed":3,"moveType":0,"priorityType":0,"stepAnime":false,"through":false,"trigger":3,"walkAnime":true,"list":[{"code":101,"indent":0,"parameters":["1 Simon dark",0,0,2]},{"code":401,"indent":0,"parameters":["Alright, this is the fortress. Probably best if the succubi stay back for these negotiations."]},{"code":101,"indent":0,"parameters":["Qum D'umpe emo",1,0,2]},{"code":401,"indent":0,"parameters":["Okie-dokies!"]},{"code":101,"indent":0,"parameters":["1 Simon dark",0,0,2]},{"code":401,"indent":0,"parameters":["Hilstara, you said you met the Captain earlier?"]},{"code":101,"indent":0,"parameters":["Hilstara emo",0,0,2]},{"code":401,"indent":0,"parameters":["Captain Palina, yes. She seemed reasonable enough, if duty-bound. But we didn't interact with her long at all."]},{"code":101,"indent":0,"parameters":["1 Simon dark",0,0,2]},{"code":401,"indent":0,"parameters":["Hmm... well, let's see if she's willing to talk."]},{"code":123,"indent":0,"parameters":["A",0]},{"code":0,"indent":0,"parameters":[]}]},{"conditions":{"actorId":1,"actorValid":false,"itemId":1,"itemValid":false,"selfSwitchCh":"A","selfSwitchValid":true,"switch1Id":1,"switch1Valid":false,"switch2Id":1,"switch2Valid":false,"variableId":1,"variableValid":false,"variableValue":0},"directionFix":false,"image":{"tileId":0,"characterName":"","direction":2,"pattern":0,"characterIndex":0},"moveFrequency":3,"moveRoute":{"list":[{"code":0,"indent":null,"parameters":[]}],"repeat":true,"skippable":false,"wait":false},"moveSpeed":3,"moveType":0,"priorityType":0,"stepAnime":false,"through":false,"trigger":0,"walkAnime":true,"list":[{"code":0,"indent":0,"parameters":[]}]}],"x":0,"y":0},
{"id":7,"name":"EV007","note":"","pages":[{"conditions":{"actorId":1,"actorValid":false,"itemId":1,"itemValid":false,"selfSwitchCh":"A","selfSwitchValid":false,"switch1Id":1601,"switch1Valid":true,"switch2Id":1,"switch2Valid":false,"variableId":1,"variableValid":false,"variableValue":0},"directionFix":false,"image":{"tileId":0,"characterName":"","direction":2,"pattern":0,"characterIndex":0},"moveFrequency":3,"moveRoute":{"list":[{"code":0,"indent":null,"parameters":[]}],"repeat":true,"skippable":false,"wait":false},"moveSpeed":3,"moveType":0,"priorityType":0,"stepAnime":false,"through":false,"trigger":3,"walkAnime":true,"list":[{"code":101,"indent":0,"parameters":["People4",7,0,2]},{"code":401,"indent":0,"parameters":["Sorry, but if you're here to see Captain Palina, you're out of luck."]},{"code":101,"indent":0,"parameters":["1 Simon dark",0,0,2]},{"code":401,"indent":0,"parameters":["We're here on behalf of Queen Neranda IV."]},{"code":101,"indent":0,"parameters":["People4",7,0,2]},{"code":401,"indent":0,"parameters":["And we have no intention of upsetting the dwarves, but the simple truth is that Captain Palina is gone right now."]},{"code":101,"indent":0,"parameters":["People4",7,0,2]},{"code":401,"indent":0,"parameters":["She's been trying to cut down on bandits in the nearby regions. She saw a chance to take out a slippery group and took it."]},{"code":101,"indent":0,"parameters":["1 Simon dark",0,0,2]},{"code":401,"indent":0,"parameters":["I see. We can wait."]},{"code":101,"indent":0,"parameters":["People4",7,0,2]},{"code":401,"indent":0,"parameters":["Thank you - but you'd better get comfortable, it might take her a while to get them all."]},{"code":111,"indent":0,"parameters":[0,1590,0]},{"code":121,"indent":1,"parameters":[1603,1603,0]},{"code":0,"indent":1,"parameters":[]},{"code":412,"indent":0,"parameters":[]},{"code":123,"indent":0,"parameters":["A",0]},{"code":0,"indent":0,"parameters":[]}]},{"conditions":{"actorId":1,"actorValid":false,"itemId":1,"itemValid":false,"selfSwitchCh":"A","selfSwitchValid":true,"switch1Id":1,"switch1Valid":false,"switch2Id":1,"switch2Valid":false,"variableId":1,"variableValid":false,"variableValue":0},"directionFix":false,"image":{"tileId":0,"characterName":"","direction":2,"pattern":0,"characterIndex":0},"moveFrequency":3,"moveRoute":{"list":[{"code":0,"indent":null,"parameters":[]}],"repeat":true,"skippable":false,"wait":false},"moveSpeed":3,"moveType":0,"priorityType":0,"stepAnime":false,"through":false,"trigger":0,"walkAnime":true,"list":[{"code":0,"indent":0,"parameters":[]}]}],"x":1,"y":0},
{"id":8,"name":"EV008","note":"","pages":[{"conditions":{"actorId":1,"actorValid":false,"itemId":1,"itemValid":false,"selfSwitchCh":"A","selfSwitchValid":false,"switch1Id":1,"switch1Valid":false,"switch2Id":1,"switch2Valid":false,"variableId":1,"variableValid":false,"variableValue":0},"directionFix":false,"image":{"tileId":0,"characterName":"soldier alts","direction":2,"pattern":1,"characterIndex":0},"moveFrequency":3,"moveRoute":{"list":[{"code":0,"indent":null,"parameters":[]}],"repeat":true,"skippable":false,"wait":false},"moveSpeed":3,"moveType":0,"priorityType":1,"stepAnime":false,"through":false,"trigger":0,"walkAnime":true,"list":[{"code":121,"indent":0,"parameters":[1601,1601,0]},{"code":0,"indent":0,"parameters":[]}]},{"conditions":{"actorId":1,"actorValid":false,"itemId":1,"itemValid":false,"selfSwitchCh":"A","selfSwitchValid":false,"switch1Id":1601,"switch1Valid":true,"switch2Id":1,"switch2Valid":false,"variableId":1,"variableValid":false,"variableValue":0},"directionFix":false,"image":{"tileId":0,"characterName":"soldier alts","direction":2,"pattern":1,"characterIndex":0},"moveFrequency":3,"moveRoute":{"list":[{"code":0,"indent":null,"parameters":[]}],"repeat":true,"skippable":false,"wait":false},"moveSpeed":3,"moveType":0,"priorityType":1,"stepAnime":false,"through":false,"trigger":0,"walkAnime":true,"list":[{"code":101,"indent":0,"parameters":["People4",7,0,2]},{"code":401,"indent":0,"parameters":["If it was up to me, we'd be a lot more heavily armed. This close to the Doom King, we need to be cautious."]},{"code":111,"indent":0,"parameters":[0,1590,0]},{"code":121,"indent":1,"parameters":[1603,1603,0]},{"code":0,"indent":1,"parameters":[]},{"code":412,"indent":0,"parameters":[]},{"code":0,"indent":0,"parameters":[]}]},{"conditions":{"actorId":1,"actorValid":false,"itemId":1,"itemValid":false,"selfSwitchCh":"A","selfSwitchValid":false,"switch1Id":1605,"switch1Valid":true,"switch2Id":1,"switch2Valid":false,"variableId":1,"variableValid":false,"variableValue":0},"directionFix":false,"image":{"tileId":0,"characterName":"","direction":2,"pattern":0,"characterIndex":0},"moveFrequency":3,"moveRoute":{"list":[{"code":0,"indent":null,"parameters":[]}],"repeat":true,"skippable":false,"wait":false},"moveSpeed":3,"moveType":0,"priorityType":0,"stepAnime":false,"through":false,"trigger":0,"walkAnime":true,"list":[{"code":0,"indent":0,"parameters":[]}]}],"x":14,"y":6},
{"id":9,"name":"Mestan","note":"","pages":[{"conditions":{"actorId":1,"actorValid":false,"itemId":1,"itemValid":false,"selfSwitchCh":"A","selfSwitchValid":false,"switch1Id":1602,"switch1Valid":true,"switch2Id":1,"switch2Valid":false,"variableId":1,"variableValid":false,"variableValue":0},"directionFix":false,"image":{"tileId":0,"characterName":"$Mestan char","direction":4,"pattern":1,"characterIndex":0},"moveFrequency":3,"moveRoute":{"list":[{"code":0,"indent":null,"parameters":[]}],"repeat":true,"skippable":false,"wait":false},"moveSpeed":5,"moveType":0,"priorityType":1,"stepAnime":false,"through":false,"trigger":0,"walkAnime":true,"list":[{"code":0,"indent":0,"parameters":[]}]},{"conditions":{"actorId":1,"actorValid":false,"itemId":1,"itemValid":false,"selfSwitchCh":"A","selfSwitchValid":false,"switch1Id":1605,"switch1Valid":true,"switch2Id":1,"switch2Valid":false,"variableId":1,"variableValid":false,"variableValue":0},"directionFix":false,"image":{"tileId":0,"characterName":"","direction":2,"pattern":0,"characterIndex":0},"moveFrequency":3,"moveRoute":{"list":[{"code":0,"indent":null,"parameters":[]}],"repeat":true,"skippable":false,"wait":false},"moveSpeed":3,"moveType":0,"priorityType":0,"stepAnime":false,"through":false,"trigger":0,"walkAnime":true,"list":[{"code":0,"indent":0,"parameters":[]}]}],"x":15,"y":10},
{"id":10,"name":"EV010","note":"","pages":[{"conditions":{"actorId":1,"actorValid":false,"itemId":1,"itemValid":false,"selfSwitchCh":"A","selfSwitchValid":false,"switch1Id":1603,"switch1Valid":true,"switch2Id":1,"switch2Valid":false,"variableId":1,"variableValid":false,"variableValue":0},"directionFix":false,"image":{"tileId":0,"characterName":"","direction":2,"pattern":0,"characterIndex":0},"moveFrequency":3,"moveRoute":{"list":[{"code":0,"indent":null,"parameters":[]}],"repeat":true,"skippable":false,"wait":false},"moveSpeed":3,"moveType":0,"priorityType":0,"stepAnime":false,"through":false,"trigger":3,"walkAnime":true,"list":[{"code":212,"indent":0,"parameters":[9,77,false]},{"code":230,"indent":0,"parameters":[30]},{"code":121,"indent":0,"parameters":[1602,1602,0]},{"code":230,"indent":0,"parameters":[30]},{"code":101,"indent":0,"parameters":["Mestan emo",0,0,2]},{"code":401,"indent":0,"parameters":["This sounds like it's going to take far too long."]},{"code":101,"indent":0,"parameters":["Mestan emo",3,0,2]},{"code":401,"indent":0,"parameters":["Bah, I don't want to wait..."]},{"code":205,"indent":0,"parameters":[9,{"list":[{"code":37,"indent":null,"parameters":[]},{"code":3,"indent":null,"parameters":[]},{"code":3,"indent":null,"parameters":[]},{"code":3,"indent":null,"parameters":[]},{"code":3,"indent":null,"parameters":[]},{"code":1,"indent":null,"parameters":[]},{"code":1,"indent":null,"parameters":[]},{"code":1,"indent":null,"parameters":[]},{"code":0,"indent":null,"parameters":[]}],"repeat":false,"skippable":false,"wait":true}]},{"code":505,"indent":0,"parameters":[{"code":37,"indent":null,"parameters":[]}]},{"code":505,"indent":0,"parameters":[{"code":3,"indent":null,"parameters":[]}]},{"code":505,"indent":0,"parameters":[{"code":3,"indent":null,"parameters":[]}]},{"code":505,"indent":0,"parameters":[{"code":3,"indent":null,"parameters":[]}]},{"code":505,"indent":0,"parameters":[{"code":3,"indent":null,"parameters":[]}]},{"code":505,"indent":0,"parameters":[{"code":1,"indent":null,"parameters":[]}]},{"code":505,"indent":0,"parameters":[{"code":1,"indent":null,"parameters":[]}]},{"code":505,"indent":0,"parameters":[{"code":1,"indent":null,"parameters":[]}]},{"code":221,"indent":0,"parameters":[]},{"code":201,"indent":0,"parameters":[0,386,11,20,6,0]},{"code":121,"indent":0,"parameters":[1602,1602,1]},{"code":121,"indent":0,"parameters":[1604,1604,0]},{"code":222,"indent":0,"parameters":[]},{"code":101,"indent":0,"parameters":["Yarra emo2",1,0,2]},{"code":401,"indent":0,"parameters":["Can we at least wait in the shade somewhere? This sun is awful..."]},{"code":101,"indent":0,"parameters":["Yarra emo2",6,0,2]},{"code":401,"indent":0,"parameters":["Plus, we could be passing the time in a more interesting way if we weren't in public..."]},{"code":101,"indent":0,"parameters":["1 Simon dark",1,0,2]},{"code":401,"indent":0,"parameters":["I'd like that, but I think she just arrived."]},{"code":205,"indent":0,"parameters":[11,{"list":[{"code":4,"indent":null,"parameters":[]},{"code":4,"indent":null,"parameters":[]},{"code":4,"indent":null,"parameters":[]},{"code":0,"indent":null,"parameters":[]}],"repeat":false,"skippable":false,"wait":true}]},{"code":505,"indent":0,"parameters":[{"code":4,"indent":null,"parameters":[]}]},{"code":505,"indent":0,"parameters":[{"code":4,"indent":null,"parameters":[]}]},{"code":505,"indent":0,"parameters":[{"code":4,"indent":null,"parameters":[]}]},{"code":101,"indent":0,"parameters":["People4",7,0,2]},{"code":401,"indent":0,"parameters":["Captain? You're back early!"]},{"code":205,"indent":0,"parameters":[11,{"list":[{"code":18,"indent":null,"parameters":[]},{"code":0,"indent":null,"parameters":[]}],"repeat":false,"skippable":false,"wait":true}]},{"code":505,"indent":0,"parameters":[{"code":18,"indent":null,"parameters":[]}]},{"code":101,"indent":0,"parameters":["Palina emo",0,0,2]},{"code":401,"indent":0,"parameters":["The bandits are all dead or captured. The others are following with bodies, prisoners, and recovered belongings."]},{"code":101,"indent":0,"parameters":["People4",7,0,2]},{"code":401,"indent":0,"parameters":["That's our Captain!"]},{"code":101,"indent":0,"parameters":["Palina emo",5,0,2]},{"code":401,"indent":0,"parameters":["No. Somebody else was targeting the bandits, leaving them injured and easy to find."]},{"code":101,"indent":0,"parameters":["Palina emo",0,0,2]},{"code":401,"indent":0,"parameters":["Perhaps bounty hunters made an attempt on them, though that doesn't feel quite right."]},{"code":101,"indent":0,"parameters":["Palina emo",1,0,2]},{"code":401,"indent":0,"parameters":["Regardless, thanks for holding down the fort while I was gone."]},{"code":101,"indent":0,"parameters":["People4",7,0,2]},{"code":401,"indent":0,"parameters":["Of course, Captain!"]},{"code":101,"indent":0,"parameters":["Palina emo",0,0,2]},{"code":401,"indent":0,"parameters":["Have those representatives arrived yet?"]},{"code":101,"indent":0,"parameters":["People4",7,0,2]},{"code":401,"indent":0,"parameters":["Yes, they were waiting."]},{"code":101,"indent":0,"parameters":["Palina emo",0,0,2]},{"code":401,"indent":0,"parameters":["I'll meet them in the central garden right away, then."]},{"code":205,"indent":0,"parameters":[11,{"list":[{"code":4,"indent":null,"parameters":[]},{"code":4,"indent":null,"parameters":[]},{"code":4,"indent":null,"parameters":[]},{"code":4,"indent":null,"parameters":[]},{"code":4,"indent":null,"parameters":[]},{"code":4,"indent":null,"parameters":[]},{"code":4,"indent":null,"parameters":[]},{"code":4,"indent":null,"parameters":[]},{"code":0,"indent":null,"parameters":[]}],"repeat":false,"skippable":false,"wait":true}]},{"code":505,"indent":0,"parameters":[{"code":4,"indent":null,"parameters":[]}]},{"code":505,"indent":0,"parameters":[{"code":4,"indent":null,"parameters":[]}]},{"code":505,"indent":0,"parameters":[{"code":4,"indent":null,"parameters":[]}]},{"code":505,"indent":0,"parameters":[{"code":4,"indent":null,"parameters":[]}]},{"code":505,"indent":0,"parameters":[{"code":4,"indent":null,"parameters":[]}]},{"code":505,"indent":0,"parameters":[{"code":4,"indent":null,"parameters":[]}]},{"code":505,"indent":0,"parameters":[{"code":4,"indent":null,"parameters":[]}]},{"code":505,"indent":0,"parameters":[{"code":4,"indent":null,"parameters":[]}]},{"code":101,"indent":0,"parameters":["1 Simon dark",0,0,2]},{"code":401,"indent":0,"parameters":["..."]},{"code":205,"indent":0,"parameters":[4,{"list":[{"code":1,"indent":null,"parameters":[]},{"code":1,"indent":null,"parameters":[]},{"code":0,"indent":null,"parameters":[]}],"repeat":false,"skippable":false,"wait":true}]},{"code":505,"indent":0,"parameters":[{"code":1,"indent":null,"parameters":[]}]},{"code":505,"indent":0,"parameters":[{"code":1,"indent":null,"parameters":[]}]},{"code":101,"indent":0,"parameters":["People4",7,0,2]},{"code":401,"indent":0,"parameters":["You'd better not give Captain Palina any trouble. She has enough problems to deal with."]},{"code":205,"indent":0,"parameters":[-1,{"list":[{"code":19,"indent":null,"parameters":[]},{"code":0,"indent":null,"parameters":[]}],"repeat":false,"skippable":false,"wait":true}]},{"code":505,"indent":0,"parameters":[{"code":19,"indent":null,"parameters":[]}]},{"code":101,"indent":0,"parameters":["1 Simon dark",0,0,2]},{"code":401,"indent":0,"parameters":["...give us a moment."]},{"code":101,"indent":0,"parameters":["People4",7,0,2]},{"code":401,"indent":0,"parameters":["Huh? Well, suit yourself."]},{"code":221,"indent":0,"parameters":[]},{"code":101,"indent":0,"parameters":["Yarra emo",0,0,2]},{"code":401,"indent":0,"parameters":["What's wrong? I don't sense anything weird."]},{"code":101,"indent":0,"parameters":["1 Simon dark",0,0,2]},{"code":401,"indent":0,"parameters":["Nothing's wrong, I think we just need to change approach. Yarra, once we get through, make me look like myself again."]},{"code":101,"indent":0,"parameters":["Nalili emo1",5,0,2]},{"code":401,"indent":0,"parameters":["Ooh, and can I be you?"]},{"code":101,"indent":0,"parameters":["Hilstara emo",0,0,2]},{"code":401,"indent":0,"parameters":["What?"]},{"code":101,"indent":0,"parameters":["Nalili emo1",5,0,2]},{"code":401,"indent":0,"parameters":["We need somebody to be \"Dargai\" right? I wanna do it!"]},{"code":101,"indent":0,"parameters":["Yarra emo2",1,0,2]},{"code":401,"indent":0,"parameters":["Eh, you're kinda small, it'd be a stretch. Hilstara would be easier, she's got big armor already."]},{"code":101,"indent":0,"parameters":["Hilstara emo",0,0,2]},{"code":401,"indent":0,"parameters":["Before we get into anything ridiculous... Simon, what's the situation?"]},{"code":101,"indent":0,"parameters":["1 Simon dark",0,0,2]},{"code":401,"indent":0,"parameters":["I knew the Captain. Not well, but there's enough there that I think it would be more productive to go as myself."]},{"code":101,"indent":0,"parameters":["Yarra emo2",0,0,2]},{"code":401,"indent":0,"parameters":["Sure! When we head in, I'll swap everybody around!"]},{"code":121,"indent":0,"parameters":[1605,1605,0]},{"code":222,"indent":0,"parameters":[]},{"code":123,"indent":0,"parameters":["A",0]},{"code":0,"indent":0,"parameters":[]}]},{"conditions":{"actorId":1,"actorValid":false,"itemId":1,"itemValid":false,"selfSwitchCh":"A","selfSwitchValid":true,"switch1Id":1,"switch1Valid":false,"switch2Id":1,"switch2Valid":false,"variableId":1,"variableValid":false,"variableValue":0},"directionFix":false,"image":{"tileId":0,"characterName":"","direction":2,"pattern":0,"characterIndex":0},"moveFrequency":3,"moveRoute":{"list":[{"code":0,"indent":null,"parameters":[]}],"repeat":true,"skippable":false,"wait":false},"moveSpeed":3,"moveType":0,"priorityType":0,"stepAnime":false,"through":false,"trigger":0,"walkAnime":true,"list":[{"code":0,"indent":0,"parameters":[]}]}],"x":2,"y":0},
{"id":11,"name":"Palina","note":"","pages":[{"conditions":{"actorId":1,"actorValid":false,"itemId":1,"itemValid":false,"selfSwitchCh":"A","selfSwitchValid":false,"switch1Id":1604,"switch1Valid":true,"switch2Id":1,"switch2Valid":false,"variableId":1,"variableValid":false,"variableValue":0},"directionFix":false,"image":{"tileId":0,"characterName":"$Palina char","direction":8,"pattern":1,"characterIndex":0},"moveFrequency":3,"moveRoute":{"list":[{"code":0,"indent":null,"parameters":[]}],"repeat":true,"skippable":false,"wait":false},"moveSpeed":4,"moveType":0,"priorityType":1,"stepAnime":false,"through":false,"trigger":0,"walkAnime":true,"list":[{"code":0,"indent":0,"parameters":[]}]},{"conditions":{"actorId":1,"actorValid":false,"itemId":1,"itemValid":false,"selfSwitchCh":"A","selfSwitchValid":false,"switch1Id":1605,"switch1Valid":true,"switch2Id":1,"switch2Valid":false,"variableId":1,"variableValid":false,"variableValue":0},"directionFix":false,"image":{"tileId":0,"characterName":"","direction":2,"pattern":0,"characterIndex":0},"moveFrequency":3,"moveRoute":{"list":[{"code":0,"indent":null,"parameters":[]}],"repeat":true,"skippable":false,"wait":false},"moveSpeed":3,"moveType":0,"priorityType":0,"stepAnime":false,"through":false,"trigger":0,"walkAnime":true,"list":[{"code":0,"indent":0,"parameters":[]}]}],"x":14,"y":24},
{"id":12,"name":"EV012","note":"","pages":[{"conditions":{"actorId":1,"actorValid":false,"itemId":1,"itemValid":false,"selfSwitchCh":"A","selfSwitchValid":false,"switch1Id":1,"switch1Valid":false,"switch2Id":1,"switch2Valid":false,"variableId":1,"variableValid":false,"variableValue":0},"directionFix":false,"image":{"tileId":0,"characterName":"","direction":2,"pattern":0,"characterIndex":0},"moveFrequency":3,"moveRoute":{"list":[{"code":0,"indent":null,"parameters":[]}],"repeat":true,"skippable":false,"wait":false},"moveSpeed":3,"moveType":0,"priorityType":0,"stepAnime":false,"through":false,"trigger":1,"walkAnime":true,"list":[{"code":250,"indent":0,"parameters":[{"name":"Move","pan":0,"pitch":100,"volume":80}]},{"code":201,"indent":0,"parameters":[0,390,14,24,0,0]},{"code":0,"indent":0,"parameters":[]}]}],"x":13,"y":5},
{"id":13,"name":"EV013","note":"","pages":[{"conditions":{"actorId":1,"actorValid":false,"itemId":1,"itemValid":false,"selfSwitchCh":"A","selfSwitchValid":false,"switch1Id":1,"switch1Valid":false,"switch2Id":1,"switch2Valid":false,"variableId":1,"variableValid":false,"variableValue":0},"directionFix":false,"image":{"tileId":0,"characterName":"","direction":2,"pattern":0,"characterIndex":0},"moveFrequency":3,"moveRoute":{"list":[{"code":0,"indent":null,"parameters":[]}],"repeat":true,"skippable":false,"wait":false},"moveSpeed":3,"moveType":0,"priorityType":0,"stepAnime":false,"through":false,"trigger":1,"walkAnime":true,"list":[{"code":250,"indent":0,"parameters":[{"name":"Move","pan":0,"pitch":100,"volume":80}]},{"code":201,"indent":0,"parameters":[0,390,15,24,0,0]},{"code":0,"indent":0,"parameters":[]}]}],"x":14,"y":5},
{"id":14,"name":"EV014","note":"","pages":[{"conditions":{"actorId":1,"actorValid":false,"itemId":1,"itemValid":false,"selfSwitchCh":"A","selfSwitchValid":false,"switch1Id":1607,"switch1Valid":true,"switch2Id":1,"switch2Valid":false,"variableId":1,"variableValid":false,"variableValue":0},"directionFix":false,"image":{"tileId":0,"characterName":"Brigand","direction":6,"pattern":1,"characterIndex":0},"moveFrequency":3,"moveRoute":{"list":[{"code":0,"indent":null,"parameters":[]}],"repeat":true,"skippable":false,"wait":false},"moveSpeed":3,"moveType":0,"priorityType":1,"stepAnime":false,"through":false,"trigger":0,"walkAnime":true,"list":[{"code":0,"indent":0,"parameters":[]}]}],"x":13,"y":10},
{"id":15,"name":"EV015","note":"","pages":[{"conditions":{"actorId":1,"actorValid":false,"itemId":1,"itemValid":false,"selfSwitchCh":"A","selfSwitchValid":false,"switch1Id":1607,"switch1Valid":true,"switch2Id":1,"switch2Valid":false,"variableId":1,"variableValid":false,"variableValue":0},"directionFix":false,"image":{"tileId":0,"characterName":"$Nalili char","direction":4,"pattern":1,"characterIndex":0},"moveFrequency":3,"moveRoute":{"list":[{"code":0,"indent":null,"parameters":[]}],"repeat":true,"skippable":false,"wait":false},"moveSpeed":3,"moveType":0,"priorityType":1,"stepAnime":false,"through":false,"trigger":0,"walkAnime":true,"list":[{"code":0,"indent":0,"parameters":[]}]}],"x":14,"y":10},
{"id":16,"name":"EV016","note":"","pages":[{"conditions":{"actorId":1,"actorValid":false,"itemId":1,"itemValid":false,"selfSwitchCh":"A","selfSwitchValid":false,"switch1Id":1607,"switch1Valid":true,"switch2Id":1,"switch2Valid":false,"variableId":1,"variableValid":false,"variableValue":0},"directionFix":false,"image":{"tileId":0,"characterName":"$Yarra char","direction":8,"pattern":1,"characterIndex":0},"moveFrequency":3,"moveRoute":{"list":[{"code":0,"indent":null,"parameters":[]}],"repeat":true,"skippable":false,"wait":false},"moveSpeed":3,"moveType":0,"priorityType":1,"stepAnime":false,"through":false,"trigger":0,"walkAnime":true,"list":[{"code":0,"indent":0,"parameters":[]}]}],"x":13,"y":11},
{"id":17,"name":"EV017","note":"","pages":[{"conditions":{"actorId":1,"actorValid":false,"itemId":1,"itemValid":false,"selfSwitchCh":"A","selfSwitchValid":false,"switch1Id":1608,"switch1Valid":true,"switch2Id":1,"switch2Valid":false,"variableId":1,"variableValid":false,"variableValue":0},"directionFix":false,"image":{"tileId":0,"characterName":"soldier2 alts","direction":4,"pattern":1,"characterIndex":0},"moveFrequency":3,"moveRoute":{"list":[{"code":0,"indent":null,"parameters":[]}],"repeat":true,"skippable":false,"wait":false},"moveSpeed":3,"moveType":0,"priorityType":1,"stepAnime":false,"through":false,"trigger":0,"walkAnime":true,"list":[{"code":101,"indent":0,"parameters":["People4",6,0,2]},{"code":401,"indent":0,"parameters":["I never want Aram to be conquered, but I wish we had a leader like the Doom King to purge the corruption."]},{"code":101,"indent":0,"parameters":["Megail emo2",3,0,2]},{"code":401,"indent":0,"parameters":["An Aramite soldier admitting corruption?"]},{"code":101,"indent":0,"parameters":["People4",6,0,2]},{"code":401,"indent":0,"parameters":["Oh, very funny. At an outpost like this we know it better than most, but there's not much we can do about it."]},{"code":101,"indent":0,"parameters":["Hilstara emo",0,0,2]},{"code":401,"indent":0,"parameters":["Would the dwarven women agree?"]},{"code":213,"indent":0,"parameters":[0,8,true]},{"code":101,"indent":0,"parameters":["People4",6,0,2]},{"code":401,"indent":0,"parameters":["Okay, that was a low blow, but I guess we deserve it. Soldiers from this fort have committed real crimes, yes."]},{"code":101,"indent":0,"parameters":["People4",6,0,2]},{"code":401,"indent":0,"parameters":["But without direct proof, there's not much we can do to discipline them."]},{"code":101,"indent":0,"parameters":["People4",6,0,2]},{"code":401,"indent":0,"parameters":["For example, I know that right now, we have some men on leave who are harassing Maranite women. But unless we can catch them in the act..."]},{"code":101,"indent":0,"parameters":["People4",6,0,2]},{"code":401,"indent":0,"parameters":["At moments like this, I understand why some people take the law into their own hands. I can't condone it, but I understand."]},{"code":101,"indent":0,"parameters":["Hilstara emo",0,0,2]},{"code":401,"indent":0,"parameters":["..."]},{"code":205,"indent":0,"parameters":[-1,{"list":[{"code":2,"indent":null,"parameters":[]},{"code":2,"indent":null,"parameters":[]},{"code":0,"indent":null,"parameters":[]}],"repeat":false,"skippable":false,"wait":true}]},{"code":505,"indent":0,"parameters":[{"code":2,"indent":null,"parameters":[]}]},{"code":505,"indent":0,"parameters":[{"code":2,"indent":null,"parameters":[]}]},{"code":101,"indent":0,"parameters":["Hilstara emo",0,0,2]},{"code":401,"indent":0,"parameters":["Is there anything we can do about this?"]},{"code":101,"indent":0,"parameters":["Megail emo2",3,0,2]},{"code":401,"indent":0,"parameters":["Well, he probably means the same Maranite group we're looking into. But whether or not we can do anything..."]},{"code":101,"indent":0,"parameters":["Hilstara emo",5,0,2]},{"code":401,"indent":0,"parameters":["I suppose we can't kill them, and catching them in the act would be unlikely..."]},{"code":101,"indent":0,"parameters":["1 Simon dark",0,0,2]},{"code":401,"indent":0,"parameters":["We have other options, though. Trin?"]},{"code":101,"indent":0,"parameters":["Trin emo",0,0,2]},{"code":401,"indent":0,"parameters":["Yeah, I guess. Let me know if we find them."]},{"code":121,"indent":0,"parameters":[1609,1609,0]},{"code":123,"indent":0,"parameters":["A",0]},{"code":0,"indent":0,"parameters":[]}]},{"conditions":{"actorId":1,"actorValid":false,"itemId":1,"itemValid":false,"selfSwitchCh":"A","selfSwitchValid":true,"switch1Id":1608,"switch1Valid":true,"switch2Id":1,"switch2Valid":false,"variableId":1,"variableValid":false,"variableValue":0},"directionFix":false,"image":{"tileId":0,"characterName":"soldier2 alts","direction":4,"pattern":1,"characterIndex":0},"moveFrequency":3,"moveRoute":{"list":[{"code":0,"indent":null,"parameters":[]}],"repeat":true,"skippable":false,"wait":false},"moveSpeed":3,"moveType":0,"priorityType":1,"stepAnime":false,"through":false,"trigger":0,"walkAnime":true,"list":[{"code":101,"indent":0,"parameters":["People4",6,0,2]},{"code":401,"indent":0,"parameters":["It's shameful that some soldiers behave that way, but there's only so much we can do."]},{"code":0,"indent":0,"parameters":[]}]},{"conditions":{"actorId":1,"actorValid":false,"itemId":1,"itemValid":false,"selfSwitchCh":"A","selfSwitchValid":false,"switch1Id":2099,"switch1Valid":true,"switch2Id":1,"switch2Valid":false,"variableId":1,"variableValid":false,"variableValue":0},"directionFix":false,"image":{"tileId":0,"characterName":"soldier2 alts","direction":4,"pattern":1,"characterIndex":0},"moveFrequency":3,"moveRoute":{"list":[{"code":0,"indent":null,"parameters":[]}],"repeat":true,"skippable":false,"wait":false},"moveSpeed":3,"moveType":0,"priorityType":1,"stepAnime":false,"through":false,"trigger":0,"walkAnime":true,"list":[{"code":111,"indent":0,"parameters":[0,1610,0]},{"code":101,"indent":1,"parameters":["People4",6,0,2]},{"code":401,"indent":1,"parameters":["It's odd, but after our talk, things became... no, never mind."]},{"code":0,"indent":1,"parameters":[]},{"code":411,"indent":0,"parameters":[]},{"code":101,"indent":1,"parameters":["People4",6,0,2]},{"code":401,"indent":1,"parameters":["I love Aram, but I wish I could serve a better Aram."]},{"code":0,"indent":1,"parameters":[]},{"code":412,"indent":0,"parameters":[]},{"code":0,"indent":0,"parameters":[]}]}],"x":18,"y":8},
{"id":18,"name":"EV018","note":"","pages":[{"conditions":{"actorId":1,"actorValid":false,"itemId":1,"itemValid":false,"selfSwitchCh":"A","selfSwitchValid":false,"switch1Id":1608,"switch1Valid":true,"switch2Id":1,"switch2Valid":false,"variableId":1,"variableValid":false,"variableValue":0},"directionFix":false,"image":{"tileId":0,"characterName":"soldier2 alts","direction":6,"pattern":1,"characterIndex":0},"moveFrequency":3,"moveRoute":{"list":[{"code":0,"indent":null,"parameters":[]}],"repeat":true,"skippable":false,"wait":false},"moveSpeed":3,"moveType":0,"priorityType":1,"stepAnime":false,"through":false,"trigger":0,"walkAnime":true,"list":[{"code":101,"indent":0,"parameters":["People4",6,0,2]},{"code":401,"indent":0,"parameters":["Damn, the Captain is fast. The rest of us only just now got back..."]},{"code":0,"indent":0,"parameters":[]}]},{"conditions":{"actorId":1,"actorValid":false,"itemId":1,"itemValid":false,"selfSwitchCh":"A","selfSwitchValid":false,"switch1Id":2099,"switch1Valid":true,"switch2Id":1,"switch2Valid":false,"variableId":1,"variableValid":false,"variableValue":0},"directionFix":false,"image":{"tileId":0,"characterName":"soldier2 alts","direction":6,"pattern":1,"characterIndex":0},"moveFrequency":3,"moveRoute":{"list":[{"code":0,"indent":null,"parameters":[]}],"repeat":true,"skippable":false,"wait":false},"moveSpeed":3,"moveType":0,"priorityType":1,"stepAnime":false,"through":false,"trigger":0,"walkAnime":true,"list":[{"code":101,"indent":0,"parameters":["People4",6,0,2]},{"code":401,"indent":0,"parameters":["I don't like the feel of any of this. The Incubus Emperor is dead, we should be uniting..."]},{"code":0,"indent":0,"parameters":[]}]},{"conditions":{"actorId":1,"actorValid":false,"itemId":1,"itemValid":false,"selfSwitchCh":"A","selfSwitchValid":false,"switch1Id":3281,"switch1Valid":true,"switch2Id":1,"switch2Valid":false,"variableId":1,"variableValid":false,"variableValue":0},"directionFix":false,"image":{"tileId":0,"characterName":"soldier2 alts","direction":6,"pattern":1,"characterIndex":0},"moveFrequency":3,"moveRoute":{"list":[{"code":0,"indent":null,"parameters":[]}],"repeat":true,"skippable":false,"wait":false},"moveSpeed":3,"moveType":0,"priorityType":1,"stepAnime":false,"through":false,"trigger":0,"walkAnime":true,"list":[{"code":101,"indent":0,"parameters":["People4",6,0,2]},{"code":401,"indent":0,"parameters":["Orders have us being even stricter with Eustrin. I don't like it."]},{"code":0,"indent":0,"parameters":[]}]}],"x":9,"y":20},
{"id":19,"name":"EV019","note":"","pages":[{"conditions":{"actorId":1,"actorValid":false,"itemId":1,"itemValid":false,"selfSwitchCh":"A","selfSwitchValid":false,"switch1Id":1,"switch1Valid":false,"switch2Id":1,"switch2Valid":false,"variableId":1,"variableValid":false,"variableValue":0},"directionFix":false,"image":{"tileId":0,"characterName":"","direction":2,"pattern":0,"characterIndex":0},"moveFrequency":3,"moveRoute":{"list":[{"code":0,"indent":null,"parameters":[]}],"repeat":true,"skippable":false,"wait":false},"moveSpeed":3,"moveType":0,"priorityType":0,"stepAnime":false,"through":false,"trigger":1,"walkAnime":true,"list":[{"code":205,"indent":0,"parameters":[3,{"list":[{"code":19,"indent":null,"parameters":[]},{"code":0,"indent":null,"parameters":[]}],"repeat":false,"skippable":false,"wait":true}]},{"code":505,"indent":0,"parameters":[{"code":19,"indent":null,"parameters":[]}]},{"code":101,"indent":0,"parameters":["People4",7,0,2]},{"code":401,"indent":0,"parameters":["I said no funny business!"]},{"code":205,"indent":0,"parameters":[-1,{"list":[{"code":1,"indent":null,"parameters":[]},{"code":0,"indent":null,"parameters":[]}],"repeat":false,"skippable":false,"wait":true}]},{"code":505,"indent":0,"parameters":[{"code":1,"indent":null,"parameters":[]}]},{"code":205,"indent":0,"parameters":[3,{"list":[{"code":17,"indent":null,"parameters":[]},{"code":0,"indent":null,"parameters":[]}],"repeat":false,"skippable":false,"wait":true}]},{"code":505,"indent":0,"parameters":[{"code":17,"indent":null,"parameters":[]}]},{"code":0,"indent":0,"parameters":[]}]}],"x":17,"y":18}
]
}