{
"autoplayBgm":false,"autoplayBgs":false,"battleback1Name":"","battleback2Name":"","bgm":{"name":"","pan":0,"pitch":100,"volume":100},"bgs":{"name":"","pan":0,"pitch":100,"volume":80},"disableDashing":false,"displayName":"Unnamed Zirantian Bar","encounterList":[],"encounterStep":30,"height":17,"note":"","parallaxLoopX":false,"parallaxLoopY":false,"parallaxName":"","parallaxShow":false,"parallaxSx":0,"parallaxSy":0,"scrollType":0,"specifyBattleback":false,"tilesetId":54,"width":19,
"data":[0,0,0,0,0,0,0,0,0,0,0,0,0,0,0,0,0,0,0,0,0,0,0,0,0,0,0,0,0,0,0,0,0,0,0,0,0,0,0,0,6835,6833,6833,6833,6833,6833,6833,6833,6833,6833,6833,6833,6833,6833,6837,0,0,0,0,6832,7186,7186,7186,7186,7186,7186,7186,7186,7186,7186,7186,7186,7186,6832,0,0,0,0,6832,7192,7192,7192,7192,7192,7192,7192,7192,7192,7192,7192,7192,7192,6832,0,0,0,0,6832,3618,3604,3604,3604,3604,3604,3604,3604,3604,3604,3604,3604,3620,6832,0,0,0,0,6832,3600,3584,3584,3584,3584,3584,3584,3584,3584,3584,3584,3584,3608,6832,0,0,0,0,6832,3600,3584,3584,3584,3584,3584,3584,3584,3584,3584,3584,3584,3608,6832,0,0,0,0,6832,3600,3584,3584,3584,3584,3584,3584,3584,3584,3584,3584,3584,3608,6832,0,0,0,0,6832,3600,3584,3584,3584,3584,3584,3584,3584,3584,3584,3584,3584,3608,6832,0,0,0,0,6832,3624,3612,3612,3612,3612,3612,3596,3612,3612,3612,3612,3612,3622,6832,0,0,0,0,6841,6833,6833,6833,6833,6833,6845,3628,6843,6833,6833,6833,6833,6833,6839,0,0,0,0,7187,7186,7186,7186,7186,7186,7186,7186,7186,7186,7186,7186,7186,7186,7190,0,0,0,0,7193,7192,7192,7192,7192,7192,7192,7192,7192,7192,7192,7192,7192,7192,7196,0,0,0,0,0,0,0,0,0,0,0,0,0,0,0,0,0,0,0,0,0,0,0,0,0,0,0,0,0,0,0,0,0,0,0,0,0,0,0,0,0,0,0,0,0,0,0,0,0,0,0,0,0,0,0,0,0,0,0,0,0,0,0,0,0,0,0,0,0,0,0,0,0,0,0,0,0,0,0,0,0,0,0,0,0,0,0,0,0,0,0,0,0,0,0,0,0,0,0,0,0,0,0,0,0,0,0,0,0,0,0,0,0,0,0,0,0,0,0,0,0,0,0,0,0,0,0,0,0,0,0,0,0,0,0,0,0,0,0,0,0,0,0,0,0,0,0,0,0,0,0,0,0,0,0,0,0,0,0,0,0,3194,0,0,0,0,0,0,0,0,0,0,0,0,0,0,0,0,0,0,3184,0,0,0,0,0,0,0,0,0,0,0,0,0,0,3195,3185,3185,3185,3191,0,0,0,0,0,0,0,0,0,0,0,0,0,0,0,0,0,0,0,0,0,0,0,0,0,0,0,0,0,0,0,0,0,0,0,0,0,0,0,0,0,0,0,0,3198,0,0,0,0,0,0,0,0,0,0,0,0,0,0,0,0,0,0,0,0,0,0,0,0,0,0,0,0,0,0,0,0,0,0,0,0,0,0,0,0,0,0,0,0,0,0,0,0,0,0,0,0,0,0,0,0,0,0,0,0,0,0,0,0,0,0,0,0,0,0,0,0,0,0,0,0,0,0,0,0,0,0,0,0,0,0,0,0,0,0,0,0,0,0,0,0,0,0,0,0,0,0,0,0,0,0,0,0,0,0,0,0,0,0,0,0,0,0,0,0,0,0,0,0,0,0,0,0,0,0,0,0,0,0,0,0,0,0,0,0,0,0,0,0,0,0,0,0,0,0,0,0,0,0,0,0,0,0,0,0,0,0,0,0,0,0,0,0,0,0,0,0,0,0,0,0,0,0,0,0,0,0,0,0,0,0,0,0,0,0,0,0,0,0,0,0,0,0,0,0,0,0,0,0,0,0,0,0,0,0,0,0,0,0,0,0,0,0,0,0,0,0,0,0,0,0,0,0,0,0,0,0,0,0,0,0,0,0,0,0,0,0,0,0,0,0,0,0,0,0,0,0,0,0,0,0,0,0,0,0,0,0,0,0,0,0,0,0,0,0,0,0,0,0,0,0,0,0,0,0,0,0,0,0,0,0,0,0,0,0,0,0,0,0,0,0,0,0,0,0,0,0,0,0,0,0,0,0,0,0,0,0,0,0,0,0,0,0,0,0,0,0,0,0,0,0,0,0,0,0,0,0,0,0,0,0,0,0,0,0,0,0,0,0,0,0,0,0,0,0,0,0,0,0,0,0,0,0,0,0,0,0,0,0,0,0,0,0,0,0,0,0,0,0,0,0,0,0,0,0,0,0,0,0,0,0,0,0,0,0,0,0,0,0,0,0,0,0,0,0,0,0,0,0,0,0,0,0,0,0,0,0,0,0,0,0,0,0,0,0,0,0,0,0,0,0,0,0,0,0,0,0,0,0,0,0,0,0,0,0,0,0,0,0,0,0,0,0,0,0,0,0,0,0,0,0,0,0,0,0,0,0,0,0,0,0,0,0,0,0,0,0,0,0,0,0,0,0,0,0,0,0,0,0,0,0,0,0,0,0,0,0,0,0,0,0,0,0,0,0,0,0,0,0,0,0,0,0,0,0,0,0,0,0,0,0,0,0,0,0,0,0,0,0,0,0,0,0,0,0,0,0,0,0,0,0,0,0,0,972,972,972,0,0,0,0,730,731,734,735,734,735,0,0,0,0,0,0,980,980,980,0,0,0,0,738,739,742,743,742,743,0,0,0,0,0,0,0,0,0,0,0,324,0,0,287,0,0,0,0,0,0,0,0,0,0,0,0,0,0,0,0,0,287,0,287,0,0,0,0,0,0,0,0,0,0,324,0,324,0,0,0,0,287,0,0,0,0,0,0,0,0,0,0,0,0,0,0,0,0,0,0,0,0,324,0,311,0,0,0,0,0,0,287,0,0,0,0,0,0,0,0,0,0,319,0,0,0,0,0,0,0,0,0,0,0,0,0,0,0,0,0,0,0,0,0,0,0,0,0,0,0,0,0,0,0,0,0,0,0,0,0,0,0,0,0,0,0,0,0,0,0,0,0,0,0,0,0,0,0,0,0,0,0,0,0,0,0,0,0,0,0,0,0,0,0,0,0,0,0,0,0,0,0,0,0,0,0,0,0,0,0,0,0,0,0,0,0,0,0,0,0,0,0,0,0,0,0,0,0,0,0,0,0,0,0,0,0,0,0,0,0,0,0,0,0,0,0,0,0,0,0,0,0,0,0,0,0,0,0,0,0,0,0,0,0,0,0,0,0,0,0,0,0,0,0,0,0,0,0,0,0,0,0,0,0,0,0,0,0,0,0,0,0,0,0,0,0,0,0,0,0,0,0,0,0,0,0,0,0,0,0,0,0,0,0,0,0,0,0,0,0,0,0,0,0,0,0,0,0,0,0,0,0,0,0,0,0,0,0,0,5,0,0,0,0,0,0,0,0,0,0,0,0,0,0,0,0,0,0,5,0,0,0,0,0,0,0,0,0,0,0,0,0,0,0,0,0,0,5,0,0,0,0,0,0,0,0,0,0,0,0,0,0,0,0,0,0,5,0,0,0,0,0,0,0,0,0,0,0,0,0,0,0,0,0,0,5,0,0,0,0,0,0,0,0,0,0,0,0,0,0,0,0,0,0,5,0,0,0,0,0,0,0,0,0,0,0,0,0,0,0,0,0,0,0,0,0,0,0,0,0,0,0,0,0,0,0,0,0,0,0,0,0,0,0,0,0,0,0,0,0,0,0,0,0,0,0,0,0,0,0,0,0,0,0,0,0,0,0,0,0,0,0,0,0,0,0,0,0,0,0,0,0,0,0,0,0,0,0,0,0,0,0,0,0,0,0,0,0,0,0,0,0,0,0,0,0,0,0,0,0,0,0,0,0,0,0,0,0,0,0,0,0,0,0,0,0,0,0,0,0,0,0,0,0,0,0,0,0,0,0,0,0,0,0,0,0,0,0,0,0,0,0,0,0,0,0,0,0,0,0,0,0,0,0,0,0,0,0,0,0,0,0,0,0,0,0,0,0,0,0,0,0,0,0,0,0,0,0,0,0,0,0,0,0,0,0,0,0,0,0,0,0,0,0,0,0,0,0,0,0,0,0,0,0,0,0,0,0,0,0,0,0,0,0,0,0,0,0,0,0,0,0,0,0,0,0,0,0,0,0,0,0,0,0,0,0,0,0,0,0,0,0,0,0,0,0,0,0,0,0,0,0,0,0,0,0,0,0,0,0,0,0,0,0,0,0,0,0,0,0,0,0,0,0,0,0,0,0,0,0,0,0,0,0,0,0,0,0,0,0,0,0,0,0,0,0,0,0,0,0,0,0,0,0,0,0,0,0,0,0,0,0,0,0,0,0,0,0,0,0,0,0,0,0,0,0,0,0,0,0,0,0,0,0,0,0,0,0,0,0,0,0,0,0,0,0,0,0,0,0,0,0,0,0,0,0,0,0,0,0,0,0,0,0,0,0,0,0,0,0,0,0,0,0,0,0,0,0,0,0,0,0,0,0,0,0,0,0,0,0,0,0,0,0,0,0,0,0,0,0,0,0,0,0,0,0,0,0,0,0,0,0,0,0,0,0,0,0,0,0,0,0,0,0,0,0,0,0,0,0,0,0,0,0,0,0,0,0,0,0,0,0,0,0,0,0,0],
"events":[
null,
{"id":1,"name":"EV001","note":"","pages":[{"conditions":{"actorId":1,"actorValid":false,"itemId":1,"itemValid":false,"selfSwitchCh":"A","selfSwitchValid":false,"switch1Id":1,"switch1Valid":false,"switch2Id":1,"switch2Valid":false,"variableId":1,"variableValid":false,"variableValue":0},"directionFix":false,"image":{"tileId":0,"characterName":"","direction":2,"pattern":0,"characterIndex":0},"moveFrequency":3,"moveRoute":{"list":[{"code":0,"indent":null,"parameters":[]}],"repeat":true,"skippable":false,"wait":false},"moveSpeed":3,"moveType":0,"priorityType":0,"stepAnime":false,"through":false,"trigger":1,"walkAnime":true,"list":[{"code":101,"indent":0,"parameters":["Yarra emo2",1,0,2]},{"code":401,"indent":0,"parameters":["Well, this has not been a very successful fact-finding mission."]},{"code":101,"indent":0,"parameters":["Hilstara emo",1,0,2]},{"code":401,"indent":0,"parameters":["I wouldn't say so. We know a lot more about how much Zirantia is trying to keep hidden from us."]},{"code":101,"indent":0,"parameters":["Yarra emo2",1,0,2]},{"code":401,"indent":0,"parameters":["Yeah, but we're mainly being conspicuous..."]},{"code":101,"indent":0,"parameters":["Qum D'umpe emo",6,0,2]},{"code":401,"indent":0,"parameters":["Conspicuthing is good!"]},{"code":101,"indent":0,"parameters":["Yarra emo2",0,0,2]},{"code":401,"indent":0,"parameters":["Are you... saying we should lean into it?"]},{"code":101,"indent":0,"parameters":["Hilstara emo",0,0,2]},{"code":401,"indent":0,"parameters":["It's worth a try. We might get different reactions as ourselves."]},{"code":101,"indent":0,"parameters":["Yarra emo",5,0,2]},{"code":401,"indent":0,"parameters":["I'll give it a try on our way out..."]},{"code":121,"indent":0,"parameters":[1365,1365,0]},{"code":250,"indent":0,"parameters":[{"name":"Move","pan":0,"pitch":100,"volume":80}]},{"code":201,"indent":0,"parameters":[0,347,25,30,0,0]},{"code":123,"indent":0,"parameters":["A",0]},{"code":0,"indent":0,"parameters":[]}]},{"conditions":{"actorId":1,"actorValid":false,"itemId":1,"itemValid":false,"selfSwitchCh":"A","selfSwitchValid":true,"switch1Id":1,"switch1Valid":false,"switch2Id":1,"switch2Valid":false,"variableId":1,"variableValid":false,"variableValue":0},"directionFix":false,"image":{"tileId":0,"characterName":"","direction":2,"pattern":0,"characterIndex":0},"moveFrequency":3,"moveRoute":{"list":[{"code":0,"indent":null,"parameters":[]}],"repeat":true,"skippable":false,"wait":false},"moveSpeed":3,"moveType":0,"priorityType":0,"stepAnime":false,"through":false,"trigger":1,"walkAnime":true,"list":[{"code":250,"indent":0,"parameters":[{"name":"Move","pan":0,"pitch":100,"volume":80}]},{"code":201,"indent":0,"parameters":[0,347,25,30,0,0]},{"code":0,"indent":0,"parameters":[]}]}],"x":9,"y":11},
{"id":2,"name":"EV002","note":"","pages":[{"conditions":{"actorId":1,"actorValid":false,"itemId":1,"itemValid":false,"selfSwitchCh":"A","selfSwitchValid":false,"switch1Id":1343,"switch1Valid":false,"switch2Id":1,"switch2Valid":false,"variableId":1,"variableValid":false,"variableValue":0},"directionFix":false,"image":{"tileId":0,"characterName":"$Zirantian female3 char","direction":6,"pattern":1,"characterIndex":0},"moveFrequency":3,"moveRoute":{"list":[{"code":0,"indent":null,"parameters":[]}],"repeat":true,"skippable":false,"wait":false},"moveSpeed":3,"moveType":0,"priorityType":1,"stepAnime":false,"through":false,"trigger":0,"walkAnime":true,"list":[{"code":101,"indent":0,"parameters":["Zirantian female3 emo2",2,0,2]},{"code":401,"indent":0,"parameters":["\\C[1]Goa...\\C[0]"]},{"code":0,"indent":0,"parameters":[]}]},{"conditions":{"actorId":1,"actorValid":false,"itemId":1,"itemValid":false,"selfSwitchCh":"A","selfSwitchValid":false,"switch1Id":1433,"switch1Valid":true,"switch2Id":1,"switch2Valid":false,"variableId":1,"variableValid":false,"variableValue":0},"directionFix":false,"image":{"tileId":0,"characterName":"$Zirantian female3 char","direction":6,"pattern":1,"characterIndex":0},"moveFrequency":3,"moveRoute":{"list":[{"code":0,"indent":null,"parameters":[]}],"repeat":true,"skippable":false,"wait":false},"moveSpeed":3,"moveType":0,"priorityType":1,"stepAnime":false,"through":false,"trigger":0,"walkAnime":true,"list":[{"code":101,"indent":0,"parameters":["Zirantian female3 emo2",2,0,2]},{"code":401,"indent":0,"parameters":["\\C[1]Wow..."]},{"code":0,"indent":0,"parameters":[]}]},{"conditions":{"actorId":1,"actorValid":false,"itemId":1,"itemValid":false,"selfSwitchCh":"A","selfSwitchValid":false,"switch1Id":2099,"switch1Valid":true,"switch2Id":1,"switch2Valid":false,"variableId":1,"variableValid":false,"variableValue":0},"directionFix":false,"image":{"tileId":0,"characterName":"$Zirantian female3 char","direction":6,"pattern":1,"characterIndex":0},"moveFrequency":3,"moveRoute":{"list":[{"code":0,"indent":null,"parameters":[]}],"repeat":true,"skippable":false,"wait":false},"moveSpeed":3,"moveType":0,"priorityType":1,"stepAnime":false,"through":false,"trigger":0,"walkAnime":true,"list":[{"code":101,"indent":0,"parameters":["Zirantian female3 emo2",2,0,2]},{"code":401,"indent":0,"parameters":["\\C[1]We get some foreigners, but not groups like this..."]},{"code":0,"indent":0,"parameters":[]}]},{"conditions":{"actorId":1,"actorValid":false,"itemId":1,"itemValid":false,"selfSwitchCh":"A","selfSwitchValid":false,"switch1Id":3601,"switch1Valid":true,"switch2Id":1,"switch2Valid":false,"variableId":1,"variableValid":false,"variableValue":0},"directionFix":false,"image":{"tileId":0,"characterName":"$Zirantian female3 char","direction":6,"pattern":1,"characterIndex":0},"moveFrequency":3,"moveRoute":{"list":[{"code":0,"indent":null,"parameters":[]}],"repeat":true,"skippable":false,"wait":false},"moveSpeed":3,"moveType":0,"priorityType":1,"stepAnime":false,"through":false,"trigger":0,"walkAnime":true,"list":[{"code":101,"indent":0,"parameters":["Zirantian female3 emo2",7,0,2]},{"code":401,"indent":0,"parameters":["\\C[1]The weird group is back again..."]},{"code":0,"indent":0,"parameters":[]}]}],"x":10,"y":7},
{"id":3,"name":"EV003","note":"","pages":[{"conditions":{"actorId":1,"actorValid":false,"itemId":1,"itemValid":false,"selfSwitchCh":"A","selfSwitchValid":false,"switch1Id":1343,"switch1Valid":false,"switch2Id":1,"switch2Valid":false,"variableId":1,"variableValid":false,"variableValue":0},"directionFix":false,"image":{"tileId":0,"characterName":"$Zirantian female1 char","direction":2,"pattern":1,"characterIndex":0},"moveFrequency":3,"moveRoute":{"list":[{"code":0,"indent":null,"parameters":[]}],"repeat":true,"skippable":false,"wait":false},"moveSpeed":3,"moveType":0,"priorityType":1,"stepAnime":false,"through":false,"trigger":0,"walkAnime":true,"list":[{"code":101,"indent":0,"parameters":["Zirantian female1 emo1",1,0,2]},{"code":401,"indent":0,"parameters":["Isn't it nice to rest your feet a little?"]},{"code":0,"indent":0,"parameters":[]}]},{"conditions":{"actorId":1,"actorValid":false,"itemId":1,"itemValid":false,"selfSwitchCh":"A","selfSwitchValid":false,"switch1Id":2099,"switch1Valid":true,"switch2Id":1,"switch2Valid":false,"variableId":1,"variableValid":false,"variableValue":0},"directionFix":false,"image":{"tileId":0,"characterName":"$Zirantian female1 char","direction":2,"pattern":1,"characterIndex":0},"moveFrequency":3,"moveRoute":{"list":[{"code":0,"indent":null,"parameters":[]}],"repeat":true,"skippable":false,"wait":false},"moveSpeed":3,"moveType":0,"priorityType":1,"stepAnime":false,"through":false,"trigger":0,"walkAnime":true,"list":[{"code":101,"indent":0,"parameters":["Zirantian female1 emo1",1,0,2]},{"code":401,"indent":0,"parameters":["Hello! Glad to see people enjoying our bar!"]},{"code":0,"indent":0,"parameters":[]}]},{"conditions":{"actorId":1,"actorValid":false,"itemId":1,"itemValid":false,"selfSwitchCh":"A","selfSwitchValid":false,"switch1Id":3601,"switch1Valid":true,"switch2Id":1,"switch2Valid":false,"variableId":1,"variableValid":false,"variableValue":0},"directionFix":false,"image":{"tileId":0,"characterName":"$Zirantian female1 char","direction":2,"pattern":1,"characterIndex":0},"moveFrequency":3,"moveRoute":{"list":[{"code":0,"indent":null,"parameters":[]}],"repeat":true,"skippable":false,"wait":false},"moveSpeed":3,"moveType":0,"priorityType":1,"stepAnime":false,"through":false,"trigger":0,"walkAnime":true,"list":[{"code":101,"indent":0,"parameters":["Zirantian female1 emo1",4,0,2]},{"code":401,"indent":0,"parameters":["Welcome! We're getting more foreign visitors these days!"]},{"code":0,"indent":0,"parameters":[]}]}],"x":11,"y":6},
{"id":4,"name":"EV004","note":"","pages":[{"conditions":{"actorId":1,"actorValid":false,"itemId":1,"itemValid":false,"selfSwitchCh":"A","selfSwitchValid":false,"switch1Id":1343,"switch1Valid":false,"switch2Id":1,"switch2Valid":false,"variableId":1,"variableValid":false,"variableValue":0},"directionFix":false,"image":{"tileId":0,"characterName":"$Zirantian female2 char","direction":8,"pattern":1,"characterIndex":0},"moveFrequency":3,"moveRoute":{"list":[{"code":0,"indent":null,"parameters":[]}],"repeat":true,"skippable":false,"wait":false},"moveSpeed":3,"moveType":0,"priorityType":1,"stepAnime":false,"through":false,"trigger":0,"walkAnime":true,"list":[{"code":101,"indent":0,"parameters":["Zirantian female2 emo",1,0,2]},{"code":401,"indent":0,"parameters":["\\C[1]Eolia! Iikaon va...\\C[0]"]},{"code":0,"indent":0,"parameters":[]}]},{"conditions":{"actorId":1,"actorValid":false,"itemId":1,"itemValid":false,"selfSwitchCh":"A","selfSwitchValid":false,"switch1Id":1433,"switch1Valid":true,"switch2Id":1,"switch2Valid":false,"variableId":1,"variableValid":false,"variableValue":0},"directionFix":false,"image":{"tileId":0,"characterName":"$Zirantian female2 char","direction":8,"pattern":1,"characterIndex":0},"moveFrequency":3,"moveRoute":{"list":[{"code":0,"indent":null,"parameters":[]}],"repeat":true,"skippable":false,"wait":false},"moveSpeed":3,"moveType":0,"priorityType":1,"stepAnime":false,"through":false,"trigger":0,"walkAnime":true,"list":[{"code":101,"indent":0,"parameters":["Zirantian female2 emo",0,0,2]},{"code":401,"indent":0,"parameters":["\\C[1]Why the hell are there so many foreigners in this bar all of a sudden?"]},{"code":0,"indent":0,"parameters":[]}]},{"conditions":{"actorId":1,"actorValid":false,"itemId":1,"itemValid":false,"selfSwitchCh":"A","selfSwitchValid":false,"switch1Id":2099,"switch1Valid":true,"switch2Id":1,"switch2Valid":false,"variableId":1,"variableValid":false,"variableValue":0},"directionFix":false,"image":{"tileId":0,"characterName":"$Zirantian female2 char","direction":8,"pattern":1,"characterIndex":0},"moveFrequency":3,"moveRoute":{"list":[{"code":0,"indent":null,"parameters":[]}],"repeat":true,"skippable":false,"wait":false},"moveSpeed":3,"moveType":0,"priorityType":1,"stepAnime":false,"through":false,"trigger":0,"walkAnime":true,"list":[{"code":101,"indent":0,"parameters":["Zirantian female2 emo",5,0,2]},{"code":401,"indent":0,"parameters":["\\C[1]Let's just keep talking and hope they go away."]},{"code":0,"indent":0,"parameters":[]}]},{"conditions":{"actorId":1,"actorValid":false,"itemId":1,"itemValid":false,"selfSwitchCh":"A","selfSwitchValid":false,"switch1Id":3601,"switch1Valid":true,"switch2Id":1,"switch2Valid":false,"variableId":1,"variableValid":false,"variableValue":0},"directionFix":false,"image":{"tileId":0,"characterName":"$Zirantian female2 char","direction":8,"pattern":1,"characterIndex":0},"moveFrequency":3,"moveRoute":{"list":[{"code":0,"indent":null,"parameters":[]}],"repeat":true,"skippable":false,"wait":false},"moveSpeed":3,"moveType":0,"priorityType":1,"stepAnime":false,"through":false,"trigger":0,"walkAnime":true,"list":[{"code":101,"indent":0,"parameters":["Zirantian female2 emo",0,0,2]},{"code":401,"indent":0,"parameters":["\\C[1]I wish more foreigners would become Zirantian citizens instead of just wandering through and gawking."]},{"code":0,"indent":0,"parameters":[]}]}],"x":11,"y":8},
{"id":5,"name":"EV005","note":"","pages":[{"conditions":{"actorId":1,"actorValid":false,"itemId":1,"itemValid":false,"selfSwitchCh":"A","selfSwitchValid":false,"switch1Id":1343,"switch1Valid":false,"switch2Id":1,"switch2Valid":false,"variableId":1,"variableValid":false,"variableValue":0},"directionFix":false,"image":{"tileId":0,"characterName":"Zirantian males char","direction":6,"pattern":1,"characterIndex":0},"moveFrequency":3,"moveRoute":{"list":[{"code":0,"indent":null,"parameters":[]}],"repeat":true,"skippable":false,"wait":false},"moveSpeed":3,"moveType":0,"priorityType":1,"stepAnime":false,"through":false,"trigger":0,"walkAnime":true,"list":[{"code":101,"indent":0,"parameters":["Zirantian male1 emo",5,0,2]},{"code":401,"indent":0,"parameters":["Don't worry, females, we have a strict nonaggression policy in here."]},{"code":0,"indent":0,"parameters":[]}]},{"conditions":{"actorId":1,"actorValid":false,"itemId":1,"itemValid":false,"selfSwitchCh":"A","selfSwitchValid":false,"switch1Id":1433,"switch1Valid":true,"switch2Id":1,"switch2Valid":false,"variableId":1,"variableValid":false,"variableValue":0},"directionFix":false,"image":{"tileId":0,"characterName":"Zirantian males char","direction":6,"pattern":1,"characterIndex":0},"moveFrequency":3,"moveRoute":{"list":[{"code":0,"indent":null,"parameters":[]}],"repeat":true,"skippable":false,"wait":false},"moveSpeed":3,"moveType":0,"priorityType":1,"stepAnime":false,"through":false,"trigger":0,"walkAnime":true,"list":[{"code":101,"indent":0,"parameters":["Zirantian male1 emo",5,0,2]},{"code":401,"indent":0,"parameters":["Don't worry, foreigner, we have a strict nonaggression policy in here."]},{"code":0,"indent":0,"parameters":[]}]},{"conditions":{"actorId":1,"actorValid":false,"itemId":1,"itemValid":false,"selfSwitchCh":"A","selfSwitchValid":false,"switch1Id":2099,"switch1Valid":true,"switch2Id":1,"switch2Valid":false,"variableId":1,"variableValid":false,"variableValue":0},"directionFix":false,"image":{"tileId":0,"characterName":"Zirantian males char","direction":6,"pattern":1,"characterIndex":0},"moveFrequency":3,"moveRoute":{"list":[{"code":0,"indent":null,"parameters":[]}],"repeat":true,"skippable":false,"wait":false},"moveSpeed":3,"moveType":0,"priorityType":1,"stepAnime":false,"through":false,"trigger":0,"walkAnime":true,"list":[{"code":101,"indent":0,"parameters":["Zirantian male1 emo",5,0,2]},{"code":401,"indent":0,"parameters":["Don't worry, foreigners, we have a strict nonaggression policy in here."]},{"code":0,"indent":0,"parameters":[]}]},{"conditions":{"actorId":1,"actorValid":false,"itemId":1,"itemValid":false,"selfSwitchCh":"A","selfSwitchValid":false,"switch1Id":3601,"switch1Valid":true,"switch2Id":1,"switch2Valid":false,"variableId":1,"variableValid":false,"variableValue":0},"directionFix":false,"image":{"tileId":0,"characterName":"Zirantian males char","direction":6,"pattern":1,"characterIndex":0},"moveFrequency":3,"moveRoute":{"list":[{"code":0,"indent":null,"parameters":[]}],"repeat":true,"skippable":false,"wait":false},"moveSpeed":3,"moveType":0,"priorityType":1,"stepAnime":false,"through":false,"trigger":0,"walkAnime":true,"list":[{"code":101,"indent":0,"parameters":["Zirantian male1 emo",0,0,2]},{"code":401,"indent":0,"parameters":["They say there's supposed to be a non-aggression policy EVERYWHERE now. Am I out of a job?"]},{"code":0,"indent":0,"parameters":[]}]}],"x":8,"y":10},
{"id":6,"name":"EV006","note":"","pages":[{"conditions":{"actorId":1,"actorValid":false,"itemId":1,"itemValid":false,"selfSwitchCh":"A","selfSwitchValid":false,"switch1Id":1343,"switch1Valid":false,"switch2Id":1,"switch2Valid":false,"variableId":1,"variableValid":false,"variableValue":0},"directionFix":true,"image":{"tileId":0,"characterName":"$Zirantian female1 down","direction":6,"pattern":0,"characterIndex":0},"moveFrequency":3,"moveRoute":{"list":[{"code":0,"indent":null,"parameters":[]}],"repeat":true,"skippable":false,"wait":false},"moveSpeed":3,"moveType":0,"priorityType":1,"stepAnime":false,"through":false,"trigger":0,"walkAnime":true,"list":[{"code":213,"indent":0,"parameters":[0,10,false]},{"code":101,"indent":0,"parameters":["Hilstara emo",4,0,2]},{"code":401,"indent":0,"parameters":["The poor woman looks exhausted..."]},{"code":0,"indent":0,"parameters":[]}]},{"conditions":{"actorId":1,"actorValid":false,"itemId":1,"itemValid":false,"selfSwitchCh":"A","selfSwitchValid":false,"switch1Id":1433,"switch1Valid":true,"switch2Id":1,"switch2Valid":false,"variableId":1,"variableValid":false,"variableValue":0},"directionFix":true,"image":{"tileId":0,"characterName":"$Zirantian female1 down","direction":6,"pattern":0,"characterIndex":0},"moveFrequency":3,"moveRoute":{"list":[{"code":0,"indent":null,"parameters":[]}],"repeat":true,"skippable":false,"wait":false},"moveSpeed":3,"moveType":0,"priorityType":1,"stepAnime":false,"through":false,"trigger":0,"walkAnime":true,"list":[{"code":213,"indent":0,"parameters":[0,10,false]},{"code":101,"indent":0,"parameters":["Uyae emo",4,0,2]},{"code":401,"indent":0,"parameters":["\\C[1]I can only imagine the labors that must have drained this woman so..."]},{"code":0,"indent":0,"parameters":[]}]},{"conditions":{"actorId":1,"actorValid":false,"itemId":1,"itemValid":false,"selfSwitchCh":"A","selfSwitchValid":false,"switch1Id":2099,"switch1Valid":true,"switch2Id":1,"switch2Valid":false,"variableId":1,"variableValid":false,"variableValue":0},"directionFix":true,"image":{"tileId":0,"characterName":"$Zirantian female1 down","direction":6,"pattern":0,"characterIndex":0},"moveFrequency":3,"moveRoute":{"list":[{"code":0,"indent":null,"parameters":[]}],"repeat":true,"skippable":false,"wait":false},"moveSpeed":3,"moveType":0,"priorityType":1,"stepAnime":false,"through":false,"trigger":0,"walkAnime":true,"list":[{"code":213,"indent":0,"parameters":[0,10,false]},{"code":0,"indent":0,"parameters":[]}]}],"x":3,"y":10},
{"id":7,"name":"EV007","note":"","pages":[{"conditions":{"actorId":1,"actorValid":false,"itemId":1,"itemValid":false,"selfSwitchCh":"A","selfSwitchValid":false,"switch1Id":1343,"switch1Valid":false,"switch2Id":1,"switch2Valid":false,"variableId":1,"variableValid":false,"variableValue":0},"directionFix":true,"image":{"tileId":0,"characterName":"Zirantian males char","direction":2,"pattern":1,"characterIndex":1},"moveFrequency":3,"moveRoute":{"list":[{"code":0,"indent":null,"parameters":[]}],"repeat":true,"skippable":false,"wait":false},"moveSpeed":3,"moveType":0,"priorityType":1,"stepAnime":false,"through":false,"trigger":0,"walkAnime":true,"list":[{"code":101,"indent":0,"parameters":["Zirantian male1 emo",1,0,2]},{"code":401,"indent":0,"parameters":["\\C[1]Etta kaa?\\C[0]"]},{"code":302,"indent":0,"parameters":[0,10,0,0,true]},{"code":605,"indent":0,"parameters":[0,11,0,0]},{"code":605,"indent":0,"parameters":[0,12,0,0]},{"code":0,"indent":0,"parameters":[]}]},{"conditions":{"actorId":1,"actorValid":false,"itemId":1,"itemValid":false,"selfSwitchCh":"A","selfSwitchValid":false,"switch1Id":1390,"switch1Valid":true,"switch2Id":1,"switch2Valid":false,"variableId":1,"variableValid":false,"variableValue":0},"directionFix":true,"image":{"tileId":0,"characterName":"Zirantian males char","direction":2,"pattern":1,"characterIndex":1},"moveFrequency":3,"moveRoute":{"list":[{"code":0,"indent":null,"parameters":[]}],"repeat":true,"skippable":false,"wait":false},"moveSpeed":3,"moveType":0,"priorityType":1,"stepAnime":false,"through":false,"trigger":0,"walkAnime":true,"list":[{"code":101,"indent":0,"parameters":["Zirantian male1 emo",1,0,2]},{"code":401,"indent":0,"parameters":["\\C[1]Etta kaa?\\C[0]"]},{"code":101,"indent":0,"parameters":["Z Fuani emo",6,0,2]},{"code":401,"indent":0,"parameters":["\\C[1]Den, aliiv kaa.\\C[0]"]},{"code":213,"indent":0,"parameters":[0,2,true]},{"code":221,"indent":0,"parameters":[]},{"code":201,"indent":0,"parameters":[0,351,5,9,2,0]},{"code":230,"indent":0,"parameters":[60]},{"code":222,"indent":0,"parameters":[]},{"code":213,"indent":0,"parameters":[0,4,true]},{"code":101,"indent":0,"parameters":["Z Fuani emo",0,0,2]},{"code":401,"indent":0,"parameters":["Here you go."]},{"code":101,"indent":0,"parameters":["Hilstara emo",0,0,2]},{"code":401,"indent":0,"parameters":["What are all these?"]},{"code":101,"indent":0,"parameters":["Z Fuani emo",0,0,2]},{"code":401,"indent":0,"parameters":["Those illegal potions I was able to acquire. I was surprised how easy it was."]},{"code":101,"indent":0,"parameters":["Z Fuani emo",7,0,2]},{"code":401,"indent":0,"parameters":["Then again, I think the bartender was rather excited about a large group of females approaching and saying they wanted to go into heat."]},{"code":101,"indent":0,"parameters":["Yarra emo2",0,0,2]},{"code":401,"indent":0,"parameters":["Haha, I understand that. Good work, Fuani!"]},{"code":101,"indent":0,"parameters":["Z Fuani emo",6,0,2]},{"code":401,"indent":0,"parameters":["Are... are you going to test all those on me?"]},{"code":101,"indent":0,"parameters":["Yarra emo2",6,0,2]},{"code":401,"indent":0,"parameters":["Do you want me to?"]},{"code":101,"indent":0,"parameters":["Z Fuani emo",1,0,2]},{"code":401,"indent":0,"parameters":["As pleasant as being with you is, I don't want to come all the time."]},{"code":101,"indent":0,"parameters":["Qum D'umpe emo",4,0,2]},{"code":401,"indent":0,"parameters":["Cumdump is confused."]},{"code":101,"indent":0,"parameters":["Yarra emo2",0,0,2]},{"code":401,"indent":0,"parameters":["Don't worry, I can probably test most just by tasting them. The only test we really need is a final one."]},{"code":101,"indent":0,"parameters":["Z Fuani emo",2,0,2]},{"code":401,"indent":0,"parameters":["Then I will look forward to that."]},{"code":101,"indent":0,"parameters":["Hilstara emo",0,0,2]},{"code":401,"indent":0,"parameters":["Let's get back to the palace."]},{"code":121,"indent":0,"parameters":[1402,1402,0]},{"code":123,"indent":0,"parameters":["A",0]},{"code":0,"indent":0,"parameters":[]}]},{"conditions":{"actorId":1,"actorValid":false,"itemId":1,"itemValid":false,"selfSwitchCh":"A","selfSwitchValid":true,"switch1Id":1343,"switch1Valid":false,"switch2Id":1,"switch2Valid":false,"variableId":1,"variableValid":false,"variableValue":0},"directionFix":true,"image":{"tileId":0,"characterName":"Zirantian males char","direction":2,"pattern":1,"characterIndex":1},"moveFrequency":3,"moveRoute":{"list":[{"code":0,"indent":null,"parameters":[]}],"repeat":true,"skippable":false,"wait":false},"moveSpeed":3,"moveType":0,"priorityType":1,"stepAnime":false,"through":false,"trigger":0,"walkAnime":true,"list":[{"code":101,"indent":0,"parameters":["Zirantian male1 emo",1,0,2]},{"code":401,"indent":0,"parameters":["\\C[1]Etta kaa?\\C[0]"]},{"code":302,"indent":0,"parameters":[0,10,0,0,true]},{"code":605,"indent":0,"parameters":[0,11,0,0]},{"code":605,"indent":0,"parameters":[0,12,0,0]},{"code":0,"indent":0,"parameters":[]}]},{"conditions":{"actorId":1,"actorValid":false,"itemId":1,"itemValid":false,"selfSwitchCh":"A","selfSwitchValid":false,"switch1Id":1433,"switch1Valid":true,"switch2Id":1,"switch2Valid":false,"variableId":1,"variableValid":false,"variableValue":0},"directionFix":true,"image":{"tileId":0,"characterName":"Zirantian males char","direction":2,"pattern":1,"characterIndex":1},"moveFrequency":3,"moveRoute":{"list":[{"code":0,"indent":null,"parameters":[]}],"repeat":true,"skippable":false,"wait":false},"moveSpeed":3,"moveType":0,"priorityType":1,"stepAnime":false,"through":false,"trigger":0,"walkAnime":true,"list":[{"code":101,"indent":0,"parameters":["Zirantian male1 emo",1,0,2]},{"code":401,"indent":0,"parameters":["\\C[1]What'll you have?\\C[0]"]},{"code":302,"indent":0,"parameters":[0,10,0,0,true]},{"code":605,"indent":0,"parameters":[0,11,0,0]},{"code":605,"indent":0,"parameters":[0,12,0,0]},{"code":0,"indent":0,"parameters":[]}]},{"conditions":{"actorId":1,"actorValid":false,"itemId":1,"itemValid":false,"selfSwitchCh":"A","selfSwitchValid":false,"switch1Id":2099,"switch1Valid":true,"switch2Id":1,"switch2Valid":false,"variableId":1,"variableValid":false,"variableValue":0},"directionFix":true,"image":{"tileId":0,"characterName":"Zirantian males char","direction":2,"pattern":1,"characterIndex":1},"moveFrequency":3,"moveRoute":{"list":[{"code":0,"indent":null,"parameters":[]}],"repeat":true,"skippable":false,"wait":false},"moveSpeed":3,"moveType":0,"priorityType":1,"stepAnime":false,"through":false,"trigger":0,"walkAnime":true,"list":[{"code":101,"indent":0,"parameters":["Zirantian male1 emo",1,0,2]},{"code":401,"indent":0,"parameters":["\\C[1]What'll you have?\\C[0]"]},{"code":302,"indent":0,"parameters":[0,10,0,0,true]},{"code":605,"indent":0,"parameters":[0,11,0,0]},{"code":605,"indent":0,"parameters":[0,12,0,0]},{"code":0,"indent":0,"parameters":[]}]},{"conditions":{"actorId":1,"actorValid":false,"itemId":1,"itemValid":false,"selfSwitchCh":"A","selfSwitchValid":false,"switch1Id":3601,"switch1Valid":true,"switch2Id":1,"switch2Valid":false,"variableId":1,"variableValid":false,"variableValue":0},"directionFix":true,"image":{"tileId":0,"characterName":"Zirantian males char","direction":2,"pattern":1,"characterIndex":1},"moveFrequency":3,"moveRoute":{"list":[{"code":0,"indent":null,"parameters":[]}],"repeat":true,"skippable":false,"wait":false},"moveSpeed":3,"moveType":0,"priorityType":1,"stepAnime":false,"through":false,"trigger":0,"walkAnime":true,"list":[{"code":111,"indent":0,"parameters":[0,1468,0]},{"code":101,"indent":1,"parameters":["Zirantian male1 emo",6,0,2]},{"code":401,"indent":1,"parameters":["\\C[1]We have lots of great new stuff from outside Zirantia! What'll you have?\\C[0]"]},{"code":302,"indent":1,"parameters":[0,10,0,0,true]},{"code":605,"indent":1,"parameters":[0,11,0,0]},{"code":605,"indent":1,"parameters":[0,12,0,0]},{"code":605,"indent":1,"parameters":[0,13,0,0]},{"code":605,"indent":1,"parameters":[0,14,0,0]},{"code":605,"indent":1,"parameters":[0,25,0,0]},{"code":0,"indent":1,"parameters":[]},{"code":411,"indent":0,"parameters":[]},{"code":101,"indent":1,"parameters":["Zirantian male1 emo",0,0,2]},{"code":401,"indent":1,"parameters":["\\C[1]They're restricting our imports these days, but we still have our old standbys...,"]},{"code":302,"indent":1,"parameters":[0,10,0,0,true]},{"code":605,"indent":1,"parameters":[0,11,0,0]},{"code":605,"indent":1,"parameters":[0,12,0,0]},{"code":0,"indent":1,"parameters":[]},{"code":412,"indent":0,"parameters":[]},{"code":0,"indent":0,"parameters":[]}]}],"x":5,"y":6},
{"id":8,"name":"EV008","note":"","pages":[{"conditions":{"actorId":1,"actorValid":false,"itemId":1,"itemValid":false,"selfSwitchCh":"A","selfSwitchValid":false,"switch1Id":1,"switch1Valid":false,"switch2Id":1,"switch2Valid":false,"variableId":1,"variableValid":false,"variableValue":0},"directionFix":false,"image":{"tileId":0,"characterName":"$Z Zirantian captain char","direction":8,"pattern":1,"characterIndex":0},"moveFrequency":3,"moveRoute":{"list":[{"code":0,"indent":null,"parameters":[]}],"repeat":true,"skippable":false,"wait":false},"moveSpeed":3,"moveType":0,"priorityType":1,"stepAnime":false,"through":false,"trigger":0,"walkAnime":true,"list":[{"code":101,"indent":0,"parameters":["Z Zirantian soldier emo",7,0,2]},{"code":401,"indent":0,"parameters":["...not here to talk, even to females as impressive as you."]},{"code":0,"indent":0,"parameters":[]}]},{"conditions":{"actorId":1,"actorValid":false,"itemId":1,"itemValid":false,"selfSwitchCh":"A","selfSwitchValid":false,"switch1Id":1433,"switch1Valid":true,"switch2Id":1,"switch2Valid":false,"variableId":1,"variableValid":false,"variableValue":0},"directionFix":false,"image":{"tileId":0,"characterName":"$Z Zirantian captain char","direction":8,"pattern":1,"characterIndex":0},"moveFrequency":3,"moveRoute":{"list":[{"code":0,"indent":null,"parameters":[]}],"repeat":true,"skippable":false,"wait":false},"moveSpeed":3,"moveType":0,"priorityType":1,"stepAnime":false,"through":false,"trigger":0,"walkAnime":true,"list":[{"code":101,"indent":0,"parameters":["Z Zirantian soldier emo",6,0,2]},{"code":401,"indent":0,"parameters":["...out of my face, foreign male."]},{"code":0,"indent":0,"parameters":[]}]},{"conditions":{"actorId":1,"actorValid":false,"itemId":1,"itemValid":false,"selfSwitchCh":"A","selfSwitchValid":false,"switch1Id":2099,"switch1Valid":true,"switch2Id":1,"switch2Valid":false,"variableId":1,"variableValid":false,"variableValue":0},"directionFix":false,"image":{"tileId":0,"characterName":"$Z Zirantian captain char","direction":8,"pattern":1,"characterIndex":0},"moveFrequency":3,"moveRoute":{"list":[{"code":0,"indent":null,"parameters":[]}],"repeat":true,"skippable":false,"wait":false},"moveSpeed":3,"moveType":0,"priorityType":1,"stepAnime":false,"through":false,"trigger":0,"walkAnime":true,"list":[{"code":101,"indent":0,"parameters":["Z Zirantian soldier emo",6,0,2]},{"code":401,"indent":0,"parameters":["I'm not here to talk! Leave me alone!"]},{"code":0,"indent":0,"parameters":[]}]},{"conditions":{"actorId":1,"actorValid":false,"itemId":1,"itemValid":false,"selfSwitchCh":"A","selfSwitchValid":false,"switch1Id":3601,"switch1Valid":true,"switch2Id":1,"switch2Valid":false,"variableId":1,"variableValid":false,"variableValue":0},"directionFix":false,"image":{"tileId":0,"characterName":"$Z Zirantian captain char","direction":8,"pattern":1,"characterIndex":0},"moveFrequency":3,"moveRoute":{"list":[{"code":0,"indent":null,"parameters":[]}],"repeat":true,"skippable":false,"wait":false},"moveSpeed":3,"moveType":0,"priorityType":1,"stepAnime":false,"through":false,"trigger":0,"walkAnime":true,"list":[{"code":101,"indent":0,"parameters":["Z Zirantian soldier emo",7,0,2]},{"code":401,"indent":0,"parameters":["I can't say I like what the New Unionist Party is doing with the country, but they're all we have..."]},{"code":0,"indent":0,"parameters":[]}]}],"x":14,"y":10},
{"id":9,"name":"EV009","note":"","pages":[{"conditions":{"actorId":1,"actorValid":false,"itemId":1,"itemValid":false,"selfSwitchCh":"A","selfSwitchValid":false,"switch1Id":1390,"switch1Valid":true,"switch2Id":1,"switch2Valid":false,"variableId":1,"variableValid":false,"variableValue":0},"directionFix":false,"image":{"tileId":0,"characterName":"","direction":2,"pattern":0,"characterIndex":0},"moveFrequency":3,"moveRoute":{"list":[{"code":0,"indent":null,"parameters":[]}],"repeat":true,"skippable":false,"wait":false},"moveSpeed":3,"moveType":0,"priorityType":0,"stepAnime":false,"through":false,"trigger":3,"walkAnime":true,"list":[{"code":101,"indent":0,"parameters":["Hilstara emo",0,0,2]},{"code":401,"indent":0,"parameters":["This is the place Fuani advised, but I think we need to admit that we're not the best suited for investigating."]},{"code":101,"indent":0,"parameters":["Yarra emo",0,0,2]},{"code":401,"indent":0,"parameters":["Yeah, I can imagine they'd be nervous about a bunch of succubi asking how to send Zirantians into heat."]},{"code":101,"indent":0,"parameters":["Yarra emo",5,0,2]},{"code":401,"indent":0,"parameters":["What if we let Fuani speak for us while we're under illusions?"]},{"code":101,"indent":0,"parameters":["Hilstara emo",0,0,2]},{"code":401,"indent":0,"parameters":["Sounds like a good plan to me."]},{"code":123,"indent":0,"parameters":["A",0]},{"code":0,"indent":0,"parameters":[]}]},{"conditions":{"actorId":1,"actorValid":false,"itemId":1,"itemValid":false,"selfSwitchCh":"A","selfSwitchValid":true,"switch1Id":1,"switch1Valid":false,"switch2Id":1,"switch2Valid":false,"variableId":1,"variableValid":false,"variableValue":0},"directionFix":false,"image":{"tileId":0,"characterName":"","direction":2,"pattern":0,"characterIndex":0},"moveFrequency":3,"moveRoute":{"list":[{"code":0,"indent":null,"parameters":[]}],"repeat":true,"skippable":false,"wait":false},"moveSpeed":3,"moveType":0,"priorityType":0,"stepAnime":false,"through":false,"trigger":0,"walkAnime":true,"list":[{"code":0,"indent":0,"parameters":[]}]},{"conditions":{"actorId":1,"actorValid":false,"itemId":1,"itemValid":false,"selfSwitchCh":"A","selfSwitchValid":false,"switch1Id":2099,"switch1Valid":true,"switch2Id":1,"switch2Valid":false,"variableId":1,"variableValid":false,"variableValue":0},"directionFix":false,"image":{"tileId":0,"characterName":"","direction":2,"pattern":0,"characterIndex":0},"moveFrequency":3,"moveRoute":{"list":[{"code":0,"indent":null,"parameters":[]}],"repeat":true,"skippable":false,"wait":false},"moveSpeed":3,"moveType":0,"priorityType":0,"stepAnime":false,"through":false,"trigger":0,"walkAnime":true,"list":[{"code":0,"indent":0,"parameters":[]}]}],"x":0,"y":0},
{"id":10,"name":"EV010","note":"","pages":[{"conditions":{"actorId":1,"actorValid":false,"itemId":1,"itemValid":false,"selfSwitchCh":"A","selfSwitchValid":false,"switch1Id":1433,"switch1Valid":true,"switch2Id":1,"switch2Valid":false,"variableId":1,"variableValid":false,"variableValue":0},"directionFix":false,"image":{"tileId":0,"characterName":"","direction":2,"pattern":0,"characterIndex":0},"moveFrequency":3,"moveRoute":{"list":[{"code":0,"indent":null,"parameters":[]}],"repeat":true,"skippable":false,"wait":false},"moveSpeed":3,"moveType":0,"priorityType":0,"stepAnime":false,"through":false,"trigger":3,"walkAnime":true,"list":[{"code":101,"indent":0,"parameters":["Uyae emo",5,0,2]},{"code":401,"indent":0,"parameters":["\\C[1]When I was at my lowest point, I had no choice but to sleep here during the day and defend myself at night."]},{"code":101,"indent":0,"parameters":["1 Simon dark",0,0,2]},{"code":401,"indent":0,"parameters":["\\C[1]I'm sorry to hear you had to endure that."]},{"code":101,"indent":0,"parameters":["Uyae emo",4,0,2]},{"code":401,"indent":0,"parameters":["\\C[1]Nay, the fault is mine own, for being so unable to deal with the world as it actually is."]},{"code":101,"indent":0,"parameters":["Uyae emo",0,0,2]},{"code":401,"indent":0,"parameters":["\\C[1]But I did not mean to speak of myself. I meant to warn thee that the bartender is a known supporter of the People's Action Party."]},{"code":101,"indent":0,"parameters":["1 Simon dark",0,0,2]},{"code":401,"indent":0,"parameters":["\\C[1]We'll watch what we say around him, then."]},{"code":122,"indent":0,"parameters":[143,143,1,0,2]},{"code":122,"indent":0,"parameters":[168,168,1,0,1]},{"code":123,"indent":0,"parameters":["A",0]},{"code":0,"indent":0,"parameters":[]}]},{"conditions":{"actorId":1,"actorValid":false,"itemId":1,"itemValid":false,"selfSwitchCh":"A","selfSwitchValid":true,"switch1Id":1,"switch1Valid":false,"switch2Id":1,"switch2Valid":false,"variableId":1,"variableValid":false,"variableValue":0},"directionFix":false,"image":{"tileId":0,"characterName":"","direction":2,"pattern":0,"characterIndex":0},"moveFrequency":3,"moveRoute":{"list":[{"code":0,"indent":null,"parameters":[]}],"repeat":true,"skippable":false,"wait":false},"moveSpeed":3,"moveType":0,"priorityType":0,"stepAnime":false,"through":false,"trigger":0,"walkAnime":true,"list":[{"code":0,"indent":0,"parameters":[]}]},{"conditions":{"actorId":1,"actorValid":false,"itemId":1,"itemValid":false,"selfSwitchCh":"A","selfSwitchValid":false,"switch1Id":2099,"switch1Valid":true,"switch2Id":1,"switch2Valid":false,"variableId":1,"variableValid":false,"variableValue":0},"directionFix":false,"image":{"tileId":0,"characterName":"","direction":2,"pattern":0,"characterIndex":0},"moveFrequency":3,"moveRoute":{"list":[{"code":0,"indent":null,"parameters":[]}],"repeat":true,"skippable":false,"wait":false},"moveSpeed":3,"moveType":0,"priorityType":0,"stepAnime":false,"through":false,"trigger":0,"walkAnime":true,"list":[{"code":0,"indent":0,"parameters":[]}]}],"x":1,"y":0},
{"id":11,"name":"EV011","note":"","pages":[{"conditions":{"actorId":1,"actorValid":false,"itemId":1,"itemValid":false,"selfSwitchCh":"A","selfSwitchValid":false,"switch1Id":2308,"switch1Valid":true,"switch2Id":1,"switch2Valid":false,"variableId":1,"variableValid":false,"variableValue":0},"directionFix":false,"image":{"tileId":0,"characterName":"","direction":2,"pattern":1,"characterIndex":0},"moveFrequency":3,"moveRoute":{"list":[{"code":0,"indent":null,"parameters":[]}],"repeat":true,"skippable":false,"wait":false},"moveSpeed":3,"moveType":0,"priorityType":0,"stepAnime":false,"through":false,"trigger":3,"walkAnime":true,"list":[{"code":122,"indent":0,"parameters":[224,224,1,0,1]},{"code":101,"indent":0,"parameters":["Orcent",2,0,2]},{"code":401,"indent":0,"parameters":["Uyae... \\C[1]Could we drink and talk?"]},{"code":101,"indent":0,"parameters":["Uyae emo",3,0,2]},{"code":401,"indent":0,"parameters":["\\C[1]Ah!"]},{"code":101,"indent":0,"parameters":["Uyae emo",1,0,2]},{"code":401,"indent":0,"parameters":["\\C[1]I am impressed by how much thou hast learnt!"]},{"code":101,"indent":0,"parameters":["Uyae emo",0,0,2]},{"code":401,"indent":0,"parameters":["\\C[1]But... I would fear being overheard or found out..."]},{"code":101,"indent":0,"parameters":["Orcent",2,0,2]},{"code":401,"indent":0,"parameters":["\\C[1]I think Yarra... \\C[0]Yarra, are we protected by auditory illusions?"]},{"code":101,"indent":0,"parameters":["Yarra emo2",0,0,2]},{"code":401,"indent":0,"parameters":["Oh, you bet!"]},{"code":101,"indent":0,"parameters":["Robin blond emo",0,0,2]},{"code":401,"indent":0,"parameters":["Also general privacy spells. We discuss some important matters we wouldn't want overheard."]},{"code":101,"indent":0,"parameters":["Uyae emo",1,0,2]},{"code":401,"indent":0,"parameters":["In that case, we can truly have a private conversation in Zirantian!"]},{"code":101,"indent":0,"parameters":["Uyae emo",6,0,2]},{"code":401,"indent":0,"parameters":["\\C[1]Though I would be happy to speak with thee regardless..."]},{"code":221,"indent":0,"parameters":[]},{"code":230,"indent":0,"parameters":[60]},{"code":222,"indent":0,"parameters":[]},{"code":101,"indent":0,"parameters":["Orcent",2,0,2]},{"code":401,"indent":0,"parameters":["Sorry that I could not speak of truly complex matters."]},{"code":101,"indent":0,"parameters":["Uyae emo",1,0,2]},{"code":401,"indent":0,"parameters":["Nay, it was quite enjoyable."]},{"code":101,"indent":0,"parameters":["Uyae emo",6,0,2]},{"code":401,"indent":0,"parameters":["Perhaps I can join you and Simon sometime!"]},{"code":123,"indent":0,"parameters":["A",0]},{"code":0,"indent":0,"parameters":[]}]},{"conditions":{"actorId":1,"actorValid":false,"itemId":1,"itemValid":false,"selfSwitchCh":"A","selfSwitchValid":true,"switch1Id":1,"switch1Valid":false,"switch2Id":1,"switch2Valid":false,"variableId":1,"variableValid":false,"variableValue":0},"directionFix":false,"image":{"tileId":0,"characterName":"","direction":2,"pattern":0,"characterIndex":0},"moveFrequency":3,"moveRoute":{"list":[{"code":0,"indent":null,"parameters":[]}],"repeat":true,"skippable":false,"wait":false},"moveSpeed":3,"moveType":0,"priorityType":0,"stepAnime":false,"through":false,"trigger":0,"walkAnime":true,"list":[{"code":0,"indent":0,"parameters":[]}]}],"x":2,"y":0},
{"id":12,"name":"Varia","note":"","pages":[{"conditions":{"actorId":1,"actorValid":false,"itemId":1,"itemValid":false,"selfSwitchCh":"A","selfSwitchValid":false,"switch1Id":3294,"switch1Valid":true,"switch2Id":264,"switch2Valid":false,"variableId":1,"variableValid":false,"variableValue":0},"directionFix":false,"image":{"tileId":0,"characterName":"Varia char","direction":4,"pattern":1,"characterIndex":0},"moveFrequency":3,"moveRoute":{"list":[{"code":0,"indent":null,"parameters":[]}],"repeat":true,"skippable":false,"wait":false},"moveSpeed":3,"moveType":0,"priorityType":1,"stepAnime":false,"through":false,"trigger":0,"walkAnime":true,"list":[{"code":0,"indent":0,"parameters":[]}]}],"x":8,"y":6},
{"id":13,"name":"Uyae","note":"","pages":[{"conditions":{"actorId":1,"actorValid":false,"itemId":1,"itemValid":false,"selfSwitchCh":"A","selfSwitchValid":false,"switch1Id":3294,"switch1Valid":true,"switch2Id":264,"switch2Valid":false,"variableId":1,"variableValid":false,"variableValue":0},"directionFix":false,"image":{"tileId":0,"characterName":"$Uyae char","direction":4,"pattern":1,"characterIndex":0},"moveFrequency":3,"moveRoute":{"list":[{"code":0,"indent":null,"parameters":[]}],"repeat":true,"skippable":false,"wait":false},"moveSpeed":3,"moveType":0,"priorityType":1,"stepAnime":false,"through":false,"trigger":0,"walkAnime":true,"list":[{"code":0,"indent":0,"parameters":[]}]}],"x":8,"y":5},
{"id":14,"name":"Varia","note":"","pages":[{"conditions":{"actorId":1,"actorValid":false,"itemId":1,"itemValid":false,"selfSwitchCh":"A","selfSwitchValid":false,"switch1Id":3281,"switch1Valid":true,"switch2Id":264,"switch2Valid":true,"variableId":1,"variableValid":false,"variableValue":0},"directionFix":false,"image":{"tileId":0,"characterName":"Varia char","direction":8,"pattern":1,"characterIndex":0},"moveFrequency":3,"moveRoute":{"list":[{"code":0,"indent":null,"parameters":[]}],"repeat":true,"skippable":false,"wait":false},"moveSpeed":3,"moveType":0,"priorityType":1,"stepAnime":false,"through":false,"trigger":0,"walkAnime":true,"list":[{"code":122,"indent":0,"parameters":[123,123,1,0,2]},{"code":122,"indent":0,"parameters":[143,143,1,0,5]},{"code":121,"indent":0,"parameters":[3295,3295,0]},{"code":101,"indent":0,"parameters":["Uyae emo",0,0,2]},{"code":401,"indent":0,"parameters":["Varia? What are you doing here?"]},{"code":101,"indent":0,"parameters":["Varia emo",7,0,2]},{"code":401,"indent":0,"parameters":["Eh? Sorry, I was just getting away for a drink. Trying to take my mind off things."]},{"code":101,"indent":0,"parameters":["Uyae emo",0,0,2]},{"code":401,"indent":0,"parameters":["Ah... are you troubled?"]},{"code":101,"indent":0,"parameters":["Varia emo",0,0,2]},{"code":401,"indent":0,"parameters":["Sorry to be drinking on your turf here. I'll head out."]},{"code":101,"indent":0,"parameters":["Uyae emo",1,0,2]},{"code":401,"indent":0,"parameters":["I am not upset. And this is not my \"turf\" - I am not very good at drinking."]},{"code":101,"indent":0,"parameters":["Varia emo",7,0,2]},{"code":401,"indent":0,"parameters":["Eh? Even after you traveled all around Arclent? That's no good."]},{"code":111,"indent":0,"parameters":[12,"$gameSelfSwitches.value([351, 11, \"A\"])"]},{"code":101,"indent":1,"parameters":["Uyae emo",0,0,2]},{"code":401,"indent":1,"parameters":["Actually, the only time I have taken drink here is with Orcent, just recently."]},{"code":0,"indent":1,"parameters":[]},{"code":411,"indent":0,"parameters":[]},{"code":101,"indent":1,"parameters":["Uyae emo",0,0,2]},{"code":401,"indent":1,"parameters":["Actually, I have never had cause to take drink here."]},{"code":0,"indent":1,"parameters":[]},{"code":412,"indent":0,"parameters":[]},{"code":101,"indent":0,"parameters":["Uyae emo",1,0,2]},{"code":401,"indent":0,"parameters":["You seem familiar with such things. Would you teach me?"]},{"code":101,"indent":0,"parameters":["Varia emo",1,0,2]},{"code":401,"indent":0,"parameters":["Sure, why not?"]},{"code":221,"indent":0,"parameters":[]},{"code":201,"indent":0,"parameters":[0,351,8,6,0,0]},{"code":121,"indent":0,"parameters":[3294,3294,0]},{"code":205,"indent":0,"parameters":[-1,{"list":[{"code":39,"indent":null,"parameters":[]},{"code":0,"indent":null,"parameters":[]}],"repeat":false,"skippable":false,"wait":true}]},{"code":505,"indent":0,"parameters":[{"code":39,"indent":null,"parameters":[]}]},{"code":222,"indent":0,"parameters":[]},{"code":101,"indent":0,"parameters":["Uyae emo",6,0,2]},{"code":401,"indent":0,"parameters":["Haha, and then what did you do?"]},{"code":101,"indent":0,"parameters":["Varia emo",6,0,2]},{"code":401,"indent":0,"parameters":["Knife straight through his boot."]},{"code":101,"indent":0,"parameters":["Uyae emo",6,0,2]},{"code":401,"indent":0,"parameters":["What a delightful story! They did not attempt to attack you further?"]},{"code":101,"indent":0,"parameters":["Varia emo",1,0,2]},{"code":401,"indent":0,"parameters":["They tried, but they used crossbows, so my luck took care of it."]},{"code":101,"indent":0,"parameters":["Uyae emo",1,0,2]},{"code":401,"indent":0,"parameters":["I am glad that your luck can be a benefit as well as a curse."]},{"code":101,"indent":0,"parameters":["Varia emo",4,0,2]},{"code":401,"indent":0,"parameters":["..."]},{"code":101,"indent":0,"parameters":["Uyae emo",4,0,2]},{"code":401,"indent":0,"parameters":["Did I say the wrong thing?"]},{"code":101,"indent":0,"parameters":["Varia emo",1,0,2]},{"code":401,"indent":0,"parameters":["Nah, yer fine. Actually, it's nice to be able to tell some old stories like this."]},{"code":101,"indent":0,"parameters":["Varia emo",5,0,2]},{"code":401,"indent":0,"parameters":["I avoided your question earlier. Truth is, all this destiny shit is getting heavy for me. I wanted to get wasted."]},{"code":101,"indent":0,"parameters":["Uyae emo",0,0,2]},{"code":401,"indent":0,"parameters":["Oh... I see. I have not done such things."]},{"code":101,"indent":0,"parameters":["Uyae emo",0,0,2]},{"code":401,"indent":0,"parameters":["Could... perhaps we could become \"wasted\" together?"]},{"code":101,"indent":0,"parameters":["Varia emo",1,0,2]},{"code":401,"indent":0,"parameters":["Nah, that's a shitty way of dealing with your problems. Better to just get a little tipsy with friends and have some fun."]},{"code":101,"indent":0,"parameters":["Uyae emo",6,0,2]},{"code":401,"indent":0,"parameters":["I am already tipsy!"]},{"code":221,"indent":0,"parameters":[]},{"code":230,"indent":0,"parameters":[60]},{"code":101,"indent":0,"parameters":["Uyae emo",1,0,2]},{"code":401,"indent":0,"parameters":["I feel tingly and floaty. It is quite pleasant."]},{"code":101,"indent":0,"parameters":["Varia emo",1,0,2]},{"code":401,"indent":0,"parameters":["Haha, you're about the nicest drunk I've ever met."]},{"code":101,"indent":0,"parameters":["Uyae emo",1,0,2]},{"code":401,"indent":0,"parameters":["I do not wish to become truly drunk, however. What fun might we have next?"]},{"code":101,"indent":0,"parameters":["Varia emo",5,0,2]},{"code":401,"indent":0,"parameters":["Well... usually I'd pick a man to fuck until I passed out. But now..."]},{"code":101,"indent":0,"parameters":["Uyae emo",1,0,2]},{"code":401,"indent":0,"parameters":["We have a mate, do we not?"]},{"code":101,"indent":0,"parameters":["Varia emo",6,0,2]},{"code":401,"indent":0,"parameters":["Heh, you're wilder than you look."]},{"code":117,"indent":0,"parameters":[330]},{"code":356,"indent":0,"parameters":["AddCommonEventMenu 330"]},{"code":101,"indent":0,"parameters":["Uyae emo",6,0,2]},{"code":401,"indent":0,"parameters":["Getting wasted is quite lovely. What next?"]},{"code":101,"indent":0,"parameters":["Varia emo",4,0,2]},{"code":401,"indent":0,"parameters":["Well... usually pass out and hope my luck didn't carry me through this time."]},{"code":101,"indent":0,"parameters":["Uyae emo",4,0,2]},{"code":401,"indent":0,"parameters":["Ah."]},{"code":101,"indent":0,"parameters":["Varia emo",1,0,2]},{"code":401,"indent":0,"parameters":["But this time, I don't feel like doing that. Tonight was fun. Thank you, Uyae."]},{"code":101,"indent":0,"parameters":["Uyae emo",6,0,2]},{"code":401,"indent":0,"parameters":["You are most welcome! I enjoyed it as well."]},{"code":101,"indent":0,"parameters":["Uyae emo",1,0,2]},{"code":401,"indent":0,"parameters":["But... I am not sure how well I can walk after our festivities."]},{"code":101,"indent":0,"parameters":["1 Simon dark",1,0,2]},{"code":401,"indent":0,"parameters":["I'll take you home."]},{"code":101,"indent":0,"parameters":["Varia emo",6,0,2]},{"code":401,"indent":0,"parameters":["Way better than picking up random men..."]},{"code":201,"indent":0,"parameters":[0,347,25,30,2,0]},{"code":121,"indent":0,"parameters":[3294,3294,1]},{"code":205,"indent":0,"parameters":[-1,{"list":[{"code":40,"indent":null,"parameters":[]},{"code":0,"indent":null,"parameters":[]}],"repeat":false,"skippable":false,"wait":true}]},{"code":505,"indent":0,"parameters":[{"code":40,"indent":null,"parameters":[]}]},{"code":222,"indent":0,"parameters":[]},{"code":123,"indent":0,"parameters":["A",0]},{"code":0,"indent":0,"parameters":[]}]},{"conditions":{"actorId":1,"actorValid":false,"itemId":1,"itemValid":false,"selfSwitchCh":"A","selfSwitchValid":false,"switch1Id":3294,"switch1Valid":true,"switch2Id":1,"switch2Valid":false,"variableId":1,"variableValid":false,"variableValue":0},"directionFix":false,"image":{"tileId":0,"characterName":"","direction":2,"pattern":0,"characterIndex":0},"moveFrequency":3,"moveRoute":{"list":[{"code":0,"indent":null,"parameters":[]}],"repeat":true,"skippable":false,"wait":false},"moveSpeed":3,"moveType":0,"priorityType":0,"stepAnime":false,"through":false,"trigger":0,"walkAnime":true,"list":[{"code":0,"indent":0,"parameters":[]}]},{"conditions":{"actorId":1,"actorValid":false,"itemId":1,"itemValid":false,"selfSwitchCh":"A","selfSwitchValid":true,"switch1Id":1,"switch1Valid":false,"switch2Id":1,"switch2Valid":false,"variableId":1,"variableValid":false,"variableValue":0},"directionFix":false,"image":{"tileId":0,"characterName":"","direction":2,"pattern":0,"characterIndex":0},"moveFrequency":3,"moveRoute":{"list":[{"code":0,"indent":null,"parameters":[]}],"repeat":true,"skippable":false,"wait":false},"moveSpeed":3,"moveType":0,"priorityType":0,"stepAnime":false,"through":false,"trigger":0,"walkAnime":true,"list":[{"code":0,"indent":0,"parameters":[]}]},{"conditions":{"actorId":1,"actorValid":false,"itemId":1,"itemValid":false,"selfSwitchCh":"A","selfSwitchValid":false,"switch1Id":3601,"switch1Valid":true,"switch2Id":1,"switch2Valid":false,"variableId":1,"variableValid":false,"variableValue":0},"directionFix":false,"image":{"tileId":0,"characterName":"","direction":2,"pattern":0,"characterIndex":0},"moveFrequency":3,"moveRoute":{"list":[{"code":0,"indent":null,"parameters":[]}],"repeat":true,"skippable":false,"wait":false},"moveSpeed":3,"moveType":0,"priorityType":0,"stepAnime":false,"through":false,"trigger":0,"walkAnime":true,"list":[{"code":0,"indent":0,"parameters":[]}]}],"x":6,"y":8}
]
}