{
"autoplayBgm":false,"autoplayBgs":false,"battleback1Name":"Wood2","battleback2Name":"Room2","bgm":{"name":"","pan":0,"pitch":100,"volume":100},"bgs":{"name":"","pan":0,"pitch":100,"volume":80},"disableDashing":false,"displayName":"House of Petitions Branch Office","encounterList":[],"encounterStep":30,"height":15,"note":"","parallaxLoopX":false,"parallaxLoopY":false,"parallaxName":"","parallaxShow":false,"parallaxSx":0,"parallaxSy":0,"scrollType":0,"specifyBattleback":true,"tilesetId":12,"width":17,
"data":[0,0,0,0,0,0,0,0,0,0,0,0,0,0,0,0,0,0,0,0,0,0,0,0,0,0,0,0,0,0,0,0,0,0,0,0,0,0,6835,6833,6833,6833,6833,6833,6833,6833,6837,0,0,0,0,0,0,0,0,6832,4738,4738,4738,4738,4738,4738,4738,6832,0,0,0,0,0,0,0,0,6832,4744,4744,4744,4744,4744,4744,4744,6832,0,0,0,0,0,0,0,0,6832,1569,1569,1569,1569,1569,1569,1569,6832,0,0,0,0,0,0,0,0,6832,1569,1569,1569,1569,1569,1569,1569,6832,0,0,0,0,0,0,0,0,6832,1569,1569,1569,1569,1569,1569,1569,6832,0,0,0,0,0,0,0,0,6832,1569,1569,1569,1569,1569,1569,1569,6832,0,0,0,0,0,0,0,0,6832,1569,1569,1569,1569,1569,1569,1569,6832,0,0,0,0,0,0,0,0,6841,6833,6833,6845,1569,6843,6833,6833,6839,0,0,0,0,0,0,0,0,4739,4738,4738,4738,4738,4738,4738,4738,4742,0,0,0,0,0,0,0,0,4745,4744,4744,4744,4744,4744,4744,4744,4748,0,0,0,0,0,0,0,0,0,0,0,0,0,0,0,0,0,0,0,0,0,0,0,0,0,0,0,0,0,0,0,0,0,0,0,0,0,0,0,0,0,0,0,0,0,0,0,0,0,0,0,0,0,0,0,0,0,0,0,0,0,0,0,0,0,0,0,0,0,0,0,0,0,0,0,0,0,0,0,0,0,0,0,0,0,0,0,0,0,0,0,0,0,0,0,0,0,0,0,0,0,0,0,0,0,0,0,0,0,0,0,0,0,0,0,0,0,0,0,0,0,0,0,0,0,0,0,0,0,0,4346,0,4346,0,0,0,0,0,0,0,0,0,0,0,0,0,0,4345,4337,4343,0,0,0,0,0,0,0,0,0,0,0,0,0,0,0,0,0,0,0,0,0,0,0,0,0,0,0,0,0,0,4346,0,0,0,4346,0,0,0,0,0,0,0,0,0,0,0,0,4348,0,0,0,4348,0,0,0,0,0,0,0,0,0,0,0,0,0,0,0,0,0,0,0,0,0,0,0,0,0,0,0,0,0,0,0,0,0,0,0,0,0,0,0,0,0,0,0,0,0,0,0,0,0,0,0,0,0,0,0,0,0,0,0,0,0,0,0,0,0,0,0,0,0,0,0,0,0,0,0,0,0,0,0,0,0,0,0,0,0,0,0,0,0,0,0,0,0,0,0,0,0,0,0,0,0,0,0,0,0,0,0,0,0,0,0,0,0,0,0,0,0,0,0,0,0,0,0,0,0,0,0,0,0,0,0,0,0,0,0,0,0,0,0,0,0,0,0,0,0,0,0,0,0,0,0,0,0,0,0,0,0,0,0,0,0,0,0,0,0,0,0,0,0,0,0,0,0,0,0,0,0,0,0,0,0,0,0,0,0,0,0,0,0,0,0,0,0,0,0,0,0,0,0,0,0,0,0,0,0,0,0,0,0,0,0,0,0,0,0,0,0,0,0,0,0,0,0,0,0,0,0,0,0,0,0,0,0,0,0,0,0,0,0,0,0,0,0,0,0,0,0,0,0,0,0,0,0,0,0,0,0,0,0,0,0,0,0,0,0,0,0,0,0,0,0,0,0,0,0,0,0,0,0,0,0,0,0,0,0,0,0,0,0,0,0,0,0,0,0,0,0,0,0,0,0,0,0,0,0,0,0,0,0,0,0,0,0,0,0,0,0,0,0,0,0,0,0,0,0,0,0,0,0,0,0,0,0,0,0,0,0,0,0,0,0,0,0,0,0,0,0,0,0,0,0,0,0,0,0,0,0,0,0,0,0,0,0,0,0,0,0,0,0,0,0,0,0,0,0,0,0,0,0,0,0,0,0,0,0,0,0,0,0,0,0,0,0,0,0,0,0,0,0,0,0,0,0,0,0,749,0,0,0,0,0,0,0,0,0,0,0,0,0,0,717,0,0,0,717,0,0,0,0,0,0,0,0,0,0,0,0,0,0,0,0,0,0,0,0,0,0,0,0,0,0,0,0,0,0,0,0,738,0,0,0,0,0,0,0,0,0,0,0,0,0,0,0,0,0,0,0,0,0,0,0,0,0,0,0,0,0,0,0,0,0,0,0,0,0,0,0,0,0,0,0,0,0,0,0,737,0,0,0,0,0,0,0,0,0,0,0,0,0,0,0,0,0,0,0,0,0,0,0,0,0,0,0,0,0,0,0,0,0,0,0,0,0,0,0,0,0,0,0,0,0,0,0,0,0,0,0,0,0,0,0,0,0,0,0,0,0,0,0,0,0,0,0,0,0,0,0,0,0,0,0,0,0,0,0,0,0,0,0,0,0,0,0,0,0,0,0,0,0,0,0,0,0,0,0,0,0,0,0,0,0,0,0,0,0,0,0,0,0,0,0,0,0,0,0,0,0,0,0,0,0,0,0,0,0,0,0,0,0,0,0,0,0,0,0,0,0,0,0,0,0,0,0,0,0,0,0,0,0,0,0,0,0,0,0,0,0,0,0,0,0,0,0,0,0,0,0,0,0,0,0,0,0,0,0,0,0,0,0,0,0,5,0,0,0,0,0,0,0,0,0,0,0,0,0,0,0,0,5,0,0,0,0,0,0,0,0,0,0,0,0,0,0,0,0,5,0,0,0,0,0,0,0,0,0,0,0,0,0,0,0,0,5,0,0,0,0,0,0,0,0,0,0,0,0,0,0,0,0,5,0,0,0,0,0,0,0,0,0,0,0,0,0,0,0,0,0,0,0,0,0,0,0,0,0,0,0,0,0,0,0,0,0,0,0,0,0,0,0,0,0,0,0,0,0,0,0,0,0,0,0,0,0,0,0,0,0,0,0,0,0,0,0,0,0,0,0,0,0,0,0,0,0,0,0,0,0,0,0,0,0,0,0,0,0,0,0,0,0,0,0,0,0,0,0,0,0,0,0,0,0,0,0,0,0,0,0,0,0,0,0,0,0,0,0,0,0,0,0,0,0,0,0,0,0,0,0,0,0,0,0,0,0,0,0,0,0,0,0,0,0,0,0,0,0,0,0,0,0,0,0,0,0,0,0,0,0,0,0,0,0,0,0,0,0,0,0,0,0,0,0,0,0,0,0,0,0,0,0,0,0,0,0,0,0,0,0,0,0,0,0,0,0,0,0,0,0,0,0,0,0,0,0,0,0,0,0,0,0,0,0,0,0,0,0,0,0,0,0,0,0,0,0,0,0,0,0,0,0,0,0,0,0,0,0,0,0,0,0,0,0,0,0,0,0,0,0,0,0,0,0,0,0,0,0,0,0,0,0,0,0,0,0,0,0,0,0,0,0,0,0,0,0,0,0,0,0,0,0,0,0,0,0,0,0,0,0,0,0,0,0,0,0,0,0,0,0,0,0,0,0,0,0,0,0,0,0,0,0,0,0,0,0,0,0,0,0,0,0,0,0,0,0,0,0,0,0,0,0,0,0,0,0,0,0,0,0,0,0,0,0,0,0,0,0,0,0,0,0,0,0],
"events":[
null,
{"id":1,"name":"EV001","note":"","pages":[{"conditions":{"actorId":1,"actorValid":false,"itemId":1,"itemValid":false,"selfSwitchCh":"A","selfSwitchValid":false,"switch1Id":430,"switch1Valid":false,"switch2Id":1,"switch2Valid":false,"variableId":1,"variableValid":false,"variableValue":0},"directionFix":false,"image":{"tileId":0,"characterName":"","direction":2,"pattern":0,"characterIndex":0},"moveFrequency":3,"moveRoute":{"list":[{"code":0,"indent":null,"parameters":[]}],"repeat":true,"skippable":false,"wait":false},"moveSpeed":3,"moveType":0,"priorityType":0,"stepAnime":false,"through":false,"trigger":1,"walkAnime":true,"list":[{"code":250,"indent":0,"parameters":[{"name":"Move","pan":0,"pitch":100,"volume":80}]},{"code":111,"indent":0,"parameters":[0,2100,0]},{"code":201,"indent":1,"parameters":[0,560,44,29,2,0]},{"code":0,"indent":1,"parameters":[]},{"code":411,"indent":0,"parameters":[]},{"code":201,"indent":1,"parameters":[0,301,44,29,0,0]},{"code":0,"indent":1,"parameters":[]},{"code":412,"indent":0,"parameters":[]},{"code":0,"indent":0,"parameters":[]}]}],"x":8,"y":10},
{"id":2,"name":"EV002","note":"","pages":[{"conditions":{"actorId":1,"actorValid":false,"itemId":1,"itemValid":false,"selfSwitchCh":"A","selfSwitchValid":false,"switch1Id":1,"switch1Valid":false,"switch2Id":1,"switch2Valid":false,"variableId":70,"variableValid":false,"variableValue":30},"directionFix":false,"image":{"tileId":0,"characterName":"Y DS_chara06","direction":2,"pattern":1,"characterIndex":6},"moveFrequency":3,"moveRoute":{"list":[{"code":0,"indent":null,"parameters":[]}],"repeat":true,"skippable":false,"wait":false},"moveSpeed":3,"moveType":0,"priorityType":1,"stepAnime":false,"through":false,"trigger":0,"walkAnime":true,"list":[{"code":101,"indent":0,"parameters":["Y DS_Actor06",6,0,2]},{"code":401,"indent":0,"parameters":["Hey, it's you guys! Thanks for funding this place!"]},{"code":101,"indent":0,"parameters":["1 Simon dark",0,0,2]},{"code":401,"indent":0,"parameters":["It doesn't seem like you have a lot of business."]},{"code":101,"indent":0,"parameters":["Y DS_Actor06",6,0,2]},{"code":401,"indent":0,"parameters":["Nah, that's just how it looks. Most of the people here can't afford to stand around all day petitioning, they just come through quick."]},{"code":101,"indent":0,"parameters":["Y DS_Actor06",6,0,2]},{"code":401,"indent":0,"parameters":["It did take a while for things to get started up, but now people are pretty cool with it."]},{"code":101,"indent":0,"parameters":["1 Simon dark",0,0,2]},{"code":401,"indent":0,"parameters":["I hope the resources we've provided are enough to at least address some of the petitions?"]},{"code":101,"indent":0,"parameters":["Y DS_Actor06",6,0,2]},{"code":401,"indent":0,"parameters":["Honestly, a lot of it is petty shit. I mean, the serious requests require either a lot of money or a change in policy."]},{"code":101,"indent":0,"parameters":["Y DS_Actor06",6,0,2]},{"code":401,"indent":0,"parameters":["But people are getting use out of the place! It's like a job/request board for some, and we've gotten some things done!"]},{"code":101,"indent":0,"parameters":["Y DS_Actor06",6,0,2]},{"code":401,"indent":0,"parameters":["And it wouldn't have happened if not for you! Thanks!"]},{"code":122,"indent":0,"parameters":[15,15,1,0,2]},{"code":122,"indent":0,"parameters":[70,70,1,0,2]},{"code":122,"indent":0,"parameters":[82,82,1,0,1]},{"code":122,"indent":0,"parameters":[115,115,1,0,5]},{"code":123,"indent":0,"parameters":["A",0]},{"code":0,"indent":0,"parameters":[]}]},{"conditions":{"actorId":1,"actorValid":false,"itemId":1,"itemValid":false,"selfSwitchCh":"A","selfSwitchValid":true,"switch1Id":1,"switch1Valid":false,"switch2Id":1,"switch2Valid":false,"variableId":70,"variableValid":false,"variableValue":30},"directionFix":false,"image":{"tileId":0,"characterName":"Y DS_chara06","direction":2,"pattern":1,"characterIndex":6},"moveFrequency":3,"moveRoute":{"list":[{"code":0,"indent":null,"parameters":[]}],"repeat":true,"skippable":false,"wait":false},"moveSpeed":3,"moveType":0,"priorityType":1,"stepAnime":false,"through":false,"trigger":0,"walkAnime":true,"list":[{"code":101,"indent":0,"parameters":["Y DS_Actor06",6,0,2]},{"code":401,"indent":0,"parameters":["There's one thing that you could help with... do you want to reopen the old fighting ring?"]},{"code":102,"indent":0,"parameters":[["Invest (15%)","Explain","Never","Not now"],3,0,2,0]},{"code":402,"indent":0,"parameters":[0,"Invest (15%)"]},{"code":111,"indent":1,"parameters":[1,167,0,15,1]},{"code":122,"indent":2,"parameters":[167,167,2,0,15]},{"code":121,"indent":2,"parameters":[1322,1322,0]},{"code":122,"indent":2,"parameters":[115,115,1,0,1]},{"code":101,"indent":2,"parameters":["Y DS_Actor06",6,0,2]},{"code":401,"indent":2,"parameters":["Great, great... we'll get it started up again when we can!"]},{"code":101,"indent":2,"parameters":["Nalili emo1",4,0,2]},{"code":401,"indent":2,"parameters":["Oooh, we should visit once it's done!"]},{"code":123,"indent":2,"parameters":["B",0]},{"code":0,"indent":2,"parameters":[]},{"code":411,"indent":1,"parameters":[]},{"code":101,"indent":2,"parameters":["Y DS_Actor06",6,0,2]},{"code":401,"indent":2,"parameters":["We'll need a fair bit to get started..."]},{"code":0,"indent":2,"parameters":[]},{"code":412,"indent":1,"parameters":[]},{"code":0,"indent":1,"parameters":[]},{"code":402,"indent":0,"parameters":[1,"Explain"]},{"code":101,"indent":1,"parameters":["Y DS_Actor06",6,0,2]},{"code":401,"indent":1,"parameters":["There used to be an underground fighting ring here, but it got shut down due to the invasion."]},{"code":101,"indent":1,"parameters":["Y DS_Actor06",6,0,2]},{"code":401,"indent":1,"parameters":["It'd make a lot of people really happy if it started up again, but I figured we should do it officially."]},{"code":101,"indent":1,"parameters":["Y DS_Actor06",6,0,2]},{"code":401,"indent":1,"parameters":["If you're willing to put up the money, you could get a cut of the profits, though!"]},{"code":0,"indent":1,"parameters":[]},{"code":402,"indent":0,"parameters":[2,"Never"]},{"code":101,"indent":1,"parameters":["Y DS_Actor06",6,0,2]},{"code":401,"indent":1,"parameters":["Don't want people hurting each other, huh? Well, fair enough."]},{"code":123,"indent":1,"parameters":["B",0]},{"code":0,"indent":1,"parameters":[]},{"code":402,"indent":0,"parameters":[3,"Not now"]},{"code":0,"indent":1,"parameters":[]},{"code":404,"indent":0,"parameters":[]},{"code":0,"indent":0,"parameters":[]}]},{"conditions":{"actorId":1,"actorValid":false,"itemId":1,"itemValid":false,"selfSwitchCh":"A","selfSwitchValid":true,"switch1Id":2099,"switch1Valid":true,"switch2Id":1,"switch2Valid":false,"variableId":70,"variableValid":false,"variableValue":30},"directionFix":false,"image":{"tileId":0,"characterName":"Y DS_chara06","direction":2,"pattern":1,"characterIndex":6},"moveFrequency":3,"moveRoute":{"list":[{"code":0,"indent":null,"parameters":[]}],"repeat":true,"skippable":false,"wait":false},"moveSpeed":3,"moveType":0,"priorityType":1,"stepAnime":false,"through":false,"trigger":0,"walkAnime":true,"list":[{"code":101,"indent":0,"parameters":["Y DS_Actor06",6,0,2]},{"code":401,"indent":0,"parameters":["There's something that you could help with... do you want to reopen the old fighting ring?"]},{"code":102,"indent":0,"parameters":[["Invest (150,000 ProN)","Explain","Refuse","Not now"],3,0,2,0]},{"code":402,"indent":0,"parameters":[0,"Invest (150,000 ProN)"]},{"code":111,"indent":1,"parameters":[1,10,0,150000,1]},{"code":122,"indent":2,"parameters":[10,10,2,0,150000]},{"code":121,"indent":2,"parameters":[1323,1323,0]},{"code":122,"indent":2,"parameters":[115,115,1,0,1]},{"code":101,"indent":2,"parameters":["Y DS_Actor06",6,0,2]},{"code":401,"indent":2,"parameters":["Great, great... we'll get it started up again when we can!"]},{"code":101,"indent":2,"parameters":["Nalili emo1",4,0,2]},{"code":401,"indent":2,"parameters":["Oooh, we should visit once it's done!"]},{"code":123,"indent":2,"parameters":["B",0]},{"code":0,"indent":2,"parameters":[]},{"code":411,"indent":1,"parameters":[]},{"code":101,"indent":2,"parameters":["Y DS_Actor06",6,0,2]},{"code":401,"indent":2,"parameters":["We'll need a fair bit to get started..."]},{"code":0,"indent":2,"parameters":[]},{"code":412,"indent":1,"parameters":[]},{"code":0,"indent":1,"parameters":[]},{"code":402,"indent":0,"parameters":[1,"Explain"]},{"code":101,"indent":1,"parameters":["Y DS_Actor06",6,0,2]},{"code":401,"indent":1,"parameters":["There used to be an underground fighting ring here, but it got shut down due to the invasion."]},{"code":101,"indent":1,"parameters":["Y DS_Actor06",6,0,2]},{"code":401,"indent":1,"parameters":["It'd make a lot of people really happy if it started up again, but I figured we should do it officially."]},{"code":101,"indent":1,"parameters":["Y DS_Actor06",6,0,2]},{"code":401,"indent":1,"parameters":["If you're willing to put up the money, you could get a cut of the profits, though!"]},{"code":0,"indent":1,"parameters":[]},{"code":402,"indent":0,"parameters":[2,"Refuse"]},{"code":101,"indent":1,"parameters":["Y DS_Actor06",6,0,2]},{"code":401,"indent":1,"parameters":["Don't want people hurting each other, huh? Well, fair enough."]},{"code":123,"indent":1,"parameters":["B",0]},{"code":0,"indent":1,"parameters":[]},{"code":402,"indent":0,"parameters":[3,"Not now"]},{"code":0,"indent":1,"parameters":[]},{"code":404,"indent":0,"parameters":[]},{"code":0,"indent":0,"parameters":[]}]},{"conditions":{"actorId":1,"actorValid":false,"itemId":1,"itemValid":false,"selfSwitchCh":"B","selfSwitchValid":true,"switch1Id":1,"switch1Valid":false,"switch2Id":1,"switch2Valid":false,"variableId":70,"variableValid":false,"variableValue":30},"directionFix":false,"image":{"tileId":0,"characterName":"Y DS_chara06","direction":2,"pattern":1,"characterIndex":6},"moveFrequency":3,"moveRoute":{"list":[{"code":0,"indent":null,"parameters":[]}],"repeat":true,"skippable":false,"wait":false},"moveSpeed":3,"moveType":0,"priorityType":1,"stepAnime":false,"through":false,"trigger":0,"walkAnime":true,"list":[{"code":111,"indent":0,"parameters":[0,2100,0]},{"code":101,"indent":1,"parameters":["Y DS_Actor06",6,0,2]},{"code":401,"indent":1,"parameters":["Working at the office is a rough job, but it's worth it, knowing that I'm helping everyone in the kingdom."]},{"code":0,"indent":1,"parameters":[]},{"code":411,"indent":0,"parameters":[]},{"code":101,"indent":1,"parameters":["Y DS_Actor06",6,0,2]},{"code":401,"indent":1,"parameters":["You've already been more than generous enough, but if you want to handle any of these requests..."]},{"code":0,"indent":1,"parameters":[]},{"code":412,"indent":0,"parameters":[]},{"code":0,"indent":0,"parameters":[]}]},{"conditions":{"actorId":1,"actorValid":false,"itemId":1,"itemValid":false,"selfSwitchCh":"B","selfSwitchValid":true,"switch1Id":1324,"switch1Valid":true,"switch2Id":1,"switch2Valid":false,"variableId":70,"variableValid":false,"variableValue":30},"directionFix":false,"image":{"tileId":0,"characterName":"Y DS_chara06","direction":2,"pattern":1,"characterIndex":6},"moveFrequency":3,"moveRoute":{"list":[{"code":0,"indent":null,"parameters":[]}],"repeat":true,"skippable":false,"wait":false},"moveSpeed":3,"moveType":0,"priorityType":1,"stepAnime":false,"through":false,"trigger":0,"walkAnime":true,"list":[{"code":101,"indent":0,"parameters":["Nalili emo1",1,0,2]},{"code":401,"indent":0,"parameters":["Hello there! I have a suggestion for the fighting ring!"]},{"code":101,"indent":0,"parameters":["Y DS_Actor06",6,0,2]},{"code":401,"indent":0,"parameters":["Sorry, I don't think they allow sexual magic there."]},{"code":101,"indent":0,"parameters":["Nalili emo1",1,0,2]},{"code":401,"indent":0,"parameters":["That's what I wanted to talk about! What if they let succubi fight? Just against each other, I mean."]},{"code":101,"indent":0,"parameters":["Y DS_Actor06",6,0,2]},{"code":401,"indent":0,"parameters":["Hmm... I suppose it's not ridiculous, and they've been asking to expand..."]},{"code":101,"indent":0,"parameters":["Yarra emo2",5,0,2]},{"code":401,"indent":0,"parameters":["I guarantee it would be popular."]},{"code":101,"indent":0,"parameters":["Y DS_Actor06",6,0,2]},{"code":401,"indent":0,"parameters":["I don't think we have the space for it here... but we could add a ring somewhere else, maybe."]},{"code":101,"indent":0,"parameters":["Nalili emo1",5,0,2]},{"code":401,"indent":0,"parameters":["Then we can maybe do it?"]},{"code":101,"indent":0,"parameters":["Y DS_Actor06",6,0,2]},{"code":401,"indent":0,"parameters":["Yeah, let me write up a plan..."]},{"code":123,"indent":0,"parameters":["C",0]},{"code":0,"indent":0,"parameters":[]}]},{"conditions":{"actorId":1,"actorValid":false,"itemId":1,"itemValid":false,"selfSwitchCh":"C","selfSwitchValid":true,"switch1Id":1,"switch1Valid":false,"switch2Id":1,"switch2Valid":false,"variableId":70,"variableValid":false,"variableValue":30},"directionFix":false,"image":{"tileId":0,"characterName":"Y DS_chara06","direction":2,"pattern":1,"characterIndex":6},"moveFrequency":3,"moveRoute":{"list":[{"code":0,"indent":null,"parameters":[]}],"repeat":true,"skippable":false,"wait":false},"moveSpeed":3,"moveType":0,"priorityType":1,"stepAnime":false,"through":false,"trigger":0,"walkAnime":true,"list":[{"code":101,"indent":0,"parameters":["Y DS_Actor06",6,0,2]},{"code":401,"indent":0,"parameters":["You want to open the new sexual combat ring?"]},{"code":102,"indent":0,"parameters":[["Invest (25%)","Not now"],1,0,2,0]},{"code":402,"indent":0,"parameters":[0,"Invest (25%)"]},{"code":111,"indent":1,"parameters":[1,167,0,25,1]},{"code":122,"indent":2,"parameters":[167,167,2,0,25]},{"code":121,"indent":2,"parameters":[1325,1325,0]},{"code":122,"indent":2,"parameters":[115,115,1,0,1]},{"code":101,"indent":2,"parameters":["Y DS_Actor06",6,0,2]},{"code":401,"indent":2,"parameters":["Great, great... we'll get it started up when we can!"]},{"code":122,"indent":2,"parameters":[127,127,1,0,10]},{"code":101,"indent":2,"parameters":["Nalili emo1",5,0,2]},{"code":401,"indent":2,"parameters":["Thanks for going through with my idea! "]},{"code":123,"indent":2,"parameters":["D",0]},{"code":0,"indent":2,"parameters":[]},{"code":411,"indent":1,"parameters":[]},{"code":101,"indent":2,"parameters":["Y DS_Actor06",6,0,2]},{"code":401,"indent":2,"parameters":["We'll need a fair bit to get started..."]},{"code":0,"indent":2,"parameters":[]},{"code":412,"indent":1,"parameters":[]},{"code":0,"indent":1,"parameters":[]},{"code":402,"indent":0,"parameters":[1,"Not now"]},{"code":0,"indent":1,"parameters":[]},{"code":404,"indent":0,"parameters":[]},{"code":0,"indent":0,"parameters":[]}]},{"conditions":{"actorId":1,"actorValid":false,"itemId":1,"itemValid":false,"selfSwitchCh":"C","selfSwitchValid":true,"switch1Id":2099,"switch1Valid":true,"switch2Id":1,"switch2Valid":false,"variableId":70,"variableValid":false,"variableValue":30},"directionFix":false,"image":{"tileId":0,"characterName":"Y DS_chara06","direction":2,"pattern":1,"characterIndex":6},"moveFrequency":3,"moveRoute":{"list":[{"code":0,"indent":null,"parameters":[]}],"repeat":true,"skippable":false,"wait":false},"moveSpeed":3,"moveType":0,"priorityType":1,"stepAnime":false,"through":false,"trigger":0,"walkAnime":true,"list":[{"code":101,"indent":0,"parameters":["Y DS_Actor06",6,0,2]},{"code":401,"indent":0,"parameters":["You want to open the new sexual combat ring?"]},{"code":102,"indent":0,"parameters":[["Invest (250,000 ProN)","Not now"],1,0,2,0]},{"code":402,"indent":0,"parameters":[0,"Invest (250,000 ProN)"]},{"code":111,"indent":1,"parameters":[1,10,0,250000,1]},{"code":122,"indent":2,"parameters":[10,10,2,0,250000]},{"code":121,"indent":2,"parameters":[1326,1326,0]},{"code":122,"indent":2,"parameters":[115,115,1,0,1]},{"code":101,"indent":2,"parameters":["Y DS_Actor06",6,0,2]},{"code":401,"indent":2,"parameters":["Great, great... we'll get it started up when we can!"]},{"code":122,"indent":2,"parameters":[127,127,1,0,10]},{"code":101,"indent":2,"parameters":["Nalili emo1",5,0,2]},{"code":401,"indent":2,"parameters":["Thanks for going through with my idea! "]},{"code":123,"indent":2,"parameters":["D",0]},{"code":0,"indent":2,"parameters":[]},{"code":411,"indent":1,"parameters":[]},{"code":101,"indent":2,"parameters":["Y DS_Actor06",6,0,2]},{"code":401,"indent":2,"parameters":["We'll need a fair bit to get started..."]},{"code":0,"indent":2,"parameters":[]},{"code":412,"indent":1,"parameters":[]},{"code":0,"indent":1,"parameters":[]},{"code":402,"indent":0,"parameters":[1,"Not now"]},{"code":0,"indent":1,"parameters":[]},{"code":404,"indent":0,"parameters":[]},{"code":0,"indent":0,"parameters":[]}]},{"conditions":{"actorId":1,"actorValid":false,"itemId":1,"itemValid":false,"selfSwitchCh":"D","selfSwitchValid":true,"switch1Id":1,"switch1Valid":false,"switch2Id":1,"switch2Valid":false,"variableId":70,"variableValid":false,"variableValue":30},"directionFix":false,"image":{"tileId":0,"characterName":"Y DS_chara06","direction":2,"pattern":1,"characterIndex":6},"moveFrequency":3,"moveRoute":{"list":[{"code":0,"indent":null,"parameters":[]}],"repeat":true,"skippable":false,"wait":false},"moveSpeed":3,"moveType":0,"priorityType":1,"stepAnime":false,"through":false,"trigger":0,"walkAnime":true,"list":[{"code":101,"indent":0,"parameters":["Y DS_Actor06",6,0,2]},{"code":401,"indent":0,"parameters":["Honestly, it's starting to feel like a good thing you guys are in charge..."]},{"code":0,"indent":0,"parameters":[]}]},{"conditions":{"actorId":1,"actorValid":false,"itemId":1,"itemValid":false,"selfSwitchCh":"D","selfSwitchValid":true,"switch1Id":2099,"switch1Valid":true,"switch2Id":1,"switch2Valid":false,"variableId":70,"variableValid":false,"variableValue":30},"directionFix":false,"image":{"tileId":0,"characterName":"Y DS_chara06","direction":2,"pattern":1,"characterIndex":6},"moveFrequency":3,"moveRoute":{"list":[{"code":0,"indent":null,"parameters":[]}],"repeat":true,"skippable":false,"wait":false},"moveSpeed":3,"moveType":0,"priorityType":1,"stepAnime":false,"through":false,"trigger":0,"walkAnime":true,"list":[{"code":101,"indent":0,"parameters":["Y DS_Actor06",6,0,2]},{"code":401,"indent":0,"parameters":["Things have only gotten better since you guys took charge."]},{"code":0,"indent":0,"parameters":[]}]},{"conditions":{"actorId":1,"actorValid":false,"itemId":1,"itemValid":false,"selfSwitchCh":"D","selfSwitchValid":true,"switch1Id":2100,"switch1Valid":true,"switch2Id":1,"switch2Valid":false,"variableId":70,"variableValid":false,"variableValue":30},"directionFix":false,"image":{"tileId":0,"characterName":"Y DS_chara06","direction":2,"pattern":1,"characterIndex":6},"moveFrequency":3,"moveRoute":{"list":[{"code":0,"indent":null,"parameters":[]}],"repeat":true,"skippable":false,"wait":false},"moveSpeed":3,"moveType":0,"priorityType":1,"stepAnime":false,"through":false,"trigger":0,"walkAnime":true,"list":[{"code":101,"indent":0,"parameters":["Y DS_Actor06",6,0,2]},{"code":401,"indent":0,"parameters":["Working at the office is a rough job, but it's worth it, knowing that I'm helping everyone in the kingdom."]},{"code":0,"indent":0,"parameters":[]}]}],"x":8,"y":5},
{"id":3,"name":"EV003","note":"","pages":[{"conditions":{"actorId":1,"actorValid":false,"itemId":1,"itemValid":false,"selfSwitchCh":"A","selfSwitchValid":false,"switch1Id":1132,"switch1Valid":false,"switch2Id":1,"switch2Valid":false,"variableId":1,"variableValid":false,"variableValue":0},"directionFix":false,"image":{"tileId":0,"characterName":"Y DS_chara03","direction":6,"pattern":1,"characterIndex":3},"moveFrequency":3,"moveRoute":{"list":[{"code":0,"indent":null,"parameters":[]}],"repeat":true,"skippable":false,"wait":false},"moveSpeed":3,"moveType":0,"priorityType":1,"stepAnime":false,"through":false,"trigger":0,"walkAnime":true,"list":[{"code":101,"indent":0,"parameters":["Y DS_Actor03",3,0,2]},{"code":401,"indent":0,"parameters":["Hey, you're the one with the money, right?"]},{"code":101,"indent":0,"parameters":["1 Simon dark",0,0,2]},{"code":401,"indent":0,"parameters":["Not exactly the reputation I'd like, but... most likely yes."]},{"code":101,"indent":0,"parameters":["Y DS_Actor03",3,0,2]},{"code":401,"indent":0,"parameters":["A lot of the petitions I get are nonsense, but there's one that I think deserves real consideration."]},{"code":101,"indent":0,"parameters":["Y DS_Actor03",3,0,2]},{"code":401,"indent":0,"parameters":["The poor mages around here usually band together, keep things in order. Adding succubi has really thrown them off."]},{"code":101,"indent":0,"parameters":["Y DS_Actor03",3,0,2]},{"code":401,"indent":0,"parameters":["They requested that succubi living here be required to follow the same standards of magic use."]},{"code":101,"indent":0,"parameters":["1 Simon dark",0,0,2]},{"code":401,"indent":0,"parameters":["Do the succubi have any representation in these informal groups?"]},{"code":101,"indent":0,"parameters":["Y DS_Actor03",3,0,2]},{"code":401,"indent":0,"parameters":["Well... no. But I imagine they'd allow it, they're not too judgy around here."]},{"code":101,"indent":0,"parameters":["1 Simon dark",0,0,2]},{"code":401,"indent":0,"parameters":["If you can form a plan for both groups to work together with the same magical standards, I'll consider funding it."]},{"code":101,"indent":0,"parameters":["Y DS_Actor03",3,0,2]},{"code":401,"indent":0,"parameters":["Hmm... yes, that might work..."]},{"code":123,"indent":0,"parameters":["A",0]},{"code":0,"indent":0,"parameters":[]}]},{"conditions":{"actorId":1,"actorValid":false,"itemId":1,"itemValid":false,"selfSwitchCh":"A","selfSwitchValid":true,"switch1Id":1132,"switch1Valid":false,"switch2Id":1,"switch2Valid":false,"variableId":1,"variableValid":false,"variableValue":0},"directionFix":false,"image":{"tileId":0,"characterName":"Y DS_chara03","direction":6,"pattern":1,"characterIndex":3},"moveFrequency":3,"moveRoute":{"list":[{"code":0,"indent":null,"parameters":[]}],"repeat":true,"skippable":false,"wait":false},"moveSpeed":3,"moveType":0,"priorityType":1,"stepAnime":false,"through":false,"trigger":0,"walkAnime":true,"list":[{"code":101,"indent":0,"parameters":["Y DS_Actor03",3,0,2]},{"code":401,"indent":0,"parameters":["Alright, you want to fund a joint arcane/sexual magical agreement?"]},{"code":102,"indent":0,"parameters":[["Invest (20%)","Not now"],1,0,2,0]},{"code":402,"indent":0,"parameters":[0,"Invest (20%)"]},{"code":111,"indent":1,"parameters":[1,167,0,20,1]},{"code":122,"indent":2,"parameters":[167,167,2,0,20]},{"code":121,"indent":2,"parameters":[1327,1327,0]},{"code":122,"indent":2,"parameters":[70,70,1,0,3]},{"code":122,"indent":2,"parameters":[115,115,1,0,2]},{"code":101,"indent":2,"parameters":["Y DS_Actor03",3,0,2]},{"code":401,"indent":2,"parameters":["Excellent. I think this will work out, if we just give them all some time..."]},{"code":123,"indent":2,"parameters":["B",0]},{"code":0,"indent":2,"parameters":[]},{"code":411,"indent":1,"parameters":[]},{"code":101,"indent":2,"parameters":["Y DS_Actor03",3,0,2]},{"code":401,"indent":2,"parameters":["Everybody is pretty entrenched, I don't think we'll be able to do this right with less money."]},{"code":0,"indent":2,"parameters":[]},{"code":412,"indent":1,"parameters":[]},{"code":0,"indent":1,"parameters":[]},{"code":402,"indent":0,"parameters":[1,"Not now"]},{"code":0,"indent":1,"parameters":[]},{"code":404,"indent":0,"parameters":[]},{"code":0,"indent":0,"parameters":[]}]},{"conditions":{"actorId":1,"actorValid":false,"itemId":1,"itemValid":false,"selfSwitchCh":"A","selfSwitchValid":true,"switch1Id":2099,"switch1Valid":true,"switch2Id":1,"switch2Valid":false,"variableId":1,"variableValid":false,"variableValue":0},"directionFix":false,"image":{"tileId":0,"characterName":"Y DS_chara03","direction":6,"pattern":1,"characterIndex":3},"moveFrequency":3,"moveRoute":{"list":[{"code":0,"indent":null,"parameters":[]}],"repeat":true,"skippable":false,"wait":false},"moveSpeed":3,"moveType":0,"priorityType":1,"stepAnime":false,"through":false,"trigger":0,"walkAnime":true,"list":[{"code":101,"indent":0,"parameters":["Y DS_Actor03",3,0,2]},{"code":401,"indent":0,"parameters":["Alright, you want to fund a joint arcane/sexual magical agreement?"]},{"code":102,"indent":0,"parameters":[["Invest (200,000 ProN)","Not now"],1,0,2,0]},{"code":402,"indent":0,"parameters":[0,"Invest (200,000 ProN)"]},{"code":111,"indent":1,"parameters":[1,10,0,200000,1]},{"code":122,"indent":2,"parameters":[10,10,2,0,200000]},{"code":121,"indent":2,"parameters":[1327,1327,0]},{"code":122,"indent":2,"parameters":[70,70,1,0,3]},{"code":122,"indent":2,"parameters":[115,115,1,0,2]},{"code":101,"indent":2,"parameters":["Y DS_Actor03",3,0,2]},{"code":401,"indent":2,"parameters":["Excellent. I think this will work out, if we just give them all some time..."]},{"code":123,"indent":2,"parameters":["B",0]},{"code":0,"indent":2,"parameters":[]},{"code":411,"indent":1,"parameters":[]},{"code":101,"indent":2,"parameters":["Y DS_Actor03",3,0,2]},{"code":401,"indent":2,"parameters":["Everybody is pretty entrenched, I don't think we'll be able to do this right with less money."]},{"code":0,"indent":2,"parameters":[]},{"code":412,"indent":1,"parameters":[]},{"code":0,"indent":1,"parameters":[]},{"code":402,"indent":0,"parameters":[1,"Not now"]},{"code":0,"indent":1,"parameters":[]},{"code":404,"indent":0,"parameters":[]},{"code":0,"indent":0,"parameters":[]}]},{"conditions":{"actorId":1,"actorValid":false,"itemId":1,"itemValid":false,"selfSwitchCh":"B","selfSwitchValid":true,"switch1Id":1132,"switch1Valid":false,"switch2Id":1,"switch2Valid":false,"variableId":1,"variableValid":false,"variableValue":0},"directionFix":false,"image":{"tileId":0,"characterName":"Y DS_chara03","direction":6,"pattern":1,"characterIndex":3},"moveFrequency":3,"moveRoute":{"list":[{"code":0,"indent":null,"parameters":[]}],"repeat":true,"skippable":false,"wait":false},"moveSpeed":3,"moveType":0,"priorityType":1,"stepAnime":false,"through":false,"trigger":0,"walkAnime":true,"list":[{"code":101,"indent":0,"parameters":["Y DS_Actor03",3,0,2]},{"code":401,"indent":0,"parameters":["I think this agreement will work well. And hopefully everyone will complain less now..."]},{"code":0,"indent":0,"parameters":[]}]},{"conditions":{"actorId":1,"actorValid":false,"itemId":1,"itemValid":false,"selfSwitchCh":"B","selfSwitchValid":true,"switch1Id":2099,"switch1Valid":true,"switch2Id":1,"switch2Valid":false,"variableId":1,"variableValid":false,"variableValue":0},"directionFix":false,"image":{"tileId":0,"characterName":"Y DS_chara03","direction":6,"pattern":1,"characterIndex":3},"moveFrequency":3,"moveRoute":{"list":[{"code":0,"indent":null,"parameters":[]}],"repeat":true,"skippable":false,"wait":false},"moveSpeed":3,"moveType":0,"priorityType":1,"stepAnime":false,"through":false,"trigger":0,"walkAnime":true,"list":[{"code":101,"indent":0,"parameters":["Y DS_Actor03",3,0,2]},{"code":401,"indent":0,"parameters":["Everything is humming along - the joint magic agreement is working well."]},{"code":0,"indent":0,"parameters":[]}]}],"x":5,"y":8},
{"id":4,"name":"EV004","note":"","pages":[{"conditions":{"actorId":1,"actorValid":false,"itemId":1,"itemValid":false,"selfSwitchCh":"A","selfSwitchValid":false,"switch1Id":1132,"switch1Valid":false,"switch2Id":1,"switch2Valid":false,"variableId":1,"variableValid":false,"variableValue":0},"directionFix":false,"image":{"tileId":0,"characterName":"Y DS_chara11","direction":4,"pattern":1,"characterIndex":4},"moveFrequency":3,"moveRoute":{"list":[{"code":0,"indent":null,"parameters":[]}],"repeat":true,"skippable":false,"wait":false},"moveSpeed":3,"moveType":0,"priorityType":1,"stepAnime":false,"through":false,"trigger":0,"walkAnime":true,"list":[{"code":101,"indent":0,"parameters":["Y DS_Actor11",4,0,2]},{"code":401,"indent":0,"parameters":["If you're looking for serious requests, I don't have any. My job is to listen to people whine."]},{"code":101,"indent":0,"parameters":["Aka emo2",5,0,2]},{"code":401,"indent":0,"parameters":["Sounds unpleasant."]},{"code":101,"indent":0,"parameters":["Y DS_Actor11",4,0,2]},{"code":401,"indent":0,"parameters":["Oh, I'm quite happy I moved here from the larger House of Petitions!"]},{"code":101,"indent":0,"parameters":["Y DS_Actor11",4,0,2]},{"code":401,"indent":0,"parameters":["The people here can be petty, but they have NOTHING on the kinds of nobles we get over there."]},{"code":101,"indent":0,"parameters":["Y DS_Actor11",4,0,2]},{"code":401,"indent":0,"parameters":["A lot of these people I'm happy to give a listening ear to, it seems to do them some good."]},{"code":123,"indent":0,"parameters":["A",0]},{"code":0,"indent":0,"parameters":[]}]},{"conditions":{"actorId":1,"actorValid":false,"itemId":1,"itemValid":false,"selfSwitchCh":"A","selfSwitchValid":true,"switch1Id":1132,"switch1Valid":false,"switch2Id":1,"switch2Valid":false,"variableId":1,"variableValid":false,"variableValue":0},"directionFix":false,"image":{"tileId":0,"characterName":"Y DS_chara11","direction":4,"pattern":1,"characterIndex":4},"moveFrequency":3,"moveRoute":{"list":[{"code":0,"indent":null,"parameters":[]}],"repeat":true,"skippable":false,"wait":false},"moveSpeed":3,"moveType":0,"priorityType":1,"stepAnime":false,"through":false,"trigger":0,"walkAnime":true,"list":[{"code":101,"indent":0,"parameters":["Y DS_Actor11",4,0,2]},{"code":401,"indent":0,"parameters":["Hopefully as our operations expand, though, we'll actually be able to make more of a difference."]},{"code":0,"indent":0,"parameters":[]}]},{"conditions":{"actorId":1,"actorValid":false,"itemId":1,"itemValid":false,"selfSwitchCh":"A","selfSwitchValid":true,"switch1Id":2099,"switch1Valid":true,"switch2Id":1,"switch2Valid":false,"variableId":1,"variableValid":false,"variableValue":0},"directionFix":false,"image":{"tileId":0,"characterName":"Y DS_chara11","direction":4,"pattern":1,"characterIndex":4},"moveFrequency":3,"moveRoute":{"list":[{"code":0,"indent":null,"parameters":[]}],"repeat":true,"skippable":false,"wait":false},"moveSpeed":3,"moveType":0,"priorityType":1,"stepAnime":false,"through":false,"trigger":0,"walkAnime":true,"list":[{"code":101,"indent":0,"parameters":["Y DS_Actor11",4,0,2]},{"code":401,"indent":0,"parameters":["I feel as though we've really helped the people of Yhilin, at least a little."]},{"code":0,"indent":0,"parameters":[]}]}],"x":11,"y":8},
{"id":5,"name":"EV005","note":"","pages":[{"conditions":{"actorId":1,"actorValid":false,"itemId":1,"itemValid":false,"selfSwitchCh":"A","selfSwitchValid":false,"switch1Id":1,"switch1Valid":false,"switch2Id":1,"switch2Valid":false,"variableId":1,"variableValid":false,"variableValue":0},"directionFix":false,"image":{"tileId":0,"characterName":"","direction":2,"pattern":1,"characterIndex":0},"moveFrequency":3,"moveRoute":{"list":[{"code":0,"indent":null,"parameters":[]}],"repeat":true,"skippable":false,"wait":false},"moveSpeed":3,"moveType":0,"priorityType":0,"stepAnime":false,"through":false,"trigger":3,"walkAnime":true,"list":[{"code":101,"indent":0,"parameters":["1 Simon dark",0,0,2]},{"code":401,"indent":0,"parameters":["So, this is the second House of Petitions. We'll have to spread our funds thinner."]},{"code":101,"indent":0,"parameters":["Megail emo2",3,0,2]},{"code":401,"indent":0,"parameters":["Actually, that may be the only silver lining of the mess I've been dealing with."]},{"code":101,"indent":0,"parameters":["1 Simon dark",0,0,2]},{"code":401,"indent":0,"parameters":["What do you mean?"]},{"code":101,"indent":0,"parameters":["Megail emo2",4,0,2]},{"code":401,"indent":0,"parameters":["Let's... have this conversation in private."]},{"code":221,"indent":0,"parameters":[]},{"code":101,"indent":0,"parameters":["Megail emo2",0,0,2]},{"code":401,"indent":0,"parameters":["We have two problems. The first is a simple question of how to invest secretly, as you found in Darghelon and Gheldaron."]},{"code":101,"indent":0,"parameters":["1 Simon dark",0,0,2]},{"code":401,"indent":0,"parameters":["I still hope to invest there one day."]},{"code":101,"indent":0,"parameters":["Megail emo2",3,0,2]},{"code":401,"indent":0,"parameters":["But it won't be any time soon."]},{"code":101,"indent":0,"parameters":["Megail emo2",4,0,2]},{"code":401,"indent":0,"parameters":["Anyway, the second problem is the nobles."]},{"code":101,"indent":0,"parameters":["Aka emo2",0,0,2]},{"code":401,"indent":0,"parameters":["Tell us something we don't know."]},{"code":101,"indent":0,"parameters":["Megail emo2",1,0,2]},{"code":401,"indent":0,"parameters":["Heh. But really, they'll cause serious trouble if we spend too much money on the poorer parts of the city."]},{"code":101,"indent":0,"parameters":["Aka emo2",4,0,2]},{"code":401,"indent":0,"parameters":["I hope you're not going to suggest we should just ignore them."]},{"code":101,"indent":0,"parameters":["Megail emo2",4,0,2]},{"code":401,"indent":0,"parameters":["No. It pains me to say it, but maybe we should use our own money more altruistically at the moment."]},{"code":101,"indent":0,"parameters":["1 Simon dark",0,0,2]},{"code":401,"indent":0,"parameters":["Hmm..."]},{"code":101,"indent":0,"parameters":["Megail emo2",0,0,2]},{"code":401,"indent":0,"parameters":["It wouldn't be without profit. You'd gain rock solid support and control in the lower parts of Ari-Yhilina."]},{"code":101,"indent":0,"parameters":["Megail emo2",1,0,2]},{"code":401,"indent":0,"parameters":["And then, once we're more free to spend money, you could use that position to gain a lot of strong holdings."]},{"code":101,"indent":0,"parameters":["1 Simon dark",1,0,2]},{"code":401,"indent":0,"parameters":["I think that's worth considering. Thank you, Megail."]},{"code":101,"indent":0,"parameters":["Megail emo2",4,0,2]},{"code":401,"indent":0,"parameters":["I'll see about laundering our money to new entities. It won't go as far, but we should be able to fund some of the requests here."]},{"code":230,"indent":0,"parameters":[60]},{"code":121,"indent":0,"parameters":[1134,1134,0]},{"code":205,"indent":0,"parameters":[-1,{"list":[{"code":18,"indent":null,"parameters":[]},{"code":0,"indent":null,"parameters":[]}],"repeat":false,"skippable":false,"wait":true}]},{"code":505,"indent":0,"parameters":[{"code":18,"indent":null,"parameters":[]}]},{"code":222,"indent":0,"parameters":[]},{"code":122,"indent":0,"parameters":[8,8,0,0,0]},{"code":111,"indent":0,"parameters":[0,183,0]},{"code":122,"indent":1,"parameters":[8,8,2,0,10000]},{"code":0,"indent":1,"parameters":[]},{"code":412,"indent":0,"parameters":[]},{"code":111,"indent":0,"parameters":[0,185,0]},{"code":122,"indent":1,"parameters":[8,8,2,0,25000]},{"code":0,"indent":1,"parameters":[]},{"code":412,"indent":0,"parameters":[]},{"code":111,"indent":0,"parameters":[0,186,0]},{"code":122,"indent":1,"parameters":[8,8,1,0,100000]},{"code":0,"indent":1,"parameters":[]},{"code":412,"indent":0,"parameters":[]},{"code":111,"indent":0,"parameters":[0,187,0]},{"code":122,"indent":1,"parameters":[8,8,1,0,200000]},{"code":0,"indent":1,"parameters":[]},{"code":412,"indent":0,"parameters":[]},{"code":111,"indent":0,"parameters":[0,188,0]},{"code":122,"indent":1,"parameters":[8,8,1,0,25000]},{"code":0,"indent":1,"parameters":[]},{"code":412,"indent":0,"parameters":[]},{"code":111,"indent":0,"parameters":[0,189,0]},{"code":122,"indent":1,"parameters":[8,8,1,0,200000]},{"code":0,"indent":1,"parameters":[]},{"code":412,"indent":0,"parameters":[]},{"code":111,"indent":0,"parameters":[0,693,0]},{"code":111,"indent":1,"parameters":[0,200,0]},{"code":122,"indent":2,"parameters":[8,8,1,0,50000]},{"code":0,"indent":2,"parameters":[]},{"code":412,"indent":1,"parameters":[]},{"code":111,"indent":1,"parameters":[0,305,0]},{"code":122,"indent":2,"parameters":[8,8,1,0,125000]},{"code":0,"indent":2,"parameters":[]},{"code":412,"indent":1,"parameters":[]},{"code":0,"indent":1,"parameters":[]},{"code":411,"indent":0,"parameters":[]},{"code":111,"indent":1,"parameters":[0,200,0]},{"code":122,"indent":2,"parameters":[8,8,1,0,25000]},{"code":0,"indent":2,"parameters":[]},{"code":412,"indent":1,"parameters":[]},{"code":111,"indent":1,"parameters":[0,305,0]},{"code":122,"indent":2,"parameters":[8,8,1,0,50000]},{"code":0,"indent":2,"parameters":[]},{"code":412,"indent":1,"parameters":[]},{"code":0,"indent":1,"parameters":[]},{"code":412,"indent":0,"parameters":[]},{"code":111,"indent":0,"parameters":[0,306,0]},{"code":122,"indent":1,"parameters":[8,8,1,0,10000]},{"code":0,"indent":1,"parameters":[]},{"code":412,"indent":0,"parameters":[]},{"code":111,"indent":0,"parameters":[0,336,0]},{"code":122,"indent":1,"parameters":[8,8,1,0,15000]},{"code":0,"indent":1,"parameters":[]},{"code":412,"indent":0,"parameters":[]},{"code":111,"indent":0,"parameters":[0,308,0]},{"code":122,"indent":1,"parameters":[8,8,1,0,5000]},{"code":0,"indent":1,"parameters":[]},{"code":412,"indent":0,"parameters":[]},{"code":111,"indent":0,"parameters":[0,330,0]},{"code":122,"indent":1,"parameters":[8,8,1,0,20000]},{"code":0,"indent":1,"parameters":[]},{"code":412,"indent":0,"parameters":[]},{"code":111,"indent":0,"parameters":[0,331,0]},{"code":122,"indent":1,"parameters":[8,8,1,0,100000]},{"code":0,"indent":1,"parameters":[]},{"code":412,"indent":0,"parameters":[]},{"code":111,"indent":0,"parameters":[0,332,0]},{"code":122,"indent":1,"parameters":[8,8,1,0,100000]},{"code":0,"indent":1,"parameters":[]},{"code":412,"indent":0,"parameters":[]},{"code":101,"indent":0,"parameters":["Megail emo2",0,0,2]},{"code":401,"indent":0,"parameters":["Alright, done. I kept some in reserve and used some for our forces, of course."]},{"code":101,"indent":0,"parameters":["Megail emo2",0,0,2]},{"code":401,"indent":0,"parameters":["To keep things simpler for you, I've translated the numbers into a more basic system like we use at the other House of Petitions."]},{"code":111,"indent":0,"parameters":[1,8,0,900000,1]},{"code":122,"indent":1,"parameters":[167,167,0,0,100]},{"code":101,"indent":1,"parameters":["Megail emo2",0,0,2]},{"code":401,"indent":1,"parameters":["So basically, you now have 100% of a second budget to spend. Use it well."]},{"code":0,"indent":1,"parameters":[]},{"code":411,"indent":0,"parameters":[]},{"code":111,"indent":1,"parameters":[1,8,0,800000,1]},{"code":122,"indent":2,"parameters":[167,167,0,0,90]},{"code":101,"indent":2,"parameters":["Megail emo2",0,0,2]},{"code":401,"indent":2,"parameters":["After expenses, you now have 90% of a second budget to spend. Use it well."]},{"code":0,"indent":2,"parameters":[]},{"code":411,"indent":1,"parameters":[]},{"code":111,"indent":2,"parameters":[1,8,0,700000,1]},{"code":122,"indent":3,"parameters":[167,167,0,0,80]},{"code":101,"indent":3,"parameters":["Megail emo2",0,0,2]},{"code":401,"indent":3,"parameters":["After expenses, you now have 80% of a second budget to spend. Use it well."]},{"code":0,"indent":3,"parameters":[]},{"code":411,"indent":2,"parameters":[]},{"code":111,"indent":3,"parameters":[1,8,0,600000,1]},{"code":122,"indent":4,"parameters":[167,167,0,0,70]},{"code":101,"indent":4,"parameters":["Megail emo2",0,0,2]},{"code":401,"indent":4,"parameters":["After expenses, you now have 70% of a second budget to spend. Use it well."]},{"code":0,"indent":4,"parameters":[]},{"code":411,"indent":3,"parameters":[]},{"code":111,"indent":4,"parameters":[1,8,0,500000,1]},{"code":122,"indent":5,"parameters":[167,167,0,0,60]},{"code":101,"indent":5,"parameters":["Megail emo2",0,0,2]},{"code":401,"indent":5,"parameters":["After expenses, you now have 60% of a second budget to spend. Use it well."]},{"code":0,"indent":5,"parameters":[]},{"code":411,"indent":4,"parameters":[]},{"code":111,"indent":5,"parameters":[1,8,0,400000,1]},{"code":122,"indent":6,"parameters":[167,167,0,0,50]},{"code":101,"indent":6,"parameters":["Megail emo2",0,0,2]},{"code":401,"indent":6,"parameters":["After expenses, you now have 50% of a second budget to spend. Use it well."]},{"code":0,"indent":6,"parameters":[]},{"code":411,"indent":5,"parameters":[]},{"code":111,"indent":6,"parameters":[1,8,0,300000,1]},{"code":122,"indent":7,"parameters":[167,167,0,0,40]},{"code":101,"indent":7,"parameters":["Megail emo2",0,0,2]},{"code":401,"indent":7,"parameters":["After expenses, you now have 40% of a second budget to spend. Use it well."]},{"code":0,"indent":7,"parameters":[]},{"code":411,"indent":6,"parameters":[]},{"code":111,"indent":7,"parameters":[1,8,0,200000,1]},{"code":122,"indent":8,"parameters":[167,167,0,0,35]},{"code":101,"indent":8,"parameters":["Megail emo2",0,0,2]},{"code":401,"indent":8,"parameters":["After expenses, you now have 35% of a second budget to spend. Use it well."]},{"code":0,"indent":8,"parameters":[]},{"code":411,"indent":7,"parameters":[]},{"code":111,"indent":8,"parameters":[1,8,0,100000,1]},{"code":122,"indent":9,"parameters":[167,167,0,0,30]},{"code":101,"indent":9,"parameters":["Megail emo2",0,0,2]},{"code":401,"indent":9,"parameters":["After expenses, you now have 30% of a second budget to spend. Use it well."]},{"code":0,"indent":9,"parameters":[]},{"code":411,"indent":8,"parameters":[]},{"code":122,"indent":9,"parameters":[167,167,0,0,25]},{"code":101,"indent":9,"parameters":["Megail emo2",0,0,2]},{"code":401,"indent":9,"parameters":["After expenses, you now have 25% of a second budget to spend. Use it well."]},{"code":0,"indent":9,"parameters":[]},{"code":412,"indent":8,"parameters":[]},{"code":0,"indent":8,"parameters":[]},{"code":412,"indent":7,"parameters":[]},{"code":0,"indent":7,"parameters":[]},{"code":412,"indent":6,"parameters":[]},{"code":0,"indent":6,"parameters":[]},{"code":412,"indent":5,"parameters":[]},{"code":0,"indent":5,"parameters":[]},{"code":412,"indent":4,"parameters":[]},{"code":0,"indent":4,"parameters":[]},{"code":412,"indent":3,"parameters":[]},{"code":0,"indent":3,"parameters":[]},{"code":412,"indent":2,"parameters":[]},{"code":0,"indent":2,"parameters":[]},{"code":412,"indent":1,"parameters":[]},{"code":0,"indent":1,"parameters":[]},{"code":412,"indent":0,"parameters":[]},{"code":123,"indent":0,"parameters":["A",0]},{"code":0,"indent":0,"parameters":[]}]},{"conditions":{"actorId":1,"actorValid":false,"itemId":1,"itemValid":false,"selfSwitchCh":"A","selfSwitchValid":true,"switch1Id":1,"switch1Valid":false,"switch2Id":1,"switch2Valid":false,"variableId":1,"variableValid":false,"variableValue":0},"directionFix":false,"image":{"tileId":0,"characterName":"","direction":2,"pattern":0,"characterIndex":0},"moveFrequency":3,"moveRoute":{"list":[{"code":0,"indent":null,"parameters":[]}],"repeat":true,"skippable":false,"wait":false},"moveSpeed":3,"moveType":0,"priorityType":0,"stepAnime":false,"through":false,"trigger":0,"walkAnime":true,"list":[{"code":0,"indent":0,"parameters":[]}]},{"conditions":{"actorId":1,"actorValid":false,"itemId":1,"itemValid":false,"selfSwitchCh":"A","selfSwitchValid":false,"switch1Id":2099,"switch1Valid":true,"switch2Id":1,"switch2Valid":false,"variableId":1,"variableValid":false,"variableValue":0},"directionFix":false,"image":{"tileId":0,"characterName":"","direction":2,"pattern":0,"characterIndex":0},"moveFrequency":3,"moveRoute":{"list":[{"code":0,"indent":null,"parameters":[]}],"repeat":true,"skippable":false,"wait":false},"moveSpeed":3,"moveType":0,"priorityType":0,"stepAnime":false,"through":false,"trigger":0,"walkAnime":true,"list":[{"code":0,"indent":0,"parameters":[]}]}],"x":0,"y":0},
{"id":6,"name":"Megail","note":"","pages":[{"conditions":{"actorId":1,"actorValid":false,"itemId":1,"itemValid":false,"selfSwitchCh":"A","selfSwitchValid":false,"switch1Id":1134,"switch1Valid":true,"switch2Id":1,"switch2Valid":false,"variableId":1,"variableValid":false,"variableValue":0},"directionFix":false,"image":{"tileId":0,"characterName":"Megail char","direction":4,"pattern":1,"characterIndex":0},"moveFrequency":3,"moveRoute":{"list":[{"code":0,"indent":null,"parameters":[]}],"repeat":true,"skippable":false,"wait":false},"moveSpeed":3,"moveType":0,"priorityType":1,"stepAnime":false,"through":false,"trigger":0,"walkAnime":true,"list":[{"code":101,"indent":0,"parameters":["Megail emo2",0,0,2]},{"code":401,"indent":0,"parameters":["You have \\V[167]% of your personal budget left to spend."]},{"code":101,"indent":0,"parameters":["Megail emo2",3,0,2]},{"code":401,"indent":0,"parameters":["This is all we're getting, so you might want to save some for later opportunities."]},{"code":0,"indent":0,"parameters":[]}]},{"conditions":{"actorId":1,"actorValid":false,"itemId":1,"itemValid":false,"selfSwitchCh":"A","selfSwitchValid":false,"switch1Id":2099,"switch1Valid":true,"switch2Id":1,"switch2Valid":false,"variableId":1,"variableValid":false,"variableValue":0},"directionFix":false,"image":{"tileId":0,"characterName":"","direction":2,"pattern":0,"characterIndex":0},"moveFrequency":3,"moveRoute":{"list":[{"code":0,"indent":null,"parameters":[]}],"repeat":true,"skippable":false,"wait":false},"moveSpeed":3,"moveType":0,"priorityType":0,"stepAnime":false,"through":false,"trigger":0,"walkAnime":true,"list":[{"code":0,"indent":0,"parameters":[]}]}],"x":9,"y":9},
{"id":7,"name":"EV007","note":"","pages":[{"conditions":{"actorId":1,"actorValid":false,"itemId":1,"itemValid":false,"selfSwitchCh":"A","selfSwitchValid":false,"switch1Id":1289,"switch1Valid":true,"switch2Id":1,"switch2Valid":false,"variableId":1,"variableValid":false,"variableValue":0},"directionFix":true,"image":{"tileId":717,"characterName":"","direction":2,"pattern":0,"characterIndex":0},"moveFrequency":3,"moveRoute":{"list":[{"code":0,"indent":null,"parameters":[]}],"repeat":true,"skippable":false,"wait":false},"moveSpeed":3,"moveType":0,"priorityType":1,"stepAnime":false,"through":false,"trigger":0,"walkAnime":true,"list":[{"code":101,"indent":0,"parameters":["1 Simon dark",0,0,2]},{"code":401,"indent":0,"parameters":["Hmm. This one is actually for us."]},{"code":101,"indent":0,"parameters":["1 Simon dark",0,0,2]},{"code":401,"indent":0,"parameters":["It seems that since the city has recovered so much, some are calling for some kind of city-wide celebration."]},{"code":101,"indent":0,"parameters":["Megail emo2",2,0,2]},{"code":401,"indent":0,"parameters":["Of course they are."]},{"code":101,"indent":0,"parameters":["Hilstara emo",0,0,2]},{"code":401,"indent":0,"parameters":["The impact of such things on public opinion shouldn't be underestimated, though."]},{"code":101,"indent":0,"parameters":["Megail emo2",0,0,2]},{"code":401,"indent":0,"parameters":["I don't disagree, I just don't like it."]},{"code":101,"indent":0,"parameters":["Megail emo2",4,0,2]},{"code":401,"indent":0,"parameters":["If you want to buy good will this way, well... you'll be in good company with a lot of other monarchs."]},{"code":101,"indent":0,"parameters":["1 Simon dark",0,0,2]},{"code":401,"indent":0,"parameters":["..."]},{"code":123,"indent":0,"parameters":["A",0]},{"code":0,"indent":0,"parameters":[]}]},{"conditions":{"actorId":1,"actorValid":false,"itemId":1,"itemValid":false,"selfSwitchCh":"A","selfSwitchValid":true,"switch1Id":1289,"switch1Valid":true,"switch2Id":1,"switch2Valid":false,"variableId":1,"variableValid":false,"variableValue":0},"directionFix":true,"image":{"tileId":717,"characterName":"","direction":2,"pattern":0,"characterIndex":0},"moveFrequency":3,"moveRoute":{"list":[{"code":0,"indent":null,"parameters":[]}],"repeat":true,"skippable":false,"wait":false},"moveSpeed":3,"moveType":0,"priorityType":1,"stepAnime":false,"through":false,"trigger":0,"walkAnime":true,"list":[{"code":101,"indent":0,"parameters":["1 Simon dark",0,0,2]},{"code":401,"indent":0,"parameters":["Are we interested in throwing a celebration to generate good will?"]},{"code":102,"indent":0,"parameters":[["Small (10%)","Medium (20%)","Large (30%)","Not now"],3,0,2,0]},{"code":402,"indent":0,"parameters":[0,"Small (10%)"]},{"code":111,"indent":1,"parameters":[1,167,0,10,1]},{"code":122,"indent":2,"parameters":[167,167,2,0,10]},{"code":122,"indent":2,"parameters":[70,70,1,0,1]},{"code":122,"indent":2,"parameters":[115,115,1,0,1]},{"code":101,"indent":2,"parameters":["Nalili emo1",0,0,2]},{"code":401,"indent":2,"parameters":["Are we actually going to participate in this celebration?"]},{"code":101,"indent":2,"parameters":["1 Simon dark",0,0,2]},{"code":401,"indent":2,"parameters":["No, it's for the people of Yhilin."]},{"code":101,"indent":2,"parameters":["Nalili emo2",0,0,2]},{"code":401,"indent":2,"parameters":["Yeah, I figured."]},{"code":101,"indent":2,"parameters":["Qum D'umpe emo",6,0,2]},{"code":401,"indent":2,"parameters":["Cumdump will celebrate with you!"]},{"code":101,"indent":2,"parameters":["Nalili emo1",5,0,2]},{"code":401,"indent":2,"parameters":["Sounds good to me!"]},{"code":101,"indent":2,"parameters":["Hilstara emo",0,0,2]},{"code":401,"indent":2,"parameters":["I assume we'll leave the planning and execution of this to others?"]},{"code":101,"indent":2,"parameters":["1 Simon dark",0,0,2]},{"code":401,"indent":2,"parameters":["Yes, we don't have time for it."]},{"code":221,"indent":2,"parameters":[]},{"code":123,"indent":2,"parameters":["B",0]},{"code":230,"indent":2,"parameters":[60]},{"code":222,"indent":2,"parameters":[]},{"code":0,"indent":2,"parameters":[]},{"code":411,"indent":1,"parameters":[]},{"code":101,"indent":2,"parameters":["1 Simon dark",0,0,2]},{"code":401,"indent":2,"parameters":["Perhaps we should consider other options."]},{"code":0,"indent":2,"parameters":[]},{"code":412,"indent":1,"parameters":[]},{"code":0,"indent":1,"parameters":[]},{"code":402,"indent":0,"parameters":[1,"Medium (20%)"]},{"code":111,"indent":1,"parameters":[1,167,0,20,1]},{"code":122,"indent":2,"parameters":[167,167,2,0,20]},{"code":122,"indent":2,"parameters":[70,70,1,0,3]},{"code":122,"indent":2,"parameters":[115,115,1,0,2]},{"code":101,"indent":2,"parameters":["Nalili emo1",0,0,2]},{"code":401,"indent":2,"parameters":["Are we actually going to participate in this celebration?"]},{"code":101,"indent":2,"parameters":["1 Simon dark",0,0,2]},{"code":401,"indent":2,"parameters":["No, it's for the people of Yhilin."]},{"code":101,"indent":2,"parameters":["Nalili emo2",0,0,2]},{"code":401,"indent":2,"parameters":["Yeah, I figured."]},{"code":101,"indent":2,"parameters":["Qum D'umpe emo",6,0,2]},{"code":401,"indent":2,"parameters":["Cumdump will celebrate with you!"]},{"code":101,"indent":2,"parameters":["Nalili emo1",5,0,2]},{"code":401,"indent":2,"parameters":["Sounds good to me!"]},{"code":101,"indent":2,"parameters":["Hilstara emo",0,0,2]},{"code":401,"indent":2,"parameters":["I assume we'll leave the planning and execution of this to others?"]},{"code":101,"indent":2,"parameters":["1 Simon dark",0,0,2]},{"code":401,"indent":2,"parameters":["Yes, we don't have time for it."]},{"code":221,"indent":2,"parameters":[]},{"code":123,"indent":2,"parameters":["B",0]},{"code":230,"indent":2,"parameters":[60]},{"code":222,"indent":2,"parameters":[]},{"code":0,"indent":2,"parameters":[]},{"code":411,"indent":1,"parameters":[]},{"code":101,"indent":2,"parameters":["1 Simon dark",0,0,2]},{"code":401,"indent":2,"parameters":["Perhaps we should consider other options."]},{"code":0,"indent":2,"parameters":[]},{"code":412,"indent":1,"parameters":[]},{"code":0,"indent":1,"parameters":[]},{"code":402,"indent":0,"parameters":[2,"Large (30%)"]},{"code":111,"indent":1,"parameters":[1,167,0,30,1]},{"code":122,"indent":2,"parameters":[167,167,2,0,30]},{"code":122,"indent":2,"parameters":[70,70,1,0,7]},{"code":122,"indent":2,"parameters":[115,115,1,0,3]},{"code":101,"indent":2,"parameters":["Nalili emo1",0,0,2]},{"code":401,"indent":2,"parameters":["Are we actually going to participate in this celebration?"]},{"code":101,"indent":2,"parameters":["1 Simon dark",0,0,2]},{"code":401,"indent":2,"parameters":["No, it's for the people of Yhilin."]},{"code":101,"indent":2,"parameters":["Nalili emo2",0,0,2]},{"code":401,"indent":2,"parameters":["Yeah, I figured."]},{"code":101,"indent":2,"parameters":["Qum D'umpe emo",6,0,2]},{"code":401,"indent":2,"parameters":["Cumdump will celebrate with you!"]},{"code":101,"indent":2,"parameters":["Nalili emo1",5,0,2]},{"code":401,"indent":2,"parameters":["Sounds good to me!"]},{"code":101,"indent":2,"parameters":["Hilstara emo",0,0,2]},{"code":401,"indent":2,"parameters":["I assume we'll leave the planning and execution of this to others?"]},{"code":101,"indent":2,"parameters":["1 Simon dark",0,0,2]},{"code":401,"indent":2,"parameters":["Yes, we don't have time for it."]},{"code":221,"indent":2,"parameters":[]},{"code":123,"indent":2,"parameters":["B",0]},{"code":230,"indent":2,"parameters":[60]},{"code":222,"indent":2,"parameters":[]},{"code":0,"indent":2,"parameters":[]},{"code":411,"indent":1,"parameters":[]},{"code":101,"indent":2,"parameters":["1 Simon dark",0,0,2]},{"code":401,"indent":2,"parameters":["Perhaps we should consider other options."]},{"code":0,"indent":2,"parameters":[]},{"code":412,"indent":1,"parameters":[]},{"code":0,"indent":1,"parameters":[]},{"code":402,"indent":0,"parameters":[3,"Not now"]},{"code":0,"indent":1,"parameters":[]},{"code":404,"indent":0,"parameters":[]},{"code":0,"indent":0,"parameters":[]}]},{"conditions":{"actorId":1,"actorValid":false,"itemId":1,"itemValid":false,"selfSwitchCh":"B","selfSwitchValid":true,"switch1Id":1,"switch1Valid":false,"switch2Id":1,"switch2Valid":false,"variableId":1,"variableValid":false,"variableValue":0},"directionFix":false,"image":{"tileId":0,"characterName":"","direction":2,"pattern":0,"characterIndex":0},"moveFrequency":3,"moveRoute":{"list":[{"code":0,"indent":null,"parameters":[]}],"repeat":true,"skippable":false,"wait":false},"moveSpeed":3,"moveType":0,"priorityType":0,"stepAnime":false,"through":false,"trigger":0,"walkAnime":true,"list":[{"code":0,"indent":0,"parameters":[]}]},{"conditions":{"actorId":1,"actorValid":false,"itemId":1,"itemValid":false,"selfSwitchCh":"B","selfSwitchValid":false,"switch1Id":2099,"switch1Valid":true,"switch2Id":1,"switch2Valid":false,"variableId":1,"variableValid":false,"variableValue":0},"directionFix":false,"image":{"tileId":0,"characterName":"","direction":2,"pattern":0,"characterIndex":0},"moveFrequency":3,"moveRoute":{"list":[{"code":0,"indent":null,"parameters":[]}],"repeat":true,"skippable":false,"wait":false},"moveSpeed":3,"moveType":0,"priorityType":0,"stepAnime":false,"through":false,"trigger":0,"walkAnime":true,"list":[{"code":0,"indent":0,"parameters":[]}]}],"x":11,"y":4},
{"id":8,"name":"EV008","note":"","pages":[{"conditions":{"actorId":1,"actorValid":false,"itemId":1,"itemValid":false,"selfSwitchCh":"A","selfSwitchValid":false,"switch1Id":1,"switch1Valid":false,"switch2Id":1,"switch2Valid":false,"variableId":1,"variableValid":false,"variableValue":0},"directionFix":false,"image":{"tileId":0,"characterName":"","direction":2,"pattern":0,"characterIndex":0},"moveFrequency":3,"moveRoute":{"list":[{"code":0,"indent":null,"parameters":[]}],"repeat":true,"skippable":false,"wait":false},"moveSpeed":3,"moveType":0,"priorityType":1,"stepAnime":false,"through":false,"trigger":0,"walkAnime":true,"list":[{"code":101,"indent":0,"parameters":["1 Simon dark",0,0,2]},{"code":401,"indent":0,"parameters":["These appear to be unremarkable petitions."]},{"code":101,"indent":0,"parameters":["Megail emo2",4,0,2]},{"code":401,"indent":0,"parameters":["If we have leftover money, I'll see about funding some of them..."]},{"code":0,"indent":0,"parameters":[]}]},{"conditions":{"actorId":1,"actorValid":false,"itemId":1,"itemValid":false,"selfSwitchCh":"A","selfSwitchValid":false,"switch1Id":2099,"switch1Valid":true,"switch2Id":1,"switch2Valid":false,"variableId":1,"variableValid":false,"variableValue":0},"directionFix":false,"image":{"tileId":0,"characterName":"","direction":2,"pattern":0,"characterIndex":0},"moveFrequency":3,"moveRoute":{"list":[{"code":0,"indent":null,"parameters":[]}],"repeat":true,"skippable":false,"wait":false},"moveSpeed":3,"moveType":0,"priorityType":1,"stepAnime":false,"through":false,"trigger":0,"walkAnime":true,"list":[{"code":101,"indent":0,"parameters":["1 Simon dark",0,0,2]},{"code":401,"indent":0,"parameters":["These appear to be unremarkable petitions."]},{"code":0,"indent":0,"parameters":[]}]}],"x":6,"y":4},
{"id":9,"name":"EV009","note":"","pages":[{"conditions":{"actorId":1,"actorValid":false,"itemId":1,"itemValid":false,"selfSwitchCh":"A","selfSwitchValid":false,"switch1Id":1,"switch1Valid":false,"switch2Id":1,"switch2Valid":false,"variableId":1,"variableValid":false,"variableValue":0},"directionFix":false,"image":{"tileId":0,"characterName":"","direction":2,"pattern":0,"characterIndex":0},"moveFrequency":3,"moveRoute":{"list":[{"code":0,"indent":null,"parameters":[]}],"repeat":true,"skippable":false,"wait":false},"moveSpeed":3,"moveType":0,"priorityType":1,"stepAnime":false,"through":false,"trigger":0,"walkAnime":true,"list":[{"code":101,"indent":0,"parameters":["1 Simon dark",0,0,2]},{"code":401,"indent":0,"parameters":["These appear to be unremarkable petitions."]},{"code":101,"indent":0,"parameters":["Megail emo2",4,0,2]},{"code":401,"indent":0,"parameters":["If we have leftover money, I'll see about funding some of them..."]},{"code":0,"indent":0,"parameters":[]}]},{"conditions":{"actorId":1,"actorValid":false,"itemId":1,"itemValid":false,"selfSwitchCh":"A","selfSwitchValid":false,"switch1Id":2099,"switch1Valid":true,"switch2Id":1,"switch2Valid":false,"variableId":1,"variableValid":false,"variableValue":0},"directionFix":false,"image":{"tileId":0,"characterName":"","direction":2,"pattern":0,"characterIndex":0},"moveFrequency":3,"moveRoute":{"list":[{"code":0,"indent":null,"parameters":[]}],"repeat":true,"skippable":false,"wait":false},"moveSpeed":3,"moveType":0,"priorityType":1,"stepAnime":false,"through":false,"trigger":0,"walkAnime":true,"list":[{"code":101,"indent":0,"parameters":["1 Simon dark",0,0,2]},{"code":401,"indent":0,"parameters":["These appear to be unremarkable petitions."]},{"code":0,"indent":0,"parameters":[]}]}],"x":10,"y":4},
{"id":10,"name":"EV010","note":"","pages":[{"conditions":{"actorId":1,"actorValid":false,"itemId":1,"itemValid":false,"selfSwitchCh":"A","selfSwitchValid":false,"switch1Id":1289,"switch1Valid":true,"switch2Id":1,"switch2Valid":false,"variableId":1,"variableValid":false,"variableValue":0},"directionFix":true,"image":{"tileId":717,"characterName":"","direction":2,"pattern":0,"characterIndex":0},"moveFrequency":3,"moveRoute":{"list":[{"code":0,"indent":null,"parameters":[]}],"repeat":true,"skippable":false,"wait":false},"moveSpeed":3,"moveType":0,"priorityType":1,"stepAnime":false,"through":false,"trigger":0,"walkAnime":true,"list":[{"code":101,"indent":0,"parameters":["1 Simon dark",0,0,2]},{"code":401,"indent":0,"parameters":["Hmm... one of these is a request by a succubus looking for investors in a new sex shop..."]},{"code":101,"indent":0,"parameters":["Megail emo2",0,0,2]},{"code":401,"indent":0,"parameters":["These numbers are nonsense, though. I can definitely negotiate them down."]},{"code":102,"indent":0,"parameters":[["Invest (35%)","Not now"],1,0,2,0]},{"code":402,"indent":0,"parameters":[0,"Invest (35%)"]},{"code":111,"indent":1,"parameters":[1,167,0,25,1]},{"code":122,"indent":2,"parameters":[167,167,2,0,25]},{"code":101,"indent":2,"parameters":["1 Simon dark",0,0,2]},{"code":401,"indent":2,"parameters":["I think we can just fund the entire thing in return for a proper stake."]},{"code":101,"indent":2,"parameters":["Megail emo2",1,0,2]},{"code":401,"indent":2,"parameters":["Good call. Let's contact the petitioner and negotiate..."]},{"code":221,"indent":2,"parameters":[]},{"code":121,"indent":2,"parameters":[1328,1328,0]},{"code":230,"indent":2,"parameters":[60]},{"code":222,"indent":2,"parameters":[]},{"code":101,"indent":2,"parameters":["Megail emo2",0,0,2]},{"code":401,"indent":2,"parameters":["Alright, done. The succubus was nothing special, but she has a decent head for business."]},{"code":101,"indent":2,"parameters":["Megail emo2",1,0,2]},{"code":401,"indent":2,"parameters":["Still got her negotiated down, though. It only took 25% of the budget for us to buy her store."]},{"code":101,"indent":2,"parameters":["1 Simon dark",1,0,2]},{"code":401,"indent":2,"parameters":["Thank you, Megail."]},{"code":122,"indent":2,"parameters":[111,111,1,0,5]},{"code":122,"indent":2,"parameters":[115,115,1,0,2]},{"code":101,"indent":2,"parameters":["Megail emo2",3,0,2]},{"code":401,"indent":2,"parameters":["No, thank you for managing to turn a profit even while we're being all altruistic..."]},{"code":0,"indent":2,"parameters":[]},{"code":411,"indent":1,"parameters":[]},{"code":101,"indent":2,"parameters":["1 Simon dark",0,0,2]},{"code":401,"indent":2,"parameters":["I'm not interested in a partial stake."]},{"code":0,"indent":2,"parameters":[]},{"code":412,"indent":1,"parameters":[]},{"code":0,"indent":1,"parameters":[]},{"code":402,"indent":0,"parameters":[1,"Not now"]},{"code":0,"indent":1,"parameters":[]},{"code":404,"indent":0,"parameters":[]},{"code":0,"indent":0,"parameters":[]}]},{"conditions":{"actorId":1,"actorValid":false,"itemId":1,"itemValid":false,"selfSwitchCh":"A","selfSwitchValid":false,"switch1Id":1289,"switch1Valid":true,"switch2Id":2099,"switch2Valid":true,"variableId":1,"variableValid":false,"variableValue":0},"directionFix":true,"image":{"tileId":717,"characterName":"","direction":2,"pattern":0,"characterIndex":0},"moveFrequency":3,"moveRoute":{"list":[{"code":0,"indent":null,"parameters":[]}],"repeat":true,"skippable":false,"wait":false},"moveSpeed":3,"moveType":0,"priorityType":1,"stepAnime":false,"through":false,"trigger":0,"walkAnime":true,"list":[{"code":101,"indent":0,"parameters":["1 Simon dark",0,0,2]},{"code":401,"indent":0,"parameters":["Hmm... one of these is a request by a succubus looking for investors in a new sex shop..."]},{"code":102,"indent":0,"parameters":[["Invest (350,000 ProN)","Not now"],1,0,2,0]},{"code":402,"indent":0,"parameters":[0,"Invest (350,000 ProN)"]},{"code":111,"indent":1,"parameters":[1,10,0,350000,1]},{"code":122,"indent":2,"parameters":[10,10,2,0,350000]},{"code":101,"indent":2,"parameters":["1 Simon dark",0,0,2]},{"code":401,"indent":2,"parameters":["I think we can just fund the entire thing in return for a proper stake."]},{"code":101,"indent":2,"parameters":["Megail emo2",1,0,2]},{"code":401,"indent":2,"parameters":["Good call. Let's contact the petitioner and negotiate..."]},{"code":221,"indent":2,"parameters":[]},{"code":121,"indent":2,"parameters":[1328,1328,0]},{"code":230,"indent":2,"parameters":[60]},{"code":222,"indent":2,"parameters":[]},{"code":101,"indent":2,"parameters":["Megail emo2",0,0,2]},{"code":401,"indent":2,"parameters":["Alright, done. The succubus was nothing special, but she has a decent head for business."]},{"code":101,"indent":2,"parameters":["1 Simon dark",1,0,2]},{"code":401,"indent":2,"parameters":["Thank you, Megail."]},{"code":122,"indent":2,"parameters":[111,111,1,0,2]},{"code":122,"indent":2,"parameters":[115,115,1,0,2]},{"code":101,"indent":2,"parameters":["Megail emo2",3,0,2]},{"code":401,"indent":2,"parameters":["No, thank you for managing to turn a profit even while we're being all altruistic..."]},{"code":0,"indent":2,"parameters":[]},{"code":411,"indent":1,"parameters":[]},{"code":101,"indent":2,"parameters":["1 Simon dark",0,0,2]},{"code":401,"indent":2,"parameters":["I'm not interested in a partial stake."]},{"code":0,"indent":2,"parameters":[]},{"code":412,"indent":1,"parameters":[]},{"code":0,"indent":1,"parameters":[]},{"code":402,"indent":0,"parameters":[1,"Not now"]},{"code":0,"indent":1,"parameters":[]},{"code":404,"indent":0,"parameters":[]},{"code":0,"indent":0,"parameters":[]}]},{"conditions":{"actorId":1,"actorValid":false,"itemId":1,"itemValid":false,"selfSwitchCh":"A","selfSwitchValid":false,"switch1Id":1328,"switch1Valid":true,"switch2Id":1,"switch2Valid":false,"variableId":1,"variableValid":false,"variableValue":0},"directionFix":false,"image":{"tileId":0,"characterName":"","direction":2,"pattern":0,"characterIndex":0},"moveFrequency":3,"moveRoute":{"list":[{"code":0,"indent":null,"parameters":[]}],"repeat":true,"skippable":false,"wait":false},"moveSpeed":3,"moveType":0,"priorityType":0,"stepAnime":false,"through":false,"trigger":0,"walkAnime":true,"list":[{"code":0,"indent":0,"parameters":[]}]}],"x":5,"y":4},
{"id":11,"name":"EV011","note":"","pages":[{"conditions":{"actorId":1,"actorValid":false,"itemId":1,"itemValid":false,"selfSwitchCh":"A","selfSwitchValid":false,"switch1Id":1639,"switch1Valid":true,"switch2Id":1,"switch2Valid":false,"variableId":1,"variableValid":false,"variableValue":0},"directionFix":false,"image":{"tileId":0,"characterName":"","direction":2,"pattern":0,"characterIndex":0},"moveFrequency":3,"moveRoute":{"list":[{"code":0,"indent":null,"parameters":[]}],"repeat":true,"skippable":false,"wait":false},"moveSpeed":3,"moveType":0,"priorityType":0,"stepAnime":false,"through":false,"trigger":3,"walkAnime":true,"list":[{"code":101,"indent":0,"parameters":["Uyae emo",0,0,2]},{"code":401,"indent":0,"parameters":["\\C[1]Thy system of government is exceedingly strange, but I believe I approve."]},{"code":101,"indent":0,"parameters":["1 Simon dark",0,0,2]},{"code":401,"indent":0,"parameters":["\\C[1]You find it that strange?"]},{"code":101,"indent":0,"parameters":["Uyae emo",5,0,2]},{"code":401,"indent":0,"parameters":["\\C[1]I was taught that ordinary monarchies were corrupt and weak governments. This is one view that did NOT entirely change upon leaving Zirantia."]},{"code":101,"indent":0,"parameters":["Uyae emo",0,0,2]},{"code":401,"indent":0,"parameters":["\\C[1]But I had assumed that this meant the peasants had no rights. I see that is not the case."]},{"code":101,"indent":0,"parameters":["1 Simon dark",0,0,2]},{"code":401,"indent":0,"parameters":["\\C[1]There's still a great deal of inequality, though."]},{"code":101,"indent":0,"parameters":["Uyae emo",1,0,2]},{"code":401,"indent":0,"parameters":["\\C[1]Nay, not in spirit! This very house is evidence of the fact that even the lowest believe they deserve to have their views heard."]},{"code":101,"indent":0,"parameters":["Uyae emo",0,0,2]},{"code":401,"indent":0,"parameters":["\\C[1]In Zirantia, the most they could hope for would be clawing respect via strength, either personal or in unity."]},{"code":101,"indent":0,"parameters":["1 Simon dark",0,0,2]},{"code":401,"indent":0,"parameters":["\\C[1]Hmm. I was thinking of asking what you thought of the political situation here."]},{"code":101,"indent":0,"parameters":["Uyae emo",0,0,2]},{"code":401,"indent":0,"parameters":["\\C[1]It is strange indeed to see no political parties to represent the people. As I said, each believes they may speak for themselves."]},{"code":101,"indent":0,"parameters":["Uyae emo",4,0,2]},{"code":401,"indent":0,"parameters":["\\C[1]At the same time, I fear they have less voice. Prior to thine invasion of this place, I doubt anyone represented them."]},{"code":101,"indent":0,"parameters":["1 Simon dark",0,0,2]},{"code":401,"indent":0,"parameters":["\\C[1]That's true. But I think in Zirantia or anywhere else, the longer institutions exist, the more they will serve those in power."]},{"code":101,"indent":0,"parameters":["Uyae emo",1,0,2]},{"code":401,"indent":0,"parameters":["\\C[1]Thy words may be true. But I continue to believe that it is possible to do better."]},{"code":101,"indent":0,"parameters":["1 Simon dark",1,0,2]},{"code":401,"indent":0,"parameters":["\\C[1]I hope you're right."]},{"code":122,"indent":0,"parameters":[143,143,1,0,1]},{"code":123,"indent":0,"parameters":["A",0]},{"code":0,"indent":0,"parameters":[]}]},{"conditions":{"actorId":1,"actorValid":false,"itemId":1,"itemValid":false,"selfSwitchCh":"A","selfSwitchValid":true,"switch1Id":1,"switch1Valid":false,"switch2Id":1,"switch2Valid":false,"variableId":1,"variableValid":false,"variableValue":0},"directionFix":false,"image":{"tileId":0,"characterName":"","direction":2,"pattern":0,"characterIndex":0},"moveFrequency":3,"moveRoute":{"list":[{"code":0,"indent":null,"parameters":[]}],"repeat":true,"skippable":false,"wait":false},"moveSpeed":3,"moveType":0,"priorityType":0,"stepAnime":false,"through":false,"trigger":0,"walkAnime":true,"list":[{"code":0,"indent":0,"parameters":[]}]},{"conditions":{"actorId":1,"actorValid":false,"itemId":1,"itemValid":false,"selfSwitchCh":"A","selfSwitchValid":false,"switch1Id":2099,"switch1Valid":true,"switch2Id":1,"switch2Valid":false,"variableId":1,"variableValid":false,"variableValue":0},"directionFix":false,"image":{"tileId":0,"characterName":"","direction":2,"pattern":0,"characterIndex":0},"moveFrequency":3,"moveRoute":{"list":[{"code":0,"indent":null,"parameters":[]}],"repeat":true,"skippable":false,"wait":false},"moveSpeed":3,"moveType":0,"priorityType":0,"stepAnime":false,"through":false,"trigger":0,"walkAnime":true,"list":[{"code":0,"indent":0,"parameters":[]}]}],"x":1,"y":0}
]
}