{
"autoplayBgm":false,"autoplayBgs":false,"battleback1Name":"","battleback2Name":"","bgm":{"name":"","pan":0,"pitch":100,"volume":100},"bgs":{"name":"","pan":0,"pitch":100,"volume":80},"disableDashing":false,"displayName":"The Unshaded Oak","encounterList":[],"encounterStep":30,"height":20,"note":"","parallaxLoopX":false,"parallaxLoopY":false,"parallaxName":"","parallaxShow":false,"parallaxSx":0,"parallaxSy":0,"scrollType":0,"specifyBattleback":false,"tilesetId":51,"width":20,
"data":[0,0,0,0,0,0,0,0,0,0,0,0,0,0,0,0,0,0,0,0,0,0,0,0,0,0,0,0,0,0,0,0,0,0,0,0,0,0,0,0,0,0,0,0,0,5923,5921,5921,5921,5921,5921,5921,5925,0,0,0,0,0,0,0,0,0,0,0,5923,5927,6274,6274,6274,6274,6274,6274,5890,5908,0,0,0,0,0,0,0,0,0,5923,5927,6278,6280,6280,6280,6280,6280,6280,6275,5888,5912,0,0,0,0,0,0,0,5923,5927,6278,6284,2850,2836,2836,2836,2837,2861,6281,6275,5890,5925,0,0,0,0,0,0,5920,6278,6284,2850,2817,2816,2816,2816,2840,3714,3716,6281,6275,5920,0,0,0,0,0,0,5920,6284,2850,2817,2816,2816,2816,2816,2840,3696,3682,3716,6281,5920,0,0,0,0,0,0,5920,2850,2817,2816,2816,2816,2816,2816,2840,3696,3680,3682,3716,5920,0,0,0,0,0,0,5920,2832,2816,2816,2816,2816,2816,2816,2840,3696,3680,3680,3704,5920,0,0,0,0,0,0,5920,2832,2816,2816,2816,2816,2816,2816,2840,3696,3680,3680,3704,5920,0,0,0,0,0,0,5920,2856,2824,2816,2816,2816,2816,2816,2840,3696,3680,3684,3718,5920,0,0,0,0,0,0,5929,5925,2856,2824,2816,2816,2816,2816,2840,3696,3684,3718,5923,5927,0,0,0,0,0,0,6275,5929,5925,2856,2824,2816,2816,2816,2840,3720,3718,5922,5914,6278,0,0,0,0,0,0,6281,6275,5929,5925,2856,2844,2844,2844,2846,2861,5923,5917,6278,6284,0,0,0,0,0,0,0,6281,6275,5929,5921,5921,5921,5921,5921,5921,5927,6278,6284,0,0,0,0,0,0,0,0,0,6281,6275,6274,6274,6274,6274,6274,6274,6278,6284,0,0,0,0,0,0,0,0,0,0,0,6281,6280,6280,6280,6280,6280,6280,6284,0,0,0,0,0,0,0,0,0,0,0,0,0,0,0,0,0,0,0,0,0,0,0,0,0,0,0,0,0,0,0,0,0,0,0,0,0,0,0,0,0,0,0,0,0,0,0,0,0,0,0,0,0,0,0,0,0,0,0,0,0,0,0,0,0,0,0,0,0,0,0,0,0,0,0,0,0,0,0,0,0,0,0,0,0,0,0,0,0,0,0,0,0,0,0,0,0,0,0,0,0,0,0,0,0,0,0,0,0,0,0,0,0,0,0,0,0,0,0,0,0,0,0,0,0,0,0,0,0,0,0,0,0,0,0,0,0,0,0,0,0,0,0,0,0,0,0,0,0,0,0,0,0,0,0,0,0,0,0,0,0,0,0,0,0,0,0,0,0,0,0,0,0,0,0,0,0,0,0,0,0,0,0,0,0,0,0,0,0,0,0,0,0,0,0,0,0,0,0,0,0,0,0,0,0,0,0,0,0,0,0,0,0,0,0,0,0,0,0,0,3571,3581,0,0,0,0,0,0,0,0,0,0,0,0,0,0,0,0,0,0,3568,0,0,0,0,0,0,0,0,0,0,0,0,0,0,0,0,0,0,0,3568,0,0,0,0,0,0,0,0,0,0,0,0,0,0,0,0,0,0,0,3577,3581,0,0,0,0,0,0,0,0,0,0,0,0,0,0,0,0,0,0,0,0,0,0,0,0,0,0,0,0,0,0,0,0,3187,3185,3185,3189,0,0,0,0,0,0,0,0,0,0,0,0,0,0,0,0,3196,0,0,3196,0,0,0,0,0,0,0,0,0,0,0,0,0,0,0,0,0,0,0,0,0,0,0,0,0,0,0,0,0,0,0,0,0,0,0,0,0,0,0,0,0,0,0,0,0,0,0,0,0,0,0,0,0,0,0,0,0,0,0,0,0,0,0,0,0,0,0,0,0,0,0,0,0,0,0,0,0,0,0,0,0,0,0,0,0,0,0,0,0,0,0,0,0,0,0,0,0,0,0,0,0,0,0,0,0,0,0,0,0,0,0,0,0,0,0,0,0,0,0,0,0,0,0,0,0,0,0,0,0,0,0,0,0,0,0,0,0,0,0,0,0,0,0,0,0,0,0,0,0,0,0,0,0,0,0,0,0,0,0,0,0,0,0,0,0,0,0,0,0,0,0,0,0,0,0,0,0,0,0,0,0,0,0,0,0,0,0,0,0,0,0,0,0,0,0,0,0,0,0,0,0,0,0,0,0,0,0,0,0,0,0,0,0,0,0,0,0,0,0,0,0,0,0,0,0,0,0,0,0,0,0,0,0,0,0,0,0,0,0,0,0,0,0,0,0,0,0,0,0,0,0,0,0,0,0,0,0,0,0,0,0,0,0,0,0,0,0,0,0,0,0,0,0,0,0,0,0,0,0,0,0,0,0,0,0,0,0,0,0,0,0,0,0,0,0,0,0,0,0,0,0,0,0,0,0,0,0,0,0,0,0,0,0,0,0,0,0,0,0,0,0,0,0,0,0,0,0,0,0,0,0,0,0,0,0,0,0,0,0,0,0,0,0,0,0,0,0,0,0,0,0,0,0,0,0,0,0,0,0,0,0,0,0,0,0,0,0,0,0,0,0,0,0,0,0,0,0,0,0,0,0,0,0,0,0,0,0,0,0,0,0,0,0,0,0,0,0,0,0,0,0,0,0,0,0,0,0,0,0,0,0,0,0,0,0,0,0,0,0,0,0,0,0,0,0,0,0,0,0,0,0,0,0,0,0,0,0,0,0,0,0,0,0,0,0,0,0,0,0,0,0,0,0,0,0,0,0,0,0,0,0,0,0,0,0,0,0,0,0,0,0,0,0,0,0,0,0,0,0,0,0,0,0,0,0,0,0,0,0,0,0,0,0,0,0,0,0,0,0,0,0,0,0,0,0,0,0,0,0,0,0,0,0,0,0,0,0,0,0,0,0,0,0,0,0,0,0,0,0,0,0,0,0,0,0,0,0,0,0,0,0,0,0,0,0,0,0,0,0,0,0,0,0,0,0,0,0,0,0,0,0,0,0,0,0,0,0,0,0,0,0,0,0,0,0,0,0,0,0,0,0,0,0,0,0,0,0,0,0,0,0,0,0,0,0,68,53,52,54,55,53,0,0,0,0,0,0,0,0,0,0,0,0,0,0,76,61,60,62,63,61,0,0,0,0,0,0,0,0,0,0,0,0,0,0,0,0,0,0,0,0,0,0,0,0,0,0,0,0,0,0,0,0,0,0,104,0,520,521,0,0,0,0,0,0,0,0,0,0,0,0,0,0,0,104,96,104,528,529,0,0,105,0,0,0,0,0,0,0,0,0,0,0,104,0,104,0,536,515,0,0,105,0,0,0,0,0,0,0,0,0,0,104,96,104,0,0,544,523,0,0,105,0,0,0,0,0,0,0,0,0,0,0,104,0,0,0,0,0,0,0,105,0,0,0,0,0,0,0,0,0,0,0,0,0,0,0,106,106,0,0,0,0,0,0,0,0,0,0,0,0,0,0,0,0,0,0,0,0,0,0,0,0,0,0,0,0,0,0,0,0,0,0,0,0,106,0,0,0,0,106,0,0,0,0,0,0,0,0,0,0,0,0,0,0,0,0,0,0,0,0,0,0,0,0,0,0,0,0,0,0,0,0,0,0,0,0,0,0,0,0,0,0,0,0,0,0,0,0,0,0,0,0,0,0,0,0,0,0,0,0,0,0,0,0,0,0,0,0,0,0,0,0,0,0,0,0,0,0,0,0,0,0,0,0,0,0,0,0,0,0,0,0,0,0,0,0,0,0,0,0,0,0,0,0,0,0,0,0,0,0,0,0,0,0,0,0,0,0,0,0,0,0,0,0,0,0,0,0,0,0,0,0,0,0,0,0,0,0,0,0,0,0,0,0,0,0,0,0,0,0,0,0,0,0,0,0,0,0,0,0,0,0,0,0,0,0,0,0,0,0,0,0,0,0,0,0,0,0,0,0,0,0,0,0,0,0,0,0,0,0,0,0,0,0,0,0,0,0,0,0,0,0,0,0,0,0,0,0,0,0,0,0,0,0,5,0,0,0,0,0,0,0,0,0,0,0,0,0,0,0,0,0,0,5,0,0,0,0,0,0,0,0,0,0,0,0,0,0,0,0,0,0,5,0,0,0,0,0,0,0,0,0,0,0,0,0,0,0,0,0,0,5,0,0,0,0,0,0,0,0,0,0,0,0,0,0,0,0,0,0,0,5,0,0,0,0,0,0,0,0,0,0,0,0,0,0,0,0,0,0,0,5,0,0,0,0,0,0,0,0,0,0,0,0,0,0,0,0,0,0,0,5,0,0,0,0,0,0,0,0,0,0,0,0,0,0,0,0,0,0,0,0,0,0,0,0,0,0,0,0,0,0,0,0,0,0,0,0,0,0,0,0,0,0,0,0,0,0,0,0,0,0,0,0,0,0,0,0,0,0,0,0,0,0,0,0,0,0,0,0,0,0,0,0,0,0,0,0,0,0,0,0,0,0,0,0,0,0,0,0,0,0,0,0,0,0,0,0,0,0,0,0,0,0,0,0,0,0,0,0,0,0,0,0,0,0,0,0,0,0,0,0,0,0,0,0,0,0,0,0,0,0,0,0,0,0,0,0,0,0,0,0,0,0,0,0,0,0,0,0,0,0,0,0,0,0,0,0,0,0,0,0,0,0,0,0,0,0,0,0,0,0,0,0,0,0,0,0,0,0,0,0,0,0,0,0,0,0,0,0,0,0,0,0,0,0,0,0,0,0,0,0,0,0,0,0,0,0,0,0,0,0,0,0,0,0,0,0,0,0,0,0,0,0,0,0,0,0,0,0,0,0,0,0,0,0,0,0,0,0,0,0,0,0,0,0,0,0,0,0,0,0,0,0,0,0,0,0,0,0,0,0,0,0,0,0,0,0,0,0,0,0,0,0,0,0,0,0,0,0,0,0,0,0,0,0,0,0,0,0,0,0,0,0,0,0,0,0,0,0,0,0,0,0,0,0,0,0,0,0,0,0,0,0,0,0,0,0,0,0,0,0,0,0,0,0,0,0,0,0,0,0,0,0,0,0,0,0,0,0,0,0,0,0,0,0,0,0,0,0,0,0,0,0,0,0,0,0,0,0,0,0,0,0,0,0,0,0,0,0,0,0,0,0,0,0,0,0,0,0,0,0,0,0,0,0,0,0,0,0,0,0,0,0,0,0,0,0,0,0,0,0,0,0,0,0,0,0,0,0,0,0,0,0,0,0,0,0,0,0,0,0,0,0,0,0,0,0,0,0,0,0,0,0,0,0,0,0,0,0,0,0,0,0,0,0,0,0,0,0,0,0,0,0,0,0,0,0,0,0,0,0,0,0,0,0,0,0,0,0,0,0,0,0,0,0,0,0,0,0,0,0,0,0,0,0,0,0,0,0,0,0,0,0,0,0,0,0,0,0,0,0,0,0,0,0,0,0,0,0,0,0,0,0,0,0,0,0,0,0,0,0,0,0,0,0,0,0,0,0,0,0,0,0,0,0,0,0,0,0,0,0,0,0,0,0,0,0,0,0,0,0,0,0,0,0,0,0,0,0,0,0,0,0,0,0,0,0,0,0,0,0,0,0,0,0,0,0],
"events":[
null,
{"id":1,"name":"Gheldaron Man","note":"","pages":[{"conditions":{"actorId":1,"actorValid":false,"itemId":1,"itemValid":false,"selfSwitchCh":"A","selfSwitchValid":false,"switch1Id":1,"switch1Valid":false,"switch2Id":1,"switch2Valid":false,"variableId":1,"variableValid":false,"variableValue":0},"directionFix":false,"image":{"tileId":0,"characterName":"$Z dark elf char","direction":6,"pattern":1,"characterIndex":0},"moveFrequency":3,"moveRoute":{"list":[{"code":0,"indent":null,"parameters":[]}],"repeat":true,"skippable":false,"wait":false},"moveSpeed":3,"moveType":0,"priorityType":1,"stepAnime":false,"through":false,"trigger":0,"walkAnime":true,"list":[{"code":101,"indent":0,"parameters":["Z dark elf emo",1,0,2]},{"code":401,"indent":0,"parameters":["My my... I never thought I'd see succubi for myself, much less that they'd be so beautiful."]},{"code":101,"indent":0,"parameters":["Nalili emo1",1,0,2]},{"code":401,"indent":0,"parameters":["Aren't we, though?"]},{"code":101,"indent":0,"parameters":["Z dark elf emo",5,0,2]},{"code":401,"indent":0,"parameters":["I'd give a lot for a night with one... not my soul, though."]},{"code":101,"indent":0,"parameters":["Yarra emo2",0,0,2]},{"code":401,"indent":0,"parameters":["You don't have to give your soul! And if you want to come visit Yhilin, you can have a lot more than one night!"]},{"code":101,"indent":0,"parameters":["Z dark elf emo",7,0,2]},{"code":401,"indent":0,"parameters":["Uh..."]},{"code":101,"indent":0,"parameters":["Z dark elf emo",3,0,2]},{"code":401,"indent":0,"parameters":["Maybe... some other time."]},{"code":101,"indent":0,"parameters":["Nalili emo1",0,0,2]},{"code":401,"indent":0,"parameters":["Your eyes are bigger than your stomach, huh?"]},{"code":101,"indent":0,"parameters":["Yarra emo2",1,0,2]},{"code":401,"indent":0,"parameters":["Aww. I wanna recruit some elves..."]},{"code":101,"indent":0,"parameters":["1 Simon dark",0,0,2]},{"code":401,"indent":0,"parameters":["Don't we really need women more than men?"]},{"code":101,"indent":0,"parameters":["Yarra emo2",0,0,2]},{"code":401,"indent":0,"parameters":["Sure, but succubi are a WAY easier pitch than orcs."]},{"code":122,"indent":0,"parameters":[165,165,1,0,1]},{"code":123,"indent":0,"parameters":["A",0]},{"code":0,"indent":0,"parameters":[]}]},{"conditions":{"actorId":1,"actorValid":false,"itemId":1,"itemValid":false,"selfSwitchCh":"A","selfSwitchValid":true,"switch1Id":1,"switch1Valid":false,"switch2Id":1,"switch2Valid":false,"variableId":1,"variableValid":false,"variableValue":0},"directionFix":false,"image":{"tileId":0,"characterName":"$Z dark elf char","direction":6,"pattern":1,"characterIndex":0},"moveFrequency":3,"moveRoute":{"list":[{"code":0,"indent":null,"parameters":[]}],"repeat":true,"skippable":false,"wait":false},"moveSpeed":3,"moveType":0,"priorityType":1,"stepAnime":false,"through":false,"trigger":0,"walkAnime":true,"list":[{"code":101,"indent":0,"parameters":["Z dark elf emo",6,0,2]},{"code":401,"indent":0,"parameters":["I guess some things really aren't worth it..."]},{"code":0,"indent":0,"parameters":[]}]},{"conditions":{"actorId":1,"actorValid":false,"itemId":1,"itemValid":false,"selfSwitchCh":"A","selfSwitchValid":false,"switch1Id":2099,"switch1Valid":true,"switch2Id":1,"switch2Valid":false,"variableId":1,"variableValid":false,"variableValue":0},"directionFix":false,"image":{"tileId":0,"characterName":"$Z dark elf char","direction":6,"pattern":1,"characterIndex":0},"moveFrequency":3,"moveRoute":{"list":[{"code":0,"indent":null,"parameters":[]}],"repeat":true,"skippable":false,"wait":false},"moveSpeed":3,"moveType":0,"priorityType":1,"stepAnime":false,"through":false,"trigger":0,"walkAnime":true,"list":[{"code":101,"indent":0,"parameters":["Z dark elf emo",6,0,2]},{"code":401,"indent":0,"parameters":["Let me drink in peace."]},{"code":0,"indent":0,"parameters":[]}]},{"conditions":{"actorId":1,"actorValid":false,"itemId":1,"itemValid":false,"selfSwitchCh":"A","selfSwitchValid":false,"switch1Id":3601,"switch1Valid":true,"switch2Id":1,"switch2Valid":false,"variableId":1,"variableValid":false,"variableValue":0},"directionFix":false,"image":{"tileId":0,"characterName":"$Z dark elf char","direction":6,"pattern":1,"characterIndex":0},"moveFrequency":3,"moveRoute":{"list":[{"code":0,"indent":null,"parameters":[]}],"repeat":true,"skippable":false,"wait":false},"moveSpeed":3,"moveType":0,"priorityType":1,"stepAnime":false,"through":false,"trigger":0,"walkAnime":true,"list":[{"code":101,"indent":0,"parameters":["Z dark elf emo",6,0,2]},{"code":401,"indent":0,"parameters":["Will we see orcs and succubi in the forests, one day?"]},{"code":0,"indent":0,"parameters":[]}]}],"x":12,"y":9},
{"id":2,"name":"EV002","note":"","pages":[{"conditions":{"actorId":1,"actorValid":false,"itemId":1,"itemValid":false,"selfSwitchCh":"A","selfSwitchValid":false,"switch1Id":1,"switch1Valid":false,"switch2Id":1,"switch2Valid":false,"variableId":1,"variableValid":false,"variableValue":0},"directionFix":false,"image":{"tileId":0,"characterName":"","direction":2,"pattern":0,"characterIndex":0},"moveFrequency":3,"moveRoute":{"list":[{"code":0,"indent":null,"parameters":[]}],"repeat":true,"skippable":false,"wait":false},"moveSpeed":3,"moveType":0,"priorityType":0,"stepAnime":false,"through":false,"trigger":1,"walkAnime":true,"list":[{"code":250,"indent":0,"parameters":[{"name":"Move","pan":0,"pitch":100,"volume":80}]},{"code":201,"indent":0,"parameters":[0,325,26,27,2,0]},{"code":0,"indent":0,"parameters":[]}]}],"x":9,"y":10},
{"id":3,"name":"EV003","note":"","pages":[{"conditions":{"actorId":1,"actorValid":false,"itemId":1,"itemValid":false,"selfSwitchCh":"A","selfSwitchValid":false,"switch1Id":1,"switch1Valid":false,"switch2Id":1,"switch2Valid":false,"variableId":164,"variableValid":false,"variableValue":3},"directionFix":false,"image":{"tileId":0,"characterName":"Evil","direction":6,"pattern":1,"characterIndex":3},"moveFrequency":3,"moveRoute":{"list":[{"code":0,"indent":null,"parameters":[]}],"repeat":true,"skippable":false,"wait":false},"moveSpeed":3,"moveType":0,"priorityType":1,"stepAnime":false,"through":false,"trigger":0,"walkAnime":true,"list":[{"code":101,"indent":0,"parameters":["Evil",3,0,2]},{"code":401,"indent":0,"parameters":["...let me drink in peace."]},{"code":0,"indent":0,"parameters":[]}]},{"conditions":{"actorId":1,"actorValid":false,"itemId":1,"itemValid":false,"selfSwitchCh":"A","selfSwitchValid":false,"switch1Id":1236,"switch1Valid":true,"switch2Id":1,"switch2Valid":false,"variableId":164,"variableValid":false,"variableValue":3},"directionFix":false,"image":{"tileId":0,"characterName":"Evil","direction":6,"pattern":1,"characterIndex":3},"moveFrequency":3,"moveRoute":{"list":[{"code":0,"indent":null,"parameters":[]}],"repeat":true,"skippable":false,"wait":false},"moveSpeed":3,"moveType":0,"priorityType":1,"stepAnime":false,"through":false,"trigger":0,"walkAnime":true,"list":[{"code":101,"indent":0,"parameters":["Evil",3,0,2]},{"code":401,"indent":0,"parameters":["\\c[3]I heard about you. Our weapons are expensive, but high quality.\\c[0]"]},{"code":302,"indent":0,"parameters":[1,151,0,0,true]},{"code":605,"indent":0,"parameters":[1,152,0,0]},{"code":605,"indent":0,"parameters":[1,153,0,0]},{"code":0,"indent":0,"parameters":[]}]},{"conditions":{"actorId":1,"actorValid":false,"itemId":1,"itemValid":false,"selfSwitchCh":"A","selfSwitchValid":false,"switch1Id":2099,"switch1Valid":true,"switch2Id":1,"switch2Valid":false,"variableId":164,"variableValid":false,"variableValue":3},"directionFix":false,"image":{"tileId":0,"characterName":"Evil","direction":6,"pattern":1,"characterIndex":3},"moveFrequency":3,"moveRoute":{"list":[{"code":0,"indent":null,"parameters":[]}],"repeat":true,"skippable":false,"wait":false},"moveSpeed":3,"moveType":0,"priorityType":1,"stepAnime":false,"through":false,"trigger":0,"walkAnime":true,"list":[{"code":101,"indent":0,"parameters":["Evil",3,0,2]},{"code":401,"indent":0,"parameters":["\\c[3]I heard about you. Our weapons are expensive, but high quality.\\c[0]"]},{"code":302,"indent":0,"parameters":[1,151,0,0,true]},{"code":605,"indent":0,"parameters":[1,152,0,0]},{"code":605,"indent":0,"parameters":[1,153,0,0]},{"code":0,"indent":0,"parameters":[]}]},{"conditions":{"actorId":1,"actorValid":false,"itemId":1,"itemValid":false,"selfSwitchCh":"A","selfSwitchValid":false,"switch1Id":3601,"switch1Valid":true,"switch2Id":1,"switch2Valid":false,"variableId":1,"variableValid":false,"variableValue":0},"directionFix":false,"image":{"tileId":0,"characterName":"","direction":2,"pattern":0,"characterIndex":0},"moveFrequency":3,"moveRoute":{"list":[{"code":0,"indent":null,"parameters":[]}],"repeat":true,"skippable":false,"wait":false},"moveSpeed":3,"moveType":0,"priorityType":0,"stepAnime":false,"through":false,"trigger":0,"walkAnime":true,"list":[{"code":0,"indent":0,"parameters":[]}]}],"x":6,"y":14},
{"id":4,"name":"Gheldaron Woman","note":"","pages":[{"conditions":{"actorId":1,"actorValid":false,"itemId":1,"itemValid":false,"selfSwitchCh":"A","selfSwitchValid":false,"switch1Id":1148,"switch1Valid":false,"switch2Id":1,"switch2Valid":false,"variableId":1,"variableValid":false,"variableValue":0},"directionFix":false,"image":{"tileId":0,"characterName":"Y elves","direction":2,"pattern":1,"characterIndex":1},"moveFrequency":3,"moveRoute":{"list":[{"code":0,"indent":null,"parameters":[]}],"repeat":true,"skippable":false,"wait":false},"moveSpeed":3,"moveType":0,"priorityType":1,"stepAnime":false,"through":false,"trigger":0,"walkAnime":true,"list":[{"code":101,"indent":0,"parameters":["Y Mother's Guard GF",4,0,2]},{"code":401,"indent":0,"parameters":["I spent an entire month searching the riverbanks for the Potion Hermit and didn't so much as catch a sight of her..."]},{"code":0,"indent":0,"parameters":[]}]},{"conditions":{"actorId":1,"actorValid":false,"itemId":1,"itemValid":false,"selfSwitchCh":"A","selfSwitchValid":false,"switch1Id":2099,"switch1Valid":true,"switch2Id":1,"switch2Valid":false,"variableId":1,"variableValid":false,"variableValue":0},"directionFix":false,"image":{"tileId":0,"characterName":"Y elves","direction":2,"pattern":1,"characterIndex":1},"moveFrequency":3,"moveRoute":{"list":[{"code":0,"indent":null,"parameters":[]}],"repeat":true,"skippable":false,"wait":false},"moveSpeed":3,"moveType":0,"priorityType":1,"stepAnime":false,"through":false,"trigger":0,"walkAnime":true,"list":[{"code":101,"indent":0,"parameters":["Y Mother's Guard GF",0,0,2]},{"code":401,"indent":0,"parameters":["I heard a rumor that the Mother wanted to restrict the Potion Hermit for some reason..."]},{"code":0,"indent":0,"parameters":[]}]},{"conditions":{"actorId":1,"actorValid":false,"itemId":1,"itemValid":false,"selfSwitchCh":"A","selfSwitchValid":false,"switch1Id":3601,"switch1Valid":true,"switch2Id":1,"switch2Valid":false,"variableId":1,"variableValid":false,"variableValue":0},"directionFix":false,"image":{"tileId":0,"characterName":"Y elves","direction":2,"pattern":1,"characterIndex":1},"moveFrequency":3,"moveRoute":{"list":[{"code":0,"indent":null,"parameters":[]}],"repeat":true,"skippable":false,"wait":false},"moveSpeed":3,"moveType":0,"priorityType":1,"stepAnime":false,"through":false,"trigger":0,"walkAnime":true,"list":[{"code":101,"indent":0,"parameters":["Y Mother's Guard GF",0,0,2]},{"code":401,"indent":0,"parameters":["I don't like how much the Mother restricts things outside the cities..."]},{"code":0,"indent":0,"parameters":[]}]},{"conditions":{"actorId":1,"actorValid":false,"itemId":1,"itemValid":false,"selfSwitchCh":"A","selfSwitchValid":false,"switch1Id":2737,"switch1Valid":true,"switch2Id":1,"switch2Valid":false,"variableId":1,"variableValid":false,"variableValue":0},"directionFix":false,"image":{"tileId":0,"characterName":"","direction":2,"pattern":0,"characterIndex":0},"moveFrequency":3,"moveRoute":{"list":[{"code":0,"indent":null,"parameters":[]}],"repeat":true,"skippable":false,"wait":false},"moveSpeed":3,"moveType":0,"priorityType":0,"stepAnime":false,"through":false,"trigger":0,"walkAnime":true,"list":[{"code":0,"indent":0,"parameters":[]}]}],"x":6,"y":7},
{"id":5,"name":"Gheldaron Man","note":"","pages":[{"conditions":{"actorId":1,"actorValid":false,"itemId":1,"itemValid":false,"selfSwitchCh":"A","selfSwitchValid":false,"switch1Id":1,"switch1Valid":false,"switch2Id":1,"switch2Valid":false,"variableId":1,"variableValid":false,"variableValue":0},"directionFix":false,"image":{"tileId":0,"characterName":"$Z dark elf char","direction":6,"pattern":1,"characterIndex":0},"moveFrequency":3,"moveRoute":{"list":[{"code":0,"indent":null,"parameters":[]}],"repeat":true,"skippable":false,"wait":false},"moveSpeed":3,"moveType":0,"priorityType":1,"stepAnime":false,"through":false,"trigger":0,"walkAnime":true,"list":[{"code":101,"indent":0,"parameters":["Z dark elf emo",0,0,2]},{"code":401,"indent":0,"parameters":["You should have a drink here. Gheldarese wine is far better than that Darghelese piss!"]},{"code":0,"indent":0,"parameters":[]}]},{"conditions":{"actorId":1,"actorValid":false,"itemId":1,"itemValid":false,"selfSwitchCh":"A","selfSwitchValid":false,"switch1Id":3601,"switch1Valid":true,"switch2Id":1,"switch2Valid":false,"variableId":1,"variableValid":false,"variableValue":0},"directionFix":false,"image":{"tileId":0,"characterName":"$Z dark elf char","direction":6,"pattern":1,"characterIndex":0},"moveFrequency":3,"moveRoute":{"list":[{"code":0,"indent":null,"parameters":[]}],"repeat":true,"skippable":false,"wait":false},"moveSpeed":3,"moveType":0,"priorityType":1,"stepAnime":false,"through":false,"trigger":0,"walkAnime":true,"list":[{"code":101,"indent":0,"parameters":["Z dark elf emo",0,0,2]},{"code":401,"indent":0,"parameters":["They keep trying to sell us that Darghelese piss..."]},{"code":0,"indent":0,"parameters":[]}]}],"x":3,"y":10},
{"id":6,"name":"Elf Male","note":"","pages":[{"conditions":{"actorId":1,"actorValid":false,"itemId":1,"itemValid":false,"selfSwitchCh":"A","selfSwitchValid":false,"switch1Id":243,"switch1Valid":false,"switch2Id":1,"switch2Valid":false,"variableId":1,"variableValid":false,"variableValue":0},"directionFix":false,"image":{"tileId":0,"characterName":"$Elf male char","direction":8,"pattern":1,"characterIndex":0},"moveFrequency":3,"moveRoute":{"list":[{"code":0,"indent":null,"parameters":[]}],"repeat":true,"skippable":false,"wait":false},"moveSpeed":3,"moveType":0,"priorityType":1,"stepAnime":false,"through":false,"trigger":0,"walkAnime":true,"list":[{"code":101,"indent":0,"parameters":["Elf male emo",1,0,2]},{"code":401,"indent":0,"parameters":["Welcome to The Unshaded Oak! We're happy to have foreigners if you're bringing Sx!"]},{"code":0,"indent":0,"parameters":[]}]},{"conditions":{"actorId":1,"actorValid":false,"itemId":1,"itemValid":false,"selfSwitchCh":"A","selfSwitchValid":false,"switch1Id":3601,"switch1Valid":true,"switch2Id":1,"switch2Valid":false,"variableId":1,"variableValid":false,"variableValue":0},"directionFix":false,"image":{"tileId":0,"characterName":"$Elf male char","direction":8,"pattern":1,"characterIndex":0},"moveFrequency":3,"moveRoute":{"list":[{"code":0,"indent":null,"parameters":[]}],"repeat":true,"skippable":false,"wait":false},"moveSpeed":3,"moveType":0,"priorityType":1,"stepAnime":false,"through":false,"trigger":0,"walkAnime":true,"list":[{"code":101,"indent":0,"parameters":["Elf male emo",1,0,2]},{"code":401,"indent":0,"parameters":["Everyone is welcome at The Unshaded Oak! Everyone with money, anyway!"]},{"code":0,"indent":0,"parameters":[]}]}],"x":9,"y":14},
{"id":7,"name":"Gheldaron Woman","note":"","pages":[{"conditions":{"actorId":1,"actorValid":false,"itemId":1,"itemValid":false,"selfSwitchCh":"A","selfSwitchValid":false,"switch1Id":1148,"switch1Valid":false,"switch2Id":1,"switch2Valid":false,"variableId":1,"variableValid":false,"variableValue":0},"directionFix":false,"image":{"tileId":0,"characterName":"Y elves","direction":4,"pattern":1,"characterIndex":1},"moveFrequency":3,"moveRoute":{"list":[{"code":0,"indent":null,"parameters":[]}],"repeat":true,"skippable":false,"wait":false},"moveSpeed":3,"moveType":0,"priorityType":1,"stepAnime":false,"through":false,"trigger":0,"walkAnime":true,"list":[{"code":101,"indent":0,"parameters":["Y Mother's Guard GF",0,0,2]},{"code":401,"indent":0,"parameters":["...you need something?"]},{"code":302,"indent":0,"parameters":[0,10,0,0,true]},{"code":605,"indent":0,"parameters":[0,11,0,0]},{"code":605,"indent":0,"parameters":[0,13,0,0]},{"code":0,"indent":0,"parameters":[]}]},{"conditions":{"actorId":1,"actorValid":false,"itemId":1,"itemValid":false,"selfSwitchCh":"A","selfSwitchValid":false,"switch1Id":3601,"switch1Valid":true,"switch2Id":1,"switch2Valid":false,"variableId":1,"variableValid":false,"variableValue":0},"directionFix":false,"image":{"tileId":0,"characterName":"Y elves","direction":4,"pattern":1,"characterIndex":1},"moveFrequency":3,"moveRoute":{"list":[{"code":0,"indent":null,"parameters":[]}],"repeat":true,"skippable":false,"wait":false},"moveSpeed":3,"moveType":0,"priorityType":1,"stepAnime":false,"through":false,"trigger":0,"walkAnime":true,"list":[{"code":101,"indent":0,"parameters":["Y Mother's Guard GF",0,0,2]},{"code":401,"indent":0,"parameters":["...come on, order."]},{"code":302,"indent":0,"parameters":[0,10,0,0,true]},{"code":605,"indent":0,"parameters":[0,11,0,0]},{"code":605,"indent":0,"parameters":[0,13,0,0]},{"code":0,"indent":0,"parameters":[]}]}],"x":14,"y":10},
{"id":8,"name":"Gheldaron Man","note":"","pages":[{"conditions":{"actorId":1,"actorValid":false,"itemId":1,"itemValid":false,"selfSwitchCh":"A","selfSwitchValid":false,"switch1Id":1,"switch1Valid":false,"switch2Id":1,"switch2Valid":false,"variableId":1,"variableValid":false,"variableValue":0},"directionFix":false,"image":{"tileId":0,"characterName":"$Z dark elf char","direction":8,"pattern":1,"characterIndex":0},"moveFrequency":3,"moveRoute":{"list":[{"code":0,"indent":null,"parameters":[]}],"repeat":true,"skippable":false,"wait":false},"moveSpeed":3,"moveType":0,"priorityType":1,"stepAnime":false,"through":false,"trigger":0,"walkAnime":true,"list":[{"code":101,"indent":0,"parameters":["Z dark elf emo",0,0,2]},{"code":401,"indent":0,"parameters":["I think our beer is good, but honestly, our wine is pathetic compared to Aramite vintages."]},{"code":0,"indent":0,"parameters":[]}]},{"conditions":{"actorId":1,"actorValid":false,"itemId":1,"itemValid":false,"selfSwitchCh":"A","selfSwitchValid":false,"switch1Id":2099,"switch1Valid":true,"switch2Id":1,"switch2Valid":false,"variableId":1,"variableValid":false,"variableValue":0},"directionFix":false,"image":{"tileId":0,"characterName":"$Z dark elf char","direction":8,"pattern":1,"characterIndex":0},"moveFrequency":3,"moveRoute":{"list":[{"code":0,"indent":null,"parameters":[]}],"repeat":true,"skippable":false,"wait":false},"moveSpeed":3,"moveType":0,"priorityType":1,"stepAnime":false,"through":false,"trigger":0,"walkAnime":true,"list":[{"code":101,"indent":0,"parameters":["Z dark elf emo",5,0,2]},{"code":401,"indent":0,"parameters":["We're actually getting some Aramite wine through Eustrin now! It's fantastic!"]},{"code":0,"indent":0,"parameters":[]}]},{"conditions":{"actorId":1,"actorValid":false,"itemId":1,"itemValid":false,"selfSwitchCh":"A","selfSwitchValid":false,"switch1Id":3601,"switch1Valid":true,"switch2Id":1,"switch2Valid":false,"variableId":1,"variableValid":false,"variableValue":0},"directionFix":false,"image":{"tileId":0,"characterName":"$Z dark elf char","direction":8,"pattern":1,"characterIndex":0},"moveFrequency":3,"moveRoute":{"list":[{"code":0,"indent":null,"parameters":[]}],"repeat":true,"skippable":false,"wait":false},"moveSpeed":3,"moveType":0,"priorityType":1,"stepAnime":false,"through":false,"trigger":0,"walkAnime":true,"list":[{"code":101,"indent":0,"parameters":["Z dark elf emo",1,0,2]},{"code":401,"indent":0,"parameters":["For the longest time I preferred Aramite wine, but some of what we're getting from Yhilin these days..."]},{"code":0,"indent":0,"parameters":[]}]}],"x":11,"y":6},
{"id":9,"name":"EV009","note":"","pages":[{"conditions":{"actorId":1,"actorValid":false,"itemId":1,"itemValid":false,"selfSwitchCh":"A","selfSwitchValid":false,"switch1Id":2099,"switch1Valid":true,"switch2Id":2305,"switch2Valid":true,"variableId":1,"variableValid":false,"variableValue":0},"directionFix":false,"image":{"tileId":0,"characterName":"","direction":2,"pattern":1,"characterIndex":0},"moveFrequency":3,"moveRoute":{"list":[{"code":0,"indent":null,"parameters":[]}],"repeat":true,"skippable":false,"wait":false},"moveSpeed":3,"moveType":0,"priorityType":0,"stepAnime":false,"through":false,"trigger":3,"walkAnime":true,"list":[{"code":122,"indent":0,"parameters":[224,224,1,0,1]},{"code":101,"indent":0,"parameters":["Robin blond emo",0,0,2]},{"code":401,"indent":0,"parameters":["Father, I was..."]},{"code":101,"indent":0,"parameters":["Robin blond emo",1,0,2]},{"code":401,"indent":0,"parameters":["Ah, you are having a drink with Orcent. We can speak later."]},{"code":101,"indent":0,"parameters":["Orcent",2,0,2]},{"code":401,"indent":0,"parameters":["Or you could join us?"]},{"code":101,"indent":0,"parameters":["Robin blond emo",3,0,2]},{"code":401,"indent":0,"parameters":["Oh!"]},{"code":101,"indent":0,"parameters":["1 Simon dark",1,0,2]},{"code":401,"indent":0,"parameters":["You're welcome to."]},{"code":101,"indent":0,"parameters":["Robin blond emo",1,0,2]},{"code":401,"indent":0,"parameters":["I am not much for alcohol, but I would be happy to join your conversation."]},{"code":221,"indent":0,"parameters":[]},{"code":201,"indent":0,"parameters":[0,334,6,9,8,0]},{"code":121,"indent":0,"parameters":[2737,2737,0]},{"code":222,"indent":0,"parameters":[]},{"code":101,"indent":0,"parameters":["Robin blond emo",0,0,2]},{"code":401,"indent":0,"parameters":["So, uh... how does one usually begin such things?"]},{"code":101,"indent":0,"parameters":["Orcent",2,0,2]},{"code":401,"indent":0,"parameters":["With a topic on someone's mind. Would you feel tokenized if I had a question about magic?"]},{"code":101,"indent":0,"parameters":["Robin blond emo",1,0,2]},{"code":401,"indent":0,"parameters":["I am sure your question would be worthwhile, Orcent."]},{"code":101,"indent":0,"parameters":["Orcent",2,0,2]},{"code":401,"indent":0,"parameters":["Then I wanted to speak of notions of \"corruption\" and how it relates to magic. I have attempted to read some, but found it... dense."]},{"code":101,"indent":0,"parameters":["1 Simon dark",0,0,2]},{"code":401,"indent":0,"parameters":["I understand that it's a rather muddied subject."]},{"code":101,"indent":0,"parameters":["Robin blond emo",0,0,2]},{"code":401,"indent":0,"parameters":["That's quite true. A large part of the issue is that multiple concepts are conflated, leading to many misunderstandings."]},{"code":101,"indent":0,"parameters":["Robin blond emo",0,0,2]},{"code":401,"indent":0,"parameters":["For example, many elves here use \"corruption\" to refer to sexual magic, as they are susceptible to it."]},{"code":101,"indent":0,"parameters":["Orcent",2,0,2]},{"code":401,"indent":0,"parameters":["I have heard a little of this and get the impression it is not fully correct, but the manner is opaque to me."]},{"code":101,"indent":0,"parameters":["Robin blond emo",0,0,2]},{"code":401,"indent":0,"parameters":["It's true that elves are more vulnerable to sexual magic as a matter of objective fact."]},{"code":101,"indent":0,"parameters":["Robin blond emo",5,0,2]},{"code":401,"indent":0,"parameters":["However, does that make them \"corrupt\" by other definitions of the word? No."]},{"code":101,"indent":0,"parameters":["Orcent",2,0,2]},{"code":401,"indent":0,"parameters":["Indeed, I believe our succubus friends would approve."]},{"code":101,"indent":0,"parameters":["1 Simon dark",0,0,2]},{"code":401,"indent":0,"parameters":["Sexual magic does produce a change, though. I'm confident in that feeling, at least."]},{"code":101,"indent":0,"parameters":["Robin blond emo",0,0,2]},{"code":401,"indent":0,"parameters":["And you're not wrong. But the mistake lies in assuming those changes can be easily categorized and labeled."]},{"code":101,"indent":0,"parameters":["Orcent",2,0,2]},{"code":401,"indent":0,"parameters":["Ah. So denying corruption as a concept is less denying that changes occur and more denying that the effects can be reified."]},{"code":101,"indent":0,"parameters":["Robin blond emo",0,0,2]},{"code":401,"indent":0,"parameters":["Just so. "]},{"code":101,"indent":0,"parameters":["1 Simon dark",0,0,2]},{"code":401,"indent":0,"parameters":["People also talk about magical residue that causes problems as corruption, but is that another misuse?"]},{"code":101,"indent":0,"parameters":["Robin blond emo",0,0,2]},{"code":401,"indent":0,"parameters":["Even more of one. The term is often used to refer to what is simply the fallout of heavy magic use."]},{"code":101,"indent":0,"parameters":["Robin blond emo",5,0,2]},{"code":401,"indent":0,"parameters":["Divine magic produces little by nature. Most arcane mages are very controlled and thus produce little, though there can be arcane fallout."]},{"code":101,"indent":0,"parameters":["Robin blond emo",0,0,2]},{"code":401,"indent":0,"parameters":["But sexual magic most frequently produces it. All the more so when the user is someone like the Incubus Emperor."]},{"code":101,"indent":0,"parameters":["Orcent",2,0,2]},{"code":401,"indent":0,"parameters":["The Church of Ivala claims to have objective measures of corruption - is such residue what they are measuring?"]},{"code":101,"indent":0,"parameters":["Robin blond emo",0,0,2]},{"code":401,"indent":0,"parameters":["I'm afraid I'm not an expert here... but I believe they are testing for a subjective mix of all of the above."]},{"code":101,"indent":0,"parameters":["1 Simon dark",0,0,2]},{"code":401,"indent":0,"parameters":["Could the Church's measures of corruption be oriented to another standard? Could we say that purity corrupts lust?"]},{"code":101,"indent":0,"parameters":["Orcent",2,0,2]},{"code":401,"indent":0,"parameters":["Or a more intriguing question: have the changes we have made \"corrupted\" orc nature?"]},{"code":101,"indent":0,"parameters":["Robin blond emo",0,0,2]},{"code":401,"indent":0,"parameters":["A fascinating question. While parts of it will of course be subjective, magical theory can still shed some light on the subject..."]},{"code":221,"indent":0,"parameters":[]},{"code":121,"indent":0,"parameters":[2737,2737,1]},{"code":101,"indent":0,"parameters":["Yarra emo2",0,0,2]},{"code":401,"indent":0,"parameters":["Wow, they are really going at it!"]},{"code":101,"indent":0,"parameters":["Nalili emo2",2,0,2]},{"code":401,"indent":0,"parameters":["Glad they're happy, but... that's a lot of talking."]},{"code":101,"indent":0,"parameters":["Iris emo",0,0,2]},{"code":401,"indent":0,"parameters":["I... may have underestimated the human capacity for seriousness. And the orc capacity, I suppose."]},{"code":101,"indent":0,"parameters":["Yarra emo2",5,0,2]},{"code":401,"indent":0,"parameters":["Nah, these three are special cases."]},{"code":101,"indent":0,"parameters":["Nalili emo2",5,0,2]},{"code":401,"indent":0,"parameters":["It's an orgy of seriousness!"]},{"code":222,"indent":0,"parameters":[]},{"code":123,"indent":0,"parameters":["A",0]},{"code":0,"indent":0,"parameters":[]}]},{"conditions":{"actorId":1,"actorValid":false,"itemId":1,"itemValid":false,"selfSwitchCh":"A","selfSwitchValid":true,"switch1Id":1,"switch1Valid":false,"switch2Id":1,"switch2Valid":false,"variableId":1,"variableValid":false,"variableValue":0},"directionFix":false,"image":{"tileId":0,"characterName":"","direction":2,"pattern":0,"characterIndex":0},"moveFrequency":3,"moveRoute":{"list":[{"code":0,"indent":null,"parameters":[]}],"repeat":true,"skippable":false,"wait":false},"moveSpeed":3,"moveType":0,"priorityType":0,"stepAnime":false,"through":false,"trigger":0,"walkAnime":true,"list":[{"code":0,"indent":0,"parameters":[]}]}],"x":0,"y":0},
{"id":10,"name":"Orcent Temp","note":"","pages":[{"conditions":{"actorId":1,"actorValid":false,"itemId":1,"itemValid":false,"selfSwitchCh":"A","selfSwitchValid":false,"switch1Id":2737,"switch1Valid":true,"switch2Id":1,"switch2Valid":false,"variableId":1,"variableValid":false,"variableValue":0},"directionFix":false,"image":{"tileId":0,"characterName":"Orcent","direction":6,"pattern":1,"characterIndex":1},"moveFrequency":3,"moveRoute":{"list":[{"code":0,"indent":null,"parameters":[]}],"repeat":true,"skippable":false,"wait":false},"moveSpeed":3,"moveType":0,"priorityType":1,"stepAnime":false,"through":false,"trigger":0,"walkAnime":true,"list":[{"code":0,"indent":0,"parameters":[]}]}],"x":5,"y":8},
{"id":11,"name":"Robin Temp","note":"","pages":[{"conditions":{"actorId":1,"actorValid":false,"itemId":1,"itemValid":false,"selfSwitchCh":"A","selfSwitchValid":false,"switch1Id":2737,"switch1Valid":true,"switch2Id":1,"switch2Valid":false,"variableId":1,"variableValid":false,"variableValue":0},"directionFix":false,"image":{"tileId":0,"characterName":"Robin blond","direction":4,"pattern":1,"characterIndex":0},"moveFrequency":3,"moveRoute":{"list":[{"code":0,"indent":null,"parameters":[]}],"repeat":true,"skippable":false,"wait":false},"moveSpeed":3,"moveType":0,"priorityType":1,"stepAnime":false,"through":false,"trigger":0,"walkAnime":true,"list":[{"code":0,"indent":0,"parameters":[]}]}],"x":7,"y":8}
]
}