{
"autoplayBgm":true,"autoplayBgs":false,"battleback1Name":"","battleback2Name":"","bgm":{"name":"Event Theme","pan":0,"pitch":100,"volume":100},"bgs":{"name":"","pan":0,"pitch":100,"volume":80},"disableDashing":false,"displayName":"","encounterList":[],"encounterStep":30,"height":18,"note":"","parallaxLoopX":false,"parallaxLoopY":false,"parallaxName":"","parallaxShow":false,"parallaxSx":0,"parallaxSy":0,"scrollType":0,"specifyBattleback":false,"tilesetId":4,"width":17,"data":[2288,2288,2288,2288,2288,2288,2288,2288,2288,2288,2288,2288,2288,2288,2288,2288,2288,2288,2288,2288,2288,2288,2288,2288,2288,2288,2288,2288,2288,2288,2288,2288,2288,2288,2288,2288,2288,2290,6019,6017,6017,6017,6017,6017,6017,6017,6021,2289,2288,2288,2288,2288,2288,2288,2290,6016,6370,6370,6370,6370,6370,6370,6370,6016,2289,2288,2288,2288,2288,2288,2290,6019,6023,6368,6368,6368,6368,6368,6368,6368,6025,6021,2289,2288,2288,2288,2288,2290,6016,6374,6376,6376,6376,6376,6376,6376,6376,6371,6016,2289,2288,2288,2288,2290,6019,6023,6372,1554,1554,3627,3617,3629,1554,1554,6369,6025,6021,2289,2288,2288,2290,6016,6374,6380,1554,1554,1554,1554,1554,1554,1554,6377,6371,6016,2289,2288,2288,2290,6016,6372,1554,1554,1554,1554,1554,1554,1554,1554,1554,6369,6016,2289,2288,2288,2290,6016,6380,1554,1554,1554,1554,1554,1554,1554,1554,1554,6377,6016,2289,2288,2288,2290,6016,1554,1554,1554,1554,1554,1554,1554,1554,1554,1554,1554,6016,2289,2288,2288,2290,6016,1554,1554,1554,1554,1554,1554,1554,1554,1554,1554,1554,6016,2289,2288,2288,2290,6016,1554,1554,1554,1554,1554,1554,1554,1554,1554,1554,1554,6016,2289,2288,2288,2290,6016,1554,1554,1554,1554,1554,1554,1554,1554,1554,1554,1554,6016,2289,2288,2288,2290,6016,1554,1554,1554,1554,1554,1554,1554,1554,1554,1554,1554,6016,2289,2288,2288,2290,6016,1554,1554,1554,1554,1554,1554,1554,1554,1554,1554,1554,6016,2289,2288,2288,2290,6016,1554,1554,1554,1554,1554,1554,1554,1554,1554,1554,1554,6016,2289,2288,2288,2290,6016,1554,1554,1554,1554,1554,1554,1554,1554,1554,1554,1554,6016,2289,2288,0,0,0,0,0,0,0,0,0,0,0,0,0,0,0,0,0,0,0,0,0,0,0,0,0,0,0,0,0,0,0,0,0,0,0,0,0,0,0,0,0,0,0,0,0,0,0,0,0,0,0,0,0,0,0,0,0,0,0,0,0,0,0,0,0,0,0,0,0,0,0,0,0,0,0,0,0,0,0,0,0,0,0,0,0,0,0,0,0,0,0,0,0,0,0,0,0,0,0,0,0,0,0,0,0,0,0,0,0,0,0,0,0,0,0,0,0,0,0,0,0,0,0,0,0,0,0,0,0,0,0,0,0,0,0,0,0,0,0,0,0,0,0,0,0,0,0,0,0,0,0,0,0,0,0,0,0,0,0,0,0,0,0,0,0,0,0,0,0,0,0,0,0,0,0,0,0,0,0,0,0,0,0,0,0,0,0,0,0,0,0,0,0,0,0,0,0,0,0,0,0,0,0,0,0,0,0,0,0,0,0,0,0,0,0,0,0,0,0,0,0,0,0,0,0,0,0,0,0,0,0,0,0,0,0,0,0,0,0,0,0,0,0,0,0,0,0,0,0,0,0,0,0,0,0,0,0,0,0,0,0,0,0,0,0,0,0,0,0,0,0,0,0,0,0,0,0,0,0,0,0,0,0,0,0,0,0,0,0,0,0,0,0,0,0,0,0,0,0,0,0,0,0,0,0,0,0,0,0,0,0,0,0,0,0,0,0,0,0,0,0,0,0,0,0,0,0,0,0,0,0,0,0,0,0,0,0,0,0,0,0,0,0,0,0,0,0,0,0,0,0,0,0,0,0,0,0,0,0,0,0,0,0,0,0,0,0,0,0,0,0,0,0,0,0,0,0,0,0,0,0,0,0,0,0,0,0,0,0,0,0,0,0,0,0,0,0,0,0,0,0,0,0,0,0,0,0,0,0,0,0,0,0,0,0,0,0,0,0,0,0,0,0,0,0,0,0,0,0,0,0,0,0,0,0,0,0,0,0,0,0,0,0,0,0,0,0,0,0,0,0,0,0,0,0,0,0,0,0,0,0,0,0,0,0,0,0,0,0,0,0,0,0,0,0,0,0,0,0,0,0,0,0,0,0,0,0,0,0,0,0,0,0,0,0,0,0,0,0,0,0,0,0,0,0,0,0,0,0,0,0,0,0,0,0,0,0,0,0,0,0,0,0,0,0,0,0,0,0,0,0,0,0,0,0,0,0,0,0,0,0,0,0,0,0,0,0,0,0,0,0,0,0,0,0,0,0,0,0,0,0,0,0,0,0,0,0,0,0,0,0,0,0,0,0,0,0,0,0,0,0,0,0,0,0,0,0,0,0,0,0,0,0,0,0,0,0,0,0,0,0,0,0,0,0,0,0,0,0,0,0,0,0,0,0,0,0,0,0,0,0,0,0,0,0,0,0,0,0,0,0,0,0,0,0,0,0,0,0,0,0,0,0,0,0,0,0,0,0,0,0,0,0,0,0,0,0,0,0,0,0,0,0,0,0,0,0,0,0,318,0,0,0,318,0,0,0,0,0,0,0,0,0,0,0,0,326,0,0,0,326,0,0,0,0,0,0,0,0,0,0,0,0,264,498,499,500,264,0,0,0,0,0,0,0,0,0,0,0,0,272,506,507,508,272,250,0,0,0,0,0,0,0,0,0,0,0,0,0,0,0,0,0,0,0,0,0,0,0,0,0,0,0,66,0,0,0,0,0,66,0,0,0,0,0,0,0,0,0,0,74,0,0,0,0,0,74,0,0,0,0,0,0,0,0,0,0,0,0,0,0,0,0,0,0,0,0,0,0,0,0,0,0,0,250,66,0,0,0,66,0,0,0,0,0,0,0,0,0,0,0,66,74,66,0,66,74,66,0,0,0,0,0,0,0,0,0,66,74,0,74,0,74,0,74,66,0,0,0,0,0,0,0,66,74,0,0,0,0,0,0,0,74,66,0,0,0,0,0,0,74,0,0,66,0,0,0,66,0,0,74,0,0,0,0,0,0,0,0,0,74,0,0,0,74,0,0,0,0,0,0,0,0,0,0,0,0,0,0,0,250,0,0,0,0,0,0,0,0,0,0,0,0,0,0,0,0,0,0,0,0,0,0,0,0,0,0,0,0,0,0,0,0,0,0,0,0,0,0,0,0,0,0,0,0,0,0,0,0,0,0,0,0,0,0,0,0,0,0,0,0,0,0,0,0,0,0,0,0,0,0,0,0,0,0,0,0,0,0,0,0,0,0,0,0,0,0,0,0,0,0,0,0,0,0,0,0,0,0,0,0,0,0,0,0,0,0,0,0,0,0,0,0,0,0,5,0,0,0,0,0,0,0,0,0,0,0,0,0,0,0,0,5,0,0,0,0,0,0,0,0,0,0,0,0,0,0,0,5,0,0,0,0,0,0,0,0,0,0,0,0,0,0,0,0,5,0,0,0,0,0,0,0,0,0,0,0,0,0,0,0,5,0,0,0,0,0,0,0,0,0,0,0,0,0,0,0,0,5,0,0,0,0,0,0,0,0,0,0,0,0,0,0,0,0,5,0,0,0,0,0,0,0,0,0,0,0,0,0,0,0,0,5,0,0,0,0,0,0,0,0,0,0,0,0,0,0,0,0,5,0,0,0,0,0,0,0,0,0,0,0,0,0,0,0,0,5,0,0,0,0,0,0,0,0,0,0,0,0,0,0,0,0,5,0,0,0,0,0,0,0,0,0,0,0,0,0,0,0,0,5,0,0,0,0,0,0,0,0,0,0,0,0,0,0,0,0,0,0,0,0,0,0,0,0,0,0,0,0,0,0,0,0,0,0,0,0,0,0,0,0,0,0,0,0,0,0,0,0,0,0,0,0,0,0,0,0,0,0,0,0,0,0,0,0,0,0,0,0,0,0,0,0,0,0,0,0,0,0,0,0,0,0,0,0,0,0,0,0,0,0,0,0,0,0,0,0,0,0,0,0,0,0,0,0,0,0,0,0,0,0,0,0,0,0,0,0,0,0,0,0,0,0,0,0,0,0,0,0,0,0,0,0,0,0,0,0,0,0,0,0,0,0,0,0,0,0,0,0,0,0,0,0,0,0,0,0,0,0,0,0,0,0,0,0,0,0,0,0,0,0,0,0,0,0,0,0,0,0,0,0,0,0,0,0,0,0,0,0,0,0,0,0,0,0,0,0,0,0,0,0,0,0,0,0,0,0,0,0,0,0,0,0,0,0,0,0,0,0,0,0,0,0,0,0,0,0,0,0,0,0,0,0,0,0,0,0,0,0,0,0,0,0,0,0,0,0,0,0,0,0,0,0,0,0,0,0,0,0,0,0,0,0,0,0,0,0,0,0,0,0,0,0,0,0,0,0,0,0,0,0,0,0,0,0,0,0,0,0,0,0,0,0,0,0,0,0,0,0,0,0,0,0,0,0,0,0,0,0,0,0,0,0,0,0,0,0,0,0,0],"events":[null,{"id":1,"name":"EV001","note":"","pages":[{"conditions":{"actorId":1,"actorValid":false,"itemId":1,"itemValid":false,"selfSwitchCh":"A","selfSwitchValid":false,"switch1Id":1,"switch1Valid":false,"switch2Id":1,"switch2Valid":false,"variableId":1,"variableValid":false,"variableValue":0},"directionFix":false,"image":{"tileId":0,"characterName":"","direction":2,"pattern":0,"characterIndex":0},"moveFrequency":3,"moveRoute":{"list":[{"code":0,"indent":null,"parameters":[]}],"repeat":true,"skippable":false,"wait":false},"moveSpeed":3,"moveType":0,"priorityType":0,"stepAnime":false,"through":false,"trigger":3,"walkAnime":true,"list":[{"code":101,"indent":0,"parameters":["Iris emo",0,0,2]},{"code":401,"indent":0,"parameters":["We have food shortages in-"]},{"code":101,"indent":0,"parameters":["Fucklord emo",3,0,2]},{"code":401,"indent":0,"parameters":["Yaaawwwwn."]},{"code":101,"indent":0,"parameters":["Iris emo",5,0,2]},{"code":401,"indent":0,"parameters":["If you're bored, you can just tell me to stop reporting. You don't have to say \"yawn\" every time."]},{"code":101,"indent":0,"parameters":["Fucklord emo",3,0,2]},{"code":401,"indent":0,"parameters":["YAWN!"]},{"code":101,"indent":0,"parameters":["Fucklord emo",0,0,2]},{"code":401,"indent":0,"parameters":["This is all boring as shit. Isn't anything interesting happening?"]},{"code":101,"indent":0,"parameters":["Iris emo",0,0,2]},{"code":401,"indent":0,"parameters":["Other than the new Incubus King taking over Yhilin?"]},{"code":101,"indent":0,"parameters":["Fucklord emo",3,0,2]},{"code":401,"indent":0,"parameters":["What the fuck?"]},{"code":101,"indent":0,"parameters":["Iris emo",4,0,2]},{"code":401,"indent":0,"parameters":["...so you weren't listening then, either. I thought you took that too well."]},{"code":101,"indent":0,"parameters":["Fucklord emo",0,0,2]},{"code":401,"indent":0,"parameters":["That bastard! Let's invade him!"]},{"code":101,"indent":0,"parameters":["Riala emo",4,0,2]},{"code":401,"indent":0,"parameters":["..."]},{"code":101,"indent":0,"parameters":["Fucklord emo",1,0,2]},{"code":401,"indent":0,"parameters":["What's that, Riala? You're showing signs of life - you interested in going to war?"]},{"code":101,"indent":0,"parameters":["Riala emo",0,0,2]},{"code":401,"indent":0,"parameters":["I will do whatever my master commands."]},{"code":101,"indent":0,"parameters":["Fucklord emo",1,0,2]},{"code":401,"indent":0,"parameters":["Damn right you will!"]},{"code":101,"indent":0,"parameters":["Riala emo",5,0,2]},{"code":401,"indent":0,"parameters":["..."]},{"code":101,"indent":0,"parameters":["Iris emo",0,0,2]},{"code":401,"indent":0,"parameters":["He's been officially recognized. Plus there are, you know, a ton of mountains in the way."]},{"code":101,"indent":0,"parameters":["Fucklord emo",3,0,2]},{"code":401,"indent":0,"parameters":["Then let's go through Ardoheim or Aram!"]},{"code":101,"indent":0,"parameters":["Iris emo",4,0,2]},{"code":401,"indent":0,"parameters":["Please, Incubus King, we aren't prepared fo-"]},{"code":101,"indent":0,"parameters":["Fucklord emo",4,0,2]},{"code":401,"indent":0,"parameters":["Wait, wait... hold it. If this guy is an Incubus King too, then what do people call me?"]},{"code":101,"indent":0,"parameters":["Iris emo",0,0,2]},{"code":401,"indent":0,"parameters":["Well, he seems to have taken the name Do-"]},{"code":101,"indent":0,"parameters":["Fucklord emo",0,0,2]},{"code":401,"indent":0,"parameters":["He's taken my name, that's what he's done!"]},{"code":101,"indent":0,"parameters":["Fucklord emo",2,0,2]},{"code":401,"indent":0,"parameters":["If... if I'm not the Incubus King, what am I? This stupid little empire doesn't even matter without a nice title..."]},{"code":101,"indent":0,"parameters":["Iris emo",0,0,2]},{"code":401,"indent":0,"parameters":["...I've always wondered, if you rule an empire, why aren't you an emperor?"]},{"code":101,"indent":0,"parameters":["Fucklord emo",6,0,2]},{"code":401,"indent":0,"parameters":["..."]},{"code":101,"indent":0,"parameters":["Iris emo",3,0,2]},{"code":401,"indent":0,"parameters":["Ap-apologies, my lord. Forgive my-"]},{"code":101,"indent":0,"parameters":["Fucklord emo",6,0,2]},{"code":401,"indent":0,"parameters":["HOLY SHIT."]},{"code":101,"indent":0,"parameters":["Fucklord emo",1,0,2]},{"code":401,"indent":0,"parameters":["I'm a fucking emperor! This is awesome!"]},{"code":101,"indent":0,"parameters":["Iris emo",7,0,2]},{"code":401,"indent":0,"parameters":["..."]},{"code":101,"indent":0,"parameters":["Fucklord emo",1,0,2]},{"code":401,"indent":0,"parameters":["I am the Incubus Emperor! From this day forth, anyone who refers to me by my old title will be executed!"]},{"code":101,"indent":0,"parameters":["Iris emo",5,0,2]},{"code":401,"indent":0,"parameters":["As you command, Incubus Emperor."]},{"code":101,"indent":0,"parameters":["Fucklord emo",3,0,2]},{"code":401,"indent":0,"parameters":["For my first action as Incubus Emperor, I must take my acts of sexual perversion to glorious new heights!"]},{"code":101,"indent":0,"parameters":["Fucklord emo",3,0,2]},{"code":401,"indent":0,"parameters":["First: I demand that you bring me 27,000 wheels of cheese!"]},{"code":101,"indent":0,"parameters":["Iris emo",6,0,2]},{"code":401,"indent":0,"parameters":["...at once, Incubus Emperor."]},{"code":221,"indent":0,"parameters":[]},{"code":205,"indent":0,"parameters":[-1,{"list":[{"code":40,"indent":null,"parameters":[]},{"code":0,"indent":null,"parameters":[]}],"repeat":false,"skippable":false,"wait":true}]},{"code":505,"indent":0,"parameters":[{"code":40,"indent":null,"parameters":[]}]},{"code":201,"indent":0,"parameters":[0,285,14,16,8,2]},{"code":222,"indent":0,"parameters":[]},{"code":123,"indent":0,"parameters":["A",0]},{"code":0,"indent":0,"parameters":[]}]},{"conditions":{"actorId":1,"actorValid":false,"itemId":1,"itemValid":false,"selfSwitchCh":"A","selfSwitchValid":true,"switch1Id":1,"switch1Valid":false,"switch2Id":1,"switch2Valid":false,"variableId":1,"variableValid":false,"variableValue":0},"directionFix":false,"image":{"tileId":0,"characterName":"","direction":2,"pattern":0,"characterIndex":0},"moveFrequency":3,"moveRoute":{"list":[{"code":0,"indent":null,"parameters":[]}],"repeat":true,"skippable":false,"wait":false},"moveSpeed":3,"moveType":0,"priorityType":0,"stepAnime":false,"through":false,"trigger":0,"walkAnime":true,"list":[{"code":0,"indent":0,"parameters":[]}]}],"x":0,"y":0},{"id":2,"name":"Incubus King","note":"","pages":[{"conditions":{"actorId":1,"actorValid":false,"itemId":1,"itemValid":false,"selfSwitchCh":"A","selfSwitchValid":false,"switch1Id":1,"switch1Valid":false,"switch2Id":1,"switch2Valid":false,"variableId":1,"variableValid":false,"variableValue":0},"directionFix":false,"image":{"tileId":0,"characterName":"Monster1","direction":2,"pattern":1,"characterIndex":7},"moveFrequency":3,"moveRoute":{"list":[{"code":0,"indent":null,"parameters":[]}],"repeat":true,"skippable":false,"wait":false},"moveSpeed":3,"moveType":0,"priorityType":1,"stepAnime":false,"through":false,"trigger":0,"walkAnime":true,"list":[{"code":0,"indent":0,"parameters":[]}]}],"x":8,"y":6},{"id":3,"name":"Iris","note":"","pages":[{"conditions":{"actorId":1,"actorValid":false,"itemId":1,"itemValid":false,"selfSwitchCh":"A","selfSwitchValid":false,"switch1Id":1,"switch1Valid":false,"switch2Id":1,"switch2Valid":false,"variableId":1,"variableValid":false,"variableValue":0},"directionFix":false,"image":{"tileId":0,"characterName":"Iris","direction":4,"pattern":1,"characterIndex":0},"moveFrequency":3,"moveRoute":{"list":[{"code":0,"indent":null,"parameters":[]}],"repeat":true,"skippable":false,"wait":false},"moveSpeed":3,"moveType":0,"priorityType":1,"stepAnime":false,"through":false,"trigger":0,"walkAnime":true,"list":[{"code":0,"indent":0,"parameters":[]}]}],"x":10,"y":8},{"id":4,"name":"EV004","note":"","pages":[{"conditions":{"actorId":1,"actorValid":false,"itemId":1,"itemValid":false,"selfSwitchCh":"A","selfSwitchValid":false,"switch1Id":1,"switch1Valid":false,"switch2Id":1,"switch2Valid":false,"variableId":1,"variableValid":false,"variableValue":0},"directionFix":false,"image":{"tileId":0,"characterName":"Monster2","direction":6,"pattern":1,"characterIndex":7},"moveFrequency":3,"moveRoute":{"list":[{"code":0,"indent":null,"parameters":[]}],"repeat":true,"skippable":false,"wait":false},"moveSpeed":3,"moveType":0,"priorityType":1,"stepAnime":false,"through":false,"trigger":0,"walkAnime":true,"list":[{"code":0,"indent":0,"parameters":[]}]},{"conditions":{"actorId":1,"actorValid":false,"itemId":1,"itemValid":false,"selfSwitchCh":"A","selfSwitchValid":false,"switch1Id":217,"switch1Valid":true,"switch2Id":1,"switch2Valid":false,"variableId":1,"variableValid":false,"variableValue":0},"directionFix":false,"image":{"tileId":0,"characterName":"","direction":2,"pattern":0,"characterIndex":0},"moveFrequency":3,"moveRoute":{"list":[{"code":0,"indent":null,"parameters":[]}],"repeat":true,"skippable":false,"wait":false},"moveSpeed":3,"moveType":0,"priorityType":0,"stepAnime":false,"through":false,"trigger":0,"walkAnime":true,"list":[{"code":0,"indent":0,"parameters":[]}]}],"x":7,"y":11},{"id":5,"name":"EV005","note":"","pages":[{"conditions":{"actorId":1,"actorValid":false,"itemId":1,"itemValid":false,"selfSwitchCh":"A","selfSwitchValid":false,"switch1Id":1,"switch1Valid":false,"switch2Id":1,"switch2Valid":false,"variableId":1,"variableValid":false,"variableValue":0},"directionFix":false,"image":{"tileId":0,"characterName":"Monster2","direction":4,"pattern":1,"characterIndex":7},"moveFrequency":3,"moveRoute":{"list":[{"code":0,"indent":null,"parameters":[]}],"repeat":true,"skippable":false,"wait":false},"moveSpeed":3,"moveType":0,"priorityType":1,"stepAnime":false,"through":false,"trigger":0,"walkAnime":true,"list":[{"code":0,"indent":0,"parameters":[]}]}],"x":9,"y":11},{"id":6,"name":"Riala","note":"","pages":[{"conditions":{"actorId":1,"actorValid":false,"itemId":1,"itemValid":false,"selfSwitchCh":"A","selfSwitchValid":false,"switch1Id":1,"switch1Valid":false,"switch2Id":1,"switch2Valid":false,"variableId":1,"variableValid":false,"variableValue":0},"directionFix":false,"image":{"tileId":0,"characterName":"Riala char","direction":2,"pattern":1,"characterIndex":1},"moveFrequency":3,"moveRoute":{"list":[{"code":0,"indent":null,"parameters":[]}],"repeat":true,"skippable":false,"wait":false},"moveSpeed":3,"moveType":0,"priorityType":1,"stepAnime":false,"through":false,"trigger":0,"walkAnime":true,"list":[{"code":0,"indent":0,"parameters":[]}]}],"x":6,"y":6}]
}
