{
"autoplayBgm":false,"autoplayBgs":false,"battleback1Name":"Grassland","battleback2Name":"Forest1","bgm":{"name":"","pan":0,"pitch":100,"volume":100},"bgs":{"name":"","pan":0,"pitch":100,"volume":80},"disableDashing":false,"displayName":"","encounterList":[],"encounterStep":30,"height":13,"note":"","parallaxLoopX":false,"parallaxLoopY":false,"parallaxName":"","parallaxShow":false,"parallaxSx":0,"parallaxSy":0,"scrollType":0,"specifyBattleback":true,"tilesetId":64,"width":17,"data":[2816,2816,2816,2816,2816,2816,2816,2816,2816,2816,2816,2816,2816,2816,2816,2816,2816,2816,2816,2816,2816,2816,2816,2816,2816,2816,2816,2816,2816,2816,2816,2816,2816,2816,2816,2816,2816,2816,2816,2816,2816,2816,2816,2816,2816,2816,2816,2816,2816,2816,2816,2816,2816,2816,2816,2816,2816,2816,2816,2816,2816,2816,2816,2816,2816,2816,2816,2816,2816,2816,2816,2816,2816,2816,2816,2816,2816,2816,2816,2816,2816,2816,2816,2816,2816,2816,2816,2816,2816,2816,2816,2816,2816,2816,2816,2816,2816,2816,2816,2816,2816,2816,2816,2816,2816,2816,2816,2816,2816,2816,2816,2816,2816,2816,2816,2816,2816,2816,2816,2816,2816,2816,2816,2816,2816,2816,2816,2816,2816,2816,2816,2816,2816,2816,2816,2816,2816,2816,2816,2816,2816,2816,2816,2820,2844,2824,2816,2816,2816,2816,2816,2816,2816,2816,2816,2816,2816,2816,2816,2816,2840,2906,2832,2816,2816,2816,2816,2816,2816,2816,2816,2816,2816,2816,2816,2816,2816,2840,2896,2832,2816,2816,2816,2816,2816,2816,2816,2816,2816,2816,2816,2816,2816,2820,2854,2896,2832,2816,2816,2816,2816,2816,2816,2816,2816,2816,2816,2816,2816,2816,2840,2898,2890,2832,2816,2816,2816,2816,2816,2816,2816,0,0,3136,3024,3008,3008,3008,3008,3008,3008,3008,3008,3032,3136,0,0,0,0,0,3136,3024,3008,3008,3008,3008,3008,3008,3008,3008,3032,3136,0,0,0,0,0,3136,3024,3008,3008,3008,3008,3008,3008,3008,3008,3032,3136,0,0,0,0,0,3136,3024,3008,3008,3008,3008,3008,3008,3008,3008,3032,3136,0,0,0,0,0,3136,3024,3008,3008,3008,3008,3008,3008,3008,3008,3032,3136,0,0,0,0,0,3136,3024,3008,3008,3008,3008,3008,3008,3008,3008,3032,3136,0,0,0,0,0,3136,3024,3008,3008,3008,3008,3008,3008,3008,3008,3032,3136,0,0,0,0,0,3136,3024,3008,3008,3008,3008,3008,3008,3008,3008,3032,3136,0,0,0,0,0,3136,3048,3036,3036,3036,3036,3036,3036,3036,3036,3046,3136,0,0,0,0,0,3145,3137,3137,3137,3149,0,0,3147,3137,3137,3137,3143,0,0,0,0,0,0,0,0,0,0,0,0,0,0,0,0,0,0,0,0,0,0,0,0,0,0,0,0,0,0,0,0,0,0,0,0,0,0,0,0,0,0,0,0,0,0,0,0,0,0,0,0,0,0,0,0,0,0,0,0,0,0,0,0,0,0,0,0,0,0,0,0,0,0,0,0,0,0,0,0,0,0,0,0,0,0,0,0,0,0,0,0,0,0,0,0,0,0,0,0,0,0,0,0,0,0,0,0,0,0,0,0,0,0,0,0,0,0,0,0,0,0,0,0,0,0,0,0,0,0,0,0,0,0,0,0,0,0,0,0,0,0,0,0,0,0,0,0,0,0,0,0,0,0,0,0,0,0,0,0,0,0,0,0,0,0,0,0,0,0,0,0,0,0,0,0,0,0,0,0,0,0,0,0,0,0,0,0,0,0,0,0,0,0,0,0,0,0,0,0,0,0,0,0,0,0,0,0,0,0,0,0,0,0,0,0,0,0,0,0,0,0,0,0,0,0,0,0,0,0,0,0,0,0,0,0,0,0,0,0,0,0,0,0,0,0,0,0,0,0,0,0,0,0,0,0,0,0,0,0,0,0,0,0,0,0,0,0,0,0,0,0,0,0,0,0,88,0,97,0,512,513,514,515,516,517,120,121,0,101,0,0,113,0,0,0,0,520,521,522,523,524,525,0,0,0,88,0,112,121,97,0,0,93,528,529,530,531,532,533,97,0,0,0,97,120,0,0,0,0,101,536,537,538,539,540,541,0,97,0,0,0,0,88,93,0,0,97,544,545,546,547,548,549,0,0,0,0,0,88,0,101,0,0,0,552,553,554,555,556,557,0,0,0,0,88,0,113,0,0,0,0,97,0,0,0,0,0,97,0,0,0,93,0,121,0,0,0,0,0,0,0,0,97,0,0,0,0,0,101,0,0,88,0,97,0,0,0,0,97,0,0,0,97,0,0,0,97,0,0,0,0,0,0,0,0,0,0,0,0,0,112,113,0,0,97,0,0,0,88,0,0,0,0,88,0,0,0,120,121,0,93,0,0,0,0,0,0,0,0,0,0,0,0,97,0,0,0,101,0,112,113,0,0,88,0,0,0,0,0,93,0,0,88,0,0,0,0,0,0,0,0,0,0,0,0,0,0,0,0,0,0,0,0,0,0,0,0,0,0,0,0,0,0,0,0,0,0,0,0,0,0,0,0,0,0,0,0,0,0,0,0,0,0,0,0,0,0,0,0,0,0,0,0,0,0,0,0,0,0,0,0,0,0,0,0,0,0,0,0,0,0,0,0,0,0,0,0,0,0,0,0,0,0,0,0,0,0,0,0,0,0,0,0,0,0,0,0,0,0,0,0,0,0,0,0,0,0,0,0,0,0,0,0,0,0,0,0,0,0,0,0,0,0,0,0,0,0,0,0,0,0,0,0,0,0,0,0,0,0,0,0,0,0,0,0,0,0,0,0,0,0,0,0,0,0,0,0,0,0,0,0,0,0,0,0,0,0,0,0,0,0,0,0,0,0,0,0,0,0,0,0,0,0,0,0,0,0,0,0,0,0,0,0,0,0,0,0,0,0,0,0,0,0,0,0,0,0,0,0,0,0,0,0,0,0,0,0,0,0,0,0,0,0,0,0,0,0,0,0,0,0,0,0,0,0,0,0,0,0,0,0,0,0,0,0,0,0,0,0,0,0,0,0,0,0,0,0,0,0,0,0,0,0,0,0,0,0,0,0,0,0,0,0,0,0,0,0,0,0,0,0,0,0,0,0,0,0,0,0,0,0,0,0,0,0,0,0,0,0,0,0,0,0,0,0,0,0,0,0,0,0,0,0,0,0,0,0,0,0,0,0,0,0,0,0,0,0,0,0,0,0,0,0,0,0,0,0,0,0,0,0,0,0,0,0,0,0,0,0,0,0,0,0,0,0,0,0,0,0,0,0,0,0,0,0,0,0,0,0,0,0,0,0,0,0,0,0,0,0,0,0,0,0,0,0,0,0,0,0,0,0,0,0,0,0,0,0,0,0,0,0,0,0,0,0,0,0,0,0,0,0,0,0,0,0,0,0,0,0,0,0,0,0,0,0,0,0,0,0,0,0,0,0,0,0,0,0],"events":[null,{"id":1,"name":"EV001","note":"","pages":[{"conditions":{"actorId":1,"actorValid":false,"itemId":1,"itemValid":false,"selfSwitchCh":"A","selfSwitchValid":false,"switch1Id":1,"switch1Valid":false,"switch2Id":1,"switch2Valid":false,"variableId":1,"variableValid":false,"variableValue":0},"directionFix":false,"image":{"tileId":0,"characterName":"","direction":2,"pattern":0,"characterIndex":0},"moveFrequency":3,"moveRoute":{"list":[{"code":0,"indent":null,"parameters":[]}],"repeat":true,"skippable":false,"wait":false},"moveSpeed":3,"moveType":0,"priorityType":0,"stepAnime":false,"through":false,"trigger":3,"walkAnime":true,"list":[{"code":101,"indent":0,"parameters":["Aka emo2",5,0,0]},{"code":401,"indent":0,"parameters":["Shit, it looks like the succubi finished taking over."]},{"code":101,"indent":0,"parameters":["Z succubus_b",5,0,0]},{"code":401,"indent":0,"parameters":["Take them down!"]},{"code":301,"indent":0,"parameters":[0,534,false,false]},{"code":101,"indent":0,"parameters":["Z succubus_a",5,0,0]},{"code":401,"indent":0,"parameters":["Stay back, or we'll corrupt all the captives we have in here!"]},{"code":101,"indent":0,"parameters":["Carina emo",5,0,0]},{"code":401,"indent":0,"parameters":["It does feel like they're telling the truth... I think they have priestesses in there."]},{"code":101,"indent":0,"parameters":["Aka emo2",0,0,0]},{"code":401,"indent":0,"parameters":["Alright, we won't attack. But what are you trying to accomplish here? You're in the middle of Ardoheim with no rescue in sight."]},{"code":101,"indent":0,"parameters":["Z succubus_a",5,0,0]},{"code":401,"indent":0,"parameters":["We want safe passage back to the Incubus Emperor's domain!"]},{"code":101,"indent":0,"parameters":["Aka emo2",0,0,0]},{"code":401,"indent":0,"parameters":["What proof do we have that you haven't already harmed the priestesses?"]},{"code":101,"indent":0,"parameters":["Z succubus_a",0,0,0]},{"code":401,"indent":0,"parameters":["...fine, look."]},{"code":205,"indent":0,"parameters":[4,{"list":[{"code":18,"indent":null,"parameters":[]},{"code":0,"indent":null,"parameters":[]}],"repeat":false,"skippable":false,"wait":true}]},{"code":505,"indent":0,"parameters":[{"code":18,"indent":null,"parameters":[]}]},{"code":250,"indent":0,"parameters":[{"name":"Open1","pan":0,"pitch":100,"volume":80}]},{"code":230,"indent":0,"parameters":[30]},{"code":121,"indent":0,"parameters":[1907,1907,0]},{"code":230,"indent":0,"parameters":[30]},{"code":101,"indent":0,"parameters":["People2",1,0,0]},{"code":401,"indent":0,"parameters":["I-it's true. They haven't touched us. They seem... desperate..."]},{"code":101,"indent":0,"parameters":["Z succubus_a",5,0,0]},{"code":401,"indent":0,"parameters":["Shut up, don't say that!"]},{"code":101,"indent":0,"parameters":["Carina emo",1,0,0]},{"code":401,"indent":0,"parameters":["It's okay, we're not here to hurt you!"]},{"code":205,"indent":0,"parameters":[4,{"list":[{"code":16,"indent":null,"parameters":[]},{"code":0,"indent":null,"parameters":[]}],"repeat":false,"skippable":false,"wait":true}]},{"code":505,"indent":0,"parameters":[{"code":16,"indent":null,"parameters":[]}]},{"code":101,"indent":0,"parameters":["Z succubus_a",6,0,0]},{"code":401,"indent":0,"parameters":["That's just what a priestess of Ivala would say before torturing us..."]},{"code":101,"indent":0,"parameters":["Aka emo2",5,0,0]},{"code":401,"indent":0,"parameters":["No, we represent the Doom King. Seriously, take a look at the sexual energy in both of us."]},{"code":101,"indent":0,"parameters":["Z succubus_a",4,0,0]},{"code":401,"indent":0,"parameters":["Ah... it's true... and, what are you?"]},{"code":101,"indent":0,"parameters":["Aka emo2",1,0,0]},{"code":401,"indent":0,"parameters":["What matters right now is that we're the people who can help you. Surrender to us without harming anyone and we'll treat you well."]},{"code":101,"indent":0,"parameters":["Z succubus_a",5,0,0]},{"code":401,"indent":0,"parameters":["Does that mean trying to \"purify\" us with a bunch of awful spells?"]},{"code":101,"indent":0,"parameters":["Aka emo2",1,0,0]},{"code":401,"indent":0,"parameters":["Not at all. You'd be held by succubus guards and given food, water, and sex."]},{"code":101,"indent":0,"parameters":["Z succubus_a",4,0,0]},{"code":401,"indent":0,"parameters":["R-really?"]},{"code":101,"indent":0,"parameters":["Aka emo2",1,0,0]},{"code":401,"indent":0,"parameters":["You bet! We have a lot of succubi who would be happy to, and orcs if that's your preference."]},{"code":101,"indent":0,"parameters":["Z succubus_a",6,0,0]},{"code":401,"indent":0,"parameters":["I'd say that sounds too good to be true, but... we have heard stories about the Doom King..."]},{"code":101,"indent":0,"parameters":["Aka emo2",0,0,0]},{"code":401,"indent":0,"parameters":["So long as you don't hurt anyone in there, you can think about it."]},{"code":230,"indent":0,"parameters":[60]},{"code":101,"indent":0,"parameters":["Z succubus_a",6,0,0]},{"code":401,"indent":0,"parameters":["..."]},{"code":230,"indent":0,"parameters":[60]},{"code":101,"indent":0,"parameters":["Z succubus_a",1,0,0]},{"code":401,"indent":0,"parameters":["Okay. We knew we were probably doomed anyway, trusting you won't be so bad."]},{"code":101,"indent":0,"parameters":["Aka emo2",1,0,0]},{"code":401,"indent":0,"parameters":["Great! You can all come out nice and slow, then..."]},{"code":221,"indent":0,"parameters":[]},{"code":121,"indent":0,"parameters":[1908,1908,0]},{"code":230,"indent":0,"parameters":[60]},{"code":222,"indent":0,"parameters":[]},{"code":101,"indent":0,"parameters":["Carina emo",4,0,0]},{"code":401,"indent":0,"parameters":["Sorry, I hurt more than helped here. This uniform has been helpful in Ardford, but it can be a liability too..."]},{"code":101,"indent":0,"parameters":["Aka emo2",1,0,0]},{"code":401,"indent":0,"parameters":["Don't worry about it, Carina. Everything turned out fine."]},{"code":101,"indent":0,"parameters":["Carina emo",4,0,0]},{"code":401,"indent":0,"parameters":["But... I want to be helpful to you..."]},{"code":101,"indent":0,"parameters":["Uyae emo",1,0,0]},{"code":401,"indent":0,"parameters":["Do not be sad. I could not say a single thing. Not like Aka's beautiful words."]},{"code":101,"indent":0,"parameters":["Aka emo2",3,0,0]},{"code":401,"indent":0,"parameters":["Say what now? I'm not a very fancy talker..."]},{"code":101,"indent":0,"parameters":["Uyae emo",6,0,0]},{"code":401,"indent":0,"parameters":["Nay! You were good at choosing the right words to make her calm."]},{"code":101,"indent":0,"parameters":["Aka emo2",1,0,0]},{"code":401,"indent":0,"parameters":["Well... thanks."]},{"code":101,"indent":0,"parameters":["Aka emo2",0,0,0]},{"code":401,"indent":0,"parameters":["Now, do you think they can handle it? Should w-"]},{"code":212,"indent":0,"parameters":[6,73,false]},{"code":230,"indent":0,"parameters":[30]},{"code":121,"indent":0,"parameters":[1760,1760,0]},{"code":230,"indent":0,"parameters":[30]},{"code":205,"indent":0,"parameters":[-1,{"list":[{"code":18,"indent":null,"parameters":[]},{"code":0,"indent":null,"parameters":[]}],"repeat":false,"skippable":false,"wait":true}]},{"code":505,"indent":0,"parameters":[{"code":18,"indent":null,"parameters":[]}]},{"code":101,"indent":0,"parameters":["Y DS_Actor03",3,0,0]},{"code":401,"indent":0,"parameters":["You're needed on the front lines ASAP, it's an emergency!"]},{"code":101,"indent":0,"parameters":["Aka emo2",2,0,0]},{"code":401,"indent":0,"parameters":["What's wrong?"]},{"code":101,"indent":0,"parameters":["Y DS_Actor03",3,0,0]},{"code":401,"indent":0,"parameters":["Some kind of hidden army assaulting Ardford itself! They threw them back, but Ardoheim doesn't have enough forces in range!"]},{"code":101,"indent":0,"parameters":["Aka emo2",2,0,0]},{"code":401,"indent":0,"parameters":["Then let's go!"]},{"code":121,"indent":0,"parameters":[1761,1761,0]},{"code":221,"indent":0,"parameters":[]},{"code":201,"indent":0,"parameters":[0,427,11,9,4,0]},{"code":123,"indent":0,"parameters":["A",0]},{"code":0,"indent":0,"parameters":[]}]},{"conditions":{"actorId":1,"actorValid":false,"itemId":1,"itemValid":false,"selfSwitchCh":"A","selfSwitchValid":true,"switch1Id":1,"switch1Valid":false,"switch2Id":1,"switch2Valid":false,"variableId":1,"variableValid":false,"variableValue":0},"directionFix":false,"image":{"tileId":0,"characterName":"","direction":2,"pattern":0,"characterIndex":0},"moveFrequency":3,"moveRoute":{"list":[{"code":0,"indent":null,"parameters":[]}],"repeat":true,"skippable":false,"wait":false},"moveSpeed":3,"moveType":0,"priorityType":0,"stepAnime":false,"through":false,"trigger":0,"walkAnime":true,"list":[{"code":0,"indent":0,"parameters":[]}]}],"x":0,"y":0},{"id":2,"name":"EV002","note":"","pages":[{"conditions":{"actorId":1,"actorValid":false,"itemId":1,"itemValid":false,"selfSwitchCh":"A","selfSwitchValid":false,"switch1Id":1,"switch1Valid":false,"switch2Id":1,"switch2Valid":false,"variableId":1,"variableValid":false,"variableValue":0},"directionFix":false,"image":{"tileId":0,"characterName":"Monster2","direction":2,"pattern":1,"characterIndex":7},"moveFrequency":3,"moveRoute":{"list":[{"code":0,"indent":null,"parameters":[]}],"repeat":true,"skippable":false,"wait":false},"moveSpeed":3,"moveType":0,"priorityType":1,"stepAnime":false,"through":false,"trigger":0,"walkAnime":true,"list":[{"code":0,"indent":0,"parameters":[]}]},{"conditions":{"actorId":1,"actorValid":false,"itemId":1,"itemValid":false,"selfSwitchCh":"A","selfSwitchValid":false,"switch1Id":1908,"switch1Valid":true,"switch2Id":1,"switch2Valid":false,"variableId":1,"variableValid":false,"variableValue":0},"directionFix":false,"image":{"tileId":0,"characterName":"","direction":2,"pattern":0,"characterIndex":0},"moveFrequency":3,"moveRoute":{"list":[{"code":0,"indent":null,"parameters":[]}],"repeat":true,"skippable":false,"wait":false},"moveSpeed":3,"moveType":0,"priorityType":0,"stepAnime":false,"through":false,"trigger":0,"walkAnime":true,"list":[{"code":0,"indent":0,"parameters":[]}]}],"x":7,"y":8},{"id":3,"name":"EV003","note":"","pages":[{"conditions":{"actorId":1,"actorValid":false,"itemId":1,"itemValid":false,"selfSwitchCh":"A","selfSwitchValid":false,"switch1Id":1,"switch1Valid":false,"switch2Id":1,"switch2Valid":false,"variableId":1,"variableValid":false,"variableValue":0},"directionFix":false,"image":{"tileId":0,"characterName":"Monster2","direction":2,"pattern":1,"characterIndex":7},"moveFrequency":3,"moveRoute":{"list":[{"code":0,"indent":null,"parameters":[]}],"repeat":true,"skippable":false,"wait":false},"moveSpeed":3,"moveType":0,"priorityType":1,"stepAnime":false,"through":false,"trigger":0,"walkAnime":true,"list":[{"code":0,"indent":0,"parameters":[]}]},{"conditions":{"actorId":1,"actorValid":false,"itemId":1,"itemValid":false,"selfSwitchCh":"A","selfSwitchValid":false,"switch1Id":1908,"switch1Valid":true,"switch2Id":1,"switch2Valid":false,"variableId":1,"variableValid":false,"variableValue":0},"directionFix":false,"image":{"tileId":0,"characterName":"","direction":2,"pattern":0,"characterIndex":0},"moveFrequency":3,"moveRoute":{"list":[{"code":0,"indent":null,"parameters":[]}],"repeat":true,"skippable":false,"wait":false},"moveSpeed":3,"moveType":0,"priorityType":0,"stepAnime":false,"through":false,"trigger":0,"walkAnime":true,"list":[{"code":0,"indent":0,"parameters":[]}]}],"x":8,"y":8},{"id":4,"name":"Captor","note":"","pages":[{"conditions":{"actorId":1,"actorValid":false,"itemId":1,"itemValid":false,"selfSwitchCh":"A","selfSwitchValid":false,"switch1Id":1,"switch1Valid":false,"switch2Id":1,"switch2Valid":false,"variableId":1,"variableValid":false,"variableValue":0},"directionFix":false,"image":{"tileId":0,"characterName":"Monster2","direction":2,"pattern":1,"characterIndex":3},"moveFrequency":3,"moveRoute":{"list":[{"code":0,"indent":null,"parameters":[]}],"repeat":true,"skippable":false,"wait":false},"moveSpeed":3,"moveType":0,"priorityType":1,"stepAnime":false,"through":false,"trigger":0,"walkAnime":true,"list":[{"code":0,"indent":0,"parameters":[]}]},{"conditions":{"actorId":1,"actorValid":false,"itemId":1,"itemValid":false,"selfSwitchCh":"A","selfSwitchValid":false,"switch1Id":1908,"switch1Valid":true,"switch2Id":1,"switch2Valid":false,"variableId":1,"variableValid":false,"variableValue":0},"directionFix":false,"image":{"tileId":0,"characterName":"","direction":2,"pattern":0,"characterIndex":0},"moveFrequency":3,"moveRoute":{"list":[{"code":0,"indent":null,"parameters":[]}],"repeat":true,"skippable":false,"wait":false},"moveSpeed":3,"moveType":0,"priorityType":0,"stepAnime":false,"through":false,"trigger":0,"walkAnime":true,"list":[{"code":0,"indent":0,"parameters":[]}]}],"x":7,"y":6},{"id":5,"name":"Captive","note":"","pages":[{"conditions":{"actorId":1,"actorValid":false,"itemId":1,"itemValid":false,"selfSwitchCh":"A","selfSwitchValid":false,"switch1Id":1907,"switch1Valid":true,"switch2Id":1,"switch2Valid":false,"variableId":1,"variableValid":false,"variableValue":0},"directionFix":false,"image":{"tileId":0,"characterName":"People2","direction":2,"pattern":1,"characterIndex":1},"moveFrequency":3,"moveRoute":{"list":[{"code":0,"indent":null,"parameters":[]}],"repeat":true,"skippable":false,"wait":false},"moveSpeed":3,"moveType":0,"priorityType":1,"stepAnime":false,"through":false,"trigger":0,"walkAnime":true,"list":[{"code":0,"indent":0,"parameters":[]}]},{"conditions":{"actorId":1,"actorValid":false,"itemId":1,"itemValid":false,"selfSwitchCh":"A","selfSwitchValid":false,"switch1Id":1908,"switch1Valid":true,"switch2Id":1,"switch2Valid":false,"variableId":1,"variableValid":false,"variableValue":0},"directionFix":false,"image":{"tileId":0,"characterName":"","direction":2,"pattern":0,"characterIndex":0},"moveFrequency":3,"moveRoute":{"list":[{"code":0,"indent":null,"parameters":[]}],"repeat":true,"skippable":false,"wait":false},"moveSpeed":3,"moveType":0,"priorityType":0,"stepAnime":false,"through":false,"trigger":0,"walkAnime":true,"list":[{"code":0,"indent":0,"parameters":[]}]}],"x":8,"y":6},{"id":6,"name":"Teleport Mage","note":"","pages":[{"conditions":{"actorId":1,"actorValid":false,"itemId":1,"itemValid":false,"selfSwitchCh":"A","selfSwitchValid":false,"switch1Id":1760,"switch1Valid":true,"switch2Id":1,"switch2Valid":false,"variableId":1,"variableValid":false,"variableValue":0},"directionFix":false,"image":{"tileId":0,"characterName":"Y DS_chara03","direction":4,"pattern":1,"characterIndex":3},"moveFrequency":3,"moveRoute":{"list":[{"code":0,"indent":null,"parameters":[]}],"repeat":true,"skippable":false,"wait":false},"moveSpeed":3,"moveType":0,"priorityType":1,"stepAnime":false,"through":false,"trigger":0,"walkAnime":true,"list":[{"code":0,"indent":0,"parameters":[]}]}],"x":10,"y":11}]
}
