{
"autoplayBgm":false,"autoplayBgs":false,"battleback1Name":"","battleback2Name":"","bgm":{"name":"","pan":0,"pitch":100,"volume":100},"bgs":{"name":"","pan":0,"pitch":100,"volume":80},"disableDashing":false,"displayName":"","encounterList":[],"encounterStep":30,"height":21,"note":"","parallaxLoopX":false,"parallaxLoopY":false,"parallaxName":"","parallaxShow":false,"parallaxSx":0,"parallaxSy":0,"scrollType":0,"specifyBattleback":false,"tilesetId":3,"width":17,"data":[7664,7664,7664,7664,7664,7664,7664,7664,7664,7664,7664,7664,7664,7664,7664,7664,7664,7664,7668,7692,7692,7692,7692,7692,7676,7692,7692,7692,7676,7692,7692,7692,7672,7664,7664,7688,8050,8050,8050,8050,8050,7696,8050,8050,8050,7696,8050,8050,8050,7680,7664,7664,7688,8056,8056,8056,8056,8056,7696,8056,8056,8056,7696,8056,8056,8056,7680,7664,7664,7688,4050,4036,4036,4036,4052,7696,4050,4036,4052,7696,4050,4036,4052,7680,7664,7664,7688,4032,4016,4016,4016,4040,7696,4032,4016,4040,7696,4032,4016,4040,7680,7664,7664,7688,4056,4044,4028,4044,4054,7696,4056,4028,4054,7696,4056,4028,4054,7680,7664,7664,7670,7697,7709,4048,7707,7697,7695,7709,4048,7707,7695,7709,4048,7707,7673,7664,7664,7688,8050,8054,4048,8051,8050,8050,8054,4048,8051,8050,8054,4048,8051,7680,7664,7664,7688,8056,8060,4048,8057,8056,8056,8060,4048,8057,8056,8060,4048,8057,7680,7664,7664,7688,4050,4036,4019,4036,4037,4049,4049,4047,4038,4036,4036,4019,4052,7680,7664,7664,7688,4032,4016,4016,4016,4040,4146,4132,4148,4032,4016,4016,4016,4040,7680,7664,7664,7688,4032,4016,4016,4016,4040,4128,4112,4136,4032,4016,4016,4016,4040,7680,7664,7664,7688,4032,4016,4016,4016,4040,4128,4112,4136,4032,4016,4016,4016,4040,7680,7664,7664,7688,4032,4016,4016,4016,4040,4128,4112,4136,4032,4016,4016,4016,4040,7680,7664,7664,7688,4032,4016,4016,4016,4040,4128,4112,4136,4032,4016,4016,4016,4040,7680,7664,7664,7688,4032,4016,4016,4016,4040,4128,4112,4136,4032,4016,4016,4016,4040,7680,7664,7664,7688,4032,4016,4016,4016,4040,4152,4140,4150,4032,4016,4016,4016,4040,7680,7664,7664,7688,4056,4044,4044,4044,4046,4049,4039,4049,4045,4044,4044,4044,4054,7680,7664,7664,7666,7684,7684,7684,7684,7684,7700,4060,7698,7684,7684,7684,7684,7684,7665,7664,7664,7664,7664,7664,7664,7664,7664,7666,7684,7665,7664,7664,7664,7664,7664,7664,7664,0,0,0,0,0,0,0,0,0,0,0,0,0,0,0,0,0,0,0,0,0,0,0,0,0,0,0,0,0,0,0,0,0,0,0,0,0,0,0,0,0,0,0,0,0,0,0,0,0,0,0,0,0,0,0,0,0,0,0,0,0,0,0,0,0,0,0,0,0,0,0,0,0,0,0,0,0,0,0,0,0,0,0,0,0,0,0,0,0,0,0,0,0,0,0,0,0,0,0,0,0,0,0,0,0,0,0,0,0,0,0,0,0,0,0,0,0,0,0,0,0,0,0,0,0,0,0,0,0,0,0,0,0,0,0,0,0,0,0,0,0,0,0,0,0,0,0,0,0,0,0,0,0,0,0,0,0,0,0,0,0,0,0,0,0,0,0,0,0,0,0,0,0,0,0,0,0,0,0,0,0,0,0,0,0,0,0,0,0,0,0,0,0,0,0,0,0,0,0,0,0,0,0,0,0,0,0,3195,3185,3197,0,0,0,0,0,3195,3185,3197,0,0,0,0,0,0,0,0,0,0,0,0,0,0,0,0,0,0,0,0,0,0,0,0,0,0,0,0,0,0,0,0,0,0,0,0,0,0,0,0,3195,3185,3197,0,0,0,0,0,3195,3185,3197,0,0,0,0,0,0,0,0,0,0,0,0,0,0,0,0,0,0,0,0,0,0,0,0,0,0,0,0,0,0,0,0,0,0,0,0,0,0,0,0,3195,3185,3197,0,0,0,0,0,3195,3185,3197,0,0,0,0,0,0,0,0,0,0,0,0,0,0,0,0,0,0,0,0,0,0,0,0,0,0,0,0,0,0,0,0,0,0,0,0,0,0,0,0,0,0,0,0,0,0,0,0,0,0,0,0,0,0,0,0,0,0,0,0,0,0,0,0,0,0,0,0,0,0,0,0,0,0,0,0,0,0,0,0,0,0,0,0,0,0,0,0,0,0,0,0,0,0,0,0,0,0,0,0,0,0,0,0,0,0,0,0,0,0,0,0,0,0,0,0,0,0,0,0,0,0,0,0,0,0,0,0,0,0,0,0,0,0,0,0,0,0,0,0,0,0,0,0,0,0,0,0,0,0,0,0,0,0,0,0,0,0,0,0,0,0,0,0,0,0,0,0,0,0,0,0,0,0,0,0,0,0,0,0,0,0,0,0,0,0,0,0,0,0,0,0,0,0,0,0,0,0,0,0,0,0,0,0,0,0,0,0,0,0,0,0,0,0,0,0,0,0,0,0,0,0,0,0,0,0,0,0,0,0,0,0,0,0,0,0,0,0,0,0,0,0,0,0,0,0,0,0,0,0,0,0,0,0,0,0,0,0,0,0,0,0,0,0,0,0,0,0,0,0,0,0,0,0,0,0,0,0,0,0,0,0,0,0,0,0,0,0,0,0,0,0,0,0,0,0,0,0,0,0,0,0,0,0,0,0,0,0,0,0,0,0,0,0,0,0,0,0,0,0,0,0,0,0,0,0,0,0,0,0,0,0,0,0,0,0,0,0,0,0,0,0,0,0,0,0,0,0,0,0,0,0,0,0,0,0,0,0,0,0,0,0,0,0,0,0,0,0,0,0,0,0,0,0,0,0,0,0,0,0,0,0,0,0,0,0,0,0,0,0,0,0,0,0,0,0,0,0,0,0,0,0,0,0,0,0,0,0,0,0,0,0,0,0,0,0,0,0,0,0,0,0,0,0,0,0,0,0,0,0,0,0,0,0,0,0,0,0,0,0,0,0,0,0,0,0,0,0,0,0,0,0,0,0,0,0,0,0,0,0,0,0,0,0,0,0,107,0,0,0,0,0,0,0,0,0,0,0,0,0,0,0,0,0,0,0,0,0,0,0,0,0,0,0,0,0,0,0,0,0,0,0,0,0,0,0,0,0,0,0,0,0,0,0,0,0,0,0,0,0,0,0,0,0,0,0,0,0,0,0,0,0,0,0,0,0,0,0,0,0,0,0,0,0,0,0,0,0,0,0,0,0,0,0,0,0,0,0,0,0,0,0,0,0,0,0,0,0,0,0,0,0,0,0,0,0,0,0,0,0,0,0,0,0,0,0,0,0,0,0,0,0,0,0,0,0,0,0,0,0,0,0,317,0,0,0,0,0,0,0,356,358,0,0,0,0,0,0,0,0,0,0,0,0,0,0,0,0,0,0,0,0,0,0,0,0,0,0,0,0,0,0,0,0,0,0,0,0,0,0,0,0,0,0,0,0,0,0,0,0,0,367,358,0,0,0,0,0,0,0,0,0,0,0,0,0,0,0,0,0,0,0,0,0,0,0,0,0,0,0,0,0,0,0,0,0,0,0,0,0,0,0,0,0,0,0,0,0,0,0,0,0,0,0,0,0,0,0,0,0,0,0,0,0,0,0,0,0,0,0,0,0,0,0,0,0,0,0,0,0,0,0,0,0,0,0,0,0,0,0,0,0,0,0,0,0,0,0,0,0,0,0,0,0,0,0,0,0,0,0,0,0,0,0,0,0,0,0,0,0,0,0,0,0,0,0,0,0,0,0,0,0,0,0,0,0,0,0,0,0,0,0,0,0,0,0,0,0,0,0,0,0,0,0,0,0,0,0,0,0,0,5,0,0,0,0,0,5,0,0,0,5,0,0,0,0,0,0,5,0,0,0,0,0,5,0,0,0,5,0,0,0,0,0,0,5,0,0,0,0,0,5,0,0,0,5,0,0,0,0,0,0,0,0,0,0,0,0,0,0,0,0,0,0,0,0,0,0,0,0,0,5,0,0,0,0,5,0,0,0,5,0,0,0,0,0,0,0,5,0,0,0,0,5,0,0,0,5,0,0,0,0,0,5,0,0,0,0,0,0,0,0,0,0,0,0,0,0,0,0,5,0,0,0,0,0,0,0,0,0,0,0,0,0,0,0,0,5,0,0,0,0,0,0,0,0,0,0,0,0,0,0,0,0,5,0,0,0,0,0,0,0,0,0,0,0,0,0,0,0,0,5,0,0,0,0,0,0,0,0,0,0,0,0,0,0,0,0,5,0,0,0,0,0,0,0,0,0,0,0,0,0,0,0,0,5,0,0,0,0,0,0,0,0,0,0,0,0,0,0,0,0,5,0,0,0,0,0,0,0,0,0,0,0,0,0,0,0,0,5,0,0,0,0,0,0,0,0,0,0,0,0,0,0,0,0,0,0,0,0,0,0,0,0,0,0,0,0,0,0,0,0,0,0,0,0,0,0,0,0,0,0,0,0,0,0,0,0,0,0,0,0,0,0,0,0,0,0,0,0,0,0,0,0,0,0,0,0,0,0,0,0,0,0,0,0,0,0,0,0,0,0,0,0,0,0,0,0,0,0,0,0,0,0,0,0,0,0,0,0,0,0,0,0,0,0,0,0,0,0,0,0,0,0,0,0,0,0,0,0,0,0,0,0,0,0,0,0,0,0,0,0,0,0,0,0,0,0,0,0,0,0,0,0,0,0,0,0,0,0,0,0,0,0,0,0,0,0,0,0,0,0,0,0,0,0,0,0,0,0,0,0,0,0,0,0,0,0,0,0,0,0,0,0,0,0,0,0,0,0,0,0,0,0,0,0,0,0,0,0,0,0,0,0,0,0,0,0,0,0,0,0,0,0,0,0,0,0,0,0,0,0,0,0,0,0,0,0,0,0,0,0,0,0,0,0,0,0,0,0,0,0,0,0,0,0,0,0,0,0,0,0,0,0,0,0,0,0,0,0,0,0,0,0,0,0,0,0,0,0,0,0,0,0,0,0,0,0,0,0,0,0,0,0,0,0,0,0,0,0,0,0,0,0,0,0,0,0,0,0,0,0,0,0,0,0,0,0,0,0,0,0,0,0,0,0,0,0,0,0,0,0,0,0,0,0,0,0,0,0,0,0,0,0,0,0,0,0,0,0,0,0,0,0,0,0,0,0,0,0,0,0,0,0,0,0,0,0,0,0,0,0,0,0,0,0,0,0,0,0,0,0,0,0,0,0,0,0,0,0,0,0,0,0,0,0,0,0,0,0,0,0,0,0,0,0,0,0,0,0,0,0,0,0,0],"events":[null,{"id":1,"name":"EV001","note":"","pages":[{"conditions":{"actorId":1,"actorValid":false,"itemId":1,"itemValid":false,"selfSwitchCh":"A","selfSwitchValid":false,"switch1Id":1,"switch1Valid":false,"switch2Id":1,"switch2Valid":false,"variableId":1,"variableValid":false,"variableValue":0},"directionFix":false,"image":{"tileId":0,"characterName":"","direction":2,"pattern":0,"characterIndex":0},"moveFrequency":3,"moveRoute":{"list":[{"code":0,"indent":null,"parameters":[]}],"repeat":true,"skippable":false,"wait":false},"moveSpeed":3,"moveType":0,"priorityType":0,"stepAnime":false,"through":false,"trigger":1,"walkAnime":true,"list":[{"code":250,"indent":0,"parameters":[{"name":"Move","pan":0,"pitch":100,"volume":80}]},{"code":201,"indent":0,"parameters":[0,412,15,5,0,0]},{"code":0,"indent":0,"parameters":[]}]}],"x":8,"y":19},{"id":2,"name":"Sho","note":"","pages":[{"conditions":{"actorId":1,"actorValid":false,"itemId":1,"itemValid":false,"selfSwitchCh":"A","selfSwitchValid":false,"switch1Id":1,"switch1Valid":false,"switch2Id":1,"switch2Valid":false,"variableId":1,"variableValid":false,"variableValue":0},"directionFix":false,"image":{"tileId":0,"characterName":"Z Sho","direction":4,"pattern":1,"characterIndex":0},"moveFrequency":3,"moveRoute":{"list":[{"code":0,"indent":null,"parameters":[]}],"repeat":true,"skippable":false,"wait":false},"moveSpeed":3,"moveType":0,"priorityType":1,"stepAnime":false,"through":false,"trigger":0,"walkAnime":true,"list":[{"code":101,"indent":0,"parameters":["Z Sho",0,0,2]},{"code":401,"indent":0,"parameters":["Do... do you have time to talk now?"]},{"code":101,"indent":0,"parameters":["Robin blond emo",1,0,2]},{"code":401,"indent":0,"parameters":["Yes, I do. It's good to see you again, Sho."]},{"code":101,"indent":0,"parameters":["Z Sho",1,0,2]},{"code":401,"indent":0,"parameters":["Yes! I'm so happy to see you're alright!"]},{"code":101,"indent":0,"parameters":["Robin blond emo",0,0,2]},{"code":401,"indent":0,"parameters":["How has the Academy been in my absence? Increasingly restrictive, I assume?"]},{"code":101,"indent":0,"parameters":["Z Sho",0,0,2]},{"code":401,"indent":0,"parameters":["Yes. I don't mind so much, since I don't really want to go into town anyway, but..."]},{"code":101,"indent":0,"parameters":["Robin blond emo",1,0,2]},{"code":401,"indent":0,"parameters":["I heard that you've moved up to the first rank. Congratulations."]},{"code":101,"indent":0,"parameters":["Z Sho",6,0,2]},{"code":401,"indent":0,"parameters":["Thank you."]},{"code":101,"indent":0,"parameters":["Z Sho",4,0,2]},{"code":401,"indent":0,"parameters":["But... compared to you, I don't know if I should feel proud. You feel so much more powerful than you were before..."]},{"code":101,"indent":0,"parameters":["Robin blond emo",5,0,2]},{"code":401,"indent":0,"parameters":["More powerful, yes, but I haven't been able to pursue pure theory as much as I'd like."]},{"code":101,"indent":0,"parameters":["Robin blond emo",1,0,2]},{"code":401,"indent":0,"parameters":["It would do me a lot of good to talk magic with you, Sho. Did you finish your agriculture project?"]},{"code":101,"indent":0,"parameters":["Z Sho",1,0,2]},{"code":401,"indent":0,"parameters":["Yes! It turned out, drawing the energy from the soil was a dead end, so..."]},{"code":221,"indent":0,"parameters":[]},{"code":230,"indent":0,"parameters":[60]},{"code":222,"indent":0,"parameters":[]},{"code":101,"indent":0,"parameters":["Robin blond emo",1,0,2]},{"code":401,"indent":0,"parameters":["That's fascinating. Are you sure you're not ready to graduate?"]},{"code":101,"indent":0,"parameters":["Z Sho",4,0,2]},{"code":401,"indent":0,"parameters":["I could, but... the world today... I'm afraid if I left, I'd be drafted into something..."]},{"code":101,"indent":0,"parameters":["Robin blond emo",4,0,2]},{"code":401,"indent":0,"parameters":["I wish that wasn't true, but perhaps you're right."]},{"code":101,"indent":0,"parameters":["Z Sho",6,0,2]},{"code":401,"indent":0,"parameters":["But you... what you're doing doesn't sound so bad. You've gotten to study all kinds of interesting magic!"]},{"code":101,"indent":0,"parameters":["Robin blond emo",1,0,2]},{"code":401,"indent":0,"parameters":["Yes, I've enjoyed it."]},{"code":101,"indent":0,"parameters":["Z Sho",0,0,2]},{"code":401,"indent":0,"parameters":["Traveling foreign lands, fighting monsters, even working for the Doom King... I can't imagine doing anything like that."]},{"code":101,"indent":0,"parameters":["Robin blond emo",0,0,2]},{"code":401,"indent":0,"parameters":["I... may have left out a few details."]},{"code":101,"indent":0,"parameters":["Z Sho",6,0,2]},{"code":401,"indent":0,"parameters":["Oh, I know! You're involved in important things now, that's okay! I'm just happy you still want to talk to me!"]},{"code":101,"indent":0,"parameters":["Robin blond emo",1,0,2]},{"code":401,"indent":0,"parameters":["Of course I do, Sho."]},{"code":101,"indent":0,"parameters":["Robin blond emo",0,0,2]},{"code":401,"indent":0,"parameters":["Listen, if things get violent and you can't find a strong ward, stick close to me."]},{"code":101,"indent":0,"parameters":["Z Sho",1,0,2]},{"code":401,"indent":0,"parameters":["Okay! Thanks, Robin..."]},{"code":122,"indent":0,"parameters":[198,198,1,0,2]},{"code":121,"indent":0,"parameters":[1758,1758,0]},{"code":123,"indent":0,"parameters":["A",0]},{"code":0,"indent":0,"parameters":[]}]},{"conditions":{"actorId":1,"actorValid":false,"itemId":1,"itemValid":false,"selfSwitchCh":"A","selfSwitchValid":true,"switch1Id":1,"switch1Valid":false,"switch2Id":1,"switch2Valid":false,"variableId":1,"variableValid":false,"variableValue":0},"directionFix":false,"image":{"tileId":0,"characterName":"Z Sho","direction":4,"pattern":1,"characterIndex":0},"moveFrequency":3,"moveRoute":{"list":[{"code":0,"indent":null,"parameters":[]}],"repeat":true,"skippable":false,"wait":false},"moveSpeed":3,"moveType":0,"priorityType":1,"stepAnime":false,"through":false,"trigger":0,"walkAnime":true,"list":[{"code":101,"indent":0,"parameters":["Z Sho",0,0,2]},{"code":401,"indent":0,"parameters":["I hope it isn't necessary, but if things become dangerous, I'll do what I can."]},{"code":0,"indent":0,"parameters":[]}]}],"x":5,"y":4},null,null,{"id":5,"name":"EV005","note":"","pages":[{"conditions":{"actorId":1,"actorValid":false,"itemId":1,"itemValid":false,"selfSwitchCh":"A","selfSwitchValid":false,"switch1Id":1,"switch1Valid":false,"switch2Id":1,"switch2Valid":false,"variableId":1,"variableValid":false,"variableValue":0},"directionFix":true,"image":{"tileId":0,"characterName":"!Hexagram","direction":2,"pattern":1,"characterIndex":0},"moveFrequency":3,"moveRoute":{"list":[{"code":0,"indent":null,"parameters":[]}],"repeat":true,"skippable":false,"wait":false},"moveSpeed":3,"moveType":0,"priorityType":1,"stepAnime":false,"through":false,"trigger":0,"walkAnime":true,"list":[{"code":101,"indent":0,"parameters":["Robin blond emo",1,0,2]},{"code":401,"indent":0,"parameters":["Ah, the good old magic circle. Brings back memories."]},{"code":0,"indent":0,"parameters":[]}]}],"x":13,"y":5},null,{"id":7,"name":"EV007","note":"","pages":[{"conditions":{"actorId":1,"actorValid":false,"itemId":1,"itemValid":false,"selfSwitchCh":"A","selfSwitchValid":false,"switch1Id":1,"switch1Valid":false,"switch2Id":1,"switch2Valid":false,"variableId":1,"variableValid":false,"variableValue":0},"directionFix":false,"image":{"tileId":0,"characterName":"People1","direction":8,"pattern":1,"characterIndex":6},"moveFrequency":3,"moveRoute":{"list":[{"code":0,"indent":null,"parameters":[]}],"repeat":true,"skippable":false,"wait":false},"moveSpeed":3,"moveType":0,"priorityType":1,"stepAnime":false,"through":false,"trigger":0,"walkAnime":true,"list":[{"code":101,"indent":0,"parameters":["People1",6,0,2]},{"code":401,"indent":0,"parameters":["Hmmhm... a little more of this... should work well."]},{"code":101,"indent":0,"parameters":["Robin blond emo",0,0,2]},{"code":401,"indent":0,"parameters":["This... is a remarkable ingredient. Is it to help non-religious mages cast purity spells?"]},{"code":101,"indent":0,"parameters":["People1",6,0,2]},{"code":401,"indent":0,"parameters":["Not bad, got it in one! Yes, I figured I'd do my part, since it involves such interesting research."]},{"code":101,"indent":0,"parameters":["Robin blond emo",0,0,2]},{"code":401,"indent":0,"parameters":["That's very helpful. I'll leave you to your own devices, please just let us know what you're working on so we can put it to use."]},{"code":101,"indent":0,"parameters":["People1",6,0,2]},{"code":401,"indent":0,"parameters":["You always were a sharp one, Robin. One of my favorite students."]},{"code":101,"indent":0,"parameters":["Robin blond emo",0,0,2]},{"code":401,"indent":0,"parameters":["Honestly, you were one of my least favorite professors. It was obvious you didn't care."]},{"code":101,"indent":0,"parameters":["People1",6,0,2]},{"code":401,"indent":0,"parameters":["Right. Students are stupid and can only learn about stupid things. There's no interesting magic to be done in classes."]},{"code":101,"indent":0,"parameters":["Robin blond emo",0,0,2]},{"code":401,"indent":0,"parameters":["...well, right now you're of more use to us than good teachers. Carry on."]},{"code":101,"indent":0,"parameters":["People1",6,0,2]},{"code":401,"indent":0,"parameters":["Always do!"]},{"code":122,"indent":0,"parameters":[198,198,1,0,1]},{"code":123,"indent":0,"parameters":["A",0]},{"code":0,"indent":0,"parameters":[]}]},{"conditions":{"actorId":1,"actorValid":false,"itemId":1,"itemValid":false,"selfSwitchCh":"A","selfSwitchValid":true,"switch1Id":1,"switch1Valid":false,"switch2Id":1,"switch2Valid":false,"variableId":1,"variableValid":false,"variableValue":0},"directionFix":false,"image":{"tileId":0,"characterName":"People1","direction":8,"pattern":1,"characterIndex":6},"moveFrequency":3,"moveRoute":{"list":[{"code":0,"indent":null,"parameters":[]}],"repeat":true,"skippable":false,"wait":false},"moveSpeed":3,"moveType":0,"priorityType":1,"stepAnime":false,"through":false,"trigger":0,"walkAnime":true,"list":[{"code":101,"indent":0,"parameters":["People1",6,0,2]},{"code":401,"indent":0,"parameters":["This is just the first step. My real goal is an arcane substrate that could carry divine energy."]},{"code":0,"indent":0,"parameters":[]}]}],"x":12,"y":16},null,{"id":9,"name":"EV009","note":"","pages":[{"conditions":{"actorId":1,"actorValid":false,"itemId":1,"itemValid":false,"selfSwitchCh":"A","selfSwitchValid":false,"switch1Id":1,"switch1Valid":false,"switch2Id":1,"switch2Valid":false,"variableId":1,"variableValid":false,"variableValue":0},"directionFix":true,"image":{"tileId":0,"characterName":"!Crystal","direction":4,"pattern":0,"characterIndex":0},"moveFrequency":3,"moveRoute":{"list":[{"code":0,"indent":null,"parameters":[]}],"repeat":true,"skippable":false,"wait":false},"moveSpeed":3,"moveType":0,"priorityType":1,"stepAnime":true,"through":false,"trigger":0,"walkAnime":true,"list":[{"code":101,"indent":0,"parameters":["Robin blond emo",0,0,2]},{"code":401,"indent":0,"parameters":["This crystal really shouldn't be wasting energy... I'll set it to gather mana for the battle."]},{"code":250,"indent":0,"parameters":[{"name":"Magic1","pan":0,"pitch":100,"volume":80}]},{"code":101,"indent":0,"parameters":["Robin blond emo",0,0,2]},{"code":401,"indent":0,"parameters":["Good, now it should serve as a mana battery for the students."]},{"code":122,"indent":0,"parameters":[198,198,1,0,1]},{"code":123,"indent":0,"parameters":["A",0]},{"code":0,"indent":0,"parameters":[]}]},{"conditions":{"actorId":1,"actorValid":false,"itemId":1,"itemValid":false,"selfSwitchCh":"A","selfSwitchValid":true,"switch1Id":1,"switch1Valid":false,"switch2Id":1,"switch2Valid":false,"variableId":1,"variableValid":false,"variableValue":0},"directionFix":true,"image":{"tileId":0,"characterName":"!Crystal","direction":6,"pattern":0,"characterIndex":0},"moveFrequency":3,"moveRoute":{"list":[{"code":0,"indent":null,"parameters":[]}],"repeat":true,"skippable":false,"wait":false},"moveSpeed":3,"moveType":0,"priorityType":1,"stepAnime":false,"through":false,"trigger":0,"walkAnime":true,"list":[{"code":101,"indent":0,"parameters":["Robin blond emo",0,0,2]},{"code":401,"indent":0,"parameters":["The crystal can't hold a huge amount of mana, but it may give those here a slight edge."]},{"code":0,"indent":0,"parameters":[]}]}],"x":8,"y":13},null,{"id":11,"name":"EV011","note":"","pages":[{"conditions":{"actorId":1,"actorValid":false,"itemId":1,"itemValid":false,"selfSwitchCh":"A","selfSwitchValid":false,"switch1Id":1,"switch1Valid":false,"switch2Id":1,"switch2Valid":false,"variableId":1,"variableValid":false,"variableValue":0},"directionFix":false,"image":{"tileId":0,"characterName":"People1","direction":2,"pattern":1,"characterIndex":2},"moveFrequency":3,"moveRoute":{"list":[{"code":0,"indent":null,"parameters":[]}],"repeat":true,"skippable":false,"wait":false},"moveSpeed":3,"moveType":0,"priorityType":1,"stepAnime":false,"through":false,"trigger":0,"walkAnime":true,"list":[{"code":101,"indent":0,"parameters":["People1",2,0,2]},{"code":401,"indent":0,"parameters":["Xkvxtz? Xkvztx? Zkvxtz? Xkvxtz?"]},{"code":101,"indent":0,"parameters":["Robin blond emo",5,0,2]},{"code":401,"indent":0,"parameters":["(Still studying this? I can't fault his dedication, I guess.)"]},{"code":0,"indent":0,"parameters":[]}]}],"x":4,"y":11},null,null,null,null,null,null,{"id":18,"name":"Rachila CS","note":"","pages":[{"conditions":{"actorId":1,"actorValid":false,"itemId":1,"itemValid":false,"selfSwitchCh":"A","selfSwitchValid":false,"switch1Id":1,"switch1Valid":false,"switch2Id":1,"switch2Valid":false,"variableId":1,"variableValid":false,"variableValue":0},"directionFix":false,"image":{"tileId":0,"characterName":"Z Rachila","direction":2,"pattern":1,"characterIndex":0},"moveFrequency":3,"moveRoute":{"list":[{"code":0,"indent":null,"parameters":[]}],"repeat":true,"skippable":false,"wait":false},"moveSpeed":3,"moveType":0,"priorityType":1,"stepAnime":false,"through":false,"trigger":0,"walkAnime":true,"list":[{"code":101,"indent":0,"parameters":["Z Rachila",6,0,2]},{"code":401,"indent":0,"parameters":["...Robin."]},{"code":101,"indent":0,"parameters":["Robin blond emo",0,0,2]},{"code":401,"indent":0,"parameters":["Glad to see you too, Rachila."]},{"code":101,"indent":0,"parameters":["Z Rachila",6,0,2]},{"code":401,"indent":0,"parameters":["I see you've gotten a new outfit, but it's no more stylish than anything you used to wear."]},{"code":101,"indent":0,"parameters":["Robin blond emo",0,0,2]},{"code":401,"indent":0,"parameters":["I have had other concerns."]},{"code":101,"indent":0,"parameters":["Z Rachila",0,0,2]},{"code":401,"indent":0,"parameters":["How the hell did you do it? Your family doesn't have any money, and suddenly everyone actually respects you!"]},{"code":101,"indent":0,"parameters":["Robin blond emo",0,0,2]},{"code":401,"indent":0,"parameters":["..."]},{"code":101,"indent":0,"parameters":["Z Rachila",2,0,2]},{"code":401,"indent":0,"parameters":["I'm being serious, Robin. All I've ever wanted is the respect I'm due, but Mherin still treats me like merchant trash!"]},{"code":101,"indent":0,"parameters":["Robin blond emo",5,0,2]},{"code":401,"indent":0,"parameters":["...they only respect me because they need me. That's a very limited respect."]},{"code":101,"indent":0,"parameters":["Z Rachila",3,0,2]},{"code":401,"indent":0,"parameters":["I respect you. You stopped the demon attack, and now even that seed of corruption..."]},{"code":101,"indent":0,"parameters":["Robin blond emo",1,0,2]},{"code":401,"indent":0,"parameters":["I... thank you. I want to make the world a better place."]},{"code":101,"indent":0,"parameters":["Z Rachila",6,0,2]},{"code":401,"indent":0,"parameters":["I could never go out in an outfit like that, though. Seriously, I'm saying it for your own good."]},{"code":101,"indent":0,"parameters":["Robin blond emo",0,0,2]},{"code":401,"indent":0,"parameters":["..."]},{"code":122,"indent":0,"parameters":[198,198,1,0,1]},{"code":123,"indent":0,"parameters":["A",0]},{"code":0,"indent":0,"parameters":[]}]},{"conditions":{"actorId":1,"actorValid":false,"itemId":1,"itemValid":false,"selfSwitchCh":"A","selfSwitchValid":true,"switch1Id":1,"switch1Valid":false,"switch2Id":1,"switch2Valid":false,"variableId":1,"variableValid":false,"variableValue":0},"directionFix":false,"image":{"tileId":0,"characterName":"Z Rachila","direction":2,"pattern":1,"characterIndex":0},"moveFrequency":3,"moveRoute":{"list":[{"code":0,"indent":null,"parameters":[]}],"repeat":true,"skippable":false,"wait":false},"moveSpeed":3,"moveType":0,"priorityType":1,"stepAnime":false,"through":false,"trigger":0,"walkAnime":true,"list":[{"code":101,"indent":0,"parameters":["Z Rachila",6,0,2]},{"code":401,"indent":0,"parameters":["Don't worry, I'll do my part. I've been training since that demon attack."]},{"code":0,"indent":0,"parameters":[]}]}],"x":12,"y":11}]
}
