{
"autoplayBgm":false,"autoplayBgs":false,"battleback1Name":"Meadow","battleback2Name":"Forest1","bgm":{"name":"","pan":0,"pitch":100,"volume":100},"bgs":{"name":"","pan":0,"pitch":100,"volume":80},"disableDashing":false,"displayName":"","encounterList":[],"encounterStep":30,"height":13,"note":"","parallaxLoopX":false,"parallaxLoopY":false,"parallaxName":"","parallaxShow":false,"parallaxSx":0,"parallaxSy":0,"scrollType":0,"specifyBattleback":true,"tilesetId":55,"width":17,"data":[2048,2048,2048,2048,2048,2048,2048,2048,2048,2048,2048,2048,2048,2048,2052,2076,2076,2048,2048,2052,2076,2076,2076,2076,2076,2076,2076,2076,2076,2076,2076,2086,2850,2836,2048,2052,2086,2850,2836,2836,2836,2836,2836,2836,2836,2836,2836,2836,2836,2817,2816,2052,2086,2850,2817,2816,2816,2816,2816,2816,2816,2816,2816,2816,2816,2816,2816,2816,2072,2850,2817,2816,2816,2816,2816,2816,2816,2816,2816,2816,2816,2816,2816,2816,2816,2072,2832,2816,2816,2816,2816,2816,2816,2816,2816,2816,2816,2816,2816,2816,2816,2816,2086,2832,2816,2816,2816,2816,2816,2816,2816,2816,2816,2816,2816,2816,2816,2816,2816,2836,2817,2816,2816,2816,2816,2816,2816,2816,2816,2816,2816,2816,2816,2816,2816,2816,2816,2816,2816,2816,2816,2816,2816,2816,2816,2816,2816,2816,2816,2816,2816,2816,2816,2816,2816,2816,2816,2816,2816,2820,2844,2824,2816,2816,2816,2816,2816,2816,2816,2816,2816,2816,2816,2816,2816,2816,2840,2906,2856,2824,2816,2816,2816,2816,2816,2816,2816,2816,2816,2816,2816,2816,2816,2840,2881,2900,2832,2816,2816,2816,2816,2816,2816,2816,2816,2816,2816,2816,2816,2816,2840,2880,2888,2832,2816,2816,2816,2816,2816,2816,2816,0,0,0,0,0,0,0,0,0,0,0,0,0,0,0,0,0,0,0,0,0,0,0,0,0,0,0,0,0,0,0,0,3042,3028,0,0,0,3042,3028,3028,3028,3028,3028,3028,3028,3028,3028,3028,3028,3013,3036,0,0,3042,3009,3008,3008,3012,3036,3036,3036,3016,3008,3008,3008,3012,3046,0,0,3042,3009,3008,3008,3008,3032,0,0,0,3048,3016,3012,3036,3046,0,0,0,3024,3012,3036,3036,3016,3010,3044,0,0,0,3048,3046,0,0,0,0,0,3026,3046,0,0,3048,3036,3046,0,0,0,0,0,0,0,0,0,3028,3034,0,0,0,0,0,0,0,0,0,0,0,0,0,0,0,3036,3046,0,0,0,0,0,0,0,0,0,0,0,0,0,0,0,0,0,0,0,0,0,0,0,0,0,0,0,0,0,0,0,3042,0,0,0,0,0,0,0,0,0,0,0,0,0,0,0,0,3024,0,0,0,0,0,0,0,0,0,0,0,0,0,0,0,3042,3009,0,0,0,0,0,0,0,0,0,0,0,0,0,3042,3028,3009,3008,0,0,0,0,0,0,0,0,0,0,0,0,0,0,0,0,0,0,0,0,0,0,0,0,0,0,0,0,0,0,0,0,0,0,0,0,0,0,0,0,0,0,0,0,0,0,0,0,0,0,0,0,0,0,0,0,0,0,0,0,0,0,0,0,0,0,0,0,0,0,0,0,0,0,0,0,0,0,0,0,0,0,0,0,0,0,0,0,0,0,0,0,0,0,0,0,0,0,0,0,0,0,0,0,0,0,0,0,0,0,0,0,0,0,0,0,0,0,0,0,0,0,0,0,0,0,0,0,0,0,0,0,0,0,0,0,0,0,0,0,0,0,0,0,0,0,0,0,0,0,0,0,0,0,0,0,0,0,0,0,0,0,0,0,0,0,0,0,0,0,0,0,0,0,0,0,0,0,0,0,0,0,0,0,0,0,0,0,0,0,0,0,0,0,0,0,0,0,0,0,0,0,0,0,0,0,0,0,0,0,0,0,0,0,0,0,0,0,0,0,0,0,0,0,0,0,0,0,0,0,0,0,0,50,51,0,0,0,0,0,0,0,48,49,0,0,0,0,0,0,58,59,0,0,54,0,0,0,0,56,57,69,0,54,0,0,0,66,67,0,0,0,0,0,0,0,64,65,0,0,0,48,49,0,0,0,0,0,0,0,0,54,0,0,0,0,0,0,56,57,0,0,54,0,0,50,0,0,48,49,0,69,0,0,0,64,65,0,0,0,0,0,58,0,0,56,57,0,0,0,0,0,0,0,0,0,0,0,69,66,0,0,64,65,0,0,0,0,0,0,54,0,0,48,49,0,0,49,0,0,0,0,0,0,0,0,0,0,0,0,56,57,0,0,59,0,0,0,54,0,0,0,0,0,0,0,0,64,65,0,0,67,0,0,0,0,0,0,0,0,0,0,0,0,0,0,0,54,0,54,0,48,49,0,0,0,0,0,0,0,0,0,0,0,0,0,0,0,56,57,0,0,0,0,0,0,48,49,0,0,54,0,0,0,0,0,0,0,0,0,0,0,0,0,0,0,0,0,0,0,0,0,0,0,0,0,0,0,0,0,0,0,0,0,0,0,0,0,0,0,0,0,0,0,0,0,0,0,0,0,0,0,0,0,0,0,0,0,0,0,0,0,0,0,0,0,0,0,0,0,0,0,0,0,0,0,0,0,0,0,0,0,0,0,0,0,0,0,0,0,0,0,0,0,0,0,0,0,0,0,0,0,0,0,0,0,0,0,0,0,0,0,0,0,0,0,0,0,0,0,0,0,0,0,0,0,0,0,0,0,0,0,0,0,0,0,0,0,0,0,0,0,0,0,0,0,0,0,0,0,0,0,0,0,0,0,0,0,0,0,0,0,0,0,0,0,0,0,0,0,0,0,0,0,0,0,0,0,0,0,0,0,0,0,0,0,0,0,0,0,0,0,0,0,0,0,0,0,0,0,0,0,0,0,0,0,0,0,0,0,0,0,0,0,0,0,0,0,0,0,0,0,0,0,0,0,0,0,0,0,0,0,0,0,0,0,0,0,0,0,0,0,0,0,0,0,0,0,0,0,0,0,0,0,0,0,0,0,0,0,0,0,0,0,0,0,0,0,0,0,0,0,0,0,0,0,0,0,0,0,0,0,0,0,0,0,0,0,0,0,0,0,0,0,0,0,0,0,0,0,0,0,0,0,0,0,0,0,0,0,0,0,0,0,0,0,0,0,0,0,0,0,0,0,0,0,0,0,0,0,0,0,0,0,0,0,0,0,0,0,0,0,0,0,0,0,0,0,0,0,0,0,0,0,0,0,0,0,0,0,0,0,0,0,0,0,0,0,0,0,0,0,0,0,0,0,0,0,0,0,0,0,0,0,0,0,0,0,0,0,0,0,0,0,0,0,0,0,0,0,0,0,0,0,0,0,0,0,0,0,0,0,0,0,0,0,0,0,0,0,0,0,0,0,0,0,0,0,0,0,0,0,0,0,0,0,0,0,0,0,0,0,0,0],"events":[null,{"id":1,"name":"EV001","note":"","pages":[{"conditions":{"actorId":1,"actorValid":false,"itemId":1,"itemValid":false,"selfSwitchCh":"A","selfSwitchValid":false,"switch1Id":1,"switch1Valid":false,"switch2Id":1,"switch2Valid":false,"variableId":1,"variableValid":false,"variableValue":0},"directionFix":false,"image":{"tileId":0,"characterName":"","direction":2,"pattern":0,"characterIndex":0},"moveFrequency":3,"moveRoute":{"list":[{"code":0,"indent":null,"parameters":[]}],"repeat":true,"skippable":false,"wait":false},"moveSpeed":3,"moveType":0,"priorityType":0,"stepAnime":false,"through":false,"trigger":3,"walkAnime":true,"list":[{"code":101,"indent":0,"parameters":["Z Biyue emo",0,0,2]},{"code":401,"indent":0,"parameters":["But... would a southern route work? Even if Ardoheim wasn't a problem, the sea is not the smoothest..."]},{"code":101,"indent":0,"parameters":["Orilise emo",1,0,2]},{"code":401,"indent":0,"parameters":["I don't think Ardoheim will be a problem if we don't involve Yhilin at all."]},{"code":101,"indent":0,"parameters":["Z Biyue emo",3,0,2]},{"code":401,"indent":0,"parameters":["You... did get permission from Yhilin, right?"]},{"code":101,"indent":0,"parameters":["Orilise emo",0,0,2]},{"code":401,"indent":0,"parameters":["Of course I did. We want Zirantia to get through the crisis - ties to Yhilin are secondary."]},{"code":101,"indent":0,"parameters":["Z Biyue emo",0,0,2]},{"code":401,"indent":0,"parameters":["That is very generous. I trust in what you say, since I met your companions while they were here in Zirantia."]},{"code":101,"indent":0,"parameters":["Orilise emo",1,0,2]},{"code":401,"indent":0,"parameters":["If you're finally convinced we come in peace... perhaps you'd be willing to discuss the Zirantian situation more honestly?"]},{"code":101,"indent":0,"parameters":["Z Biyue emo",4,0,2]},{"code":401,"indent":0,"parameters":["I wasn't intentionally withholding information, it's just... the situation..."]},{"code":111,"indent":0,"parameters":[0,1467,0]},{"code":122,"indent":1,"parameters":[195,195,1,0,2]},{"code":122,"indent":1,"parameters":[189,189,1,0,1]},{"code":101,"indent":1,"parameters":["Z Biyue emo",2,0,2]},{"code":401,"indent":1,"parameters":["The Old Zirantian League is mostly keeping everything together, and they've limited the corruption, but... they're solidifying their power."]},{"code":101,"indent":1,"parameters":["Orilise emo",0,0,2]},{"code":401,"indent":1,"parameters":["So the seed of corruption is mostly under control?"]},{"code":101,"indent":1,"parameters":["Z Biyue emo",1,0,2]},{"code":401,"indent":1,"parameters":["It took a lot of effort from the Divine Claw, but yes!"]},{"code":0,"indent":1,"parameters":[]},{"code":411,"indent":0,"parameters":[]},{"code":122,"indent":1,"parameters":[195,195,1,0,5]},{"code":122,"indent":1,"parameters":[189,189,1,0,2]},{"code":101,"indent":1,"parameters":["Z Biyue emo",3,0,2]},{"code":401,"indent":1,"parameters":["With the Old Zirantian League weakened, defeating the corruption fell to other parties... and we've failed to work together very well."]},{"code":101,"indent":1,"parameters":["Z Biyue emo",3,0,2]},{"code":401,"indent":1,"parameters":["I think the New Unionist Party has done a good job protecting those in our areas, but we're so limited..."]},{"code":101,"indent":1,"parameters":["Orilise emo",0,0,2]},{"code":401,"indent":1,"parameters":["So the seed of corruption isn't under control? Is it still spreading?"]},{"code":101,"indent":1,"parameters":["Z Biyue emo",2,0,2]},{"code":401,"indent":1,"parameters":["Not quickly, but yes. The most we've been able to do is keep it away from large population centers."]},{"code":0,"indent":1,"parameters":[]},{"code":412,"indent":0,"parameters":[]},{"code":101,"indent":0,"parameters":["Orilise emo",6,0,2]},{"code":401,"indent":0,"parameters":["I'm guessing that Zirantia isn't open to any more direct outside assistance?"]},{"code":101,"indent":0,"parameters":["Z Biyue emo",6,0,2]},{"code":401,"indent":0,"parameters":["You can imagine how stubborn everyone is about this."]},{"code":111,"indent":0,"parameters":[1,168,0,15,1]},{"code":101,"indent":1,"parameters":["Z Biyue emo",1,0,2]},{"code":401,"indent":1,"parameters":["But the work you did with us while you were here was helpful! We've been able to do better thanks to you!"]},{"code":0,"indent":1,"parameters":[]},{"code":411,"indent":0,"parameters":[]},{"code":122,"indent":1,"parameters":[195,195,1,0,2]},{"code":0,"indent":1,"parameters":[]},{"code":412,"indent":0,"parameters":[]},{"code":111,"indent":0,"parameters":[0,1467,0]},{"code":101,"indent":1,"parameters":["Orilise emo",0,0,2]},{"code":401,"indent":1,"parameters":["It sounds like our priority will be figuring out how to work with the Old Zirantian League, then. I think w-"]},{"code":0,"indent":1,"parameters":[]},{"code":411,"indent":0,"parameters":[]},{"code":101,"indent":1,"parameters":["Orilise emo",0,0,2]},{"code":401,"indent":1,"parameters":["It sounds like our priority will be figuring out how to support you over the other parties, then. I think w-"]},{"code":0,"indent":1,"parameters":[]},{"code":412,"indent":0,"parameters":[]},{"code":250,"indent":0,"parameters":[{"name":"Magic2","pan":0,"pitch":100,"volume":80}]},{"code":230,"indent":0,"parameters":[60]},{"code":213,"indent":0,"parameters":[3,8,true]},{"code":101,"indent":0,"parameters":["Orilise emo",0,0,2]},{"code":401,"indent":0,"parameters":["What was that?"]},{"code":101,"indent":0,"parameters":["Z Biyue emo",7,0,2]},{"code":401,"indent":0,"parameters":["Zirantia is...! I mean, this is supposed to be a secret but..."]},{"code":101,"indent":0,"parameters":["Orilise emo",2,0,2]},{"code":401,"indent":0,"parameters":["Tell me. What's going on?"]},{"code":101,"indent":0,"parameters":["Z Biyue emo",2,0,2]},{"code":401,"indent":0,"parameters":["Zirantia is under attack! They don't know who, but a man tore into the capital and has been capturing people left and right!"]},{"code":101,"indent":0,"parameters":["Orilise emo",6,0,2]},{"code":401,"indent":0,"parameters":["I really don't like the sound of that..."]},{"code":201,"indent":0,"parameters":[0,476,8,14,0,0]},{"code":123,"indent":0,"parameters":["A",0]},{"code":0,"indent":0,"parameters":[]}]},{"conditions":{"actorId":1,"actorValid":false,"itemId":1,"itemValid":false,"selfSwitchCh":"A","selfSwitchValid":true,"switch1Id":1,"switch1Valid":false,"switch2Id":1,"switch2Valid":false,"variableId":1,"variableValid":false,"variableValue":0},"directionFix":false,"image":{"tileId":0,"characterName":"","direction":2,"pattern":0,"characterIndex":0},"moveFrequency":3,"moveRoute":{"list":[{"code":0,"indent":null,"parameters":[]}],"repeat":true,"skippable":false,"wait":false},"moveSpeed":3,"moveType":0,"priorityType":0,"stepAnime":false,"through":false,"trigger":0,"walkAnime":true,"list":[{"code":0,"indent":0,"parameters":[]}]}],"x":0,"y":0},{"id":2,"name":"Orilise","note":"","pages":[{"conditions":{"actorId":1,"actorValid":false,"itemId":1,"itemValid":false,"selfSwitchCh":"A","selfSwitchValid":false,"switch1Id":1,"switch1Valid":false,"switch2Id":1,"switch2Valid":false,"variableId":1,"variableValid":false,"variableValue":0},"directionFix":false,"image":{"tileId":0,"characterName":"$Orilise char","direction":6,"pattern":1,"characterIndex":0},"moveFrequency":3,"moveRoute":{"list":[{"code":0,"indent":null,"parameters":[]}],"repeat":true,"skippable":false,"wait":false},"moveSpeed":3,"moveType":0,"priorityType":1,"stepAnime":false,"through":false,"trigger":0,"walkAnime":true,"list":[{"code":0,"indent":0,"parameters":[]}]}],"x":6,"y":7},{"id":3,"name":"Biyue","note":"","pages":[{"conditions":{"actorId":1,"actorValid":false,"itemId":1,"itemValid":false,"selfSwitchCh":"A","selfSwitchValid":false,"switch1Id":1,"switch1Valid":false,"switch2Id":1,"switch2Valid":false,"variableId":1,"variableValid":false,"variableValue":0},"directionFix":false,"image":{"tileId":0,"characterName":"$Biyue char","direction":4,"pattern":1,"characterIndex":0},"moveFrequency":3,"moveRoute":{"list":[{"code":0,"indent":null,"parameters":[]}],"repeat":true,"skippable":false,"wait":false},"moveSpeed":3,"moveType":0,"priorityType":1,"stepAnime":false,"through":false,"trigger":0,"walkAnime":true,"list":[{"code":0,"indent":0,"parameters":[]}]}],"x":8,"y":7}]
}
