{
"autoplayBgm":false,"autoplayBgs":false,"battleback1Name":"DirtField","battleback2Name":"Ruins","bgm":{"name":"","pan":0,"pitch":100,"volume":100},"bgs":{"name":"","pan":0,"pitch":100,"volume":80},"disableDashing":false,"displayName":"","encounterList":[],"encounterStep":30,"height":13,"note":"","parallaxLoopX":false,"parallaxLoopY":false,"parallaxName":"","parallaxShow":false,"parallaxSx":0,"parallaxSy":0,"scrollType":0,"specifyBattleback":true,"tilesetId":55,"width":17,
"data":[5170,5174,3216,3200,3224,5563,5562,5562,5566,3216,3200,3200,3200,3200,3200,3200,3200,5168,5172,3201,3200,3202,3220,3220,3220,3220,3201,3200,3200,3200,3200,3200,3200,3200,5176,5180,3200,3200,3200,3200,3200,3200,3200,3200,3200,3200,3200,3200,3200,3200,3200,5506,5510,3200,3200,3200,3200,3200,3200,3200,3200,3200,3200,3200,3200,3200,3200,3200,5512,5516,3200,3200,3200,3200,3200,3200,3200,3200,3200,3200,3200,3200,3200,3200,3200,3220,3220,3201,3200,3200,3200,3200,3200,3200,3200,3200,3200,3200,3200,3200,3200,3200,3200,3200,3200,3200,3200,3200,3200,3200,3200,3200,3200,3200,3200,3200,3200,3200,3200,3200,3200,3200,3200,3200,3200,3200,3200,3200,3200,3200,3200,3200,3200,3200,3200,3200,3200,3200,3200,3200,3200,3200,3200,3200,3200,3200,3200,3200,3200,3200,3200,3200,3200,3200,3200,3200,3200,3200,3200,3200,3200,3200,3200,3200,3200,3200,3200,3200,3200,3200,3200,3200,3200,3200,3200,3200,3200,3200,3200,3200,3200,3200,3200,3200,3200,3200,3200,3200,3200,3200,3200,3200,3200,3200,3200,3200,3200,3200,3200,3200,3200,3200,3200,3200,3200,3200,3200,3200,3200,3200,3200,3200,3200,3200,3200,3200,3200,3200,3200,3200,3200,0,0,0,0,0,0,0,0,0,0,0,0,0,0,0,0,0,0,0,0,0,0,0,0,0,0,0,0,0,0,0,0,0,0,0,0,0,0,0,0,0,0,0,0,0,0,0,0,0,0,4338,0,0,0,0,0,0,0,0,0,0,0,0,0,0,3427,3437,4320,0,0,0,0,0,0,0,0,0,0,0,0,0,3426,3418,4338,4305,3412,3428,0,0,0,3434,0,0,0,0,0,0,3426,3393,3416,4320,4304,3420,3422,3437,0,3435,3419,0,3435,3425,3425,3415,3425,3405,3420,3430,4320,4304,0,0,0,3434,0,3411,3437,0,0,0,3424,0,3424,0,4338,4305,4304,0,3427,3425,3419,0,3436,0,0,0,3426,3395,3413,3423,3437,4320,4304,4304,3425,3431,0,3433,3437,0,0,0,3426,3397,3420,3430,0,4338,4305,4304,4304,4324,4324,4324,4340,0,3435,3425,3414,3393,3416,0,4338,4324,4305,4304,4304,4304,4304,4304,4304,4306,4324,4340,0,3432,3420,3430,4338,4305,4304,4304,4304,4304,4304,4304,4304,4304,4304,4304,4306,4324,4324,4324,4324,4305,4304,4304,4304,4304,4304,4304,0,0,0,0,0,0,0,0,0,0,0,0,0,0,0,0,0,0,0,0,0,0,0,0,0,0,0,0,0,0,0,0,0,0,0,0,0,0,0,0,0,0,0,0,0,0,0,0,0,0,0,0,0,0,0,0,0,0,0,0,0,0,0,0,0,0,0,0,0,0,0,0,0,0,0,0,0,0,0,0,0,0,0,0,0,0,0,0,0,0,0,0,0,0,0,0,0,0,0,0,0,0,0,0,0,0,0,0,0,0,0,0,0,0,0,0,0,0,0,0,0,0,0,0,0,0,0,0,0,0,0,0,0,0,0,0,0,0,0,0,0,0,0,0,0,0,0,0,0,0,0,0,0,0,0,0,0,0,0,0,0,0,0,0,0,0,0,0,0,0,0,0,0,0,0,0,0,0,0,0,0,0,0,0,0,0,0,0,0,0,0,0,0,0,0,0,0,0,0,0,0,0,0,0,0,0,0,0,0,0,0,0,0,0,0,0,0,0,0,0,0,0,0,0,0,0,0,733,734,735,0,110,111,110,111,110,111,0,0,0,184,185,0,0,741,742,743,0,118,119,126,127,126,127,0,0,0,194,195,0,0,0,0,0,0,0,0,0,0,0,0,0,0,0,202,203,0,0,0,0,0,755,756,0,0,0,0,0,0,0,0,0,232,0,0,0,0,0,763,764,0,0,0,0,0,0,0,0,0,250,0,0,0,0,0,0,0,0,0,0,0,0,0,0,0,0,0,0,0,0,0,0,0,0,233,0,0,0,0,0,0,0,0,0,0,0,0,0,0,0,0,241,0,0,0,0,0,0,0,0,0,0,0,0,572,0,0,0,0,0,0,0,0,0,0,0,0,0,0,0,0,0,0,0,0,0,0,0,0,0,0,0,0,0,0,0,0,0,0,0,0,0,0,0,0,0,0,0,0,0,0,0,0,0,0,0,0,0,0,0,0,0,0,0,0,0,0,0,0,0,0,0,0,0,0,0,0,0,0,0,0,0,0,0,0,0,0,0,0,0,0,0,0,0,0,0,0,0,0,0,0,5,0,0,0,0,0,0,0,0,0,0,0,0,0,0,0,0,5,0,0,0,0,0,0,0,0,0,0,0,0,0,0,0,0,5,0,0,0,0,0,0,0,0,0,0,0,0,0,0,0,0,5,0,0,0,0,0,0,0,0,0,0,0,0,0,0,0,0,0,0,0,0,0,0,0,0,0,0,0,0,0,0,0,0,0,0,0,0,0,0,0,0,0,0,0,0,0,0,0,0,0,0,0,0,0,0,0,0,0,0,0,0,0,0,0,0,0,0,0,0,0,0,0,0,0,0,0,0,0,0,0,0,0,0,0,0,0,0,0,0,0,0,0,0,0,0,0,0,0,0,0,0,0,0,0,0,0,0,0,0,0,0,0,0,0,0,0,0,0,0,0,0,0,0,0,0,0,0,0,0,0,0,0,0,0,0,0,0,0,0,0,0,0,0,0,0,0,0,0,0,0,0,0,0,0,0,0,0,0,0,0,0,0,0,0,0,0,0,0,0,0,0,0,0,0,0,0,0,0,0,0,0,0,0,0,0,0,0,0,0,0,0,0,0,0,0,0,0,0,0,0,0,0,0,0,0,0,0,0,0,0,0,0,0,0,0,0,0,0,0,0,0,0,0,0,0,0,0,0,0,0,0,0,0,0,0,0,0,0,0,0,0,0,0,0,0,0,0,0,0,0,0,0,0,0,0,0,0,0,0,0,0,0,0,0,0,0,0,0,0,0,0,0,0,0,0,0,0,0,0,0,0,0,0,0,0,0,0,0,0,0,0,0,0,0,0,0,0,0,0,0,0,0,0,0,0,0,0,0,0,0,0,0,0,0,0,0,0,0,0,0,0,0,0,0,0,0,0,0,0,0,0,0,0,0,0,0,0,0,0,0,0,0,0,0,0,0,0,0,0,0,0,0,0,0,0,0,0,0,0,0,0,0,0,0,0,0,0,0,0,0,0,0],
"events":[
null,
{"id":1,"name":"EV001","note":"","pages":[{"conditions":{"actorId":1,"actorValid":false,"itemId":1,"itemValid":false,"selfSwitchCh":"A","selfSwitchValid":false,"switch1Id":1,"switch1Valid":false,"switch2Id":1,"switch2Valid":false,"variableId":1,"variableValid":false,"variableValue":0},"directionFix":false,"image":{"tileId":0,"characterName":"","direction":2,"pattern":0,"characterIndex":0},"moveFrequency":3,"moveRoute":{"list":[{"code":0,"indent":null,"parameters":[]}],"repeat":true,"skippable":false,"wait":false},"moveSpeed":3,"moveType":0,"priorityType":0,"stepAnime":false,"through":false,"trigger":3,"walkAnime":true,"list":[{"code":111,"indent":0,"parameters":[0,1467,0]},{"code":101,"indent":1,"parameters":["Z Zirantian soldier emo",2,0,2]},{"code":401,"indent":1,"parameters":["Keep it back! Don't let it poison the water supply!"]},{"code":101,"indent":1,"parameters":["Z Zirantian soldier emo",7,0,2]},{"code":401,"indent":1,"parameters":["But sir, this thing... it's too powerful..."]},{"code":0,"indent":1,"parameters":[]},{"code":411,"indent":0,"parameters":[]},{"code":101,"indent":1,"parameters":["Zirantian male2 emo",2,0,2]},{"code":401,"indent":1,"parameters":["Don't let it poison the well! If it does, we're finished!"]},{"code":101,"indent":1,"parameters":["Zirantian male1 emo",4,0,2]},{"code":401,"indent":1,"parameters":["It's too strong... we're already finished..."]},{"code":0,"indent":1,"parameters":[]},{"code":412,"indent":0,"parameters":[]},{"code":212,"indent":0,"parameters":[-1,77,false]},{"code":230,"indent":0,"parameters":[30]},{"code":205,"indent":0,"parameters":[-1,{"list":[{"code":40,"indent":null,"parameters":[]},{"code":0,"indent":null,"parameters":[]}],"repeat":false,"skippable":false,"wait":true}]},{"code":505,"indent":0,"parameters":[{"code":40,"indent":null,"parameters":[]}]},{"code":230,"indent":0,"parameters":[30]},{"code":301,"indent":0,"parameters":[0,525,false,true]},{"code":601,"indent":0,"parameters":[]},{"code":121,"indent":1,"parameters":[1731,1731,0]},{"code":101,"indent":1,"parameters":["Zirantian female1 emo2",4,0,2]},{"code":401,"indent":1,"parameters":["We're... we're saved!"]},{"code":205,"indent":1,"parameters":[-1,{"list":[{"code":16,"indent":null,"parameters":[]},{"code":0,"indent":null,"parameters":[]}],"repeat":false,"skippable":false,"wait":true}]},{"code":505,"indent":1,"parameters":[{"code":16,"indent":null,"parameters":[]}]},{"code":122,"indent":1,"parameters":[6,6,1,0,2]},{"code":111,"indent":1,"parameters":[4,16,0]},{"code":101,"indent":2,"parameters":["Uyae emo",1,0,2]},{"code":401,"indent":2,"parameters":["\\C[1]Take heart, I shall assist thee!"]},{"code":122,"indent":2,"parameters":[6,6,1,0,1]},{"code":0,"indent":2,"parameters":[]},{"code":411,"indent":1,"parameters":[]},{"code":111,"indent":2,"parameters":[4,2,0]},{"code":101,"indent":3,"parameters":["1 Simon dark",0,0,2]},{"code":401,"indent":3,"parameters":["\\C[1]We killed this one, but stay on your guard. The Incubus Emperor may attack again."]},{"code":122,"indent":3,"parameters":[6,6,1,0,1]},{"code":0,"indent":3,"parameters":[]},{"code":411,"indent":2,"parameters":[]},{"code":111,"indent":3,"parameters":[4,6,0]},{"code":101,"indent":4,"parameters":["Yarra emo2",0,0,2]},{"code":401,"indent":4,"parameters":["Never fear, the Doom King sent us to help!"]},{"code":0,"indent":4,"parameters":[]},{"code":411,"indent":3,"parameters":[]},{"code":111,"indent":4,"parameters":[4,5,0]},{"code":101,"indent":5,"parameters":["Aka emo2",1,0,2]},{"code":401,"indent":5,"parameters":["Work on getting everyone healed, we'll help you out with the monsters!"]},{"code":0,"indent":5,"parameters":[]},{"code":411,"indent":4,"parameters":[]},{"code":111,"indent":5,"parameters":[4,8,0]},{"code":101,"indent":6,"parameters":["Hilstara emo",0,0,2]},{"code":401,"indent":6,"parameters":["Don't let your guard down. We're here to help, but there will be more."]},{"code":0,"indent":6,"parameters":[]},{"code":411,"indent":5,"parameters":[]},{"code":111,"indent":6,"parameters":[4,7,0]},{"code":101,"indent":7,"parameters":["Qum D'umpe emo",6,0,2]},{"code":401,"indent":7,"parameters":["Cumdump is helping the floofs!"]},{"code":0,"indent":7,"parameters":[]},{"code":411,"indent":6,"parameters":[]},{"code":111,"indent":7,"parameters":[4,12,0]},{"code":101,"indent":8,"parameters":["Carina emo",1,0,2]},{"code":401,"indent":8,"parameters":["Take heart, you aren't struggling alone!"]},{"code":0,"indent":8,"parameters":[]},{"code":411,"indent":7,"parameters":[]},{"code":111,"indent":8,"parameters":[4,14,0]},{"code":101,"indent":9,"parameters":["Nalili emo2",5,0,2]},{"code":401,"indent":9,"parameters":["That's right, thank me more. I was pretty awesome back there, wasn't I?"]},{"code":0,"indent":9,"parameters":[]},{"code":411,"indent":8,"parameters":[]},{"code":111,"indent":9,"parameters":[4,11,0]},{"code":101,"indent":10,"parameters":["Varia emo",0,0,2]},{"code":401,"indent":10,"parameters":["You got lucky this time, but you should get ready for more..."]},{"code":0,"indent":10,"parameters":[]},{"code":411,"indent":9,"parameters":[]},{"code":111,"indent":10,"parameters":[4,3,0]},{"code":111,"indent":11,"parameters":[0,249,0]},{"code":101,"indent":12,"parameters":["Altina emo",0,0,2]},{"code":401,"indent":12,"parameters":["All hail the Doom King!"]},{"code":0,"indent":12,"parameters":[]},{"code":411,"indent":11,"parameters":[]},{"code":101,"indent":12,"parameters":["Altina emo",1,0,2]},{"code":401,"indent":12,"parameters":["I can't stay long, but we're here to help you!"]},{"code":0,"indent":12,"parameters":[]},{"code":412,"indent":11,"parameters":[]},{"code":0,"indent":11,"parameters":[]},{"code":411,"indent":10,"parameters":[]},{"code":111,"indent":11,"parameters":[4,10,0]},{"code":101,"indent":12,"parameters":["Varia emo",0,0,2]},{"code":401,"indent":12,"parameters":["...it doesn't matter."]},{"code":0,"indent":12,"parameters":[]},{"code":411,"indent":11,"parameters":[]},{"code":0,"indent":12,"parameters":[]},{"code":412,"indent":11,"parameters":[]},{"code":0,"indent":11,"parameters":[]},{"code":412,"indent":10,"parameters":[]},{"code":0,"indent":10,"parameters":[]},{"code":412,"indent":9,"parameters":[]},{"code":0,"indent":9,"parameters":[]},{"code":412,"indent":8,"parameters":[]},{"code":0,"indent":8,"parameters":[]},{"code":412,"indent":7,"parameters":[]},{"code":0,"indent":7,"parameters":[]},{"code":412,"indent":6,"parameters":[]},{"code":0,"indent":6,"parameters":[]},{"code":412,"indent":5,"parameters":[]},{"code":0,"indent":5,"parameters":[]},{"code":412,"indent":4,"parameters":[]},{"code":0,"indent":4,"parameters":[]},{"code":412,"indent":3,"parameters":[]},{"code":0,"indent":3,"parameters":[]},{"code":412,"indent":2,"parameters":[]},{"code":0,"indent":2,"parameters":[]},{"code":412,"indent":1,"parameters":[]},{"code":0,"indent":1,"parameters":[]},{"code":603,"indent":0,"parameters":[]},{"code":212,"indent":1,"parameters":[-1,77,false]},{"code":230,"indent":1,"parameters":[30]},{"code":205,"indent":1,"parameters":[-1,{"list":[{"code":39,"indent":null,"parameters":[]},{"code":0,"indent":null,"parameters":[]}],"repeat":false,"skippable":false,"wait":true}]},{"code":505,"indent":1,"parameters":[{"code":39,"indent":null,"parameters":[]}]},{"code":230,"indent":1,"parameters":[30]},{"code":101,"indent":1,"parameters":["Zirantian female1 emo2",5,0,2]},{"code":401,"indent":1,"parameters":["No!"]},{"code":122,"indent":1,"parameters":[6,6,2,0,2]},{"code":122,"indent":1,"parameters":[195,195,1,0,2]},{"code":0,"indent":1,"parameters":[]},{"code":604,"indent":0,"parameters":[]},{"code":221,"indent":0,"parameters":[]},{"code":111,"indent":0,"parameters":[0,1722,0]},{"code":355,"indent":1,"parameters":["$dataItems.forEach(function(item){"]},{"code":655,"indent":1,"parameters":["Party.tradeItem( \"Zirantia\", \"Zirantia II\", item, 99)"]},{"code":655,"indent":1,"parameters":["})"]},{"code":655,"indent":1,"parameters":["$dataWeapons.forEach(function(weapon){"]},{"code":655,"indent":1,"parameters":["Party.tradeItem( \"Zirantia\", \"Zirantia II\", weapon, 99)"]},{"code":655,"indent":1,"parameters":["})"]},{"code":655,"indent":1,"parameters":["$dataArmors.forEach(function(armor){"]},{"code":655,"indent":1,"parameters":["Party.tradeItem( \"Zirantia\", \"Zirantia II\", armor, 99)"]},{"code":655,"indent":1,"parameters":["})"]},{"code":655,"indent":1,"parameters":["Party.tradeGold( \"Zirantia\", \"Zirantia II\", 999999 )"]},{"code":655,"indent":1,"parameters":["Party.switch(\"Zirantia II\");"]},{"code":201,"indent":1,"parameters":[0,411,7,6,2,0]},{"code":0,"indent":1,"parameters":[]},{"code":411,"indent":0,"parameters":[]},{"code":111,"indent":1,"parameters":[0,1723,0]},{"code":355,"indent":2,"parameters":["$dataItems.forEach(function(item){"]},{"code":655,"indent":2,"parameters":["Party.tradeItem( \"Zirantia\", \"Stineford Area\", item, 99)"]},{"code":655,"indent":2,"parameters":["})"]},{"code":655,"indent":2,"parameters":["$dataWeapons.forEach(function(weapon){"]},{"code":655,"indent":2,"parameters":["Party.tradeItem( \"Zirantia\", \"Stineford Area\", weapon, 99)"]},{"code":655,"indent":2,"parameters":["})"]},{"code":655,"indent":2,"parameters":["$dataArmors.forEach(function(armor){"]},{"code":655,"indent":2,"parameters":["Party.tradeItem( \"Zirantia\", \"Stineford Area\", armor, 99)"]},{"code":655,"indent":2,"parameters":["})"]},{"code":655,"indent":2,"parameters":["Party.tradeGold( \"Zirantia\", \"Stineford Area\", 999999 )"]},{"code":655,"indent":2,"parameters":["Party.switch(\"Stineford Area\");"]},{"code":201,"indent":2,"parameters":[0,410,8,7,2,0]},{"code":0,"indent":2,"parameters":[]},{"code":411,"indent":1,"parameters":[]},{"code":111,"indent":2,"parameters":[0,1724,0]},{"code":355,"indent":3,"parameters":["$dataItems.forEach(function(item){"]},{"code":655,"indent":3,"parameters":["Party.tradeItem( \"Zirantia\", \"Aram II\", item, 99)"]},{"code":655,"indent":3,"parameters":["})"]},{"code":655,"indent":3,"parameters":["$dataWeapons.forEach(function(weapon){"]},{"code":655,"indent":3,"parameters":["Party.tradeItem( \"Zirantia\", \"Aram II\", weapon, 99)"]},{"code":655,"indent":3,"parameters":["})"]},{"code":655,"indent":3,"parameters":["$dataArmors.forEach(function(armor){"]},{"code":655,"indent":3,"parameters":["Party.tradeItem( \"Zirantia\", \"Aram II\", armor, 99)"]},{"code":655,"indent":3,"parameters":["})"]},{"code":655,"indent":3,"parameters":["Party.tradeGold( \"Zirantia\", \"Aram II\", 999999 )"]},{"code":655,"indent":3,"parameters":["Party.switch(\"Aram II\");"]},{"code":201,"indent":3,"parameters":[0,409,8,8,8,0]},{"code":0,"indent":3,"parameters":[]},{"code":411,"indent":2,"parameters":[]},{"code":355,"indent":3,"parameters":["$dataItems.forEach(function(item){"]},{"code":655,"indent":3,"parameters":["Party.tradeItem( \"Zirantia\", \"Yhilin II\", item, 99)"]},{"code":655,"indent":3,"parameters":["})"]},{"code":655,"indent":3,"parameters":["$dataWeapons.forEach(function(weapon){"]},{"code":655,"indent":3,"parameters":["Party.tradeItem( \"Zirantia\", \"Yhilin II\", weapon, 99)"]},{"code":655,"indent":3,"parameters":["})"]},{"code":655,"indent":3,"parameters":["$dataArmors.forEach(function(armor){"]},{"code":655,"indent":3,"parameters":["Party.tradeItem( \"Zirantia\", \"Yhilin II\", armor, 99)"]},{"code":655,"indent":3,"parameters":["})"]},{"code":655,"indent":3,"parameters":["Party.tradeGold( \"Zirantia\", \"Yhilin II\", 999999 )"]},{"code":655,"indent":3,"parameters":["Party.switch(\"Yhilin II\");"]},{"code":201,"indent":3,"parameters":[0,408,8,9,8,0]},{"code":0,"indent":3,"parameters":[]},{"code":412,"indent":2,"parameters":[]},{"code":0,"indent":2,"parameters":[]},{"code":412,"indent":1,"parameters":[]},{"code":0,"indent":1,"parameters":[]},{"code":412,"indent":0,"parameters":[]},{"code":205,"indent":0,"parameters":[-1,{"list":[{"code":39,"indent":null,"parameters":[]},{"code":0,"indent":null,"parameters":[]}],"repeat":false,"skippable":false,"wait":true}]},{"code":505,"indent":0,"parameters":[{"code":39,"indent":null,"parameters":[]}]},{"code":222,"indent":0,"parameters":[]},{"code":123,"indent":0,"parameters":["A",0]},{"code":0,"indent":0,"parameters":[]}]},{"conditions":{"actorId":1,"actorValid":false,"itemId":1,"itemValid":false,"selfSwitchCh":"A","selfSwitchValid":true,"switch1Id":1,"switch1Valid":false,"switch2Id":1,"switch2Valid":false,"variableId":1,"variableValid":false,"variableValue":0},"directionFix":false,"image":{"tileId":0,"characterName":"","direction":2,"pattern":0,"characterIndex":0},"moveFrequency":3,"moveRoute":{"list":[{"code":0,"indent":null,"parameters":[]}],"repeat":true,"skippable":false,"wait":false},"moveSpeed":3,"moveType":0,"priorityType":0,"stepAnime":false,"through":false,"trigger":0,"walkAnime":true,"list":[{"code":0,"indent":0,"parameters":[]}]}],"x":0,"y":0},
{"id":2,"name":"Seed","note":"","pages":[{"conditions":{"actorId":1,"actorValid":false,"itemId":1,"itemValid":false,"selfSwitchCh":"A","selfSwitchValid":false,"switch1Id":1,"switch1Valid":false,"switch2Id":1,"switch2Valid":false,"variableId":1,"variableValid":false,"variableValue":0},"directionFix":true,"image":{"tileId":0,"characterName":"Z slime alternates","direction":2,"pattern":1,"characterIndex":4},"moveFrequency":3,"moveRoute":{"list":[{"code":0,"indent":null,"parameters":[]}],"repeat":true,"skippable":false,"wait":false},"moveSpeed":3,"moveType":0,"priorityType":1,"stepAnime":true,"through":false,"trigger":0,"walkAnime":true,"list":[{"code":0,"indent":0,"parameters":[]}]},{"conditions":{"actorId":1,"actorValid":false,"itemId":1,"itemValid":false,"selfSwitchCh":"A","selfSwitchValid":false,"switch1Id":1731,"switch1Valid":true,"switch2Id":1,"switch2Valid":false,"variableId":1,"variableValid":false,"variableValue":0},"directionFix":false,"image":{"tileId":0,"characterName":"","direction":2,"pattern":0,"characterIndex":0},"moveFrequency":3,"moveRoute":{"list":[{"code":0,"indent":null,"parameters":[]}],"repeat":true,"skippable":false,"wait":false},"moveSpeed":3,"moveType":0,"priorityType":0,"stepAnime":false,"through":false,"trigger":0,"walkAnime":true,"list":[{"code":0,"indent":0,"parameters":[]}]}],"x":6,"y":3},
{"id":3,"name":"EV003","note":"","pages":[{"conditions":{"actorId":1,"actorValid":false,"itemId":1,"itemValid":false,"selfSwitchCh":"A","selfSwitchValid":false,"switch1Id":1,"switch1Valid":false,"switch2Id":1,"switch2Valid":false,"variableId":1,"variableValid":false,"variableValue":0},"directionFix":false,"image":{"tileId":0,"characterName":"Zirantian males char","direction":8,"pattern":1,"characterIndex":1},"moveFrequency":3,"moveRoute":{"list":[{"code":0,"indent":null,"parameters":[]}],"repeat":true,"skippable":false,"wait":false},"moveSpeed":3,"moveType":0,"priorityType":1,"stepAnime":false,"through":false,"trigger":0,"walkAnime":true,"list":[{"code":0,"indent":0,"parameters":[]}]},{"conditions":{"actorId":1,"actorValid":false,"itemId":1,"itemValid":false,"selfSwitchCh":"A","selfSwitchValid":false,"switch1Id":1467,"switch1Valid":true,"switch2Id":1,"switch2Valid":false,"variableId":1,"variableValid":false,"variableValue":0},"directionFix":false,"image":{"tileId":0,"characterName":"$Z Zirantian soldier char","direction":8,"pattern":1,"characterIndex":0},"moveFrequency":3,"moveRoute":{"list":[{"code":0,"indent":null,"parameters":[]}],"repeat":true,"skippable":false,"wait":false},"moveSpeed":3,"moveType":0,"priorityType":1,"stepAnime":false,"through":false,"trigger":0,"walkAnime":true,"list":[{"code":0,"indent":0,"parameters":[]}]}],"x":6,"y":6},
{"id":4,"name":"EV004","note":"","pages":[{"conditions":{"actorId":1,"actorValid":false,"itemId":1,"itemValid":false,"selfSwitchCh":"A","selfSwitchValid":false,"switch1Id":1,"switch1Valid":false,"switch2Id":1,"switch2Valid":false,"variableId":1,"variableValid":false,"variableValue":0},"directionFix":false,"image":{"tileId":0,"characterName":"Zirantian males char","direction":8,"pattern":1,"characterIndex":0},"moveFrequency":3,"moveRoute":{"list":[{"code":0,"indent":null,"parameters":[]}],"repeat":true,"skippable":false,"wait":false},"moveSpeed":3,"moveType":0,"priorityType":1,"stepAnime":false,"through":false,"trigger":0,"walkAnime":true,"list":[{"code":0,"indent":0,"parameters":[]}]},{"conditions":{"actorId":1,"actorValid":false,"itemId":1,"itemValid":false,"selfSwitchCh":"A","selfSwitchValid":false,"switch1Id":1467,"switch1Valid":true,"switch2Id":1,"switch2Valid":false,"variableId":1,"variableValid":false,"variableValue":0},"directionFix":false,"image":{"tileId":0,"characterName":"$Z Zirantian soldier char","direction":8,"pattern":1,"characterIndex":0},"moveFrequency":3,"moveRoute":{"list":[{"code":0,"indent":null,"parameters":[]}],"repeat":true,"skippable":false,"wait":false},"moveSpeed":3,"moveType":0,"priorityType":1,"stepAnime":false,"through":false,"trigger":0,"walkAnime":true,"list":[{"code":0,"indent":0,"parameters":[]}]}],"x":5,"y":6},
{"id":5,"name":"EV005","note":"","pages":[{"conditions":{"actorId":1,"actorValid":false,"itemId":1,"itemValid":false,"selfSwitchCh":"A","selfSwitchValid":false,"switch1Id":1,"switch1Valid":false,"switch2Id":1,"switch2Valid":false,"variableId":1,"variableValid":false,"variableValue":0},"directionFix":false,"image":{"tileId":0,"characterName":"Zirantian males char","direction":8,"pattern":1,"characterIndex":1},"moveFrequency":3,"moveRoute":{"list":[{"code":0,"indent":null,"parameters":[]}],"repeat":true,"skippable":false,"wait":false},"moveSpeed":3,"moveType":0,"priorityType":1,"stepAnime":false,"through":false,"trigger":0,"walkAnime":true,"list":[{"code":0,"indent":0,"parameters":[]}]},{"conditions":{"actorId":1,"actorValid":false,"itemId":1,"itemValid":false,"selfSwitchCh":"A","selfSwitchValid":false,"switch1Id":1467,"switch1Valid":true,"switch2Id":1,"switch2Valid":false,"variableId":1,"variableValid":false,"variableValue":0},"directionFix":false,"image":{"tileId":0,"characterName":"$Z Zirantian soldier char","direction":8,"pattern":1,"characterIndex":0},"moveFrequency":3,"moveRoute":{"list":[{"code":0,"indent":null,"parameters":[]}],"repeat":true,"skippable":false,"wait":false},"moveSpeed":3,"moveType":0,"priorityType":1,"stepAnime":false,"through":false,"trigger":0,"walkAnime":true,"list":[{"code":0,"indent":0,"parameters":[]}]}],"x":7,"y":6},
{"id":6,"name":"EV006","note":"","pages":[{"conditions":{"actorId":1,"actorValid":false,"itemId":1,"itemValid":false,"selfSwitchCh":"A","selfSwitchValid":false,"switch1Id":1,"switch1Valid":false,"switch2Id":1,"switch2Valid":false,"variableId":1,"variableValid":false,"variableValue":0},"directionFix":false,"image":{"tileId":0,"characterName":"$Zirantian female1 char","direction":8,"pattern":1,"characterIndex":0},"moveFrequency":3,"moveRoute":{"list":[{"code":0,"indent":null,"parameters":[]}],"repeat":true,"skippable":false,"wait":false},"moveSpeed":3,"moveType":0,"priorityType":1,"stepAnime":false,"through":false,"trigger":0,"walkAnime":true,"list":[{"code":0,"indent":0,"parameters":[]}]}],"x":6,"y":9},
{"id":7,"name":"EV007","note":"","pages":[{"conditions":{"actorId":1,"actorValid":false,"itemId":1,"itemValid":false,"selfSwitchCh":"A","selfSwitchValid":false,"switch1Id":1,"switch1Valid":false,"switch2Id":1,"switch2Valid":false,"variableId":1,"variableValid":false,"variableValue":0},"directionFix":false,"image":{"tileId":0,"characterName":"$Zirantian female2 char","direction":8,"pattern":1,"characterIndex":0},"moveFrequency":3,"moveRoute":{"list":[{"code":0,"indent":null,"parameters":[]}],"repeat":true,"skippable":false,"wait":false},"moveSpeed":3,"moveType":0,"priorityType":1,"stepAnime":false,"through":false,"trigger":0,"walkAnime":true,"list":[{"code":0,"indent":0,"parameters":[]}]}],"x":4,"y":8},
{"id":8,"name":"EV008","note":"","pages":[{"conditions":{"actorId":1,"actorValid":false,"itemId":1,"itemValid":false,"selfSwitchCh":"A","selfSwitchValid":false,"switch1Id":1,"switch1Valid":false,"switch2Id":1,"switch2Valid":false,"variableId":1,"variableValid":false,"variableValue":0},"directionFix":false,"image":{"tileId":0,"characterName":"$Zirantian female3 char","direction":4,"pattern":1,"characterIndex":0},"moveFrequency":3,"moveRoute":{"list":[{"code":0,"indent":null,"parameters":[]}],"repeat":true,"skippable":false,"wait":false},"moveSpeed":3,"moveType":0,"priorityType":1,"stepAnime":false,"through":false,"trigger":0,"walkAnime":true,"list":[{"code":0,"indent":0,"parameters":[]}]}],"x":11,"y":8}
]
}