{
"autoplayBgm":true,"autoplayBgs":false,"battleback1Name":"","battleback2Name":"","bgm":{"name":"Templar Order (holy)","pan":0,"pitch":100,"volume":100},"bgs":{"name":"","pan":0,"pitch":100,"volume":80},"disableDashing":false,"displayName":"","encounterList":[],"encounterStep":30,"height":13,"note":"","parallaxLoopX":false,"parallaxLoopY":false,"parallaxName":"","parallaxShow":false,"parallaxSx":0,"parallaxSy":0,"scrollType":0,"specifyBattleback":false,"tilesetId":14,"width":17,"data":[0,0,0,0,6962,6972,6972,6972,6972,6972,6972,6972,6969,0,0,0,0,0,0,0,0,6976,7330,7330,7330,7330,7330,7330,7330,6946,0,0,0,0,0,0,0,6979,6983,7328,7328,7328,7328,7328,7328,7328,6972,6952,0,0,0,0,0,0,6976,7334,7328,7328,7328,7328,7328,7328,7328,7331,6960,0,0,0,0,0,6979,6983,7332,7336,7336,7336,7336,7336,7336,7336,7329,6984,6969,0,0,0,0,6976,7334,7332,4146,4132,4132,4132,4132,4132,4148,7329,7331,6976,0,0,0,0,6976,7332,7340,4128,4112,4112,4112,4112,4112,4136,7337,7329,6976,0,0,0,0,6976,7332,4146,4113,4116,4140,4140,4140,4120,4114,4148,7329,6976,0,0,0,0,6976,7340,4128,4112,4136,2082,2068,2084,4128,4112,4136,7337,6976,0,0,0,0,6976,4146,4113,4112,4136,2064,2048,2072,4128,4112,4114,4148,6976,0,0,0,0,6976,4128,4112,4112,4136,2088,2076,2086,4128,4112,4112,4136,6976,0,0,0,0,6976,4128,4112,4112,4114,4132,4132,4132,4113,4112,4112,4136,6976,0,0,0,0,6976,4128,4112,4112,4112,4112,4112,4112,4112,4112,4112,4136,6976,0,0,0,0,0,0,0,0,0,0,0,0,0,0,0,0,0,0,0,0,0,0,0,0,0,0,0,0,0,0,0,0,0,0,0,0,0,0,0,0,0,0,0,0,0,0,0,0,0,0,0,0,0,0,0,0,0,0,0,0,0,0,0,0,0,0,0,0,0,0,0,0,0,0,0,0,0,0,0,0,0,0,0,0,0,0,0,0,0,0,0,0,0,0,0,0,0,0,0,0,0,0,0,0,0,0,0,0,0,0,0,0,0,0,0,0,0,0,0,0,0,0,0,0,0,0,0,0,0,0,0,0,0,0,0,0,0,0,0,0,0,0,0,0,0,2130,2116,2132,0,0,0,0,0,0,0,0,0,0,0,0,0,0,2112,2096,2120,0,0,0,0,0,0,0,0,0,0,0,0,0,0,2136,2124,2134,0,0,0,0,0,0,0,0,0,0,0,0,0,0,0,0,0,0,0,0,0,0,0,0,0,0,0,0,0,0,0,0,0,0,0,0,0,0,0,0,0,0,0,0,0,0,0,0,0,0,0,0,0,0,0,0,0,0,0,0,0,0,0,0,0,0,0,0,0,0,0,0,0,0,0,0,0,0,0,0,0,0,0,0,0,0,0,0,0,0,0,0,0,0,0,0,0,0,0,0,0,0,0,0,0,0,0,0,0,0,0,0,0,0,0,0,0,0,0,0,0,0,0,0,0,0,0,0,0,0,0,0,0,0,0,0,0,0,0,0,0,0,0,0,0,0,0,0,0,0,0,0,0,0,0,0,0,0,0,0,0,0,0,0,0,0,0,0,0,0,0,0,0,0,0,0,0,0,0,0,0,0,0,0,0,0,0,0,0,0,0,0,0,0,0,0,0,0,0,0,0,0,0,0,0,0,0,0,0,0,0,0,0,0,0,0,0,0,0,0,0,0,0,0,0,0,0,0,0,0,0,0,0,0,0,0,0,0,0,0,0,0,0,0,0,0,0,0,0,0,0,0,0,0,0,0,0,0,0,0,0,0,0,0,0,0,0,0,0,0,0,0,0,0,0,0,0,0,0,0,0,0,0,0,0,0,0,849,0,0,0,0,0,0,0,0,0,0,0,0,0,0,776,833,857,833,776,0,0,0,0,0,0,0,0,0,0,0,0,784,841,0,841,784,0,0,0,0,0,0,0,0,0,0,0,0,0,0,0,0,0,0,0,0,0,0,0,0,0,0,0,0,0,0,0,0,0,0,0,0,0,0,0,0,0,0,0,0,0,0,0,0,0,0,0,0,0,0,0,0,0,0,0,0,0,0,0,0,0,0,0,0,0,0,0,0,0,0,0,0,0,0,0,0,0,0,0,0,0,0,0,0,0,0,0,0,0,0,0,0,0,0,0,0,0,0,0,0,0,0,0,0,0,0,0,440,441,442,0,0,0,0,0,440,441,442,0,0,0,0,0,0,448,449,450,0,0,0,0,0,448,449,450,0,0,0,0,0,0,0,0,0,0,0,0,0,0,0,0,0,0,0,0,0,0,0,0,0,0,0,0,0,0,0,0,0,0,0,0,0,0,0,0,0,0,0,0,0,0,0,0,0,0,0,0,0,0,0,0,0,0,0,0,0,0,0,0,0,0,0,0,0,0,0,0,0,0,0,0,0,0,0,0,0,0,0,0,0,0,0,0,0,0,0,0,0,0,0,0,0,0,0,0,0,0,0,0,0,0,0,0,0,0,5,0,0,0,0,0,0,0,0,0,0,0,0,0,0,0,0,5,0,0,0,0,0,0,0,0,0,0,0,0,0,0,0,5,0,0,0,0,0,0,0,0,0,0,0,0,0,0,0,0,5,0,0,0,0,0,0,0,0,0,0,0,0,0,0,0,5,0,0,0,0,0,0,0,0,0,0,0,0,0,0,0,0,5,0,0,0,0,0,0,0,0,0,0,0,0,0,0,0,0,5,0,0,0,0,0,0,0,0,0,0,0,0,0,0,0,0,5,0,0,0,0,0,0,0,0,0,0,0,0,0,0,0,0,0,0,0,0,0,0,0,0,0,0,0,0,0,0,0,0,0,0,0,0,0,0,0,0,0,0,0,0,0,0,0,0,0,0,0,0,0,0,0,0,0,0,0,0,0,0,0,0,0,0,0,0,0,0,0,0,0,0,0,0,0,0,0,0,0,0,0,0,0,0,0,0,0,0,0,0,0,0,0,0,0,0,0,0,0,0,0,0,0,0,0,0,0,0,0,0,0,0,0,0,0,0,0,0,0,0,0,0,0,0,0,0,0,0,0,0,0,0,0,0,0,0,0,0,0,0,0,0,0,0,0,0,0,0,0,0,0,0,0,0,0,0,0,0,0,0,0,0,0,0,0,0,0,0,0,0,0,0,0,0,0,0,0,0,0,0,0,0,0,0,0,0,0,0,0,0,0,0,0,0,0,0,0,0,0,0,0,0,0,0,0,0,0,0,0,0,0,0,0,0,0,0,0,0,0,0,0,0,0,0,0,0,0,0,0,0,0,0],"events":[null,{"id":1,"name":"EV001","note":"","pages":[{"conditions":{"actorId":1,"actorValid":false,"itemId":1,"itemValid":false,"selfSwitchCh":"A","selfSwitchValid":false,"switch1Id":1,"switch1Valid":false,"switch2Id":1,"switch2Valid":false,"variableId":1,"variableValid":false,"variableValue":0},"directionFix":false,"image":{"tileId":0,"characterName":"","direction":2,"pattern":0,"characterIndex":0},"moveFrequency":3,"moveRoute":{"list":[{"code":0,"indent":null,"parameters":[]}],"repeat":true,"skippable":false,"wait":false},"moveSpeed":3,"moveType":0,"priorityType":0,"stepAnime":false,"through":false,"trigger":3,"walkAnime":true,"list":[{"code":230,"indent":0,"parameters":[60]},{"code":213,"indent":0,"parameters":[3,8,true]},{"code":101,"indent":0,"parameters":["Hester emo",1,0,0]},{"code":401,"indent":0,"parameters":["Come in."]},{"code":250,"indent":0,"parameters":[{"name":"Open4","pan":0,"pitch":100,"volume":80}]},{"code":230,"indent":0,"parameters":[60]},{"code":121,"indent":0,"parameters":[1870,1870,0]},{"code":205,"indent":0,"parameters":[5,{"list":[{"code":4,"indent":null,"parameters":[]},{"code":0,"indent":null,"parameters":[]}],"repeat":false,"skippable":false,"wait":true}]},{"code":505,"indent":0,"parameters":[{"code":4,"indent":null,"parameters":[]}]},{"code":101,"indent":0,"parameters":["Hester emo",4,0,0]},{"code":401,"indent":0,"parameters":["Well, if it isn't the Doom King's illusion-clad commander. What can I do for you?"]},{"code":213,"indent":0,"parameters":[5,8,true]},{"code":101,"indent":0,"parameters":["1 Simon dark",0,0,0]},{"code":401,"indent":0,"parameters":["We need to talk."]},{"code":101,"indent":0,"parameters":["Hester emo",1,0,0]},{"code":401,"indent":0,"parameters":["In that case, let me set this aside... we can ignore the battle a little while, yes?"]},{"code":230,"indent":0,"parameters":[60]},{"code":121,"indent":0,"parameters":[1869,1869,0]},{"code":250,"indent":0,"parameters":[{"name":"Magic1","pan":0,"pitch":100,"volume":80}]},{"code":230,"indent":0,"parameters":[60]},{"code":101,"indent":0,"parameters":["Hester emo",6,0,0]},{"code":401,"indent":0,"parameters":["I've heard generally good things about you. But I sincerely hope you haven't come to make some kind of ultimatum."]},{"code":101,"indent":0,"parameters":["1 Simon dark",0,0,0]},{"code":401,"indent":0,"parameters":["No, I've come for understanding. Why are you withdrawing so many troops from the region? You're essentially inviting the Incubus Emperor's army into Ardoheim."]},{"code":101,"indent":0,"parameters":["Hester emo",5,0,0]},{"code":401,"indent":0,"parameters":["Is it that obvious? Hopefully the enemy doesn't catch on..."]},{"code":101,"indent":0,"parameters":["1 Simon dark",0,0,0]},{"code":401,"indent":0,"parameters":["But why? They're too large to be effectively surrounded, and they're dealing damage as they go."]},{"code":101,"indent":0,"parameters":["Hester emo",1,0,0]},{"code":401,"indent":0,"parameters":["Not too long ago, I would have had to stall or lie to you, which I would prefer not to do."]},{"code":101,"indent":0,"parameters":["Hester emo",2,0,0]},{"code":401,"indent":0,"parameters":["But today... you'll be able to see for yourself."]},{"code":101,"indent":0,"parameters":["1 Simon dark",0,0,0]},{"code":401,"indent":0,"parameters":["..."]},{"code":121,"indent":0,"parameters":[1869,1869,0]},{"code":250,"indent":0,"parameters":[{"name":"Magic1","pan":0,"pitch":100,"volume":80}]},{"code":230,"indent":0,"parameters":[60]},{"code":123,"indent":0,"parameters":["A",0]},{"code":101,"indent":0,"parameters":["Hester emo",2,0,0]},{"code":401,"indent":0,"parameters":["The spell is already set in motion, so any moment now..."]},{"code":201,"indent":0,"parameters":[0,449,8,6,0,0]},{"code":0,"indent":0,"parameters":[]}]},{"conditions":{"actorId":1,"actorValid":false,"itemId":1,"itemValid":false,"selfSwitchCh":"A","selfSwitchValid":true,"switch1Id":1,"switch1Valid":false,"switch2Id":1,"switch2Valid":false,"variableId":1,"variableValid":false,"variableValue":0},"directionFix":false,"image":{"tileId":0,"characterName":"","direction":2,"pattern":0,"characterIndex":0},"moveFrequency":3,"moveRoute":{"list":[{"code":0,"indent":null,"parameters":[]}],"repeat":true,"skippable":false,"wait":false},"moveSpeed":3,"moveType":0,"priorityType":0,"stepAnime":false,"through":false,"trigger":0,"walkAnime":true,"list":[{"code":0,"indent":0,"parameters":[]}]}],"x":0,"y":0},null,{"id":3,"name":"Hester","note":"","pages":[{"conditions":{"actorId":1,"actorValid":false,"itemId":1,"itemValid":false,"selfSwitchCh":"A","selfSwitchValid":false,"switch1Id":1,"switch1Valid":false,"switch2Id":1,"switch2Valid":false,"variableId":1,"variableValid":false,"variableValue":0},"directionFix":false,"image":{"tileId":0,"characterName":"Hester char","direction":2,"pattern":1,"characterIndex":0},"moveFrequency":3,"moveRoute":{"list":[{"code":0,"indent":null,"parameters":[]}],"repeat":true,"skippable":false,"wait":false},"moveSpeed":3,"moveType":0,"priorityType":1,"stepAnime":false,"through":false,"trigger":0,"walkAnime":true,"list":[{"code":0,"indent":0,"parameters":[]}]}],"x":8,"y":7},{"id":4,"name":"EV004","note":"","pages":[{"conditions":{"actorId":1,"actorValid":false,"itemId":1,"itemValid":false,"selfSwitchCh":"A","selfSwitchValid":false,"switch1Id":1,"switch1Valid":false,"switch2Id":1,"switch2Valid":false,"variableId":1,"variableValid":false,"variableValue":0},"directionFix":true,"image":{"tileId":0,"characterName":"!Flame","direction":2,"pattern":0,"characterIndex":6},"moveFrequency":3,"moveRoute":{"list":[{"code":0,"indent":null,"parameters":[]}],"repeat":true,"skippable":false,"wait":false},"moveSpeed":3,"moveType":0,"priorityType":1,"stepAnime":true,"through":false,"trigger":0,"walkAnime":true,"list":[{"code":0,"indent":0,"parameters":[]}]},{"conditions":{"actorId":1,"actorValid":false,"itemId":1,"itemValid":false,"selfSwitchCh":"A","selfSwitchValid":false,"switch1Id":1869,"switch1Valid":true,"switch2Id":1,"switch2Valid":false,"variableId":1,"variableValid":false,"variableValue":0},"directionFix":false,"image":{"tileId":0,"characterName":"","direction":2,"pattern":0,"characterIndex":0},"moveFrequency":3,"moveRoute":{"list":[{"code":0,"indent":null,"parameters":[]}],"repeat":true,"skippable":false,"wait":false},"moveSpeed":3,"moveType":0,"priorityType":0,"stepAnime":false,"through":false,"trigger":0,"walkAnime":true,"list":[{"code":0,"indent":0,"parameters":[]}]}],"x":8,"y":9},{"id":5,"name":"Simon","note":"","pages":[{"conditions":{"actorId":1,"actorValid":false,"itemId":1,"itemValid":false,"selfSwitchCh":"A","selfSwitchValid":false,"switch1Id":1870,"switch1Valid":true,"switch2Id":1,"switch2Valid":false,"variableId":1,"variableValid":false,"variableValue":0},"directionFix":false,"image":{"tileId":0,"characterName":"Simon char","direction":8,"pattern":1,"characterIndex":0},"moveFrequency":3,"moveRoute":{"list":[{"code":0,"indent":null,"parameters":[]}],"repeat":true,"skippable":false,"wait":false},"moveSpeed":3,"moveType":0,"priorityType":1,"stepAnime":false,"through":false,"trigger":0,"walkAnime":true,"list":[{"code":0,"indent":0,"parameters":[]}]}],"x":8,"y":12}]
}
