{
"autoplayBgm":false,"autoplayBgs":false,"battleback1Name":"Wasteland","battleback2Name":"Wasteland","bgm":{"name":"","pan":0,"pitch":100,"volume":100},"bgs":{"name":"","pan":0,"pitch":100,"volume":80},"disableDashing":false,"displayName":"","encounterList":[],"encounterStep":30,"height":13,"note":"","parallaxLoopX":false,"parallaxLoopY":false,"parallaxName":"","parallaxShow":false,"parallaxSx":0,"parallaxSy":0,"scrollType":0,"specifyBattleback":true,"tilesetId":2,"width":17,"data":[3200,3200,3200,3224,5169,5168,5172,3232,3328,3232,5177,5176,5176,5180,3216,3200,3200,3200,3200,3200,3224,5177,5176,5180,3232,3328,3232,5555,5554,5554,5558,3216,3200,3200,3200,3200,3200,3224,5555,5554,5558,3232,3328,3232,5561,5560,5560,5564,3216,3200,3200,3200,3200,3200,3224,5561,5560,5564,3232,3328,3217,3220,3220,3220,3220,3201,3200,3200,3200,3200,3200,3202,3220,3220,3220,3226,3328,3216,3200,3200,3200,3200,3200,3200,3200,3200,3200,3200,3200,3200,3200,3200,3224,3328,3216,3200,3200,3200,3200,3200,3200,3200,3200,3200,3200,3200,3200,3200,3200,3224,3328,3216,3200,3200,3200,3200,3200,3200,3200,3200,3200,3200,3200,3200,3200,3200,3224,3328,3216,3200,3200,3200,3200,3200,3200,3200,3200,3200,3200,3200,3200,3200,3204,3238,3328,3216,3200,3200,3200,3200,3200,3200,3200,3200,3200,3200,3200,3200,3200,3224,3330,3322,3216,3200,3200,3200,3200,3200,3200,3200,3200,3200,3200,3200,3200,3200,3224,3312,3320,3216,3200,3200,3200,3200,3200,3200,3200,3200,3200,3200,3200,3200,3200,3224,3312,3320,3216,3200,3200,3200,3200,3200,3200,3200,3200,3200,3200,3200,3200,3200,3224,3312,3320,3216,3200,3200,3200,3200,3200,3200,3200,0,0,3904,0,0,0,0,0,0,0,0,0,0,0,3904,0,0,0,0,3904,0,0,0,0,0,0,0,0,0,0,0,3904,0,0,0,0,3904,0,0,0,0,0,0,0,0,0,0,0,3904,0,0,0,0,3904,0,0,0,0,0,0,0,0,0,0,0,3904,0,0,0,0,3904,0,0,0,0,0,0,0,0,0,0,0,3904,0,0,0,0,3913,3905,3905,3917,0,0,0,0,0,3915,3905,3905,3911,0,0,0,0,0,0,0,0,0,0,0,0,0,0,0,0,0,0,0,0,0,0,0,0,0,0,0,0,0,0,0,0,0,0,0,0,0,0,0,0,0,0,0,0,0,0,0,0,0,0,0,0,0,0,0,0,0,0,0,0,0,0,0,0,0,0,0,0,0,0,0,0,0,0,0,0,0,0,0,0,0,0,0,0,0,0,0,0,0,0,0,0,0,0,0,0,0,0,0,0,0,0,0,0,0,0,0,0,0,0,0,0,0,0,0,0,0,0,0,0,0,0,0,0,0,0,0,0,0,0,0,0,0,0,0,0,0,0,0,0,0,0,0,0,0,0,0,0,0,0,0,0,0,0,0,0,0,0,0,0,0,0,0,0,0,0,0,0,0,0,0,0,0,0,0,0,0,0,0,0,0,0,0,0,0,0,0,0,0,0,0,0,0,0,0,0,0,0,0,0,0,0,0,0,0,0,0,0,0,0,0,0,0,0,0,0,0,0,0,0,0,0,0,0,0,0,0,0,0,0,0,0,0,0,0,0,0,0,0,0,0,0,0,0,0,0,0,0,0,0,0,0,0,0,0,0,0,0,0,0,0,0,0,0,0,0,0,0,0,0,0,0,0,0,0,0,0,0,0,0,0,0,0,0,0,0,0,0,0,0,0,0,0,0,0,0,0,0,0,0,0,0,0,0,0,0,0,0,0,0,0,0,0,0,0,0,0,0,0,0,0,0,0,0,0,0,0,0,0,0,0,0,0,0,0,0,0,0,0,0,0,0,0,0,0,0,0,0,0,0,0,0,0,0,0,0,0,0,176,816,0,0,0,0,0,0,0,0,0,0,0,0,0,0,0,0,0,177,0,0,0,0,0,0,0,816,0,0,0,0,0,0,0,0,0,0,0,0,0,0,0,0,0,0,0,0,0,0,0,0,0,0,0,0,0,0,0,0,0,0,0,0,816,0,0,0,816,168,0,0,0,0,0,0,0,0,0,0,0,0,0,0,0,0,176,0,0,0,0,0,816,0,0,177,0,0,0,0,0,0,0,0,0,816,0,0,0,0,816,0,0,0,0,0,0,816,0,0,0,0,0,0,0,0,0,0,0,0,0,0,0,0,0,168,0,0,0,0,177,0,0,0,0,0,0,0,816,0,0,0,176,0,816,0,0,0,0,0,0,0,0,0,0,0,0,0,0,0,0,0,0,0,0,0,0,0,0,0,816,0,0,0,0,0,0,0,0,0,0,168,0,816,0,0,0,0,0,0,0,177,0,0,816,0,0,0,0,0,0,0,5,0,0,0,0,0,0,5,0,0,0,0,0,0,0,0,0,5,0,0,0,0,0,0,5,0,0,0,0,0,0,0,0,0,5,0,0,0,0,0,0,5,0,0,0,0,0,0,0,0,0,5,0,0,0,0,0,0,0,0,0,0,0,0,0,0,0,0,0,0,0,0,0,0,0,0,0,0,0,0,0,0,0,0,0,0,0,0,0,0,0,0,0,0,0,0,0,0,0,0,0,0,0,0,0,0,0,0,0,0,0,0,0,0,0,0,0,0,0,0,0,0,0,0,0,0,0,0,0,0,0,0,0,0,0,0,0,0,0,0,0,0,0,0,0,0,0,0,0,0,0,0,0,0,0,0,0,0,0,0,0,0,0,0,0,0,0,0,0,0,0,0,0,0,0,0,0,0,0,0,0,0,0,0,0,0,0,0,0,0,0,0,0,0,0,0,0,0,0,0,0,0,0,0,0,0,0,0,0,0,0,0,0,0,0,0,0,0,0,0,0,0,0,0,0,0,0,0,0,0,0,0,0,0,0,0,0,0,0,0,0,0,0,0,0,0,0,0,0,0,0,0,0,0,0,0,0,0,0,0,0,0,0,0,0,0,0,0,0,0,0,0,0,0,0,0,0,0,0,0,0,0,0,0,0,0,0,0,0,0,0,0,0,0,0,0,0,0,0,0,0,0,0,0,0,0,0,0,0,0,0,0,0,0,0,0,0,0,0,0,0,0,0,0,0,0,0,0,0,0,0,0,0,0,0,0,0,0,0,0,0,0,0,0,0,0,0,0,0,0,0,0,0,0,0,0,0,0,0,0,0,0,0,0,0,0,0,0,0,0,0,0,0,0,0,0,0,0,0,0,0,0,0,0,0,0,0,0,0,0,0,0,0,0,0,0,0,0,0,0,0,0,0,0,0,0,0,0,0,0,0,0,0,0,0,0,0,0,0,0,0,0,0,0,0,0,0,0,0,0,0,0,0,0,0],"events":[null,{"id":1,"name":"EV001","note":"","pages":[{"conditions":{"actorId":1,"actorValid":false,"itemId":1,"itemValid":false,"selfSwitchCh":"A","selfSwitchValid":false,"switch1Id":1,"switch1Valid":false,"switch2Id":1,"switch2Valid":false,"variableId":1,"variableValid":false,"variableValue":0},"directionFix":false,"image":{"tileId":0,"characterName":"","direction":2,"pattern":0,"characterIndex":0},"moveFrequency":3,"moveRoute":{"list":[{"code":0,"indent":null,"parameters":[]}],"repeat":true,"skippable":false,"wait":false},"moveSpeed":3,"moveType":0,"priorityType":0,"stepAnime":false,"through":false,"trigger":3,"walkAnime":true,"list":[{"code":230,"indent":0,"parameters":[60]},{"code":250,"indent":0,"parameters":[{"name":"unsuccubi","pan":0,"pitch":80,"volume":80}]},{"code":230,"indent":0,"parameters":[60]},{"code":101,"indent":0,"parameters":["Monster1",2,0,2]},{"code":401,"indent":0,"parameters":["Broken succubi attack again soon."]},{"code":101,"indent":0,"parameters":["Z succubus_a",6,0,2]},{"code":401,"indent":0,"parameters":["I... I can't do it... they're too horrible..."]},{"code":101,"indent":0,"parameters":["Monster1",2,0,2]},{"code":401,"indent":0,"parameters":["Succubus must be strong."]},{"code":101,"indent":0,"parameters":["Z succubus_a",6,0,2]},{"code":401,"indent":0,"parameters":["I know, but..."]},{"code":212,"indent":0,"parameters":[-1,77,false]},{"code":230,"indent":0,"parameters":[30]},{"code":205,"indent":0,"parameters":[-1,{"list":[{"code":40,"indent":null,"parameters":[]},{"code":0,"indent":null,"parameters":[]}],"repeat":false,"skippable":false,"wait":true}]},{"code":505,"indent":0,"parameters":[{"code":40,"indent":null,"parameters":[]}]},{"code":230,"indent":0,"parameters":[30]},{"code":213,"indent":0,"parameters":[2,1,false]},{"code":213,"indent":0,"parameters":[3,1,false]},{"code":205,"indent":0,"parameters":[2,{"list":[{"code":17,"indent":null,"parameters":[]},{"code":0,"indent":null,"parameters":[]}],"repeat":false,"skippable":false,"wait":false}]},{"code":505,"indent":0,"parameters":[{"code":17,"indent":null,"parameters":[]}]},{"code":205,"indent":0,"parameters":[3,{"list":[{"code":17,"indent":null,"parameters":[]},{"code":0,"indent":null,"parameters":[]}],"repeat":false,"skippable":false,"wait":true}]},{"code":505,"indent":0,"parameters":[{"code":17,"indent":null,"parameters":[]}]},{"code":101,"indent":0,"parameters":["Monster1",2,0,2]},{"code":401,"indent":0,"parameters":["Dark Guy. Good."]},{"code":101,"indent":0,"parameters":["Z succubus_a",4,0,2]},{"code":401,"indent":0,"parameters":["It's... it's you!"]},{"code":101,"indent":0,"parameters":["Z succubus_a",7,0,2]},{"code":401,"indent":0,"parameters":["Ah... the magic wafting off you... I almost feel better..."]},{"code":101,"indent":0,"parameters":["1 Simon dark",0,0,2]},{"code":401,"indent":0,"parameters":["We need to stay focused."]},{"code":101,"indent":0,"parameters":["Z succubus_a",4,0,2]},{"code":401,"indent":0,"parameters":["Ah! Yes, of course!"]},{"code":101,"indent":0,"parameters":["Robin blond emo",0,0,2]},{"code":401,"indent":0,"parameters":["You've had consistent attacks at this position?"]},{"code":101,"indent":0,"parameters":["Monster1",2,0,2]},{"code":401,"indent":0,"parameters":["Broken succubi are broken. Not attack normally, run everywhere."]},{"code":101,"indent":0,"parameters":["1 Simon dark",0,0,2]},{"code":401,"indent":0,"parameters":["Secure the position, we'll handle the next attacks."]},{"code":101,"indent":0,"parameters":["Monster1",2,0,2]},{"code":401,"indent":0,"parameters":["Sir!"]},{"code":101,"indent":0,"parameters":["Z succubus_a",6,0,2]},{"code":401,"indent":0,"parameters":["Oh, thank you..."]},{"code":205,"indent":0,"parameters":[2,{"list":[{"code":37,"indent":null,"parameters":[]},{"code":4,"indent":null,"parameters":[]},{"code":4,"indent":null,"parameters":[]},{"code":4,"indent":null,"parameters":[]},{"code":4,"indent":null,"parameters":[]},{"code":39,"indent":null,"parameters":[]},{"code":0,"indent":null,"parameters":[]}],"repeat":false,"skippable":false,"wait":false}]},{"code":505,"indent":0,"parameters":[{"code":37,"indent":null,"parameters":[]}]},{"code":505,"indent":0,"parameters":[{"code":4,"indent":null,"parameters":[]}]},{"code":505,"indent":0,"parameters":[{"code":4,"indent":null,"parameters":[]}]},{"code":505,"indent":0,"parameters":[{"code":4,"indent":null,"parameters":[]}]},{"code":505,"indent":0,"parameters":[{"code":4,"indent":null,"parameters":[]}]},{"code":505,"indent":0,"parameters":[{"code":39,"indent":null,"parameters":[]}]},{"code":205,"indent":0,"parameters":[3,{"list":[{"code":37,"indent":null,"parameters":[]},{"code":4,"indent":null,"parameters":[]},{"code":4,"indent":null,"parameters":[]},{"code":4,"indent":null,"parameters":[]},{"code":4,"indent":null,"parameters":[]},{"code":39,"indent":null,"parameters":[]},{"code":0,"indent":null,"parameters":[]}],"repeat":false,"skippable":false,"wait":false}]},{"code":505,"indent":0,"parameters":[{"code":37,"indent":null,"parameters":[]}]},{"code":505,"indent":0,"parameters":[{"code":4,"indent":null,"parameters":[]}]},{"code":505,"indent":0,"parameters":[{"code":4,"indent":null,"parameters":[]}]},{"code":505,"indent":0,"parameters":[{"code":4,"indent":null,"parameters":[]}]},{"code":505,"indent":0,"parameters":[{"code":4,"indent":null,"parameters":[]}]},{"code":505,"indent":0,"parameters":[{"code":39,"indent":null,"parameters":[]}]},{"code":205,"indent":0,"parameters":[-1,{"list":[{"code":3,"indent":null,"parameters":[]},{"code":3,"indent":null,"parameters":[]},{"code":1,"indent":null,"parameters":[]},{"code":0,"indent":null,"parameters":[]}],"repeat":false,"skippable":false,"wait":true}]},{"code":505,"indent":0,"parameters":[{"code":3,"indent":null,"parameters":[]}]},{"code":505,"indent":0,"parameters":[{"code":3,"indent":null,"parameters":[]}]},{"code":505,"indent":0,"parameters":[{"code":1,"indent":null,"parameters":[]}]},{"code":250,"indent":0,"parameters":[{"name":"unsuccubi","pan":0,"pitch":80,"volume":80}]},{"code":230,"indent":0,"parameters":[60]},{"code":101,"indent":0,"parameters":["Z Sho",4,0,2]},{"code":401,"indent":0,"parameters":["It's really awful... they seem to be in constant pain..."]},{"code":101,"indent":0,"parameters":["Robin blond emo",0,0,2]},{"code":401,"indent":0,"parameters":["If what Aka told us is correct... perhaps succubi can't survive without the sexual element of the soul."]},{"code":101,"indent":0,"parameters":["Z Sho",5,0,2]},{"code":401,"indent":0,"parameters":["But... isn't that removed by purity magic? How could the Incubus Emperor...?"]},{"code":101,"indent":0,"parameters":["1 Simon dark",0,0,2]},{"code":401,"indent":0,"parameters":["I think it might be possible. I can't back up that intuition, but..."]},{"code":101,"indent":0,"parameters":["Robin blond emo",0,0,2]},{"code":401,"indent":0,"parameters":["No, you're likely correct. An Incubus King controls sexual energy, perhaps one who was purely selfish could rip it all away."]},{"code":250,"indent":0,"parameters":[{"name":"unsuccubi","pan":0,"pitch":100,"volume":80}]},{"code":121,"indent":0,"parameters":[1892,1892,0]},{"code":230,"indent":0,"parameters":[60]},{"code":101,"indent":0,"parameters":["1 Simon dark",0,0,2]},{"code":401,"indent":0,"parameters":["Alright, get ready."]},{"code":205,"indent":0,"parameters":[4,{"list":[{"code":4,"indent":null,"parameters":[]},{"code":4,"indent":null,"parameters":[]},{"code":4,"indent":null,"parameters":[]},{"code":0,"indent":null,"parameters":[]}],"repeat":false,"skippable":false,"wait":false}]},{"code":505,"indent":0,"parameters":[{"code":4,"indent":null,"parameters":[]}]},{"code":505,"indent":0,"parameters":[{"code":4,"indent":null,"parameters":[]}]},{"code":505,"indent":0,"parameters":[{"code":4,"indent":null,"parameters":[]}]},{"code":205,"indent":0,"parameters":[5,{"list":[{"code":4,"indent":null,"parameters":[]},{"code":4,"indent":null,"parameters":[]},{"code":4,"indent":null,"parameters":[]},{"code":0,"indent":null,"parameters":[]}],"repeat":false,"skippable":false,"wait":false}]},{"code":505,"indent":0,"parameters":[{"code":4,"indent":null,"parameters":[]}]},{"code":505,"indent":0,"parameters":[{"code":4,"indent":null,"parameters":[]}]},{"code":505,"indent":0,"parameters":[{"code":4,"indent":null,"parameters":[]}]},{"code":205,"indent":0,"parameters":[6,{"list":[{"code":4,"indent":null,"parameters":[]},{"code":4,"indent":null,"parameters":[]},{"code":4,"indent":null,"parameters":[]},{"code":0,"indent":null,"parameters":[]}],"repeat":false,"skippable":false,"wait":true}]},{"code":505,"indent":0,"parameters":[{"code":4,"indent":null,"parameters":[]}]},{"code":505,"indent":0,"parameters":[{"code":4,"indent":null,"parameters":[]}]},{"code":505,"indent":0,"parameters":[{"code":4,"indent":null,"parameters":[]}]},{"code":314,"indent":0,"parameters":[0,0]},{"code":301,"indent":0,"parameters":[0,556,false,false]},{"code":121,"indent":0,"parameters":[1893,1893,0]},{"code":101,"indent":0,"parameters":["Robin blond emo",5,0,2]},{"code":401,"indent":0,"parameters":["...their strength varies, but the fact that they can pierce holy magic and disturb succubi..."]},{"code":101,"indent":0,"parameters":["1 Simon dark",0,0,2]},{"code":401,"indent":0,"parameters":["The Incubus Emperor's armies are still trapped by Ivala's Wall, but the fighting is going to become much uglier."]},{"code":101,"indent":0,"parameters":["1 Simon dark",0,0,2]},{"code":401,"indent":0,"parameters":["The war has changed. Let's do everything we can until we can get a clear picture of the situation..."]},{"code":242,"indent":0,"parameters":[5]},{"code":221,"indent":0,"parameters":[]},{"code":230,"indent":0,"parameters":[60]},{"code":250,"indent":0,"parameters":[{"name":"unsuccubi","pan":0,"pitch":80,"volume":80}]},{"code":230,"indent":0,"parameters":[180]},{"code":201,"indent":0,"parameters":[0,357,9,16,6,0]},{"code":123,"indent":0,"parameters":["A",0]},{"code":0,"indent":0,"parameters":[]}]},{"conditions":{"actorId":1,"actorValid":false,"itemId":1,"itemValid":false,"selfSwitchCh":"A","selfSwitchValid":true,"switch1Id":1,"switch1Valid":false,"switch2Id":1,"switch2Valid":false,"variableId":1,"variableValid":false,"variableValue":0},"directionFix":false,"image":{"tileId":0,"characterName":"","direction":2,"pattern":0,"characterIndex":0},"moveFrequency":3,"moveRoute":{"list":[{"code":0,"indent":null,"parameters":[]}],"repeat":true,"skippable":false,"wait":false},"moveSpeed":3,"moveType":0,"priorityType":0,"stepAnime":false,"through":false,"trigger":0,"walkAnime":true,"list":[{"code":0,"indent":0,"parameters":[]}]}],"x":0,"y":0},{"id":2,"name":"Orc","note":"","pages":[{"conditions":{"actorId":1,"actorValid":false,"itemId":1,"itemValid":false,"selfSwitchCh":"A","selfSwitchValid":false,"switch1Id":1,"switch1Valid":false,"switch2Id":1,"switch2Valid":false,"variableId":1,"variableValid":false,"variableValue":0},"directionFix":false,"image":{"tileId":0,"characterName":"Monster1","direction":2,"pattern":1,"characterIndex":2},"moveFrequency":3,"moveRoute":{"list":[{"code":0,"indent":null,"parameters":[]}],"repeat":true,"skippable":false,"wait":false},"moveSpeed":3,"moveType":0,"priorityType":1,"stepAnime":false,"through":false,"trigger":0,"walkAnime":true,"list":[{"code":0,"indent":0,"parameters":[]}]}],"x":7,"y":4},{"id":3,"name":"Succubus","note":"","pages":[{"conditions":{"actorId":1,"actorValid":false,"itemId":1,"itemValid":false,"selfSwitchCh":"A","selfSwitchValid":false,"switch1Id":1,"switch1Valid":false,"switch2Id":1,"switch2Valid":false,"variableId":1,"variableValid":false,"variableValue":0},"directionFix":false,"image":{"tileId":0,"characterName":"Monster2","direction":2,"pattern":1,"characterIndex":3},"moveFrequency":3,"moveRoute":{"list":[{"code":0,"indent":null,"parameters":[]}],"repeat":true,"skippable":false,"wait":false},"moveSpeed":3,"moveType":0,"priorityType":1,"stepAnime":false,"through":false,"trigger":0,"walkAnime":true,"list":[{"code":0,"indent":0,"parameters":[]}]}],"x":9,"y":4},{"id":4,"name":"Unsuccubi","note":"","pages":[{"conditions":{"actorId":1,"actorValid":false,"itemId":1,"itemValid":false,"selfSwitchCh":"A","selfSwitchValid":false,"switch1Id":1892,"switch1Valid":true,"switch2Id":1,"switch2Valid":false,"variableId":1,"variableValid":false,"variableValue":0},"directionFix":false,"image":{"tileId":0,"characterName":"zombiesprites","direction":8,"pattern":1,"characterIndex":5},"moveFrequency":3,"moveRoute":{"list":[{"code":0,"indent":null,"parameters":[]}],"repeat":true,"skippable":false,"wait":false},"moveSpeed":5,"moveType":0,"priorityType":1,"stepAnime":false,"through":false,"trigger":0,"walkAnime":true,"list":[{"code":0,"indent":0,"parameters":[]}]},{"conditions":{"actorId":1,"actorValid":false,"itemId":1,"itemValid":false,"selfSwitchCh":"A","selfSwitchValid":false,"switch1Id":1893,"switch1Valid":true,"switch2Id":1,"switch2Valid":false,"variableId":1,"variableValid":false,"variableValue":0},"directionFix":false,"image":{"tileId":0,"characterName":"","direction":2,"pattern":0,"characterIndex":0},"moveFrequency":3,"moveRoute":{"list":[{"code":0,"indent":null,"parameters":[]}],"repeat":true,"skippable":false,"wait":false},"moveSpeed":3,"moveType":0,"priorityType":0,"stepAnime":false,"through":false,"trigger":0,"walkAnime":true,"list":[{"code":0,"indent":0,"parameters":[]}]}],"x":7,"y":12},{"id":5,"name":"Unsuccubi","note":"","pages":[{"conditions":{"actorId":1,"actorValid":false,"itemId":1,"itemValid":false,"selfSwitchCh":"A","selfSwitchValid":false,"switch1Id":1892,"switch1Valid":true,"switch2Id":1,"switch2Valid":false,"variableId":1,"variableValid":false,"variableValue":0},"directionFix":false,"image":{"tileId":0,"characterName":"zombiesprites","direction":8,"pattern":1,"characterIndex":6},"moveFrequency":3,"moveRoute":{"list":[{"code":0,"indent":null,"parameters":[]}],"repeat":true,"skippable":false,"wait":false},"moveSpeed":5,"moveType":0,"priorityType":1,"stepAnime":false,"through":false,"trigger":0,"walkAnime":true,"list":[{"code":0,"indent":0,"parameters":[]}]},{"conditions":{"actorId":1,"actorValid":false,"itemId":1,"itemValid":false,"selfSwitchCh":"A","selfSwitchValid":false,"switch1Id":1893,"switch1Valid":true,"switch2Id":1,"switch2Valid":false,"variableId":1,"variableValid":false,"variableValue":0},"directionFix":false,"image":{"tileId":0,"characterName":"","direction":2,"pattern":0,"characterIndex":0},"moveFrequency":3,"moveRoute":{"list":[{"code":0,"indent":null,"parameters":[]}],"repeat":true,"skippable":false,"wait":false},"moveSpeed":3,"moveType":0,"priorityType":0,"stepAnime":false,"through":false,"trigger":0,"walkAnime":true,"list":[{"code":0,"indent":0,"parameters":[]}]}],"x":9,"y":12},{"id":6,"name":"Unsuccubi","note":"","pages":[{"conditions":{"actorId":1,"actorValid":false,"itemId":1,"itemValid":false,"selfSwitchCh":"A","selfSwitchValid":false,"switch1Id":1892,"switch1Valid":true,"switch2Id":1,"switch2Valid":false,"variableId":1,"variableValid":false,"variableValue":0},"directionFix":false,"image":{"tileId":0,"characterName":"zombiesprites","direction":8,"pattern":1,"characterIndex":4},"moveFrequency":3,"moveRoute":{"list":[{"code":0,"indent":null,"parameters":[]}],"repeat":true,"skippable":false,"wait":false},"moveSpeed":5,"moveType":0,"priorityType":1,"stepAnime":false,"through":false,"trigger":0,"walkAnime":true,"list":[{"code":0,"indent":0,"parameters":[]}]},{"conditions":{"actorId":1,"actorValid":false,"itemId":1,"itemValid":false,"selfSwitchCh":"A","selfSwitchValid":false,"switch1Id":1893,"switch1Valid":true,"switch2Id":1,"switch2Valid":false,"variableId":1,"variableValid":false,"variableValue":0},"directionFix":false,"image":{"tileId":0,"characterName":"","direction":2,"pattern":0,"characterIndex":0},"moveFrequency":3,"moveRoute":{"list":[{"code":0,"indent":null,"parameters":[]}],"repeat":true,"skippable":false,"wait":false},"moveSpeed":3,"moveType":0,"priorityType":0,"stepAnime":false,"through":false,"trigger":0,"walkAnime":true,"list":[{"code":0,"indent":0,"parameters":[]}]}],"x":8,"y":12}]
}
