{
"autoplayBgm":false,"autoplayBgs":false,"battleback1Name":"","battleback2Name":"","bgm":{"name":"","pan":0,"pitch":100,"volume":100},"bgs":{"name":"","pan":0,"pitch":100,"volume":80},"disableDashing":false,"displayName":"","encounterList":[],"encounterStep":30,"height":27,"note":"","parallaxLoopX":false,"parallaxLoopY":false,"parallaxName":"","parallaxShow":false,"parallaxSx":0,"parallaxSy":0,"scrollType":0,"specifyBattleback":false,"tilesetId":14,"width":25,"data":[0,0,0,0,0,0,0,0,0,0,0,0,0,0,0,0,0,0,0,0,0,0,0,0,0,0,0,0,0,0,0,0,0,0,0,0,0,0,0,0,0,0,0,0,0,0,0,0,0,0,0,0,0,0,6978,6964,6965,6977,6977,6977,6977,6977,6977,6977,6977,6977,6977,6966,6964,6980,0,0,0,0,0,0,0,0,0,6960,6944,6968,7330,7330,7330,7330,7330,7330,7330,7330,7330,7330,6960,6944,6968,0,0,0,0,0,0,0,0,0,6960,6944,6968,7328,7328,7328,7328,7328,7328,7328,7328,7328,7328,6960,6944,6968,0,0,0,0,0,0,0,0,0,6960,6944,6968,7328,7328,7328,7328,7328,7328,7328,7328,7328,7328,6960,6944,6968,0,0,0,0,0,0,0,0,0,6960,6944,6968,7328,7328,7328,7328,7328,7328,7328,7328,7328,7328,6960,6944,6968,0,0,0,0,0,0,0,0,0,6960,6944,6968,7328,7328,7328,7328,7328,7328,7328,7328,7328,7328,6960,6944,6968,0,0,0,0,0,0,0,0,0,6960,6944,6968,7336,7336,7336,7336,7336,7336,7336,7336,7336,7336,6960,6944,6968,0,0,0,0,0,0,0,0,0,6960,6944,6968,4098,4084,4084,4084,4084,4084,4084,4084,4084,4100,6960,6944,6968,0,0,0,0,0,0,0,0,0,6962,6972,6982,4080,4064,4064,4064,4064,4064,4064,4064,4064,4088,6984,6972,6969,0,0,0,0,0,0,0,0,0,6976,7330,7334,4080,4064,4064,4064,4064,4064,4064,4064,4064,4088,7331,7330,6976,0,0,0,0,0,0,0,0,0,6976,7328,7332,4080,4064,4064,4064,4064,4064,4064,4064,4064,4088,7329,7328,6976,0,0,0,0,0,0,0,0,0,6976,7328,7332,4080,4064,4064,4064,4064,4064,4064,4064,4064,4088,7329,7328,6976,0,0,0,0,0,0,0,0,0,6976,7328,7332,4080,4064,4064,4064,4064,4064,4064,4064,4064,4088,7329,7328,6976,0,0,0,0,0,0,0,0,0,6976,7328,7332,4080,4064,4064,4064,4064,4064,4064,4064,4064,4088,7329,7328,6976,0,0,0,0,0,0,0,0,0,6976,1536,7340,4080,4064,4064,4064,4064,4064,4064,4064,4064,4088,7337,7336,6976,0,0,0,0,0,0,0,0,0,6976,3291,3293,4104,4092,4092,4092,4092,4092,4092,4092,4092,4102,3291,3293,6976,0,0,0,0,0,0,0,0,0,6985,6977,6977,6977,6977,6977,6989,3282,3284,6987,6977,6977,6977,6977,6977,6983,0,0,0,0,0,0,0,0,0,7331,7330,7330,7330,7330,7330,7334,3264,3272,7331,7330,7330,7330,7330,7330,7334,0,0,0,0,0,0,0,0,0,7329,7328,7328,7328,7328,7328,7332,3264,3272,7329,7328,7328,7328,7328,7328,7332,0,0,0,0,0,0,0,0,0,7329,7328,7328,7328,7328,7328,7332,3264,3272,7329,7328,7328,7328,7328,7328,7332,0,0,0,0,0,0,0,0,0,7329,7328,7328,7328,7328,7328,7332,3264,3272,7329,7328,7328,7328,7328,7328,7332,0,0,0,0,0,0,0,0,0,7329,7328,7328,7328,7328,7328,7332,3264,3272,7329,7328,7328,7328,7328,7328,7332,0,0,0,0,0,0,0,0,0,7337,7336,7336,7336,7336,7336,7340,3288,3286,7337,7336,7336,7336,7336,7336,7340,0,0,0,0,0,0,0,0,0,0,0,0,0,0,0,0,0,0,0,0,0,0,0,0,0,0,0,0,0,0,0,0,0,0,0,0,0,0,0,0,0,0,0,0,0,0,0,0,0,0,0,0,0,0,0,0,0,0,0,0,0,0,0,0,0,0,0,0,0,0,0,0,0,0,0,0,0,0,0,0,0,0,0,0,0,0,0,0,0,0,0,0,0,0,0,0,0,0,0,0,0,0,0,0,0,0,0,0,0,0,0,0,0,0,0,0,0,0,0,0,0,0,0,0,0,0,0,0,0,0,0,0,0,0,0,0,0,0,0,0,0,0,0,0,0,0,0,0,0,0,0,0,0,0,0,0,0,0,0,0,0,0,0,0,0,0,0,0,0,0,0,0,0,0,0,0,0,0,0,0,0,0,0,0,0,0,0,0,0,0,0,0,0,0,0,0,0,0,0,0,0,0,0,0,0,0,0,0,0,0,0,0,0,0,0,0,0,0,0,0,0,0,0,0,0,0,0,0,0,0,0,0,0,0,0,0,0,0,0,0,0,0,0,0,0,0,0,0,0,0,0,0,0,0,0,0,0,0,0,0,0,0,0,0,0,0,0,0,0,0,0,0,0,0,0,0,0,0,0,0,0,0,0,0,0,0,0,0,0,0,0,0,0,0,0,0,0,0,0,0,0,0,0,0,0,0,0,0,0,0,0,0,0,0,0,0,0,0,0,0,0,0,0,0,0,0,0,0,0,0,0,0,0,0,0,0,0,0,0,0,0,0,0,0,0,0,0,0,0,0,0,0,0,0,0,0,0,0,0,0,0,0,0,0,0,0,0,0,0,0,0,0,0,0,0,0,0,0,0,0,0,0,0,0,0,0,0,0,0,0,0,0,0,0,0,0,0,0,0,0,0,0,0,0,0,0,0,0,0,0,0,0,0,0,0,0,0,0,0,0,0,0,0,0,0,0,0,0,0,0,0,0,0,0,0,0,0,0,0,0,0,0,0,0,0,0,0,0,0,0,0,0,0,0,0,0,0,0,0,0,0,0,0,0,0,0,0,0,0,0,0,0,0,0,0,0,0,0,0,0,0,0,0,0,0,0,0,0,0,0,0,0,0,0,0,0,0,0,0,0,0,0,0,0,0,0,0,0,0,0,0,0,0,0,0,0,0,0,0,0,0,0,0,0,0,0,0,0,0,0,0,0,0,0,0,0,0,0,0,0,0,0,0,0,0,0,0,0,0,0,0,0,0,0,0,0,0,0,0,0,0,0,0,0,0,0,0,0,0,0,0,0,0,0,0,0,0,0,0,0,0,0,0,0,0,0,0,0,0,0,0,0,0,0,0,0,0,0,0,0,0,0,0,0,0,0,0,0,0,0,0,0,0,0,0,0,0,0,0,0,0,0,0,0,0,0,0,0,0,0,0,0,0,0,0,0,0,0,0,0,0,0,0,0,0,0,0,0,0,0,0,0,0,0,0,0,0,0,0,0,0,0,0,0,0,0,0,0,0,0,0,0,0,0,0,0,0,0,0,0,0,0,0,0,0,0,0,0,0,0,0,0,0,0,0,0,0,0,0,0,0,0,0,0,0,0,0,0,0,0,0,0,0,0,0,0,0,0,0,0,0,0,0,0,0,0,0,0,0,0,0,0,0,0,0,0,0,0,0,0,0,0,0,0,0,0,0,0,0,0,0,0,0,0,0,0,0,0,0,0,0,0,0,0,0,0,0,0,0,0,0,0,0,0,0,0,0,0,0,0,0,0,0,0,0,0,0,0,0,0,0,0,0,0,0,0,0,0,0,0,0,0,0,0,0,0,0,0,0,0,0,0,0,0,0,0,0,0,0,0,0,0,0,0,0,0,0,0,0,0,0,0,0,0,0,0,0,0,0,0,0,0,0,0,0,0,0,0,0,0,0,0,0,0,0,0,0,0,0,0,0,0,0,0,0,0,0,0,0,0,0,0,0,0,0,0,0,0,0,0,0,0,0,0,0,0,0,0,0,0,0,0,0,0,0,0,0,0,0,0,0,0,0,0,0,0,0,0,0,0,0,0,0,0,0,0,0,0,0,0,0,0,0,0,0,0,0,0,0,0,0,0,0,0,0,0,0,0,0,0,0,0,0,0,0,0,0,0,0,0,0,0,0,0,0,0,0,0,0,0,0,0,0,0,0,0,0,0,0,0,0,0,0,0,0,0,0,0,0,0,0,0,0,0,0,0,0,0,0,0,0,0,0,0,0,0,0,0,0,0,0,0,0,0,0,0,0,0,0,0,0,0,0,0,0,0,0,0,0,0,0,0,0,0,0,0,0,0,0,0,0,0,0,0,0,0,0,0,0,0,0,0,0,0,0,0,0,0,0,0,0,0,0,0,0,0,0,0,0,0,0,0,0,0,0,0,0,0,0,0,0,0,0,0,0,0,0,0,0,0,0,0,0,0,0,0,0,0,0,0,0,0,0,0,0,0,0,0,0,0,0,0,0,0,0,0,0,0,0,0,0,0,0,0,0,0,0,0,0,0,0,0,0,0,0,0,0,0,0,0,0,0,0,0,0,0,0,0,0,0,0,0,0,0,0,0,0,0,0,0,0,0,0,0,0,0,0,0,0,0,0,0,0,0,0,0,0,0,0,0,0,0,0,0,0,0,0,0,0,0,0,0,0,0,0,0,0,0,0,0,0,0,0,0,0,0,0,0,0,0,0,0,0,0,0,0,0,0,0,0,0,0,0,0,0,0,0,0,0,0,0,0,0,0,0,0,0,0,0,0,0,0,0,0,0,0,0,0,0,0,0,0,0,0,0,0,0,0,0,0,0,0,0,0,0,0,0,0,0,0,0,0,0,0,0,0,0,0,0,0,0,0,0,0,0,0,0,0,0,0,0,0,0,0,0,0,0,0,0,0,0,0,0,0,0,0,0,0,0,0,0,0,0,0,0,0,0,0,0,0,0,0,0,0,0,0,0,0,0,0,0,0,0,0,0,0,0,0,0,0,0,0,0,0,0,0,0,0,0,0,0,0,0,0,0,0,0,0,0,0,0,0,0,0,0,0,0,0,0,0,0,0,0,0,0,0,0,0,0,0,0,0,0,0,0,0,0,0,0,0,0,0,0,0,0,0,0,0,0,0,0,0,0,0,0,0,0,0,0,0,0,0,0,0,0,0,0,0,0,0,0,0,0,0,0,0,0,0,0,0,0,0,0,0,0,0,0,0,0,0,0,0,0,0,0,0,0,0,0,0,0,0,0,0,0,0,0,0,0,0,0,0,0,0,0,0,0,0,0,0,0,0,0,0,0,0,0,0,0,0,0,0,0,0,0,0,0,0,0,0,0,0,0,0,0,0,0,0,0,0,0,0,0,0,0,0,0,0,0,0,0,0,0,0,0,0,0,0,0,0,0,0,0,0,802,0,771,772,0,802,0,0,0,0,0,0,0,0,0,0,0,0,0,0,0,0,0,0,0,810,0,779,780,0,810,0,0,0,0,0,0,0,0,0,0,0,0,0,0,0,0,0,0,0,818,0,787,788,0,818,0,0,0,0,0,0,0,0,0,0,0,0,0,0,0,0,0,0,0,826,0,795,796,0,826,0,0,0,0,0,0,0,0,0,0,0,0,0,0,0,0,0,0,443,0,0,0,0,0,0,443,0,0,0,0,0,0,0,0,0,0,0,0,0,0,0,0,0,451,0,0,0,0,0,0,451,0,0,0,0,0,0,0,0,0,0,0,0,0,0,0,0,0,926,927,899,900,901,926,927,0,0,0,0,0,0,0,0,0,0,0,0,0,0,0,0,0,0,934,935,907,908,909,934,935,0,0,0,0,0,0,0,0,0,0,0,0,0,0,0,0,0,107,942,943,915,916,917,942,943,0,107,0,0,0,0,0,0,0,0,0,0,0,0,0,0,0,0,0,0,0,0,0,0,0,0,0,0,0,0,0,0,0,0,0,0,0,0,0,0,0,0,0,440,441,442,0,0,440,441,442,0,0,0,0,0,0,0,0,0,0,0,0,0,0,0,0,0,448,449,450,0,0,448,449,450,0,0,0,0,0,0,0,0,0,0,0,0,0,0,0,0,0,0,0,0,0,0,0,0,0,0,0,0,0,0,0,0,0,0,0,0,0,0,0,0,0,0,0,0,0,0,0,0,0,0,0,0,0,0,0,0,0,0,0,0,0,0,0,0,0,0,0,0,0,0,0,0,0,0,0,0,0,0,0,0,0,0,0,0,0,0,0,0,0,0,0,0,0,0,0,0,0,0,0,0,0,0,0,0,0,0,0,0,0,0,0,0,0,0,0,0,0,0,0,0,0,0,0,0,0,0,0,0,0,0,0,0,0,0,0,0,0,0,0,0,0,0,0,0,0,0,0,0,0,0,0,0,0,0,0,0,0,0,0,0,0,0,0,0,0,0,0,0,0,0,0,0,0,0,0,0,0,0,0,0,0,0,0,0,0,0,0,0,0,0,0,0,0,0,0,0,0,0,0,0,0,0,0,0,0,0,0,0,0,0,0,0,0,0,0,0,0,0,0,0,0,0,0,0,0,0,0,0,0,0,0,0,0,0,0,0,0,0,0,0,0,0,0,0,0,0,0,0,0,0,0,0,0,0,0,0,0,0,0,0,0,0,0,0,0,0,0,0,0,0,0,0,0,0,0,0,0,0,0,0,0,0,0,0,0,0,0,0,0,0,0,0,0,0,0,0,0,0,0,0,0,0,0,0,0,0,0,0,0,0,0,0,0,0,0,0,0,0,0,0,0,0,0,0,0,0,0,0,0,0,0,0,0,0,0,0,0,0,0,0,0,0,0,0,0,0,0,0,0,0,0,0,0,0,0,0,0,0,0,0,0,0,0,0,0,0,0,0,0,0,0,0,0,0,0,0,0,0,0,0,0,0,0,0,0,0,0,0,0,0,0,0,0,0,0,0,0,0,0,0,0,0,0,0,0,0,0,0,0,0,0,0,0,0,0,0,0,0,0,0,0,0,0,0,0,0,0,0,0,0,0,0,0,0,0,0,0,0,0,0,0,0,0,0,0,0,0,0,0,0,0,0,0,0,0,0,0,0,0,0,0,0,0,0,0,0,0,0,0,0,0,0,0,0,0,0,0,0,0,0,0,0,0,0,0,0,0,0,0,0,0,0,0,0,0,0,0,0,0,0,0,0,0,0,0,0,0,0,0,0,0,0,0,0,0,0,5,0,0,0,0,0,0,0,0,0,0,0,0,0,0,0,0,0,0,0,0,0,0,0,0,5,0,0,0,0,0,0,0,0,0,0,0,0,0,0,0,0,0,0,0,0,0,0,0,0,5,0,0,0,0,0,0,0,0,0,0,0,0,0,0,0,0,0,0,0,0,0,0,0,0,5,0,0,0,0,0,0,0,0,0,0,0,0,0,0,0,0,0,0,0,0,0,0,0,0,5,0,0,0,0,0,0,0,0,0,0,0,0,0,0,0,0,0,0,0,0,0,0,0,0,5,0,0,0,0,0,0,0,0,0,0,0,0,0,0,0,0,0,0,0,0,0,0,0,0,5,0,0,0,0,0,0,0,0,0,0,0,0,0,0,0,0,0,0,0,0,0,0,5,0,5,0,0,0,0,0,0,0,0,0,0,0,0,0,0,0,0,0,0,0,0,0,0,5,0,0,0,0,0,0,0,0,0,0,0,0,0,0,0,0,0,0,0,0,0,0,0,0,0,0,0,0,0,0,0,0,0,0,0,0,0,0,0,0,0,0,0,0,0,0,0,0,0,0,0,0,0,0,0,5,0,0,0,0,0,0,0,0,0,0,0,0,0,0,0,0,0,0,0,0,0,0,0,0,5,0,0,0,0,0,0,0,0,0,0,0,0,0,0,0,0,0,0,0,0,0,0,0,0,5,0,0,0,0,0,0,0,0,0,0,0,0,0,0,0,0,0,0,0,0,0,0,0,0,5,0,0,0,0,0,0,0,0,0,0,0,0,0,0,0,0,0,0,0,0,0,0,0,0,5,0,0,0,0,0,0,0,0,0,0,0,0,0,0,0,0,0,0,0,0,0,0,0,0,5,0,0,0,0,0,0,0,0,0,0,0,0,0,0,0,0,0,0,0,0,0,0,0,0,0,0,0,0,0,0,0,0,0,0,0,0,0,0,0,0,0,0,0,0,0,0,0,0,0,0,0,0,0,0,0,0,0,0,0,0,0,0,0,0,0,0,0,0,0,0,0,0,0,0,0,0,0,0,0,0,0,0,0,0,0,0,0,0,0,0,0,0,0,0,0,0,0,0,0,0,0,0,0,0,0,0,0,0,0,0,0,0,0,0,0,0,0,0,0,0,0,0,0,0,0,0,0,0,0,0,0,0,0,0,0,0,0,0,0,0,0,0,0,0,0,0,0,0,0,0,0,0,0,0,0,0,0,0,0,0,0,0,0,0,0,0,0,0,0,0,0,0,0,0,0,0,0,0,0,0,0,0,0,0,0,0,0,0,0,0,0,0,0,0,0,0,0,0,0,0,0,0,0,0,0,0,0,0,0,0,0,0,0,0,0,0,0,0,0,0,0,0,0,0,0,0,0,0,0,0,0,0,0,0,0,0,0,0,0,0,0,0,0,0,0,0,0,0,0,0,0,0,0,0,0,0,0,0,0,0,0,0,0,0,0,0,0,0,0,0,0,0,0,0,0,0,0,0,0,0,0,0,0,0,0,0,0,0,0,0,0,0,0,0,0,0,0,0,0,0,0,0,0,0,0,0,0,0,0,0,0,0,0,0,0,0,0,0,0,0,0,0,0,0,0,0,0,0,0,0,0,0,0,0,0,0,0,0,0,0,0,0,0,0,0,0,0,0,0,0,0,0,0,0,0,0,0,0,0,0,0,0,0,0,0,0,0,0,0,0,0,0,0,0,0,0,0,0,0,0,0,0,0,0,0,0,0,0,0,0,0,0,0,0,0,0,0,0,0,0,0,0,0,0,0,0,0,0,0,0,0,0,0,0,0,0,0,0,0,0,0,0,0,0,0,0,0,0,0,0,0,0,0,0,0,0,0,0,0,0,0,0,0,0,0,0,0,0,0,0,0,0,0,0,0,0,0,0,0,0,0,0,0,0,0,0,0,0,0,0,0,0,0,0,0,0,0,0,0,0,0,0,0,0,0,0,0,0,0,0,0,0,0,0,0,0,0,0,0,0,0,0,0,0,0,0,0,0,0,0,0,0,0,0,0,0,0,0,0,0,0,0,0,0,0,0,0,0,0,0,0,0,0,0,0,0,0,0,0,0,0,0,0,0,0,0,0,0,0,0,0,0,0,0,0,0,0,0,0,0,0,0,0,0,0,0,0,0,0,0,0,0,0,0,0,0,0,0,0,0,0,0,0,0,0,0,0,0,0,0,0,0,0,0,0,0,0,0,0,0,0,0,0,0,0,0,0,0,0,0,0,0,0,0,0,0,0,0,0,0,0,0,0,0,0,0,0,0,0,0,0,0,0,0,0,0,0,0,0,0,0,0,0,0,0,0,0,0,0,0,0,0,0,0,0,0,0,0,0,0,0,0,0,0,0,0,0,0,0,0,0,0,0,0,0,0,0,0,0,0,0,0,0,0,0,0,0,0,0,0,0,0,0,0,0,0,0,0,0,0,0,0,0,0,0,0,0,0,0,0,0,0,0,0,0,0,0,0,0,0,0,0,0,0,0,0,0,0,0,0,0,0,0,0,0,0,0,0],"events":[null,{"id":1,"name":"EV001","note":"","pages":[{"conditions":{"actorId":1,"actorValid":false,"itemId":1,"itemValid":false,"selfSwitchCh":"A","selfSwitchValid":false,"switch1Id":1,"switch1Valid":false,"switch2Id":1,"switch2Valid":false,"variableId":1,"variableValid":false,"variableValue":0},"directionFix":false,"image":{"tileId":0,"characterName":"","direction":2,"pattern":0,"characterIndex":0},"moveFrequency":3,"moveRoute":{"list":[{"code":0,"indent":null,"parameters":[]}],"repeat":true,"skippable":false,"wait":false},"moveSpeed":3,"moveType":0,"priorityType":0,"stepAnime":false,"through":false,"trigger":1,"walkAnime":true,"list":[{"code":250,"indent":0,"parameters":[{"name":"Move","pan":0,"pitch":100,"volume":80}]},{"code":201,"indent":0,"parameters":[0,512,24,10,0,0]},{"code":0,"indent":0,"parameters":[]}]}],"x":11,"y":24},{"id":2,"name":"EV002","note":"","pages":[{"conditions":{"actorId":1,"actorValid":false,"itemId":1,"itemValid":false,"selfSwitchCh":"A","selfSwitchValid":false,"switch1Id":1,"switch1Valid":false,"switch2Id":1,"switch2Valid":false,"variableId":1,"variableValid":false,"variableValue":0},"directionFix":false,"image":{"tileId":0,"characterName":"","direction":2,"pattern":0,"characterIndex":0},"moveFrequency":3,"moveRoute":{"list":[{"code":0,"indent":null,"parameters":[]}],"repeat":true,"skippable":false,"wait":false},"moveSpeed":3,"moveType":0,"priorityType":0,"stepAnime":false,"through":false,"trigger":1,"walkAnime":true,"list":[{"code":250,"indent":0,"parameters":[{"name":"Move","pan":0,"pitch":100,"volume":80}]},{"code":201,"indent":0,"parameters":[0,512,24,10,0,0]},{"code":0,"indent":0,"parameters":[]}]}],"x":12,"y":24},{"id":3,"name":"EV003","note":"","pages":[{"conditions":{"actorId":1,"actorValid":false,"itemId":1,"itemValid":false,"selfSwitchCh":"A","selfSwitchValid":false,"switch1Id":1,"switch1Valid":false,"switch2Id":1,"switch2Valid":false,"variableId":1,"variableValid":false,"variableValue":0},"directionFix":true,"image":{"tileId":0,"characterName":"!Door1","direction":2,"pattern":0,"characterIndex":4},"moveFrequency":3,"moveRoute":{"list":[{"code":0,"indent":null,"parameters":[]}],"repeat":true,"skippable":false,"wait":false},"moveSpeed":3,"moveType":0,"priorityType":1,"stepAnime":false,"through":false,"trigger":1,"walkAnime":false,"list":[{"code":101,"indent":0,"parameters":["1 Simon dark",0,0,2]},{"code":401,"indent":0,"parameters":["We have no reason to disturb their inner chambers."]},{"code":101,"indent":0,"parameters":["Yarra emo2",5,0,2]},{"code":401,"indent":0,"parameters":["Well, I can think of some reasons."]},{"code":123,"indent":0,"parameters":["A",0]},{"code":0,"indent":0,"parameters":[]}]},{"conditions":{"actorId":1,"actorValid":false,"itemId":1,"itemValid":false,"selfSwitchCh":"A","selfSwitchValid":true,"switch1Id":1,"switch1Valid":false,"switch2Id":1,"switch2Valid":false,"variableId":1,"variableValid":false,"variableValue":0},"directionFix":true,"image":{"tileId":0,"characterName":"!Door1","direction":2,"pattern":0,"characterIndex":4},"moveFrequency":3,"moveRoute":{"list":[{"code":0,"indent":null,"parameters":[]}],"repeat":true,"skippable":false,"wait":false},"moveSpeed":3,"moveType":0,"priorityType":1,"stepAnime":false,"through":false,"trigger":0,"walkAnime":false,"list":[{"code":101,"indent":0,"parameters":["1 Simon dark",0,0,2]},{"code":401,"indent":0,"parameters":["We have no reason to disturb their inner chambers."]},{"code":0,"indent":0,"parameters":[]}]},{"conditions":{"actorId":1,"actorValid":false,"itemId":1,"itemValid":false,"selfSwitchCh":"A","selfSwitchValid":false,"switch1Id":3290,"switch1Valid":true,"switch2Id":1,"switch2Valid":false,"variableId":1,"variableValid":false,"variableValue":0},"directionFix":true,"image":{"tileId":0,"characterName":"!Door1","direction":2,"pattern":0,"characterIndex":4},"moveFrequency":3,"moveRoute":{"list":[{"code":0,"indent":null,"parameters":[]}],"repeat":true,"skippable":false,"wait":false},"moveSpeed":3,"moveType":0,"priorityType":1,"stepAnime":false,"through":false,"trigger":2,"walkAnime":false,"list":[{"code":250,"indent":0,"parameters":[{"name":"Open1","pan":0,"pitch":100,"volume":80}]},{"code":205,"indent":0,"parameters":[0,{"list":[{"code":17,"indent":null,"parameters":[]},{"code":15,"indent":null,"parameters":[3]},{"code":18,"indent":null,"parameters":[]},{"code":15,"indent":null,"parameters":[3]},{"code":19,"indent":null,"parameters":[]},{"code":37,"indent":null,"parameters":[]},{"code":0,"indent":null,"parameters":[]}],"repeat":false,"skippable":false,"wait":true}]},{"code":505,"indent":0,"parameters":[{"code":17,"indent":null,"parameters":[]}]},{"code":505,"indent":0,"parameters":[{"code":15,"indent":null,"parameters":[3]}]},{"code":505,"indent":0,"parameters":[{"code":18,"indent":null,"parameters":[]}]},{"code":505,"indent":0,"parameters":[{"code":15,"indent":null,"parameters":[3]}]},{"code":505,"indent":0,"parameters":[{"code":19,"indent":null,"parameters":[]}]},{"code":505,"indent":0,"parameters":[{"code":37,"indent":null,"parameters":[]}]},{"code":205,"indent":0,"parameters":[-1,{"list":[{"code":12,"indent":null,"parameters":[]},{"code":0,"indent":null,"parameters":[]}],"repeat":false,"skippable":true,"wait":true}]},{"code":505,"indent":0,"parameters":[{"code":12,"indent":null,"parameters":[]}]},{"code":250,"indent":0,"parameters":[{"name":"Move","pan":0,"pitch":100,"volume":80}]},{"code":201,"indent":0,"parameters":[0,637,8,16,0,0]},{"code":0,"indent":0,"parameters":[]}]},{"conditions":{"actorId":1,"actorValid":false,"itemId":1,"itemValid":false,"selfSwitchCh":"A","selfSwitchValid":false,"switch1Id":3601,"switch1Valid":true,"switch2Id":1,"switch2Valid":false,"variableId":1,"variableValid":false,"variableValue":0},"directionFix":true,"image":{"tileId":0,"characterName":"!Door1","direction":2,"pattern":0,"characterIndex":4},"moveFrequency":3,"moveRoute":{"list":[{"code":0,"indent":null,"parameters":[]}],"repeat":true,"skippable":false,"wait":false},"moveSpeed":3,"moveType":0,"priorityType":1,"stepAnime":false,"through":false,"trigger":0,"walkAnime":false,"list":[{"code":101,"indent":0,"parameters":["1 Simon dark",0,0,2]},{"code":401,"indent":0,"parameters":["We have no reason to disturb their inner chambers."]},{"code":0,"indent":0,"parameters":[]}]}],"x":5,"y":16},{"id":4,"name":"EV004","note":"","pages":[{"conditions":{"actorId":1,"actorValid":false,"itemId":1,"itemValid":false,"selfSwitchCh":"A","selfSwitchValid":false,"switch1Id":1,"switch1Valid":false,"switch2Id":1,"switch2Valid":false,"variableId":1,"variableValid":false,"variableValue":0},"directionFix":true,"image":{"tileId":0,"characterName":"!Door1","direction":2,"pattern":0,"characterIndex":4},"moveFrequency":3,"moveRoute":{"list":[{"code":0,"indent":null,"parameters":[]}],"repeat":true,"skippable":false,"wait":false},"moveSpeed":3,"moveType":0,"priorityType":1,"stepAnime":false,"through":false,"trigger":1,"walkAnime":false,"list":[{"code":0,"indent":0,"parameters":[]}]},{"conditions":{"actorId":1,"actorValid":false,"itemId":1,"itemValid":false,"selfSwitchCh":"A","selfSwitchValid":false,"switch1Id":3601,"switch1Valid":true,"switch2Id":1,"switch2Valid":false,"variableId":1,"variableValid":false,"variableValue":0},"directionFix":true,"image":{"tileId":0,"characterName":"!Door1","direction":2,"pattern":0,"characterIndex":4},"moveFrequency":3,"moveRoute":{"list":[{"code":0,"indent":null,"parameters":[]}],"repeat":true,"skippable":false,"wait":false},"moveSpeed":3,"moveType":0,"priorityType":1,"stepAnime":false,"through":false,"trigger":2,"walkAnime":false,"list":[{"code":250,"indent":0,"parameters":[{"name":"Open1","pan":0,"pitch":100,"volume":80}]},{"code":205,"indent":0,"parameters":[0,{"list":[{"code":17,"indent":null,"parameters":[]},{"code":15,"indent":null,"parameters":[3]},{"code":18,"indent":null,"parameters":[]},{"code":15,"indent":null,"parameters":[3]},{"code":19,"indent":null,"parameters":[]},{"code":37,"indent":null,"parameters":[]},{"code":0,"indent":null,"parameters":[]}],"repeat":false,"skippable":false,"wait":true}]},{"code":505,"indent":0,"parameters":[{"code":17,"indent":null,"parameters":[]}]},{"code":505,"indent":0,"parameters":[{"code":15,"indent":null,"parameters":[3]}]},{"code":505,"indent":0,"parameters":[{"code":18,"indent":null,"parameters":[]}]},{"code":505,"indent":0,"parameters":[{"code":15,"indent":null,"parameters":[3]}]},{"code":505,"indent":0,"parameters":[{"code":19,"indent":null,"parameters":[]}]},{"code":505,"indent":0,"parameters":[{"code":37,"indent":null,"parameters":[]}]},{"code":205,"indent":0,"parameters":[-1,{"list":[{"code":12,"indent":null,"parameters":[]},{"code":0,"indent":null,"parameters":[]}],"repeat":false,"skippable":true,"wait":true}]},{"code":505,"indent":0,"parameters":[{"code":12,"indent":null,"parameters":[]}]},{"code":250,"indent":0,"parameters":[{"name":"Move","pan":0,"pitch":100,"volume":80}]},{"code":201,"indent":0,"parameters":[0,734,8,16,0,0]},{"code":0,"indent":0,"parameters":[]}]}],"x":18,"y":16},{"id":5,"name":"Tarri","note":"","pages":[{"conditions":{"actorId":1,"actorValid":false,"itemId":1,"itemValid":false,"selfSwitchCh":"A","selfSwitchValid":false,"switch1Id":1,"switch1Valid":false,"switch2Id":1,"switch2Valid":false,"variableId":1,"variableValid":false,"variableValue":0},"directionFix":false,"image":{"tileId":0,"characterName":"Y succubus nuns","direction":8,"pattern":1,"characterIndex":0},"moveFrequency":3,"moveRoute":{"list":[{"code":0,"indent":null,"parameters":[]}],"repeat":true,"skippable":false,"wait":false},"moveSpeed":3,"moveType":0,"priorityType":1,"stepAnime":false,"through":false,"trigger":0,"walkAnime":true,"list":[{"code":111,"indent":0,"parameters":[0,1863,0]},{"code":101,"indent":1,"parameters":["Z succubus_nun_a",2,0,2]},{"code":401,"indent":1,"parameters":["Oh, hello again! Do you remember me?"]},{"code":101,"indent":1,"parameters":["1 Simon dark",1,0,2]},{"code":401,"indent":1,"parameters":["Tarri, right?"]},{"code":101,"indent":1,"parameters":["Z succubus_nun_a",7,0,2]},{"code":401,"indent":1,"parameters":["Ah, you're too kind... and now I'm thinking about sucking your... no, focus!"]},{"code":101,"indent":1,"parameters":["Robin blond emo",0,0,2]},{"code":401,"indent":1,"parameters":["I was under the impression you only pretended to join the Church as a tactic. Has that changed?"]},{"code":101,"indent":1,"parameters":["Z succubus_nun_a",1,0,2]},{"code":401,"indent":1,"parameters":["Yes, I decided to stay. I was really impressed how far the Church went to heal us, especially against the Unsuccubi!"]},{"code":0,"indent":1,"parameters":[]},{"code":411,"indent":0,"parameters":[]},{"code":101,"indent":1,"parameters":["Z succubus_nun_a",1,0,2]},{"code":401,"indent":1,"parameters":["Hello, welcome to Helvanna Cathedral! My name is Tarri, pleased to meet you!"]},{"code":101,"indent":1,"parameters":["1 Simon dark",0,0,2]},{"code":401,"indent":1,"parameters":["You seem familiar. Did you fight in the war?"]},{"code":101,"indent":1,"parameters":["Z succubus_nun_a",1,0,2]},{"code":401,"indent":1,"parameters":["Yes, I was stationed in Feroholm!"]},{"code":101,"indent":1,"parameters":["1 Simon dark",1,0,2]},{"code":401,"indent":1,"parameters":["Thank you for your service."]},{"code":101,"indent":1,"parameters":["Z succubus_nun_a",2,0,2]},{"code":401,"indent":1,"parameters":["I'm here in part because I'm grateful to humans! We helped them, but they also helped us, especially against the Unsuccubi!"]},{"code":0,"indent":1,"parameters":[]},{"code":412,"indent":0,"parameters":[]},{"code":101,"indent":0,"parameters":["Z succubus_nun_a",6,0,2]},{"code":401,"indent":0,"parameters":["Unfortunately... not everyone looks favorably on us. After the war, letting us stay in the Church was declared heresy, so..."]},{"code":101,"indent":0,"parameters":["1 Simon dark",0,0,2]},{"code":401,"indent":0,"parameters":["What exactly is this cathedral, then?"]},{"code":101,"indent":0,"parameters":["Z succubus_nun_a",0,0,2]},{"code":401,"indent":0,"parameters":["We exist in a strange gray area. The Church funded this cathedral as an exercise to \"save lost souls\" but this isn't an official cathedral."]},{"code":101,"indent":0,"parameters":["1 Simon dark",0,0,2]},{"code":401,"indent":0,"parameters":["Hmm, I should speak to Sarai about this."]},{"code":101,"indent":0,"parameters":["Z succubus_nun_a",3,0,2]},{"code":401,"indent":0,"parameters":["Did you just casually drop the name of High Priestess Sarai?"]},{"code":101,"indent":0,"parameters":["1 Simon dark",0,0,2]},{"code":401,"indent":0,"parameters":["She's a friend."]},{"code":101,"indent":0,"parameters":["Z succubus_nun_a",0,0,2]},{"code":401,"indent":0,"parameters":["Well, she seems to be a friend to us as well, though I'm not comfortable around her."]},{"code":101,"indent":0,"parameters":["Z succubus_nun_a",6,0,2]},{"code":401,"indent":0,"parameters":["She seems so serious and pious... I feel like if I say the wrong thing I'll upset her!"]},{"code":101,"indent":0,"parameters":["Yarra emo",6,0,2]},{"code":401,"indent":0,"parameters":["..."]},{"code":101,"indent":0,"parameters":["Z succubus_nun_a",0,0,2]},{"code":401,"indent":0,"parameters":["From what I understand, some in the Church think this mission should be abandoned, while others want to gain further control of us."]},{"code":101,"indent":0,"parameters":["1 Simon dark",0,0,2]},{"code":401,"indent":0,"parameters":["And what do you think?"]},{"code":101,"indent":0,"parameters":["Z succubus_nun_a",6,0,2]},{"code":401,"indent":0,"parameters":["I'm not naive. I don't think that the Church will accept us, or that succubi can accept the restrictions of Ivala."]},{"code":101,"indent":0,"parameters":["Z succubus_nun_a",1,0,2]},{"code":401,"indent":0,"parameters":["But maybe here... we can forge something new. A Church of Ivala that succubi can accept."]},{"code":111,"indent":0,"parameters":[0,2303,0]},{"code":101,"indent":1,"parameters":["Carina emo",5,0,2]},{"code":401,"indent":1,"parameters":["It's not going to be that easy."]},{"code":0,"indent":1,"parameters":[]},{"code":411,"indent":0,"parameters":[]},{"code":101,"indent":1,"parameters":["Aka emo2",5,0,2]},{"code":401,"indent":1,"parameters":["I really doubt that will go smoothly."]},{"code":0,"indent":1,"parameters":[]},{"code":412,"indent":0,"parameters":[]},{"code":101,"indent":0,"parameters":["Z succubus_nun_a",5,0,2]},{"code":401,"indent":0,"parameters":["But it's possible! I read some history, there are all kinds of changes and schisms and things!"]},{"code":101,"indent":0,"parameters":["1 Simon dark",0,0,2]},{"code":401,"indent":0,"parameters":["You face an uphill battle, but I think some change is inevitable. The Ivalan religion will either adapt or become irrelevant to succubi."]},{"code":101,"indent":0,"parameters":["Z succubus_nun_a",2,0,2]},{"code":401,"indent":0,"parameters":["So glad you understand!"]},{"code":101,"indent":0,"parameters":["Qum D'umpe emo",7,0,2]},{"code":401,"indent":0,"parameters":["Oooh, you should be a new group and get a fancy name like the others!"]},{"code":101,"indent":0,"parameters":["Yarra emo",6,0,2]},{"code":401,"indent":0,"parameters":["Heh, they can be Sexsecrationists."]},{"code":123,"indent":0,"parameters":["A",0]},{"code":0,"indent":0,"parameters":[]}]},{"conditions":{"actorId":1,"actorValid":false,"itemId":1,"itemValid":false,"selfSwitchCh":"A","selfSwitchValid":true,"switch1Id":1,"switch1Valid":false,"switch2Id":1,"switch2Valid":false,"variableId":1,"variableValid":false,"variableValue":0},"directionFix":false,"image":{"tileId":0,"characterName":"Y succubus nuns","direction":8,"pattern":1,"characterIndex":0},"moveFrequency":3,"moveRoute":{"list":[{"code":0,"indent":null,"parameters":[]}],"repeat":true,"skippable":false,"wait":false},"moveSpeed":3,"moveType":0,"priorityType":1,"stepAnime":false,"through":false,"trigger":0,"walkAnime":true,"list":[{"code":101,"indent":0,"parameters":["Z succubus_nun_a",1,0,2]},{"code":401,"indent":0,"parameters":["I'm not sure what will happen in the end, but I'll be working to create a better Church for succubi!"]},{"code":0,"indent":0,"parameters":[]}]},{"conditions":{"actorId":1,"actorValid":false,"itemId":1,"itemValid":false,"selfSwitchCh":"A","selfSwitchValid":false,"switch1Id":3281,"switch1Valid":true,"switch2Id":1,"switch2Valid":false,"variableId":1,"variableValid":false,"variableValue":0},"directionFix":false,"image":{"tileId":0,"characterName":"Y succubus nuns","direction":8,"pattern":1,"characterIndex":0},"moveFrequency":3,"moveRoute":{"list":[{"code":0,"indent":null,"parameters":[]}],"repeat":true,"skippable":false,"wait":false},"moveSpeed":3,"moveType":0,"priorityType":1,"stepAnime":false,"through":false,"trigger":0,"walkAnime":true,"list":[{"code":111,"indent":0,"parameters":[0,3078,0]},{"code":101,"indent":1,"parameters":["Z succubus_nun_a",2,0,2]},{"code":401,"indent":1,"parameters":["Hello! Wonderful to see you again!"]},{"code":101,"indent":1,"parameters":["1 Simon dark",1,0,2]},{"code":401,"indent":1,"parameters":["Hello, Tarri. Happy to hear about the Council of Gawnfall?"]},{"code":101,"indent":1,"parameters":["Z succubus_nun_a",2,0,2]},{"code":401,"indent":1,"parameters":["Yes, I'm overjoyed! I didn't think we'd get so much movement so quickly!"]},{"code":0,"indent":1,"parameters":[]},{"code":411,"indent":0,"parameters":[]},{"code":101,"indent":1,"parameters":["Z succubus_nun_a",6,0,2]},{"code":401,"indent":1,"parameters":["Ah... hello again."]},{"code":101,"indent":1,"parameters":["1 Simon dark2",5,0,2]},{"code":401,"indent":1,"parameters":["You seem down, Tarri. Disappointed about the Council of Gawnfall?"]},{"code":101,"indent":1,"parameters":["Z succubus_nun_a",6,0,2]},{"code":401,"indent":1,"parameters":["Yes. I'd really hoped that the Ivalans would accept us more..."]},{"code":0,"indent":1,"parameters":[]},{"code":412,"indent":0,"parameters":[]},{"code":101,"indent":0,"parameters":["1 Simon dark",0,0,2]},{"code":401,"indent":0,"parameters":["What will you do now?"]},{"code":111,"indent":0,"parameters":[0,3078,0]},{"code":101,"indent":1,"parameters":["Z succubus_nun_a",2,0,2]},{"code":401,"indent":1,"parameters":["Keep working on improving Ivalans' attitude toward sex!"]},{"code":111,"indent":1,"parameters":[0,3168,0]},{"code":101,"indent":2,"parameters":["Z succubus_nun_a",1,0,2]},{"code":401,"indent":2,"parameters":["Removing some of their silly standards was a huge step in the right direction, but we can do more!"]},{"code":0,"indent":2,"parameters":[]},{"code":411,"indent":1,"parameters":[]},{"code":101,"indent":2,"parameters":["Z succubus_nun_a",0,0,2]},{"code":401,"indent":2,"parameters":["It would have been better if they'd voted to remove their purity standards, but at least I can advocate for lay priestesses."]},{"code":0,"indent":2,"parameters":[]},{"code":412,"indent":1,"parameters":[]},{"code":101,"indent":1,"parameters":["Z succubus_nun_a",1,0,2]},{"code":401,"indent":1,"parameters":["Yelarel has all kinds of grand ideas, but I'm happy to just talk to people and lead by example."]},{"code":101,"indent":1,"parameters":["1 Simon dark",1,0,2]},{"code":401,"indent":1,"parameters":["We wish you good luck with it."]},{"code":0,"indent":1,"parameters":[]},{"code":411,"indent":0,"parameters":[]},{"code":111,"indent":1,"parameters":[0,3079,0]},{"code":101,"indent":2,"parameters":["Z succubus_nun_a",0,0,2]},{"code":401,"indent":2,"parameters":["I'm not sure. Things seem strange with the Church like this... are we in charge? Or is High Priestess Sarai over us?"]},{"code":101,"indent":2,"parameters":["Carina emo",0,0,2]},{"code":401,"indent":2,"parameters":["You're within Sarai's jurisidiction, but you have increased independence."]},{"code":101,"indent":2,"parameters":["Z succubus_nun_a",6,0,2]},{"code":401,"indent":2,"parameters":["That's good to know... but I worry that Sarai might get offended by my ideas..."]},{"code":101,"indent":2,"parameters":["Carina emo",1,0,2]},{"code":401,"indent":2,"parameters":["Speak to her - I think you'll find she's an openminded woman!"]},{"code":101,"indent":2,"parameters":["Z succubus_nun_a",1,0,2]},{"code":401,"indent":2,"parameters":["I'll try, then. Thank you!"]},{"code":101,"indent":2,"parameters":["1 Simon dark",1,0,2]},{"code":401,"indent":2,"parameters":["We wish you good luck with it."]},{"code":0,"indent":2,"parameters":[]},{"code":411,"indent":1,"parameters":[]},{"code":111,"indent":2,"parameters":[0,3080,0]},{"code":101,"indent":3,"parameters":["Z succubus_nun_a",0,0,2]},{"code":401,"indent":3,"parameters":["Honestly, I don't like the idea of starting a new religion. I really fell in love with the kindness of Ivalanism..."]},{"code":101,"indent":3,"parameters":["Carina emo",0,0,2]},{"code":401,"indent":3,"parameters":["Are you staying here?"]},{"code":101,"indent":3,"parameters":["Z succubus_nun_a",0,0,2]},{"code":401,"indent":3,"parameters":["Many others are leaving, but... I think I'll stay. I've made a home here."]},{"code":101,"indent":3,"parameters":["Z succubus_nun_a",1,0,2]},{"code":401,"indent":3,"parameters":["Yelarel has all kinds of grand ideas, but I'm happy to just talk to people and lead by example."]},{"code":101,"indent":3,"parameters":["1 Simon dark",1,0,2]},{"code":401,"indent":3,"parameters":["We wish you good luck with it."]},{"code":0,"indent":3,"parameters":[]},{"code":411,"indent":2,"parameters":[]},{"code":101,"indent":3,"parameters":["Z succubus_nun_a",0,0,2]},{"code":401,"indent":3,"parameters":["It seems obvious that we'll face an uphill battle... all I can do is try to be a good example."]},{"code":101,"indent":3,"parameters":["Z succubus_nun_a",1,0,2]},{"code":401,"indent":3,"parameters":["Yelarel has all kinds of grand ideas, but I'm happy to just talk to people and lead by example."]},{"code":101,"indent":3,"parameters":["1 Simon dark",1,0,2]},{"code":401,"indent":3,"parameters":["We wish you good luck with it."]},{"code":0,"indent":3,"parameters":[]},{"code":412,"indent":2,"parameters":[]},{"code":0,"indent":2,"parameters":[]},{"code":412,"indent":1,"parameters":[]},{"code":0,"indent":1,"parameters":[]},{"code":412,"indent":0,"parameters":[]},{"code":123,"indent":0,"parameters":["B",0]},{"code":0,"indent":0,"parameters":[]}]},{"conditions":{"actorId":1,"actorValid":false,"itemId":1,"itemValid":false,"selfSwitchCh":"B","selfSwitchValid":true,"switch1Id":3281,"switch1Valid":true,"switch2Id":1,"switch2Valid":false,"variableId":1,"variableValid":false,"variableValue":0},"directionFix":false,"image":{"tileId":0,"characterName":"Y succubus nuns","direction":8,"pattern":1,"characterIndex":0},"moveFrequency":3,"moveRoute":{"list":[{"code":0,"indent":null,"parameters":[]}],"repeat":true,"skippable":false,"wait":false},"moveSpeed":3,"moveType":0,"priorityType":1,"stepAnime":false,"through":false,"trigger":0,"walkAnime":true,"list":[{"code":111,"indent":0,"parameters":[0,3277,0]},{"code":101,"indent":1,"parameters":["Z succubus_nun_a",1,0,2]},{"code":401,"indent":1,"parameters":["Having succubus knights might be a good idea, but that path isn't for me at all."]},{"code":0,"indent":1,"parameters":[]},{"code":411,"indent":0,"parameters":[]},{"code":101,"indent":1,"parameters":["Z succubus_nun_a",0,0,2]},{"code":401,"indent":1,"parameters":["Don't tell Yelarel, but I'm glad we won't be making succubus knights. I think that would just make the humans trust us less."]},{"code":0,"indent":1,"parameters":[]},{"code":412,"indent":0,"parameters":[]},{"code":0,"indent":0,"parameters":[]}]},{"conditions":{"actorId":1,"actorValid":false,"itemId":1,"itemValid":false,"selfSwitchCh":"B","selfSwitchValid":false,"switch1Id":3601,"switch1Valid":true,"switch2Id":1,"switch2Valid":false,"variableId":1,"variableValid":false,"variableValue":0},"directionFix":false,"image":{"tileId":0,"characterName":"Y succubus nuns","direction":8,"pattern":1,"characterIndex":0},"moveFrequency":3,"moveRoute":{"list":[{"code":0,"indent":null,"parameters":[]}],"repeat":true,"skippable":false,"wait":false},"moveSpeed":3,"moveType":0,"priorityType":1,"stepAnime":false,"through":false,"trigger":0,"walkAnime":true,"list":[{"code":101,"indent":0,"parameters":["Z succubus_nun_a",1,0,2]},{"code":401,"indent":0,"parameters":["No matter what happens, I'll keep campaigning for more acceptance between succubi and humans!"]},{"code":0,"indent":0,"parameters":[]}]},{"conditions":{"actorId":1,"actorValid":false,"itemId":1,"itemValid":false,"selfSwitchCh":"A","selfSwitchValid":false,"switch1Id":3601,"switch1Valid":true,"switch2Id":3080,"switch2Valid":true,"variableId":1,"variableValid":false,"variableValue":0},"directionFix":false,"image":{"tileId":0,"characterName":"Y succubus priestess","direction":8,"pattern":1,"characterIndex":0},"moveFrequency":3,"moveRoute":{"list":[{"code":0,"indent":null,"parameters":[]}],"repeat":true,"skippable":false,"wait":false},"moveSpeed":3,"moveType":0,"priorityType":1,"stepAnime":false,"through":false,"trigger":0,"walkAnime":true,"list":[{"code":101,"indent":0,"parameters":["Z succubus_priestess_a",6,0,2]},{"code":401,"indent":0,"parameters":["I really thought the old outfits were sexier... now I can only wear them as fetish outfits."]},{"code":0,"indent":0,"parameters":[]}]},{"conditions":{"actorId":1,"actorValid":false,"itemId":1,"itemValid":false,"selfSwitchCh":"A","selfSwitchValid":false,"switch1Id":2517,"switch1Valid":true,"switch2Id":1,"switch2Valid":false,"variableId":1,"variableValid":false,"variableValue":0},"directionFix":false,"image":{"tileId":0,"characterName":"","direction":2,"pattern":0,"characterIndex":0},"moveFrequency":3,"moveRoute":{"list":[{"code":0,"indent":null,"parameters":[]}],"repeat":true,"skippable":false,"wait":false},"moveSpeed":3,"moveType":0,"priorityType":0,"stepAnime":false,"through":false,"trigger":0,"walkAnime":true,"list":[{"code":0,"indent":0,"parameters":[]}]}],"x":12,"y":11},{"id":6,"name":"EV006","note":"","pages":[{"conditions":{"actorId":1,"actorValid":false,"itemId":1,"itemValid":false,"selfSwitchCh":"A","selfSwitchValid":false,"switch1Id":2587,"switch1Valid":true,"switch2Id":1,"switch2Valid":false,"variableId":1,"variableValid":false,"variableValue":0},"directionFix":false,"image":{"tileId":0,"characterName":"","direction":2,"pattern":0,"characterIndex":0},"moveFrequency":3,"moveRoute":{"list":[{"code":0,"indent":null,"parameters":[]}],"repeat":true,"skippable":false,"wait":false},"moveSpeed":3,"moveType":0,"priorityType":0,"stepAnime":false,"through":false,"trigger":3,"walkAnime":true,"list":[{"code":221,"indent":0,"parameters":[]},{"code":121,"indent":0,"parameters":[2517,2517,0]},{"code":222,"indent":0,"parameters":[]},{"code":101,"indent":0,"parameters":["People2",1,0,2]},{"code":401,"indent":0,"parameters":["Oh... you're just in time to witness a ritual, if you want."]},{"code":101,"indent":0,"parameters":["Carina emo",1,0,2]},{"code":401,"indent":0,"parameters":["What ritual?"]},{"code":101,"indent":0,"parameters":["People2",1,0,2]},{"code":401,"indent":0,"parameters":["It... might be better to just see for yourself."]},{"code":204,"indent":0,"parameters":[8,8,5]},{"code":230,"indent":0,"parameters":[60]},{"code":101,"indent":0,"parameters":["Z succubus_nun_b",1,0,2]},{"code":401,"indent":0,"parameters":["Are you ready to be inducted into the next level of our order, Sister?"]},{"code":101,"indent":0,"parameters":["Z succubus_nun_a",2,0,2]},{"code":401,"indent":0,"parameters":["Yes!"]},{"code":101,"indent":0,"parameters":["Z succubus_nun_b",0,0,2]},{"code":401,"indent":0,"parameters":["Then you must undergo a terrible trial... the Ritual of Humanity."]},{"code":101,"indent":0,"parameters":["Z succubus_nun_a",0,0,2]},{"code":401,"indent":0,"parameters":["What does that mean? I've not heard of this."]},{"code":101,"indent":0,"parameters":["Z succubus_nun_b",0,0,2]},{"code":401,"indent":0,"parameters":["Our friend who recovered from the Incubus Emperor will explain."]},{"code":101,"indent":0,"parameters":["Z succubus_aU",0,0,2]},{"code":401,"indent":0,"parameters":["Using recent advancements in magic, I can briefly make you feel what it is like to be a human."]},{"code":101,"indent":0,"parameters":["Z succubus_nun_a",4,0,2]},{"code":401,"indent":0,"parameters":["Oh! So that we can minister to humans better? I think I understand..."]},{"code":101,"indent":0,"parameters":["Z succubus_aU",5,0,2]},{"code":401,"indent":0,"parameters":["Then prepare yourself!"]},{"code":212,"indent":0,"parameters":[11,55,true]},{"code":101,"indent":0,"parameters":["Z succubus_nun_a",4,0,2]},{"code":401,"indent":0,"parameters":["I..."]},{"code":101,"indent":0,"parameters":["Z succubus_nun_a",6,0,2]},{"code":401,"indent":0,"parameters":["This... this is awful... it's not just that I'm not horny, there's this horrible void..."]},{"code":101,"indent":0,"parameters":["Z succubus_nun_a",7,0,2]},{"code":401,"indent":0,"parameters":["I never knew... never imagined it could be this horrible..."]},{"code":101,"indent":0,"parameters":["Z succubus_aU",6,0,2]},{"code":401,"indent":0,"parameters":["Now, feel a bit of my pain... this is what unwanted sex feels like to humans..."]},{"code":212,"indent":0,"parameters":[11,55,true]},{"code":101,"indent":0,"parameters":["Z succubus_nun_a",4,0,2]},{"code":401,"indent":0,"parameters":["Aaaah!"]},{"code":101,"indent":0,"parameters":["Z succubus_nun_a",6,0,2]},{"code":401,"indent":0,"parameters":["Oh, Goddess... it's so horrible... I never... never..."]},{"code":101,"indent":0,"parameters":["Z succubus_nun_a",6,0,2]},{"code":401,"indent":0,"parameters":["...I just want to curl up and die..."]},{"code":101,"indent":0,"parameters":["Z succubus_aU",0,0,2]},{"code":401,"indent":0,"parameters":["That's long enough."]},{"code":212,"indent":0,"parameters":[11,111,true]},{"code":101,"indent":0,"parameters":["Z succubus_nun_a",6,0,2]},{"code":401,"indent":0,"parameters":["Oh..."]},{"code":101,"indent":0,"parameters":["Z succubus_nun_b",1,0,2]},{"code":401,"indent":0,"parameters":["You made it through. You passed, Sister."]},{"code":101,"indent":0,"parameters":["Z succubus_nun_a",4,0,2]},{"code":401,"indent":0,"parameters":["But if humans feel that way all the time, how do they go on?"]},{"code":101,"indent":0,"parameters":["Z succubus_nun_a",6,0,2]},{"code":401,"indent":0,"parameters":["Why... why don't they hate us even more?"]},{"code":101,"indent":0,"parameters":["Z succubus_nun_b",6,0,2]},{"code":401,"indent":0,"parameters":["Then you understand a little. That is why we require this ritual to serve in human lands."]},{"code":101,"indent":0,"parameters":["Z succubus_aU",1,0,2]},{"code":401,"indent":0,"parameters":["It isn't all so horribly bleak. Humans can feel pleasure too, you just have to be careful with them."]},{"code":101,"indent":0,"parameters":["Z succubus_nun_b",1,0,2]},{"code":401,"indent":0,"parameters":["Never forget this, Sister."]},{"code":101,"indent":0,"parameters":["Z succubus_nun_a",2,0,2]},{"code":401,"indent":0,"parameters":["I won't, I won't! "]},{"code":101,"indent":0,"parameters":["Z succubus_nun_a",7,0,2]},{"code":401,"indent":0,"parameters":["Oh, Goddess, I want to just hug all of them, but... uh..."]},{"code":204,"indent":0,"parameters":[2,8,5]},{"code":230,"indent":0,"parameters":[120]},{"code":101,"indent":0,"parameters":["Carina emo",5,0,2]},{"code":401,"indent":0,"parameters":["Huh."]},{"code":101,"indent":0,"parameters":["People2",1,0,2]},{"code":401,"indent":0,"parameters":["I... can't help but feel humans are being misrepresented here, but they don't seem to believe me."]},{"code":101,"indent":0,"parameters":["Carina emo",0,0,2]},{"code":401,"indent":0,"parameters":["What effect does the ritual have on the succubi?"]},{"code":101,"indent":0,"parameters":["People2",1,0,2]},{"code":401,"indent":0,"parameters":["Oh, they become much more understanding. That's why I haven't complained too hard."]},{"code":101,"indent":0,"parameters":["Carina emo",1,0,2]},{"code":401,"indent":0,"parameters":["Then perhaps this is a good thing."]},{"code":221,"indent":0,"parameters":[]},{"code":121,"indent":0,"parameters":[2517,2517,1]},{"code":123,"indent":0,"parameters":["A",0]},{"code":222,"indent":0,"parameters":[]},{"code":0,"indent":0,"parameters":[]}]},{"conditions":{"actorId":1,"actorValid":false,"itemId":1,"itemValid":false,"selfSwitchCh":"A","selfSwitchValid":true,"switch1Id":1,"switch1Valid":false,"switch2Id":1,"switch2Valid":false,"variableId":1,"variableValid":false,"variableValue":0},"directionFix":false,"image":{"tileId":0,"characterName":"","direction":2,"pattern":0,"characterIndex":0},"moveFrequency":3,"moveRoute":{"list":[{"code":0,"indent":null,"parameters":[]}],"repeat":true,"skippable":false,"wait":false},"moveSpeed":3,"moveType":0,"priorityType":0,"stepAnime":false,"through":false,"trigger":0,"walkAnime":true,"list":[{"code":0,"indent":0,"parameters":[]}]}],"x":0,"y":0},{"id":7,"name":"EV007","note":"","pages":[{"conditions":{"actorId":1,"actorValid":false,"itemId":1,"itemValid":false,"selfSwitchCh":"A","selfSwitchValid":false,"switch1Id":1,"switch1Valid":false,"switch2Id":1,"switch2Valid":false,"variableId":1,"variableValid":false,"variableValue":0},"directionFix":false,"image":{"tileId":0,"characterName":"People2","direction":4,"pattern":1,"characterIndex":1},"moveFrequency":3,"moveRoute":{"list":[{"code":0,"indent":null,"parameters":[]}],"repeat":true,"skippable":false,"wait":false},"moveSpeed":3,"moveType":0,"priorityType":1,"stepAnime":false,"through":false,"trigger":0,"walkAnime":true,"list":[{"code":101,"indent":0,"parameters":["People2",1,0,2]},{"code":401,"indent":0,"parameters":["Welcome to Helvanna Cathe... oh, thank Ivala, you're not locals."]},{"code":101,"indent":0,"parameters":["Aka emo2",0,0,2]},{"code":401,"indent":0,"parameters":["What is that supposed to mean?"]},{"code":101,"indent":0,"parameters":["People2",1,0,2]},{"code":401,"indent":0,"parameters":["Well, it's just... never mind, it is a private concern."]},{"code":111,"indent":0,"parameters":[0,2303,0]},{"code":122,"indent":1,"parameters":[187,187,1,0,1]},{"code":101,"indent":1,"parameters":["Carina emo",4,0,2]},{"code":401,"indent":1,"parameters":["What is it, Sister?"]},{"code":101,"indent":1,"parameters":["People2",1,0,2]},{"code":401,"indent":1,"parameters":["Oh! You have such a strange group... well, it is no great secret."]},{"code":101,"indent":1,"parameters":["People2",1,0,2]},{"code":401,"indent":1,"parameters":["After the war, the Church built this cathedral to try to save the souls of everyone in the Incubus Emperor's domain."]},{"code":101,"indent":1,"parameters":["People2",1,0,2]},{"code":401,"indent":1,"parameters":["I saw succubi and orcs fight alongside us in Ardoheim, so I volunteered, but..."]},{"code":101,"indent":1,"parameters":["Carina emo",5,0,2]},{"code":401,"indent":1,"parameters":["It isn't always easy, is it?"]},{"code":101,"indent":1,"parameters":["People2",1,0,2]},{"code":401,"indent":1,"parameters":["I fear we're not being taken seriously."]},{"code":101,"indent":1,"parameters":["People2",1,0,2]},{"code":401,"indent":1,"parameters":["Many came to look at the cathedral at first, but only as a thing of beauty. They are not interested in Ivala's teachings."]},{"code":101,"indent":1,"parameters":["Carina emo",4,0,2]},{"code":401,"indent":1,"parameters":["Bear in mind that servants of Ivala have been fighting them for a long time. They may not show their fear directly, but it exists."]},{"code":101,"indent":1,"parameters":["People2",1,0,2]},{"code":401,"indent":1,"parameters":["Perhaps... but I fear our mission may be futile."]},{"code":101,"indent":1,"parameters":["Carina emo",5,0,2]},{"code":401,"indent":1,"parameters":["..."]},{"code":101,"indent":1,"parameters":["Carina emo",1,0,2]},{"code":401,"indent":1,"parameters":["Don't give up hope! Be kind and seek to do good, and you'll have an impact eventually!"]},{"code":123,"indent":1,"parameters":["B",0]},{"code":0,"indent":1,"parameters":[]},{"code":412,"indent":0,"parameters":[]},{"code":123,"indent":0,"parameters":["A",0]},{"code":0,"indent":0,"parameters":[]}]},{"conditions":{"actorId":1,"actorValid":false,"itemId":1,"itemValid":false,"selfSwitchCh":"A","selfSwitchValid":true,"switch1Id":1,"switch1Valid":false,"switch2Id":1,"switch2Valid":false,"variableId":1,"variableValid":false,"variableValue":0},"directionFix":false,"image":{"tileId":0,"characterName":"People2","direction":4,"pattern":1,"characterIndex":1},"moveFrequency":3,"moveRoute":{"list":[{"code":0,"indent":null,"parameters":[]}],"repeat":true,"skippable":false,"wait":false},"moveSpeed":3,"moveType":0,"priorityType":1,"stepAnime":false,"through":false,"trigger":0,"walkAnime":true,"list":[{"code":101,"indent":0,"parameters":["People2",1,0,2]},{"code":401,"indent":0,"parameters":["I just need to sort out my own mind as to why I came here."]},{"code":111,"indent":0,"parameters":[0,2303,0]},{"code":122,"indent":1,"parameters":[187,187,1,0,1]},{"code":101,"indent":1,"parameters":["Carina emo",4,0,2]},{"code":401,"indent":1,"parameters":["What is it, Sister?"]},{"code":101,"indent":1,"parameters":["People2",1,0,2]},{"code":401,"indent":1,"parameters":["Oh! You have such a strange group... well, it is no great secret."]},{"code":101,"indent":1,"parameters":["People2",1,0,2]},{"code":401,"indent":1,"parameters":["After the war, the Church built this cathedral to try to save the souls of everyone in the Incubus Emperor's domain."]},{"code":101,"indent":1,"parameters":["People2",1,0,2]},{"code":401,"indent":1,"parameters":["I saw succubi and orcs fight alongside us in Ardoheim, so I volunteered, but..."]},{"code":101,"indent":1,"parameters":["Carina emo",5,0,2]},{"code":401,"indent":1,"parameters":["It isn't always easy, is it?"]},{"code":101,"indent":1,"parameters":["People2",1,0,2]},{"code":401,"indent":1,"parameters":["I fear we're not being taken seriously."]},{"code":101,"indent":1,"parameters":["People2",1,0,2]},{"code":401,"indent":1,"parameters":["Many came to look at the cathedral at first, but only as a thing of beauty. They are not interested in Ivala's teachings."]},{"code":101,"indent":1,"parameters":["Carina emo",4,0,2]},{"code":401,"indent":1,"parameters":["Bear in mind that servants of Ivala have been fighting them for a long time. They may not show their fear directly, but it exists."]},{"code":101,"indent":1,"parameters":["People2",1,0,2]},{"code":401,"indent":1,"parameters":["Perhaps... but I fear our mission may be futile."]},{"code":101,"indent":1,"parameters":["Carina emo",5,0,2]},{"code":401,"indent":1,"parameters":["..."]},{"code":101,"indent":1,"parameters":["Carina emo",1,0,2]},{"code":401,"indent":1,"parameters":["Don't give up hope! Be kind and seek to do good, and you'll have an impact eventually!"]},{"code":123,"indent":1,"parameters":["B",0]},{"code":0,"indent":1,"parameters":[]},{"code":412,"indent":0,"parameters":[]},{"code":0,"indent":0,"parameters":[]}]},{"conditions":{"actorId":1,"actorValid":false,"itemId":1,"itemValid":false,"selfSwitchCh":"B","selfSwitchValid":true,"switch1Id":1,"switch1Valid":false,"switch2Id":1,"switch2Valid":false,"variableId":1,"variableValid":false,"variableValue":0},"directionFix":false,"image":{"tileId":0,"characterName":"People2","direction":4,"pattern":1,"characterIndex":1},"moveFrequency":3,"moveRoute":{"list":[{"code":0,"indent":null,"parameters":[]}],"repeat":true,"skippable":false,"wait":false},"moveSpeed":3,"moveType":0,"priorityType":1,"stepAnime":false,"through":false,"trigger":0,"walkAnime":true,"list":[{"code":101,"indent":0,"parameters":["People2",1,0,2]},{"code":401,"indent":0,"parameters":["Thank you, Sister. I will meditate on your words."]},{"code":0,"indent":0,"parameters":[]}]},{"conditions":{"actorId":1,"actorValid":false,"itemId":1,"itemValid":false,"selfSwitchCh":"B","selfSwitchValid":false,"switch1Id":3281,"switch1Valid":true,"switch2Id":1,"switch2Valid":false,"variableId":1,"variableValid":false,"variableValue":0},"directionFix":false,"image":{"tileId":0,"characterName":"People2","direction":4,"pattern":1,"characterIndex":1},"moveFrequency":3,"moveRoute":{"list":[{"code":0,"indent":null,"parameters":[]}],"repeat":true,"skippable":false,"wait":false},"moveSpeed":3,"moveType":0,"priorityType":1,"stepAnime":false,"through":false,"trigger":0,"walkAnime":true,"list":[{"code":111,"indent":0,"parameters":[0,3078,0]},{"code":101,"indent":1,"parameters":["People2",1,0,2]},{"code":401,"indent":1,"parameters":["The results of the Council of Gawnfall will do wonders for our mission here!"]},{"code":0,"indent":1,"parameters":[]},{"code":411,"indent":0,"parameters":[]},{"code":111,"indent":1,"parameters":[0,3079,0]},{"code":101,"indent":2,"parameters":["People2",1,0,2]},{"code":401,"indent":2,"parameters":["I'm... not sure what will happen now. Unless Sarai helps us, funding will be pulled and I'll have to go home..."]},{"code":0,"indent":2,"parameters":[]},{"code":411,"indent":1,"parameters":[]},{"code":111,"indent":2,"parameters":[0,3080,0]},{"code":111,"indent":3,"parameters":[2,"B",0]},{"code":101,"indent":4,"parameters":["People2",1,0,2]},{"code":401,"indent":4,"parameters":["They've ordered me to leave, since the succubi will be taking over."]},{"code":101,"indent":4,"parameters":["People2",1,0,2]},{"code":401,"indent":4,"parameters":["But I remembered what you said, Sister Carina, so I'll be staying as long as I can for the sake of the relationships I've built here."]},{"code":0,"indent":4,"parameters":[]},{"code":411,"indent":3,"parameters":[]},{"code":101,"indent":4,"parameters":["People2",1,0,2]},{"code":401,"indent":4,"parameters":["Soon, this place will no longer be controlled by the Ivalan Church. I'm leaving as soon as I can pack my things."]},{"code":0,"indent":4,"parameters":[]},{"code":412,"indent":3,"parameters":[]},{"code":0,"indent":3,"parameters":[]},{"code":411,"indent":2,"parameters":[]},{"code":101,"indent":3,"parameters":["People2",1,0,2]},{"code":401,"indent":3,"parameters":["It's good that the Council of Gawnfall didn't reject succubi, but such faint approval won't help my work at all..."]},{"code":0,"indent":3,"parameters":[]},{"code":412,"indent":2,"parameters":[]},{"code":0,"indent":2,"parameters":[]},{"code":412,"indent":1,"parameters":[]},{"code":0,"indent":1,"parameters":[]},{"code":412,"indent":0,"parameters":[]},{"code":0,"indent":0,"parameters":[]}]}],"x":12,"y":20},{"id":8,"name":"EV008","note":"","pages":[{"conditions":{"actorId":1,"actorValid":false,"itemId":1,"itemValid":false,"selfSwitchCh":"A","selfSwitchValid":false,"switch1Id":1,"switch1Valid":false,"switch2Id":1,"switch2Valid":false,"variableId":1,"variableValid":false,"variableValue":0},"directionFix":false,"image":{"tileId":0,"characterName":"Y DS_chara13","direction":8,"pattern":1,"characterIndex":2},"moveFrequency":3,"moveRoute":{"list":[{"code":0,"indent":null,"parameters":[]}],"repeat":true,"skippable":false,"wait":false},"moveSpeed":3,"moveType":0,"priorityType":1,"stepAnime":false,"through":false,"trigger":0,"walkAnime":true,"list":[{"code":101,"indent":0,"parameters":["Y DS_Actor13",2,0,2]},{"code":401,"indent":0,"parameters":["The Chalice States are not like Yhilin, but I trust the people here can come to understand us in time."]},{"code":0,"indent":0,"parameters":[]}]},{"conditions":{"actorId":1,"actorValid":false,"itemId":1,"itemValid":false,"selfSwitchCh":"A","selfSwitchValid":false,"switch1Id":3281,"switch1Valid":true,"switch2Id":1,"switch2Valid":false,"variableId":1,"variableValid":false,"variableValue":0},"directionFix":false,"image":{"tileId":0,"characterName":"Y DS_chara13","direction":8,"pattern":1,"characterIndex":2},"moveFrequency":3,"moveRoute":{"list":[{"code":0,"indent":null,"parameters":[]}],"repeat":true,"skippable":false,"wait":false},"moveSpeed":3,"moveType":0,"priorityType":1,"stepAnime":false,"through":false,"trigger":0,"walkAnime":true,"list":[{"code":101,"indent":0,"parameters":["Y DS_Actor13",2,0,2]},{"code":401,"indent":0,"parameters":["I'm glad I moved here, since it means I'm under Sarai. Nabith is a good Ivalan, but she's too much of a centrist for my taste."]},{"code":0,"indent":0,"parameters":[]}]},{"conditions":{"actorId":1,"actorValid":false,"itemId":1,"itemValid":false,"selfSwitchCh":"A","selfSwitchValid":false,"switch1Id":3601,"switch1Valid":true,"switch2Id":1,"switch2Valid":false,"variableId":1,"variableValid":false,"variableValue":0},"directionFix":false,"image":{"tileId":0,"characterName":"Y DS_chara13","direction":8,"pattern":1,"characterIndex":2},"moveFrequency":3,"moveRoute":{"list":[{"code":0,"indent":null,"parameters":[]}],"repeat":true,"skippable":false,"wait":false},"moveSpeed":3,"moveType":0,"priorityType":1,"stepAnime":false,"through":false,"trigger":0,"walkAnime":true,"list":[{"code":101,"indent":0,"parameters":["Y DS_Actor13",2,0,2]},{"code":401,"indent":0,"parameters":["Sarai is really making positive inroads here. I'm quite happy to be a part of it."]},{"code":0,"indent":0,"parameters":[]}]},{"conditions":{"actorId":1,"actorValid":false,"itemId":1,"itemValid":false,"selfSwitchCh":"A","selfSwitchValid":false,"switch1Id":3079,"switch1Valid":true,"switch2Id":1,"switch2Valid":false,"variableId":1,"variableValid":false,"variableValue":0},"directionFix":false,"image":{"tileId":0,"characterName":"","direction":2,"pattern":0,"characterIndex":0},"moveFrequency":3,"moveRoute":{"list":[{"code":0,"indent":null,"parameters":[]}],"repeat":true,"skippable":false,"wait":false},"moveSpeed":3,"moveType":0,"priorityType":0,"stepAnime":false,"through":false,"trigger":0,"walkAnime":true,"list":[{"code":0,"indent":0,"parameters":[]}]},{"conditions":{"actorId":1,"actorValid":false,"itemId":1,"itemValid":false,"selfSwitchCh":"A","selfSwitchValid":false,"switch1Id":3080,"switch1Valid":true,"switch2Id":1,"switch2Valid":false,"variableId":1,"variableValid":false,"variableValue":0},"directionFix":false,"image":{"tileId":0,"characterName":"","direction":2,"pattern":0,"characterIndex":0},"moveFrequency":3,"moveRoute":{"list":[{"code":0,"indent":null,"parameters":[]}],"repeat":true,"skippable":false,"wait":false},"moveSpeed":3,"moveType":0,"priorityType":0,"stepAnime":false,"through":false,"trigger":0,"walkAnime":true,"list":[{"code":0,"indent":0,"parameters":[]}]},{"conditions":{"actorId":1,"actorValid":false,"itemId":1,"itemValid":false,"selfSwitchCh":"A","selfSwitchValid":false,"switch1Id":2517,"switch1Valid":true,"switch2Id":1,"switch2Valid":false,"variableId":1,"variableValid":false,"variableValue":0},"directionFix":false,"image":{"tileId":0,"characterName":"","direction":2,"pattern":0,"characterIndex":0},"moveFrequency":3,"moveRoute":{"list":[{"code":0,"indent":null,"parameters":[]}],"repeat":true,"skippable":false,"wait":false},"moveSpeed":3,"moveType":0,"priorityType":0,"stepAnime":false,"through":false,"trigger":0,"walkAnime":true,"list":[{"code":0,"indent":0,"parameters":[]}]}],"x":7,"y":13},{"id":9,"name":"EV009","note":"","pages":[{"conditions":{"actorId":1,"actorValid":false,"itemId":1,"itemValid":false,"selfSwitchCh":"A","selfSwitchValid":false,"switch1Id":1,"switch1Valid":false,"switch2Id":1,"switch2Valid":false,"variableId":1,"variableValid":false,"variableValue":0},"directionFix":false,"image":{"tileId":0,"characterName":"People2","direction":6,"pattern":1,"characterIndex":5},"moveFrequency":3,"moveRoute":{"list":[{"code":0,"indent":null,"parameters":[]}],"repeat":true,"skippable":false,"wait":false},"moveSpeed":3,"moveType":0,"priorityType":1,"stepAnime":false,"through":false,"trigger":0,"walkAnime":true,"list":[{"code":101,"indent":0,"parameters":["People2",5,0,2]},{"code":401,"indent":0,"parameters":["The sexual energy just keeps seeping in! How am I supposed to sanctify our rooms?"]},{"code":0,"indent":0,"parameters":[]}]},{"conditions":{"actorId":1,"actorValid":false,"itemId":1,"itemValid":false,"selfSwitchCh":"A","selfSwitchValid":false,"switch1Id":3281,"switch1Valid":true,"switch2Id":1,"switch2Valid":false,"variableId":1,"variableValid":false,"variableValue":0},"directionFix":false,"image":{"tileId":0,"characterName":"People2","direction":6,"pattern":1,"characterIndex":5},"moveFrequency":3,"moveRoute":{"list":[{"code":0,"indent":null,"parameters":[]}],"repeat":true,"skippable":false,"wait":false},"moveSpeed":3,"moveType":0,"priorityType":1,"stepAnime":false,"through":false,"trigger":0,"walkAnime":true,"list":[{"code":111,"indent":0,"parameters":[0,3277,0]},{"code":101,"indent":1,"parameters":["People2",5,0,2]},{"code":401,"indent":1,"parameters":["If Yelarel can really create these Succubus Holy Knights, maybe I'll finally have some help sanctifying the cathedral."]},{"code":0,"indent":1,"parameters":[]},{"code":411,"indent":0,"parameters":[]},{"code":101,"indent":1,"parameters":["People2",5,0,2]},{"code":401,"indent":1,"parameters":["My sanctification work is even more difficult now... Ivala above, help me through this!"]},{"code":0,"indent":1,"parameters":[]},{"code":412,"indent":0,"parameters":[]},{"code":0,"indent":0,"parameters":[]}]},{"conditions":{"actorId":1,"actorValid":false,"itemId":1,"itemValid":false,"selfSwitchCh":"A","selfSwitchValid":false,"switch1Id":3601,"switch1Valid":true,"switch2Id":1,"switch2Valid":false,"variableId":1,"variableValid":false,"variableValue":0},"directionFix":false,"image":{"tileId":0,"characterName":"","direction":6,"pattern":1,"characterIndex":5},"moveFrequency":3,"moveRoute":{"list":[{"code":0,"indent":null,"parameters":[]}],"repeat":true,"skippable":false,"wait":false},"moveSpeed":3,"moveType":0,"priorityType":0,"stepAnime":false,"through":false,"trigger":0,"walkAnime":true,"list":[{"code":0,"indent":0,"parameters":[]}]},{"conditions":{"actorId":1,"actorValid":false,"itemId":1,"itemValid":false,"selfSwitchCh":"A","selfSwitchValid":false,"switch1Id":3079,"switch1Valid":true,"switch2Id":1,"switch2Valid":false,"variableId":1,"variableValid":false,"variableValue":0},"directionFix":false,"image":{"tileId":0,"characterName":"","direction":2,"pattern":0,"characterIndex":0},"moveFrequency":3,"moveRoute":{"list":[{"code":0,"indent":null,"parameters":[]}],"repeat":true,"skippable":false,"wait":false},"moveSpeed":3,"moveType":0,"priorityType":0,"stepAnime":false,"through":false,"trigger":0,"walkAnime":true,"list":[{"code":0,"indent":0,"parameters":[]}]},{"conditions":{"actorId":1,"actorValid":false,"itemId":1,"itemValid":false,"selfSwitchCh":"A","selfSwitchValid":false,"switch1Id":3080,"switch1Valid":true,"switch2Id":1,"switch2Valid":false,"variableId":1,"variableValid":false,"variableValue":0},"directionFix":false,"image":{"tileId":0,"characterName":"","direction":2,"pattern":0,"characterIndex":0},"moveFrequency":3,"moveRoute":{"list":[{"code":0,"indent":null,"parameters":[]}],"repeat":true,"skippable":false,"wait":false},"moveSpeed":3,"moveType":0,"priorityType":0,"stepAnime":false,"through":false,"trigger":0,"walkAnime":true,"list":[{"code":0,"indent":0,"parameters":[]}]}],"x":17,"y":17},{"id":10,"name":"Succubus Nun","note":"","pages":[{"conditions":{"actorId":1,"actorValid":false,"itemId":1,"itemValid":false,"selfSwitchCh":"A","selfSwitchValid":false,"switch1Id":1,"switch1Valid":false,"switch2Id":1,"switch2Valid":false,"variableId":1,"variableValid":false,"variableValue":0},"directionFix":false,"image":{"tileId":0,"characterName":"Y succubus nuns","direction":8,"pattern":1,"characterIndex":4},"moveFrequency":3,"moveRoute":{"list":[{"code":0,"indent":null,"parameters":[]}],"repeat":true,"skippable":false,"wait":false},"moveSpeed":3,"moveType":0,"priorityType":1,"stepAnime":false,"through":false,"trigger":0,"walkAnime":true,"list":[{"code":101,"indent":0,"parameters":["Z succubus_nun_b",2,0,2]},{"code":401,"indent":0,"parameters":["The Church of Ivala isn't as bad as I thought! They just need to get over a few silly ideas about sex and it'll be nice!"]},{"code":0,"indent":0,"parameters":[]}]},{"conditions":{"actorId":1,"actorValid":false,"itemId":1,"itemValid":false,"selfSwitchCh":"A","selfSwitchValid":false,"switch1Id":3281,"switch1Valid":true,"switch2Id":1,"switch2Valid":false,"variableId":1,"variableValid":false,"variableValue":0},"directionFix":false,"image":{"tileId":0,"characterName":"Y succubus nuns","direction":8,"pattern":1,"characterIndex":4},"moveFrequency":3,"moveRoute":{"list":[{"code":0,"indent":null,"parameters":[]}],"repeat":true,"skippable":false,"wait":false},"moveSpeed":3,"moveType":0,"priorityType":1,"stepAnime":false,"through":false,"trigger":0,"walkAnime":true,"list":[{"code":111,"indent":0,"parameters":[0,3078,0]},{"code":101,"indent":1,"parameters":["Z succubus_nun_b",2,0,2]},{"code":401,"indent":1,"parameters":["I knew they'd listen! Now we just need a second Council of Gawnfall to fix some more silly sex ideas!"]},{"code":0,"indent":1,"parameters":[]},{"code":411,"indent":0,"parameters":[]},{"code":111,"indent":1,"parameters":[0,3079,0]},{"code":101,"indent":2,"parameters":["Z succubus_nun_b",1,0,2]},{"code":401,"indent":2,"parameters":["I think it's a good thing that the Church is splitting! Now we can make our part of it reasonable!"]},{"code":0,"indent":2,"parameters":[]},{"code":411,"indent":1,"parameters":[]},{"code":111,"indent":2,"parameters":[0,3080,0]},{"code":101,"indent":3,"parameters":["Z succubus_nun_b",1,0,2]},{"code":401,"indent":3,"parameters":["If the human Church is going to be dumb about sex, we'll just make our own!"]},{"code":0,"indent":3,"parameters":[]},{"code":411,"indent":2,"parameters":[]},{"code":101,"indent":3,"parameters":["Z succubus_nun_b",6,0,2]},{"code":401,"indent":3,"parameters":["I was hoping the Church of Ivala would bend a little more... the stories Yelarel tells don't encourage me."]},{"code":0,"indent":3,"parameters":[]},{"code":412,"indent":2,"parameters":[]},{"code":0,"indent":2,"parameters":[]},{"code":412,"indent":1,"parameters":[]},{"code":0,"indent":1,"parameters":[]},{"code":412,"indent":0,"parameters":[]},{"code":0,"indent":0,"parameters":[]}]},{"conditions":{"actorId":1,"actorValid":false,"itemId":1,"itemValid":false,"selfSwitchCh":"A","selfSwitchValid":false,"switch1Id":3601,"switch1Valid":true,"switch2Id":1,"switch2Valid":false,"variableId":1,"variableValid":false,"variableValue":0},"directionFix":false,"image":{"tileId":0,"characterName":"Y succubus nuns","direction":8,"pattern":1,"characterIndex":4},"moveFrequency":3,"moveRoute":{"list":[{"code":0,"indent":null,"parameters":[]}],"repeat":true,"skippable":false,"wait":false},"moveSpeed":3,"moveType":0,"priorityType":1,"stepAnime":false,"through":false,"trigger":0,"walkAnime":true,"list":[{"code":111,"indent":0,"parameters":[0,3079,0]},{"code":101,"indent":1,"parameters":["Z succubus_nun_b",1,0,2]},{"code":401,"indent":1,"parameters":["Sarai seems really reasonable for a non-succubus. I'm glad she's in charge here!"]},{"code":0,"indent":1,"parameters":[]},{"code":411,"indent":0,"parameters":[]},{"code":101,"indent":1,"parameters":["Z succubus_nun_b",0,0,2]},{"code":401,"indent":1,"parameters":["It seems like the Church won't be quite as pliable about sexual matters as I'd hoped, but at least they aren't persecuting us."]},{"code":0,"indent":1,"parameters":[]},{"code":412,"indent":0,"parameters":[]},{"code":0,"indent":0,"parameters":[]}]},{"conditions":{"actorId":1,"actorValid":false,"itemId":1,"itemValid":false,"selfSwitchCh":"A","selfSwitchValid":false,"switch1Id":3601,"switch1Valid":true,"switch2Id":3080,"switch2Valid":true,"variableId":1,"variableValid":false,"variableValue":0},"directionFix":false,"image":{"tileId":0,"characterName":"Y succubus priestess","direction":8,"pattern":1,"characterIndex":4},"moveFrequency":3,"moveRoute":{"list":[{"code":0,"indent":null,"parameters":[]}],"repeat":true,"skippable":false,"wait":false},"moveSpeed":3,"moveType":0,"priorityType":1,"stepAnime":false,"through":false,"trigger":0,"walkAnime":true,"list":[{"code":101,"indent":0,"parameters":["Z succubus_priestess_b",1,0,2]},{"code":401,"indent":0,"parameters":["Our new outfits may be based on Lustlord worship, but they're still ours!"]},{"code":0,"indent":0,"parameters":[]}]},{"conditions":{"actorId":1,"actorValid":false,"itemId":1,"itemValid":false,"selfSwitchCh":"A","selfSwitchValid":false,"switch1Id":2517,"switch1Valid":true,"switch2Id":1,"switch2Valid":false,"variableId":1,"variableValid":false,"variableValue":0},"directionFix":false,"image":{"tileId":0,"characterName":"","direction":2,"pattern":0,"characterIndex":0},"moveFrequency":3,"moveRoute":{"list":[{"code":0,"indent":null,"parameters":[]}],"repeat":true,"skippable":false,"wait":false},"moveSpeed":3,"moveType":0,"priorityType":0,"stepAnime":false,"through":false,"trigger":0,"walkAnime":true,"list":[{"code":0,"indent":0,"parameters":[]}]}],"x":14,"y":16},{"id":11,"name":"Ritual Succubus TARGET","note":"","pages":[{"conditions":{"actorId":1,"actorValid":false,"itemId":1,"itemValid":false,"selfSwitchCh":"A","selfSwitchValid":false,"switch1Id":2517,"switch1Valid":true,"switch2Id":1,"switch2Valid":false,"variableId":1,"variableValid":false,"variableValue":0},"directionFix":false,"image":{"tileId":0,"characterName":"Y succubus nuns","direction":8,"pattern":1,"characterIndex":0},"moveFrequency":3,"moveRoute":{"list":[{"code":0,"indent":null,"parameters":[]}],"repeat":true,"skippable":false,"wait":false},"moveSpeed":3,"moveType":0,"priorityType":1,"stepAnime":false,"through":false,"trigger":0,"walkAnime":true,"list":[{"code":0,"indent":0,"parameters":[]}]}],"x":11,"y":12},{"id":12,"name":"Ritual Unsuccubus","note":"","pages":[{"conditions":{"actorId":1,"actorValid":false,"itemId":1,"itemValid":false,"selfSwitchCh":"A","selfSwitchValid":false,"switch1Id":2517,"switch1Valid":true,"switch2Id":1,"switch2Valid":false,"variableId":1,"variableValid":false,"variableValue":0},"directionFix":false,"image":{"tileId":0,"characterName":"Unsuccubi","direction":2,"pattern":1,"characterIndex":3},"moveFrequency":3,"moveRoute":{"list":[{"code":0,"indent":null,"parameters":[]}],"repeat":true,"skippable":false,"wait":false},"moveSpeed":3,"moveType":0,"priorityType":1,"stepAnime":false,"through":false,"trigger":0,"walkAnime":true,"list":[{"code":0,"indent":0,"parameters":[]}]}],"x":11,"y":10},{"id":13,"name":"Ritual Succubus","note":"","pages":[{"conditions":{"actorId":1,"actorValid":false,"itemId":1,"itemValid":false,"selfSwitchCh":"A","selfSwitchValid":false,"switch1Id":2517,"switch1Valid":true,"switch2Id":1,"switch2Valid":false,"variableId":1,"variableValid":false,"variableValue":0},"directionFix":false,"image":{"tileId":0,"characterName":"Y succubus nuns","direction":6,"pattern":1,"characterIndex":4},"moveFrequency":3,"moveRoute":{"list":[{"code":0,"indent":null,"parameters":[]}],"repeat":true,"skippable":false,"wait":false},"moveSpeed":3,"moveType":0,"priorityType":1,"stepAnime":false,"through":false,"trigger":0,"walkAnime":true,"list":[{"code":0,"indent":0,"parameters":[]}]}],"x":10,"y":11},{"id":14,"name":"EV014","note":"","pages":[{"conditions":{"actorId":1,"actorValid":false,"itemId":1,"itemValid":false,"selfSwitchCh":"A","selfSwitchValid":false,"switch1Id":3601,"switch1Valid":true,"switch2Id":1,"switch2Valid":false,"variableId":1,"variableValid":false,"variableValue":0},"directionFix":false,"image":{"tileId":0,"characterName":"People2","direction":6,"pattern":1,"characterIndex":5},"moveFrequency":3,"moveRoute":{"list":[{"code":0,"indent":null,"parameters":[]}],"repeat":true,"skippable":false,"wait":false},"moveSpeed":3,"moveType":0,"priorityType":1,"stepAnime":false,"through":false,"trigger":0,"walkAnime":true,"list":[{"code":111,"indent":0,"parameters":[0,3277,0]},{"code":101,"indent":1,"parameters":["People2",5,0,2]},{"code":401,"indent":1,"parameters":["The Succubus Holy Knights aren't all that holy yet, but... they're trying."]},{"code":0,"indent":1,"parameters":[]},{"code":411,"indent":0,"parameters":[]},{"code":101,"indent":1,"parameters":["People2",5,0,2]},{"code":401,"indent":1,"parameters":["At least the succubus priestesses can help with my work a bit now."]},{"code":0,"indent":1,"parameters":[]},{"code":412,"indent":0,"parameters":[]},{"code":0,"indent":0,"parameters":[]}]}],"x":16,"y":16},{"id":15,"name":"Yelarel","note":"","pages":[{"conditions":{"actorId":1,"actorValid":false,"itemId":1,"itemValid":false,"selfSwitchCh":"A","selfSwitchValid":false,"switch1Id":3281,"switch1Valid":true,"switch2Id":1,"switch2Valid":false,"variableId":1,"variableValid":false,"variableValue":0},"directionFix":false,"image":{"tileId":0,"characterName":"High Priestesses","direction":8,"pattern":1,"characterIndex":3},"moveFrequency":3,"moveRoute":{"list":[{"code":0,"indent":null,"parameters":[]}],"repeat":true,"skippable":false,"wait":false},"moveSpeed":3,"moveType":0,"priorityType":1,"stepAnime":false,"through":false,"trigger":0,"walkAnime":true,"list":[{"code":101,"indent":0,"parameters":["Yelarel emo",1,0,2]},{"code":401,"indent":0,"parameters":["Hello! Hopefully we'll be seeing each other a lot more in the future!"]},{"code":111,"indent":0,"parameters":[0,3078,0]},{"code":101,"indent":1,"parameters":["1 Simon dark",1,0,2]},{"code":401,"indent":1,"parameters":["You seem happy. Still riding off the Council of Gawnfall?"]},{"code":101,"indent":1,"parameters":["Yelarel emo",1,0,2]},{"code":401,"indent":1,"parameters":["Yes, it's wonderful that they actually accepted us! Now there's so much to do, but it's all a joy!"]},{"code":111,"indent":1,"parameters":[0,3277,0]},{"code":101,"indent":2,"parameters":["Yelarel emo",0,0,2]},{"code":401,"indent":2,"parameters":["I need to devote myself to integrating our churches, recruiting succubi, setting up holy succubus knights..."]},{"code":0,"indent":2,"parameters":[]},{"code":411,"indent":1,"parameters":[]},{"code":101,"indent":2,"parameters":["Yelarel emo",0,0,2]},{"code":401,"indent":2,"parameters":["I was disappointed they didn't accept my idea for succubus knights, but given how much I have to do, maybe that's better."]},{"code":0,"indent":2,"parameters":[]},{"code":412,"indent":1,"parameters":[]},{"code":101,"indent":1,"parameters":["Yelarel emo",0,0,2]},{"code":401,"indent":1,"parameters":["I have no doubt we'll be working together a lot, but for now..."]},{"code":101,"indent":1,"parameters":["1 Simon dark",0,0,2]},{"code":401,"indent":1,"parameters":["Yes, we have many different affairs to consider as well. But please contact us if you need anything."]},{"code":101,"indent":1,"parameters":["Yelarel emo",1,0,2]},{"code":401,"indent":1,"parameters":["Thank you, I will!"]},{"code":101,"indent":1,"parameters":["Yelarel emo",0,0,2]},{"code":401,"indent":1,"parameters":["By the way, if you want to check in on Andra, you can find her through the left door."]},{"code":123,"indent":1,"parameters":["B",0]},{"code":0,"indent":1,"parameters":[]},{"code":411,"indent":0,"parameters":[]},{"code":111,"indent":1,"parameters":[0,3079,0]},{"code":101,"indent":2,"parameters":["1 Simon dark",0,0,2]},{"code":401,"indent":2,"parameters":["It seems like you've come to terms with the Church diverging?"]},{"code":101,"indent":2,"parameters":["Yelarel emo",0,0,2]},{"code":401,"indent":2,"parameters":["I'm trying to focus on the positive. I believe that we can work with this."]},{"code":101,"indent":2,"parameters":["Yelarel emo",3,0,2]},{"code":401,"indent":2,"parameters":["Some say that this must be Ivala's will... unless her will was the Incubus Emperor's reign, there's a lot of room for free will."]},{"code":101,"indent":2,"parameters":["Yelarel emo",1,0,2]},{"code":401,"indent":2,"parameters":["Which just means we have to work harder! We'll make our portions of the Church shining beacons to the others!"]},{"code":101,"indent":2,"parameters":["1 Simon dark",1,0,2]},{"code":401,"indent":2,"parameters":["That's a good attitude. Let us know if we can help."]},{"code":101,"indent":2,"parameters":["Yelarel emo",0,0,2]},{"code":401,"indent":2,"parameters":["I'm sure we'll work together frequently, but for now, I mostly need to build off the Council of Gawnfall."]},{"code":101,"indent":2,"parameters":["Yelarel emo",0,0,2]},{"code":401,"indent":2,"parameters":["Getting High Priestesses or other figures on our side will be critical, especially Sarai."]},{"code":101,"indent":2,"parameters":["1 Simon dark",1,0,2]},{"code":401,"indent":2,"parameters":["I think you'll find her generally open to your cause."]},{"code":101,"indent":2,"parameters":["Yelarel emo",3,0,2]},{"code":401,"indent":2,"parameters":["On that note, if you want to check in on Andra, you can find her through the left door."]},{"code":123,"indent":2,"parameters":["B",0]},{"code":0,"indent":2,"parameters":[]},{"code":411,"indent":1,"parameters":[]},{"code":111,"indent":2,"parameters":[0,3080,0]},{"code":101,"indent":3,"parameters":["1 Simon dark",0,0,2]},{"code":401,"indent":3,"parameters":["You seem to have warmed to the idea of forming a separate religion?"]},{"code":101,"indent":3,"parameters":["Yelarel emo",3,0,2]},{"code":401,"indent":3,"parameters":["It's certainly a terrible headache. We're losing good priestesses, some succubi are leaving, some are following the Lustlord instead..."]},{"code":101,"indent":3,"parameters":["Yelarel emo",1,0,2]},{"code":401,"indent":3,"parameters":["But I choose to focus on the positive. We can start with a clean slate!"]},{"code":101,"indent":3,"parameters":["Yelarel emo",0,0,2]},{"code":401,"indent":3,"parameters":["That's why I'm glad to see you. I'm a bit swamped with work now, but I'll be depending on you as we set up this new religion."]},{"code":101,"indent":3,"parameters":["1 Simon dark",1,0,2]},{"code":401,"indent":3,"parameters":["If its goal is to bring people together, then you can count on support from us."]},{"code":101,"indent":3,"parameters":["Yelarel emo",0,0,2]},{"code":401,"indent":3,"parameters":["Yes, we certainly want to bring people together. There are still a lot of details to consider, but there are two things I can bring up now."]},{"code":101,"indent":3,"parameters":["Yelarel emo",3,0,2]},{"code":401,"indent":3,"parameters":["We're still trying to rehabilitate Andra. You can find her through the left door."]},{"code":101,"indent":3,"parameters":["Yelarel emo",0,0,2]},{"code":401,"indent":3,"parameters":["On a happier note, we could use your blessing, if you're willing."]},{"code":101,"indent":3,"parameters":["1 Simon dark",0,0,2]},{"code":401,"indent":3,"parameters":["What do you mean by blessing? You already have the Doom King's permission."]},{"code":101,"indent":3,"parameters":["Yelarel emo",0,0,2]},{"code":401,"indent":3,"parameters":["Ah, no... we wanted a direct blessing from you to help our fledgling religion get started. A... traditional blessing."]},{"code":101,"indent":3,"parameters":["Yarra emo",7,0,2]},{"code":401,"indent":3,"parameters":["Ooooh!"]},{"code":101,"indent":3,"parameters":["Nalili emo1",5,0,2]},{"code":401,"indent":3,"parameters":["Traditional means sexual!"]},{"code":101,"indent":3,"parameters":["Yelarel emo",3,0,2]},{"code":401,"indent":3,"parameters":["It's up to you, of course. Just an offer."]},{"code":123,"indent":3,"parameters":["A",0]},{"code":0,"indent":3,"parameters":[]},{"code":411,"indent":2,"parameters":[]},{"code":101,"indent":3,"parameters":["1 Simon dark",0,0,2]},{"code":401,"indent":3,"parameters":["You seem in a good mood, despite the results of the synod."]},{"code":101,"indent":3,"parameters":["Yelarel emo",0,0,2]},{"code":401,"indent":3,"parameters":["I'd hoped for more, but we've still seen a HUGE change in attitudes in just one generation. Best to focus on the positive!"]},{"code":101,"indent":3,"parameters":["Yelarel emo",0,0,2]},{"code":401,"indent":3,"parameters":["I have no doubt we'll be working together a lot, but for now..."]},{"code":101,"indent":3,"parameters":["1 Simon dark",0,0,2]},{"code":401,"indent":3,"parameters":["Yes, we have many different affairs to consider as well. But please contact us if you need anything."]},{"code":101,"indent":3,"parameters":["Yelarel emo",1,0,2]},{"code":401,"indent":3,"parameters":["Thank you, I will!"]},{"code":101,"indent":3,"parameters":["Yelarel emo",0,0,2]},{"code":401,"indent":3,"parameters":["By the way, if you want to check in on Andra, you can find her through the left door."]},{"code":123,"indent":3,"parameters":["B",0]},{"code":0,"indent":3,"parameters":[]},{"code":412,"indent":2,"parameters":[]},{"code":0,"indent":2,"parameters":[]},{"code":412,"indent":1,"parameters":[]},{"code":0,"indent":1,"parameters":[]},{"code":412,"indent":0,"parameters":[]},{"code":121,"indent":0,"parameters":[3290,3290,0]},{"code":0,"indent":0,"parameters":[]}]},{"conditions":{"actorId":1,"actorValid":false,"itemId":1,"itemValid":false,"selfSwitchCh":"A","selfSwitchValid":true,"switch1Id":3281,"switch1Valid":true,"switch2Id":1,"switch2Valid":false,"variableId":1,"variableValid":false,"variableValue":0},"directionFix":false,"image":{"tileId":0,"characterName":"High Priestesses","direction":8,"pattern":1,"characterIndex":3},"moveFrequency":3,"moveRoute":{"list":[{"code":0,"indent":null,"parameters":[]}],"repeat":true,"skippable":false,"wait":false},"moveSpeed":3,"moveType":0,"priorityType":1,"stepAnime":false,"through":false,"trigger":0,"walkAnime":true,"list":[{"code":101,"indent":0,"parameters":["Yelarel emo",0,0,2]},{"code":401,"indent":0,"parameters":["Let me know if you've considered my offer."]},{"code":102,"indent":0,"parameters":[["Not yet", "Sexual blessing", "Non-sexual blessing"],-2,0,2,0]},{"code":402,"indent":0,"parameters":[0,"Not yet"]},{"code":101,"indent":1,"parameters":["Yelarel emo",0,0,2]},{"code":401,"indent":1,"parameters":["Sure, take your time."]},{"code":0,"indent":1,"parameters":[]},{"code":402,"indent":0,"parameters":[1,"Sexual blessing"]},{"code":101,"indent":1,"parameters":["Yelarel emo",1,0,2]},{"code":401,"indent":1,"parameters":["Wonderful! Let me get set up!"]},{"code":117,"indent":1,"parameters":[329]},{"code":121,"indent":1,"parameters":[3291,3291,0]},{"code":101,"indent":1,"parameters":["Yelarel emo",0,0,2]},{"code":401,"indent":1,"parameters":["Ah, that was a wonderful way to break my abstinence... you really do understand succubi."]},{"code":101,"indent":1,"parameters":["Yelarel emo",1,0,2]},{"code":401,"indent":1,"parameters":["I think this is going to be a great start to a religion!"]},{"code":205,"indent":1,"parameters":[-1,{"list":[{"code":1,"indent":null,"parameters":[]},{"code":1,"indent":null,"parameters":[]},{"code":0,"indent":null,"parameters":[]}],"repeat":false,"skippable":true,"wait":true}]},{"code":505,"indent":1,"parameters":[{"code":1,"indent":null,"parameters":[]}]},{"code":505,"indent":1,"parameters":[{"code":1,"indent":null,"parameters":[]}]},{"code":101,"indent":1,"parameters":["Yarra emo2",5,0,2]},{"code":401,"indent":1,"parameters":["Seems like a great start to me."]},{"code":101,"indent":1,"parameters":["Carina emo",4,0,2]},{"code":401,"indent":1,"parameters":["I don't know... doesn't it seem like they're... worshipping Simon a bit?"]},{"code":101,"indent":1,"parameters":["Nalili emo1",5,0,2]},{"code":401,"indent":1,"parameters":["Yeah, that's part of what's great about it!"]},{"code":101,"indent":1,"parameters":["Yarra emo2",6,0,2]},{"code":401,"indent":1,"parameters":["Don't you think Simon's cock deserves worship?"]},{"code":101,"indent":1,"parameters":["Carina emo",7,0,2]},{"code":401,"indent":1,"parameters":["Simon is a good man, not a god. This is just... a little much for me."]},{"code":101,"indent":1,"parameters":["Yarra emo2",5,0,2]},{"code":401,"indent":1,"parameters":["Aww, you'll come around."]},{"code":101,"indent":1,"parameters":["1 Simon dark",0,0,2]},{"code":401,"indent":1,"parameters":["Yelarel's new religion has barely begun. We can keep an eye on it."]},{"code":123,"indent":1,"parameters":["B",0]},{"code":0,"indent":1,"parameters":[]},{"code":402,"indent":0,"parameters":[2,"Non-sexual blessing"]},{"code":101,"indent":1,"parameters":["1 Simon dark",0,0,2]},{"code":401,"indent":1,"parameters":["I'm happy to give you my personal blessing, but I'd rather not participate in a sexual ritual."]},{"code":101,"indent":1,"parameters":["Yelarel emo",0,0,2]},{"code":401,"indent":1,"parameters":["I'm a bit disappointed, but it's your choice. We still appreciate your blessing."]},{"code":101,"indent":1,"parameters":["Yarra emo2",1,0,2]},{"code":401,"indent":1,"parameters":["Aww, I wanted the new religion to be about worshipping your cock..."]},{"code":123,"indent":1,"parameters":["B",0]},{"code":0,"indent":1,"parameters":[]},{"code":403,"indent":0,"parameters":[]},{"code":101,"indent":1,"parameters":["Yelarel emo",0,0,2]},{"code":401,"indent":1,"parameters":["Sure, take your time."]},{"code":0,"indent":1,"parameters":[]},{"code":404,"indent":0,"parameters":[]},{"code":0,"indent":0,"parameters":[]}]},{"conditions":{"actorId":1,"actorValid":false,"itemId":1,"itemValid":false,"selfSwitchCh":"B","selfSwitchValid":true,"switch1Id":3281,"switch1Valid":true,"switch2Id":1,"switch2Valid":false,"variableId":1,"variableValid":false,"variableValue":0},"directionFix":false,"image":{"tileId":0,"characterName":"High Priestesses","direction":8,"pattern":1,"characterIndex":3},"moveFrequency":3,"moveRoute":{"list":[{"code":0,"indent":null,"parameters":[]}],"repeat":true,"skippable":false,"wait":false},"moveSpeed":3,"moveType":0,"priorityType":1,"stepAnime":false,"through":false,"trigger":0,"walkAnime":true,"list":[{"code":101,"indent":0,"parameters":["Yelarel emo",1,0,2]},{"code":401,"indent":0,"parameters":["Don't be a stranger!"]},{"code":0,"indent":0,"parameters":[]}]},{"conditions":{"actorId":1,"actorValid":false,"itemId":1,"itemValid":false,"selfSwitchCh":"B","selfSwitchValid":true,"switch1Id":3281,"switch1Valid":true,"switch2Id":3561,"switch2Valid":true,"variableId":1,"variableValid":false,"variableValue":0},"directionFix":false,"image":{"tileId":0,"characterName":"High Priestesses","direction":8,"pattern":1,"characterIndex":3},"moveFrequency":3,"moveRoute":{"list":[{"code":0,"indent":null,"parameters":[]}],"repeat":true,"skippable":false,"wait":false},"moveSpeed":3,"moveType":0,"priorityType":1,"stepAnime":false,"through":false,"trigger":0,"walkAnime":true,"list":[{"code":111,"indent":0,"parameters":[0,3078,0]},{"code":101,"indent":1,"parameters":["Yelarel emo",0,0,2]},{"code":401,"indent":1,"parameters":["The details are uncertain, but apparently there's going to be a grand demonstration of Ivala's grace. I hope it's a sign of unity!"]},{"code":0,"indent":1,"parameters":[]},{"code":411,"indent":0,"parameters":[]},{"code":111,"indent":1,"parameters":[0,3079,0]},{"code":101,"indent":2,"parameters":["Yelarel emo",3,0,2]},{"code":401,"indent":2,"parameters":["It sounds like the Ardan faction of the Church is preparing something big. The competition will only get worse..."]},{"code":0,"indent":2,"parameters":[]},{"code":411,"indent":1,"parameters":[]},{"code":111,"indent":2,"parameters":[0,3080,0]},{"code":101,"indent":3,"parameters":["Yelarel emo",3,0,2]},{"code":401,"indent":3,"parameters":["I hear the Ivalan Church is working on something big, but I guess that has nothing to do with us anymore..."]},{"code":0,"indent":3,"parameters":[]},{"code":411,"indent":2,"parameters":[]},{"code":101,"indent":3,"parameters":["Yelarel emo",4,0,2]},{"code":401,"indent":3,"parameters":["There's something important going on in the Church, but they're keeping us in the dark. They don't trust us."]},{"code":0,"indent":3,"parameters":[]},{"code":412,"indent":2,"parameters":[]},{"code":0,"indent":2,"parameters":[]},{"code":412,"indent":1,"parameters":[]},{"code":0,"indent":1,"parameters":[]},{"code":412,"indent":0,"parameters":[]},{"code":0,"indent":0,"parameters":[]}]},{"conditions":{"actorId":1,"actorValid":false,"itemId":1,"itemValid":false,"selfSwitchCh":"B","selfSwitchValid":false,"switch1Id":3601,"switch1Valid":true,"switch2Id":3561,"switch2Valid":false,"variableId":1,"variableValid":false,"variableValue":0},"directionFix":false,"image":{"tileId":0,"characterName":"High Priestesses","direction":8,"pattern":1,"characterIndex":3},"moveFrequency":3,"moveRoute":{"list":[{"code":0,"indent":null,"parameters":[]}],"repeat":true,"skippable":false,"wait":false},"moveSpeed":3,"moveType":0,"priorityType":1,"stepAnime":false,"through":false,"trigger":0,"walkAnime":true,"list":[{"code":101,"indent":0,"parameters":["Carina emo",1,0,2]},{"code":401,"indent":0,"parameters":["Hello Yelarel. How have you been doing recently?"]},{"code":101,"indent":0,"parameters":["Yelarel emo",0,0,2]},{"code":401,"indent":0,"parameters":["Well enough, personally! I was worried the Crystal of Ivala might upend everything, but the Church is mostly stable."]},{"code":111,"indent":0,"parameters":[0,3078,0]},{"code":101,"indent":1,"parameters":["Yelarel emo",0,0,2]},{"code":401,"indent":1,"parameters":["That means that I think it's best not to push any further, though. Succubus acceptance will take time."]},{"code":101,"indent":1,"parameters":["Yelarel emo",1,0,2]},{"code":401,"indent":1,"parameters":["Instead, I've finally begun my order of Succubus Holy Knights!"]},{"code":0,"indent":1,"parameters":[]},{"code":411,"indent":0,"parameters":[]},{"code":111,"indent":1,"parameters":[0,3079,0]},{"code":101,"indent":2,"parameters":["Yelarel emo",3,0,2]},{"code":401,"indent":2,"parameters":["I wish that I could work for Church unity, but I'm afraid that I need to focus on our own faction."]},{"code":101,"indent":2,"parameters":["Yelarel emo",1,0,2]},{"code":401,"indent":2,"parameters":["But at least our faction can be strong! I've finally begun my order of Succubus Holy Knights!"]},{"code":0,"indent":2,"parameters":[]},{"code":411,"indent":1,"parameters":[]},{"code":111,"indent":2,"parameters":[0,3080,0]},{"code":101,"indent":3,"parameters":["Yelarel emo",3,0,2]},{"code":401,"indent":3,"parameters":["There's resistance to our new religion, and we haven't even settled on a name yet, but that just means I need to focus on our strength."]},{"code":101,"indent":3,"parameters":["Yelarel emo",1,0,2]},{"code":401,"indent":3,"parameters":["Which means focusing on my own project: I've finally begun my order of Succubus Holy Knights!"]},{"code":0,"indent":3,"parameters":[]},{"code":411,"indent":2,"parameters":[]},{"code":101,"indent":3,"parameters":["Yelarel emo",0,0,2]},{"code":401,"indent":3,"parameters":["That means that I think it's best not to push any further, though. Succubus acceptance will take time."]},{"code":101,"indent":3,"parameters":["Yelarel emo",1,0,2]},{"code":401,"indent":3,"parameters":["Instead, I've finally begun my order of Succubus Holy Knights!"]},{"code":0,"indent":3,"parameters":[]},{"code":412,"indent":2,"parameters":[]},{"code":0,"indent":2,"parameters":[]},{"code":412,"indent":1,"parameters":[]},{"code":0,"indent":1,"parameters":[]},{"code":412,"indent":0,"parameters":[]},{"code":111,"indent":0,"parameters":[0,3277,0]},{"code":101,"indent":1,"parameters":["Carina emo",0,0,2]},{"code":401,"indent":1,"parameters":["Yes, I know that's important to you. When it passed at Gawnfall, I confess I wasn't sure what to expect."]},{"code":101,"indent":1,"parameters":["Yelarel emo",0,0,2]},{"code":401,"indent":1,"parameters":["Well, everyone is about to find out soon! I hope we'll be a respected force within a generation!"]},{"code":0,"indent":1,"parameters":[]},{"code":411,"indent":0,"parameters":[]},{"code":101,"indent":1,"parameters":["Carina emo",0,0,2]},{"code":401,"indent":1,"parameters":["Yes, I know that's important to you. You're pushing forward despite what was decided at Gawnfall?"]},{"code":101,"indent":1,"parameters":["Yelarel emo",3,0,2]},{"code":401,"indent":1,"parameters":["The refusal might have gotten us off to a weak start, but this is important to me."]},{"code":0,"indent":1,"parameters":[]},{"code":412,"indent":0,"parameters":[]},{"code":101,"indent":0,"parameters":["Vhala emo",0,0,2]},{"code":401,"indent":0,"parameters":["I confess, I'm not clear on exactly how this works."]},{"code":101,"indent":0,"parameters":["Yelarel emo",0,0,2]},{"code":401,"indent":0,"parameters":["I want an order of succubus warriors to represent us to the world! Ones capable of using more than just sexual magic!"]},{"code":101,"indent":0,"parameters":["Carina emo",0,0,2]},{"code":401,"indent":0,"parameters":["Surely that's difficult?"]},{"code":101,"indent":0,"parameters":["Yelarel emo",5,0,2]},{"code":401,"indent":0,"parameters":["It might not be easy, but we won't give up! And you've been very helpful!"]},{"code":101,"indent":0,"parameters":["Riala emo",1,0,2]},{"code":401,"indent":0,"parameters":["Our research has been significant in developing their order."]},{"code":101,"indent":0,"parameters":["Yelarel emo",4,0,2]},{"code":401,"indent":0,"parameters":["The hardest part was developing the uniforms. It has to be sexy, yet not offend human ideas..."]},{"code":101,"indent":0,"parameters":["Vhala emo",0,0,2]},{"code":401,"indent":0,"parameters":["So the order is established?"]},{"code":101,"indent":0,"parameters":["Yelarel emo",0,0,2]},{"code":401,"indent":0,"parameters":["It isn't anything fancy yet, but yes! You can meet some of the new knights in the eastern branch of the cathedral!"]},{"code":123,"indent":0,"parameters":["C",0]},{"code":0,"indent":0,"parameters":[]}]},{"conditions":{"actorId":1,"actorValid":false,"itemId":1,"itemValid":false,"selfSwitchCh":"C","selfSwitchValid":true,"switch1Id":3601,"switch1Valid":true,"switch2Id":3561,"switch2Valid":false,"variableId":1,"variableValid":false,"variableValue":0},"directionFix":false,"image":{"tileId":0,"characterName":"High Priestesses","direction":8,"pattern":1,"characterIndex":3},"moveFrequency":3,"moveRoute":{"list":[{"code":0,"indent":null,"parameters":[]}],"repeat":true,"skippable":false,"wait":false},"moveSpeed":3,"moveType":0,"priorityType":1,"stepAnime":false,"through":false,"trigger":0,"walkAnime":true,"list":[{"code":111,"indent":0,"parameters":[0,3277,0]},{"code":111,"indent":1,"parameters":[0,3809,0]},{"code":101,"indent":2,"parameters":["Yelarel emo",1,0,2]},{"code":401,"indent":2,"parameters":["Thank you so much for your investment in the Succubus Holy Knights!"]},{"code":0,"indent":2,"parameters":[]},{"code":411,"indent":1,"parameters":[]},{"code":101,"indent":2,"parameters":["Yelarel emo",1,0,2]},{"code":401,"indent":2,"parameters":["We're off to a great start, but please consider investing in the Succubus Holy Knights!"]},{"code":0,"indent":2,"parameters":[]},{"code":412,"indent":1,"parameters":[]},{"code":0,"indent":1,"parameters":[]},{"code":411,"indent":0,"parameters":[]},{"code":111,"indent":1,"parameters":[0,3809,0]},{"code":101,"indent":2,"parameters":["Yelarel emo",0,0,2]},{"code":401,"indent":2,"parameters":["With your investment, perhaps the Succubus Holy Knights can build a better foundation."]},{"code":0,"indent":2,"parameters":[]},{"code":411,"indent":1,"parameters":[]},{"code":101,"indent":2,"parameters":["Yelarel emo",3,0,2]},{"code":401,"indent":2,"parameters":["The Succubus Holy Knights are off to a weak start... would you consider any investment requests they ask?"]},{"code":0,"indent":2,"parameters":[]},{"code":412,"indent":1,"parameters":[]},{"code":0,"indent":1,"parameters":[]},{"code":412,"indent":0,"parameters":[]},{"code":0,"indent":0,"parameters":[]}]},{"conditions":{"actorId":1,"actorValid":false,"itemId":1,"itemValid":false,"selfSwitchCh":"A","selfSwitchValid":false,"switch1Id":2517,"switch1Valid":true,"switch2Id":1,"switch2Valid":false,"variableId":1,"variableValid":false,"variableValue":0},"directionFix":false,"image":{"tileId":0,"characterName":"","direction":2,"pattern":0,"characterIndex":0},"moveFrequency":3,"moveRoute":{"list":[{"code":0,"indent":null,"parameters":[]}],"repeat":true,"skippable":false,"wait":false},"moveSpeed":3,"moveType":0,"priorityType":0,"stepAnime":false,"through":false,"trigger":0,"walkAnime":true,"list":[{"code":0,"indent":0,"parameters":[]}]}],"x":15,"y":10}]
}
