{
"autoplayBgm":true,"autoplayBgs":false,"battleback1Name":"","battleback2Name":"","bgm":{"name":"Deepwilds","pan":0,"pitch":100,"volume":100},"bgs":{"name":"","pan":0,"pitch":100,"volume":80},"disableDashing":false,"displayName":"","encounterList":[],"encounterStep":30,"height":20,"note":"","parallaxLoopX":true,"parallaxLoopY":true,"parallaxName":"StarSky","parallaxShow":true,"parallaxSx":-3,"parallaxSy":-1,"scrollType":0,"specifyBattleback":false,"tilesetId":100,"width":25,
"data":[0,0,0,0,0,0,0,0,0,0,0,0,0,0,0,0,0,0,0,0,0,0,0,0,0,0,0,0,0,0,0,0,0,0,0,0,0,0,0,0,0,0,0,0,0,0,0,0,0,0,0,0,0,0,0,0,0,0,7554,7540,7540,7540,7540,7556,0,7959,0,0,0,0,0,0,0,0,0,0,0,0,0,0,0,0,7554,7521,7520,7520,7520,7520,7522,7540,7540,7556,0,0,0,0,0,0,0,0,0,0,0,0,0,0,7959,7536,7520,7520,7520,7659,7649,7661,7520,7520,7522,7556,0,0,0,0,0,0,0,0,0,0,0,0,0,7554,7521,7520,7520,7520,1560,1561,1562,7520,7520,7520,7522,7556,7959,0,0,0,0,0,0,0,0,0,0,0,7536,7520,7520,7520,7520,7520,7520,7520,7520,7520,7520,7520,7544,7909,0,0,0,0,0,0,0,0,0,0,7959,7536,7520,7520,7520,7520,7520,7520,7520,7520,7520,7520,7524,7558,7909,0,0,0,0,0,0,0,0,0,7610,7957,7560,7528,7520,7520,7520,7520,7520,7520,7520,7520,7524,7558,7958,7610,0,0,0,0,0,0,0,0,0,7609,7613,7955,7560,7548,7548,7528,7520,7520,7520,7911,7548,7558,7958,7611,7607,0,0,0,0,0,0,0,0,0,7955,7958,7614,7907,7954,7954,7911,7520,7520,7520,7909,7954,7611,7605,7955,7958,0,0,0,0,0,0,0,0,0,7611,7613,7959,7611,7613,7952,7909,1580,1581,1582,7909,7614,7907,7609,7601,7613,7959,0,0,0,0,0,0,0,0,7955,7958,7614,7907,7910,7614,7909,1580,1581,1582,7610,7959,7614,7955,7906,7958,7611,7613,0,0,0,0,0,0,0,7614,7956,7911,7611,7613,7911,7909,1580,1581,1582,7609,7613,7911,7953,7904,7614,7907,7958,7610,0,0,0,0,0,7610,7959,7956,7614,7907,7910,2955,7548,7548,7548,7548,7907,7910,7611,7613,7912,7911,7905,7611,7607,0,0,0,0,0,7600,7957,7614,7911,7905,7908,1583,7614,7906,7954,7954,7905,7908,7907,7910,2954,7917,2954,7907,7910,7610,0,0,0,0,7609,7613,7959,7909,2955,7548,7558,7911,7912,7912,7914,7905,7908,7905,7916,2931,2945,2939,7913,7603,7607,0,0,0,0,7955,7958,7957,7610,1583,7914,7908,7909,2947,2951,2949,7913,7916,2947,2945,2951,7959,2953,2949,7612,7910,0,0,0,7959,7614,7956,7957,7612,2955,2945,2945,2945,2951,7959,2951,2945,2945,2951,2951,7959,7614,7959,1583,7911,7908,0,0,0,7610,7959,7610,7957,7911,7602,7588,7588,7588,7604,7909,7959,7602,7588,7604,7959,7957,7911,7957,1583,7909,7964,0,0,0,0,0,0,0,0,0,0,0,0,0,0,0,0,0,0,0,0,0,0,0,0,0,0,0,0,0,0,0,0,0,0,0,0,0,0,0,0,0,0,0,0,0,0,0,0,0,0,0,0,0,0,0,0,0,0,0,0,0,0,0,0,0,0,0,0,0,0,0,0,0,0,0,0,0,0,0,0,0,0,0,0,3042,3028,3028,3044,0,0,0,0,0,0,0,0,0,0,0,0,0,0,0,0,0,0,0,0,0,3024,3012,3036,0,0,0,0,0,0,0,0,0,0,0,0,0,0,0,0,0,0,0,0,0,0,3026,3046,0,0,0,0,0,0,0,0,0,0,0,0,0,0,0,0,0,0,0,0,0,0,3042,3034,0,0,0,0,0,0,0,0,0,0,0,0,0,0,0,0,0,0,0,0,0,0,0,3024,3010,3044,0,0,0,0,0,0,0,0,0,0,0,0,0,0,0,0,0,0,0,0,0,0,3048,3036,3018,3028,3044,0,0,0,0,0,0,0,0,0,0,0,0,0,0,0,0,0,0,0,0,0,0,3048,3036,3046,0,0,0,0,0,0,0,0,0,0,0,0,0,0,0,0,0,0,0,0,0,0,0,0,0,0,0,0,0,0,0,0,0,0,0,0,0,0,0,0,0,0,0,0,0,0,0,0,0,0,0,0,0,0,0,0,0,0,0,0,0,0,0,0,0,0,0,0,0,0,0,0,0,0,0,0,0,0,0,0,0,0,0,0,0,0,0,0,0,0,0,0,0,0,0,0,0,0,0,0,0,0,0,0,0,0,0,0,0,0,0,0,0,0,0,0,0,0,0,0,0,0,0,0,0,0,0,0,0,0,0,0,0,0,0,0,0,0,0,0,0,0,0,0,0,0,0,0,0,0,0,0,0,0,0,0,0,0,0,0,0,0,0,0,0,0,0,0,0,0,0,0,0,0,0,0,0,0,0,0,0,0,0,0,0,0,0,0,0,0,0,0,0,0,0,0,0,0,0,0,0,0,0,0,0,0,0,0,0,0,0,0,0,0,0,0,0,0,0,0,0,0,0,0,0,0,0,0,0,0,0,0,0,0,0,0,0,0,0,0,0,0,0,0,0,0,0,0,0,0,0,0,0,0,0,0,0,0,0,0,0,0,0,0,0,0,0,0,0,0,0,0,0,0,0,0,0,0,0,0,0,0,0,0,0,0,0,0,0,0,0,0,0,0,0,0,0,0,0,0,0,0,0,0,0,0,0,0,0,0,0,0,0,0,0,0,0,0,0,0,0,0,0,0,209,0,0,0,0,0,0,0,0,0,0,0,0,0,0,0,0,0,0,0,0,0,0,0,0,0,0,666,0,0,0,0,0,0,0,0,0,0,0,0,0,0,0,0,0,0,0,0,0,0,0,0,0,0,0,0,0,0,0,0,0,0,0,0,0,0,0,0,0,0,0,0,0,0,0,0,0,0,0,0,0,0,0,0,0,0,0,0,0,0,0,0,0,0,0,0,0,0,0,0,0,0,0,0,0,0,0,0,0,0,0,0,0,0,0,0,0,0,0,0,0,0,0,0,0,0,0,0,0,0,0,0,0,0,0,0,0,0,0,0,0,0,0,0,0,0,0,0,0,0,0,0,0,0,0,0,0,0,0,0,0,0,0,0,0,0,0,0,0,0,0,0,0,0,0,0,0,0,0,0,0,0,0,0,0,0,0,0,0,0,0,0,0,0,0,0,0,0,0,0,0,0,0,0,0,0,0,0,0,0,0,0,0,0,0,0,0,0,0,0,0,0,0,0,0,0,0,0,0,0,0,0,0,0,0,0,0,0,0,0,0,0,0,0,0,0,0,0,0,0,0,0,0,0,0,0,0,0,0,0,0,0,0,0,0,0,0,0,0,0,0,0,0,0,0,0,0,0,0,0,0,0,0,0,0,0,0,0,0,0,0,0,0,0,0,0,0,0,0,0,0,0,0,0,0,0,0,0,0,0,0,0,0,0,0,0,0,0,0,0,0,0,0,0,0,0,0,0,0,0,0,0,0,0,0,0,0,0,0,0,0,0,0,0,0,0,0,0,0,0,0,0,0,0,0,0,0,0,0,0,0,0,0,0,0,0,0,0,0,0,0,0,0,0,0,0,0,0,0,0,0,0,0,0,0,0,0,0,0,0,0,0,0,0,0,0,0,0,0,0,0,0,0,0,0,0,0,0,0,0,0,0,0,0,0,0,0,0,0,0,0,0,0,0,0,0,0,0,0,0,0,0,0,0,0,0,0,0,0,0,0,0,0,0,0,0,0,0,0,192,193,0,0,0,0,0,0,0,0,0,0,0,0,0,0,0,0,0,0,0,0,0,0,0,200,201,0,0,0,853,0,0,0,0,0,0,0,0,0,0,0,0,0,0,0,0,0,0,83,208,658,659,660,588,0,0,0,0,0,0,0,0,0,0,0,0,0,0,0,0,853,0,627,91,0,666,583,663,596,0,83,192,193,0,0,0,0,0,0,0,0,0,0,0,0,0,71,0,849,0,674,591,674,0,636,91,200,201,853,0,0,0,0,0,0,0,0,0,0,0,96,97,0,0,636,196,196,196,0,236,237,208,209,0,0,0,0,0,0,0,0,0,0,0,853,104,105,0,627,66,67,54,0,636,244,245,80,81,663,0,0,0,0,0,0,0,0,0,611,624,636,82,0,634,74,75,0,0,0,238,239,88,89,611,0,0,0,0,0,0,0,0,0,619,632,0,90,218,219,0,0,0,0,853,0,195,0,0,619,0,0,0,0,0,0,0,0,0,0,627,0,0,226,227,853,588,636,187,173,120,121,0,0,0,0,0,0,0,0,0,0,0,0,0,0,0,0,0,169,0,596,0,195,181,0,0,0,663,0,853,0,0,0,0,0,0,0,0,0,0,0,71,0,177,171,0,0,0,189,0,0,0,0,0,0,0,0,0,0,0,0,0,0,0,169,0,0,663,0,179,0,0,0,0,0,0,190,191,0,0,0,611,0,0,0,0,0,0,0,177,0,0,0,196,196,0,0,849,0,0,0,198,199,0,0,0,619,0,0,0,0,0,0,663,0,0,0,0,849,0,636,0,195,0,171,0,0,196,0,196,0,0,0,0,0,0,0,0,0,0,170,196,196,0,0,0,663,0,0,179,0,0,187,196,59,0,0,627,0,0,0,0,0,0,0,178,857,0,0,0,196,196,196,0,0,196,196,195,853,0,196,0,0,0,0,0,853,0,186,0,0,0,196,196,196,236,853,0,196,196,636,0,853,0,853,0,0,0,0,0,0,0,0,194,0,0,0,187,0,611,244,0,853,0,238,239,853,0,0,0,0,0,0,0,0,0,0,0,0,0,0,0,0,0,619,0,0,0,0,0,0,0,647,0,0,0,186,0,0,0,0,0,0,0,0,0,0,0,0,0,0,0,0,0,0,0,0,0,0,0,0,0,0,0,0,0,0,0,0,0,0,0,0,0,0,0,0,0,0,0,0,0,0,0,0,0,0,0,0,0,0,0,0,0,0,0,0,0,0,0,0,0,0,0,0,0,0,0,0,0,0,0,0,0,0,0,0,0,0,0,0,0,0,0,0,0,0,0,0,0,0,0,0,0,0,0,0,0,0,0,0,0,0,0,0,0,0,0,0,0,0,0,0,4,0,0,0,0,0,0,0,0,0,0,0,0,0,0,0,0,0,0,0,0,0,0,0,0,5,0,0,0,0,0,0,0,0,0,0,0,0,0,0,0,0,0,0,0,0,0,0,0,0,0,0,0,0,0,0,0,0,0,0,0,0,0,0,0,0,0,0,0,0,0,0,0,0,0,0,0,0,0,0,0,0,0,0,0,0,0,0,0,0,0,0,0,0,0,0,0,0,0,0,0,0,0,0,0,0,0,0,0,0,0,0,0,0,0,0,0,0,0,0,0,0,0,0,0,0,0,0,0,0,0,0,0,0,0,0,0,0,0,0,0,0,0,0,0,0,0,0,0,0,0,0,0,0,0,0,0,0,0,0,0,0,0,0,0,0,0,0,0,0,0,0,0,0,0,0,0,0,0,0,0,0,0,0,0,0,0,0,0,0,0,0,0,0,0,0,0,0,0,0,0,0,0,0,0,0,0,0,0,0,0,0,0,0,0,0,0,0,0,0,0,0,0,0,0,0,0,0,0,0,0,0,0,0,0,0,0,0,0,0,0,0,0,0,0,0,0,0,0,0,0,0,0,0,0,0,0,0,0,0,0,0,0,0,0,0,0,0,0,0,0,0,0,0,0,0,0,0,0,0,0,0,0,0,0,0,0,0,0,0,0,0,0,0,0,0,0,0,0,0,0,0,0,0,0,0,0,0,0,0,0,0,0,0,0,0,0,0,0,0,0,0,0,0,0,0,0,0,0,0,0,0,0,0,0,0,0,0,0,0,0,0,0,0,0,0,0,0,0,0,0,0,0,0,0,0,0,0,0,0,0,0,0,0,0,0,0,0,0,0,0,0,0,0,0,0,0,0,0,0,0,0,0,0,0,0,0,0,0,0,0,0,0,0,0,0,0,0,0,0,0,0,0,0,0,0,0,0,0,0,0,0,0,0,0,0,0,0,0,0,0,0,0,0,0,0,0,0,0,0,0,0,0,0,0,0,0,0,0,0,0,0,0,0,0,0,0,0,0,0,0,0,0,0,0,0,0,0,0,0,0,0,0,0,0,0,0,0,0,0,0,0,0,0,0,0,0,0,0,0,0,0,0,0,0,0,0,0,0,0,0,0,0,0,0,0,0,0,0,0,0,0,0,0,0,0,0,0,0,0,0,0,0,0,0,0,0,0,0,0,0,0,0,0,0,0,0,0,0,0,0,0,0,0,0,0,0,0,0,0,0,0,0,0,0,0,0,0,0,0,0,0,0,0,0,0,0,0,0,0,0,0,0,0,0,0,0,0,0,0,0,0,0,0,0,0,0,0,0,0,0,0,0,0,0,0,0,0,0,0,0,0,0,0,0,0,0,0,0,0,0,0,0,0,0,0,0,0,0,0,0,0,0,0,0,0,0,0,0,0,0,0,0,0,0,0,0,0,0,0,0,0,0,0,0,0,0,0,0,0,0,0,0,0,0,0,0,0,0,0,0,0,0,0,0,0,0,0,0,0,0,0,0,0,0,0,0,0,0,0,0,0,0,0,0,0,0,0,0,0,0,0,0,0,0,0,0,0,0,0,0,0,0,0,0,0,0,0,0,0,0,0,0,0,0,0,0,0,0,0,0,0,0,0,0,0,0,0,0,0,0,0,0,0,0,0,0,0,0,0,0,0,0,0,0,0,0,0,0,0,0,0,0,0,0,0,0,0,0,0,0,0,0,0,0,0,0,0,0,0,0,0,0,0,0,0,0,0,0,0,0,0,0,0,0,0,0,0,0,0,0,0,0,0,0,0,0,0,0,0,0,0,0,0,0,0,0,0,0,0,0,0,0,0,0,0,0,0,0,0,0,0,0,0,0,0,0,0,0,0,0,0,0,0,0,0,0,0,0,0,0,0,0,0,0,0,0,0,0,0,0,0,0,0,0,0,0,0,0,0,0,0,0,0,0,0,0,0,0,0,0,0,0,0,0,0,0,0,0,0,0,0,0,0,0,0,0,0,0,0,0,0,0,0,0,0],
"events":[
null,
null,
{"id":2,"name":"Block","note":"","pages":[{"conditions":{"actorId":1,"actorValid":false,"itemId":1,"itemValid":false,"selfSwitchCh":"A","selfSwitchValid":false,"switch1Id":1,"switch1Valid":false,"switch2Id":1,"switch2Valid":false,"variableId":1,"variableValid":false,"variableValue":0},"directionFix":true,"image":{"tileId":0,"characterName":"","direction":2,"pattern":0,"characterIndex":0},"moveFrequency":3,"moveRoute":{"list":[{"code":0,"indent":null,"parameters":[]}],"repeat":true,"skippable":false,"wait":false},"moveSpeed":3,"moveType":0,"priorityType":1,"stepAnime":false,"through":false,"trigger":0,"walkAnime":false,"list":[{"code":0,"indent":0,"parameters":[]}]}],"x":17,"y":16},
{"id":3,"name":"Block","note":"","pages":[{"conditions":{"actorId":1,"actorValid":false,"itemId":1,"itemValid":false,"selfSwitchCh":"A","selfSwitchValid":false,"switch1Id":1,"switch1Valid":false,"switch2Id":1,"switch2Valid":false,"variableId":1,"variableValid":false,"variableValue":0},"directionFix":true,"image":{"tileId":0,"characterName":"","direction":2,"pattern":0,"characterIndex":0},"moveFrequency":3,"moveRoute":{"list":[{"code":0,"indent":null,"parameters":[]}],"repeat":true,"skippable":false,"wait":false},"moveSpeed":3,"moveType":0,"priorityType":1,"stepAnime":false,"through":false,"trigger":0,"walkAnime":false,"list":[{"code":0,"indent":0,"parameters":[]}]}],"x":16,"y":16},
{"id":4,"name":"Block","note":"","pages":[{"conditions":{"actorId":1,"actorValid":false,"itemId":1,"itemValid":false,"selfSwitchCh":"A","selfSwitchValid":false,"switch1Id":1,"switch1Valid":false,"switch2Id":1,"switch2Valid":false,"variableId":1,"variableValid":false,"variableValue":0},"directionFix":true,"image":{"tileId":0,"characterName":"","direction":2,"pattern":0,"characterIndex":0},"moveFrequency":3,"moveRoute":{"list":[{"code":0,"indent":null,"parameters":[]}],"repeat":true,"skippable":false,"wait":false},"moveSpeed":3,"moveType":0,"priorityType":1,"stepAnime":false,"through":false,"trigger":0,"walkAnime":false,"list":[{"code":0,"indent":0,"parameters":[]}]}],"x":18,"y":14},
{"id":5,"name":"Block","note":"","pages":[{"conditions":{"actorId":1,"actorValid":false,"itemId":1,"itemValid":false,"selfSwitchCh":"A","selfSwitchValid":false,"switch1Id":1,"switch1Valid":false,"switch2Id":1,"switch2Valid":false,"variableId":1,"variableValid":false,"variableValue":0},"directionFix":true,"image":{"tileId":0,"characterName":"","direction":2,"pattern":0,"characterIndex":0},"moveFrequency":3,"moveRoute":{"list":[{"code":0,"indent":null,"parameters":[]}],"repeat":true,"skippable":false,"wait":false},"moveSpeed":3,"moveType":0,"priorityType":1,"stepAnime":false,"through":false,"trigger":0,"walkAnime":false,"list":[{"code":0,"indent":0,"parameters":[]}]}],"x":19,"y":15},
{"id":6,"name":"Block","note":"","pages":[{"conditions":{"actorId":1,"actorValid":false,"itemId":1,"itemValid":false,"selfSwitchCh":"A","selfSwitchValid":false,"switch1Id":1,"switch1Valid":false,"switch2Id":1,"switch2Valid":false,"variableId":1,"variableValid":false,"variableValue":0},"directionFix":true,"image":{"tileId":0,"characterName":"","direction":2,"pattern":0,"characterIndex":0},"moveFrequency":3,"moveRoute":{"list":[{"code":0,"indent":null,"parameters":[]}],"repeat":true,"skippable":false,"wait":false},"moveSpeed":3,"moveType":0,"priorityType":1,"stepAnime":false,"through":false,"trigger":0,"walkAnime":false,"list":[{"code":0,"indent":0,"parameters":[]}]}],"x":20,"y":14},
{"id":7,"name":"Block","note":"","pages":[{"conditions":{"actorId":1,"actorValid":false,"itemId":1,"itemValid":false,"selfSwitchCh":"A","selfSwitchValid":false,"switch1Id":1,"switch1Valid":false,"switch2Id":1,"switch2Valid":false,"variableId":1,"variableValid":false,"variableValue":0},"directionFix":true,"image":{"tileId":0,"characterName":"","direction":2,"pattern":0,"characterIndex":0},"moveFrequency":3,"moveRoute":{"list":[{"code":0,"indent":null,"parameters":[]}],"repeat":true,"skippable":false,"wait":false},"moveSpeed":3,"moveType":0,"priorityType":1,"stepAnime":false,"through":false,"trigger":0,"walkAnime":false,"list":[{"code":0,"indent":0,"parameters":[]}]}],"x":21,"y":16},
{"id":8,"name":"Block","note":"","pages":[{"conditions":{"actorId":1,"actorValid":false,"itemId":1,"itemValid":false,"selfSwitchCh":"A","selfSwitchValid":false,"switch1Id":1,"switch1Valid":false,"switch2Id":1,"switch2Valid":false,"variableId":1,"variableValid":false,"variableValue":0},"directionFix":true,"image":{"tileId":0,"characterName":"","direction":2,"pattern":0,"characterIndex":0},"moveFrequency":3,"moveRoute":{"list":[{"code":0,"indent":null,"parameters":[]}],"repeat":true,"skippable":false,"wait":false},"moveSpeed":3,"moveType":0,"priorityType":1,"stepAnime":false,"through":false,"trigger":0,"walkAnime":false,"list":[{"code":0,"indent":0,"parameters":[]}]}],"x":15,"y":17},
{"id":9,"name":"Block","note":"","pages":[{"conditions":{"actorId":1,"actorValid":false,"itemId":1,"itemValid":false,"selfSwitchCh":"A","selfSwitchValid":false,"switch1Id":1,"switch1Valid":false,"switch2Id":1,"switch2Valid":false,"variableId":1,"variableValid":false,"variableValue":0},"directionFix":true,"image":{"tileId":0,"characterName":"","direction":2,"pattern":0,"characterIndex":0},"moveFrequency":3,"moveRoute":{"list":[{"code":0,"indent":null,"parameters":[]}],"repeat":true,"skippable":false,"wait":false},"moveSpeed":3,"moveType":0,"priorityType":1,"stepAnime":false,"through":false,"trigger":0,"walkAnime":false,"list":[{"code":0,"indent":0,"parameters":[]}]}],"x":14,"y":17},
{"id":10,"name":"Block","note":"","pages":[{"conditions":{"actorId":1,"actorValid":false,"itemId":1,"itemValid":false,"selfSwitchCh":"A","selfSwitchValid":false,"switch1Id":1,"switch1Valid":false,"switch2Id":1,"switch2Valid":false,"variableId":1,"variableValid":false,"variableValue":0},"directionFix":true,"image":{"tileId":0,"characterName":"","direction":2,"pattern":0,"characterIndex":0},"moveFrequency":3,"moveRoute":{"list":[{"code":0,"indent":null,"parameters":[]}],"repeat":true,"skippable":false,"wait":false},"moveSpeed":3,"moveType":0,"priorityType":1,"stepAnime":false,"through":false,"trigger":0,"walkAnime":false,"list":[{"code":0,"indent":0,"parameters":[]}]}],"x":13,"y":16},
{"id":11,"name":"Block","note":"","pages":[{"conditions":{"actorId":1,"actorValid":false,"itemId":1,"itemValid":false,"selfSwitchCh":"A","selfSwitchValid":false,"switch1Id":1,"switch1Valid":false,"switch2Id":1,"switch2Valid":false,"variableId":1,"variableValid":false,"variableValue":0},"directionFix":true,"image":{"tileId":0,"characterName":"","direction":2,"pattern":0,"characterIndex":0},"moveFrequency":3,"moveRoute":{"list":[{"code":0,"indent":null,"parameters":[]}],"repeat":true,"skippable":false,"wait":false},"moveSpeed":3,"moveType":0,"priorityType":1,"stepAnime":false,"through":false,"trigger":0,"walkAnime":false,"list":[{"code":0,"indent":0,"parameters":[]}]}],"x":12,"y":16},
{"id":12,"name":"Block","note":"","pages":[{"conditions":{"actorId":1,"actorValid":false,"itemId":1,"itemValid":false,"selfSwitchCh":"A","selfSwitchValid":false,"switch1Id":1,"switch1Valid":false,"switch2Id":1,"switch2Valid":false,"variableId":1,"variableValid":false,"variableValue":0},"directionFix":true,"image":{"tileId":0,"characterName":"","direction":2,"pattern":0,"characterIndex":0},"moveFrequency":3,"moveRoute":{"list":[{"code":0,"indent":null,"parameters":[]}],"repeat":true,"skippable":false,"wait":false},"moveSpeed":3,"moveType":0,"priorityType":1,"stepAnime":false,"through":false,"trigger":0,"walkAnime":false,"list":[{"code":0,"indent":0,"parameters":[]}]}],"x":11,"y":16},
{"id":13,"name":"Block","note":"","pages":[{"conditions":{"actorId":1,"actorValid":false,"itemId":1,"itemValid":false,"selfSwitchCh":"A","selfSwitchValid":false,"switch1Id":1,"switch1Valid":false,"switch2Id":1,"switch2Valid":false,"variableId":1,"variableValid":false,"variableValue":0},"directionFix":true,"image":{"tileId":0,"characterName":"","direction":2,"pattern":0,"characterIndex":0},"moveFrequency":3,"moveRoute":{"list":[{"code":0,"indent":null,"parameters":[]}],"repeat":true,"skippable":false,"wait":false},"moveSpeed":3,"moveType":0,"priorityType":1,"stepAnime":false,"through":false,"trigger":0,"walkAnime":false,"list":[{"code":0,"indent":0,"parameters":[]}]}],"x":10,"y":17},
{"id":14,"name":"Block","note":"","pages":[{"conditions":{"actorId":1,"actorValid":false,"itemId":1,"itemValid":false,"selfSwitchCh":"A","selfSwitchValid":false,"switch1Id":1,"switch1Valid":false,"switch2Id":1,"switch2Valid":false,"variableId":1,"variableValid":false,"variableValue":0},"directionFix":true,"image":{"tileId":0,"characterName":"","direction":2,"pattern":0,"characterIndex":0},"moveFrequency":3,"moveRoute":{"list":[{"code":0,"indent":null,"parameters":[]}],"repeat":true,"skippable":false,"wait":false},"moveSpeed":3,"moveType":0,"priorityType":1,"stepAnime":false,"through":false,"trigger":0,"walkAnime":false,"list":[{"code":0,"indent":0,"parameters":[]}]}],"x":9,"y":17},
{"id":15,"name":"Block","note":"","pages":[{"conditions":{"actorId":1,"actorValid":false,"itemId":1,"itemValid":false,"selfSwitchCh":"A","selfSwitchValid":false,"switch1Id":1,"switch1Valid":false,"switch2Id":1,"switch2Valid":false,"variableId":1,"variableValid":false,"variableValue":0},"directionFix":true,"image":{"tileId":0,"characterName":"","direction":2,"pattern":0,"characterIndex":0},"moveFrequency":3,"moveRoute":{"list":[{"code":0,"indent":null,"parameters":[]}],"repeat":true,"skippable":false,"wait":false},"moveSpeed":3,"moveType":0,"priorityType":1,"stepAnime":false,"through":false,"trigger":0,"walkAnime":false,"list":[{"code":0,"indent":0,"parameters":[]}]}],"x":8,"y":17},
{"id":16,"name":"Block","note":"","pages":[{"conditions":{"actorId":1,"actorValid":false,"itemId":1,"itemValid":false,"selfSwitchCh":"A","selfSwitchValid":false,"switch1Id":1,"switch1Valid":false,"switch2Id":1,"switch2Valid":false,"variableId":1,"variableValid":false,"variableValue":0},"directionFix":true,"image":{"tileId":0,"characterName":"","direction":2,"pattern":0,"characterIndex":0},"moveFrequency":3,"moveRoute":{"list":[{"code":0,"indent":null,"parameters":[]}],"repeat":true,"skippable":false,"wait":false},"moveSpeed":3,"moveType":0,"priorityType":1,"stepAnime":false,"through":false,"trigger":0,"walkAnime":false,"list":[{"code":0,"indent":0,"parameters":[]}]}],"x":10,"y":13},
{"id":17,"name":"Block","note":"","pages":[{"conditions":{"actorId":1,"actorValid":false,"itemId":1,"itemValid":false,"selfSwitchCh":"A","selfSwitchValid":false,"switch1Id":1,"switch1Valid":false,"switch2Id":1,"switch2Valid":false,"variableId":1,"variableValid":false,"variableValue":0},"directionFix":true,"image":{"tileId":0,"characterName":"","direction":2,"pattern":0,"characterIndex":0},"moveFrequency":3,"moveRoute":{"list":[{"code":0,"indent":null,"parameters":[]}],"repeat":true,"skippable":false,"wait":false},"moveSpeed":3,"moveType":0,"priorityType":1,"stepAnime":false,"through":false,"trigger":0,"walkAnime":false,"list":[{"code":0,"indent":0,"parameters":[]}]}],"x":9,"y":13},
{"id":18,"name":"Block","note":"","pages":[{"conditions":{"actorId":1,"actorValid":false,"itemId":1,"itemValid":false,"selfSwitchCh":"A","selfSwitchValid":false,"switch1Id":1,"switch1Valid":false,"switch2Id":1,"switch2Valid":false,"variableId":1,"variableValid":false,"variableValue":0},"directionFix":true,"image":{"tileId":0,"characterName":"","direction":2,"pattern":0,"characterIndex":0},"moveFrequency":3,"moveRoute":{"list":[{"code":0,"indent":null,"parameters":[]}],"repeat":true,"skippable":false,"wait":false},"moveSpeed":3,"moveType":0,"priorityType":1,"stepAnime":false,"through":false,"trigger":0,"walkAnime":false,"list":[{"code":0,"indent":0,"parameters":[]}]}],"x":8,"y":15},
{"id":19,"name":"Block","note":"","pages":[{"conditions":{"actorId":1,"actorValid":false,"itemId":1,"itemValid":false,"selfSwitchCh":"A","selfSwitchValid":false,"switch1Id":1,"switch1Valid":false,"switch2Id":1,"switch2Valid":false,"variableId":1,"variableValid":false,"variableValue":0},"directionFix":true,"image":{"tileId":0,"characterName":"","direction":2,"pattern":0,"characterIndex":0},"moveFrequency":3,"moveRoute":{"list":[{"code":0,"indent":null,"parameters":[]}],"repeat":true,"skippable":false,"wait":false},"moveSpeed":3,"moveType":0,"priorityType":1,"stepAnime":false,"through":false,"trigger":0,"walkAnime":false,"list":[{"code":0,"indent":0,"parameters":[]}]}],"x":7,"y":15},
null,
{"id":21,"name":"Tertia","note":"","pages":[{"conditions":{"actorId":1,"actorValid":false,"itemId":1,"itemValid":false,"selfSwitchCh":"A","selfSwitchValid":false,"switch1Id":1,"switch1Valid":false,"switch2Id":1,"switch2Valid":false,"variableId":1,"variableValid":false,"variableValue":0},"directionFix":false,"image":{"tileId":0,"characterName":"Tertia char","direction":2,"pattern":1,"characterIndex":0},"moveFrequency":3,"moveRoute":{"list":[{"code":0,"indent":null,"parameters":[]}],"repeat":true,"skippable":false,"wait":false},"moveSpeed":3,"moveType":0,"priorityType":1,"stepAnime":false,"through":false,"trigger":0,"walkAnime":true,"list":[{"code":356,"indent":0,"parameters":["Quest 93 Complete Objective 5"]},{"code":356,"indent":0,"parameters":["Quest 93 Show Objective 6"]},{"code":101,"indent":0,"parameters":["Yarra emo",3,0,2]},{"code":401,"indent":0,"parameters":["(Whoa, she's huge!)"]},{"code":231,"indent":0,"parameters":[1,"Tertia",0,0,0,10,100,100,255,0]},{"code":101,"indent":0,"parameters":["Tertia emo",0,0,2]},{"code":401,"indent":0,"parameters":["..."]},{"code":235,"indent":0,"parameters":[1]},{"code":101,"indent":0,"parameters":["Carina emo",3,0,2]},{"code":401,"indent":0,"parameters":["..."]},{"code":101,"indent":0,"parameters":["Aka emo2",1,0,2]},{"code":401,"indent":0,"parameters":["Hello? We mean you no harm, but we didn't expect to encounter anyone here."]},{"code":101,"indent":0,"parameters":["Tertia emo",0,0,2]},{"code":401,"indent":0,"parameters":["..."]},{"code":101,"indent":0,"parameters":["Aka emo2",4,0,2]},{"code":401,"indent":0,"parameters":["Uh, can you hear me?"]},{"code":101,"indent":0,"parameters":["1 Simon dark",0,0,2]},{"code":401,"indent":0,"parameters":["I think she's ignoring us."]},{"code":101,"indent":0,"parameters":["Tertia emo",5,0,2]},{"code":401,"indent":0,"parameters":["..."]},{"code":101,"indent":0,"parameters":["Yarra emo",5,0,2]},{"code":401,"indent":0,"parameters":["Carina, did you feel it too? This is amazing..."]},{"code":101,"indent":0,"parameters":["Carina emo",4,0,2]},{"code":401,"indent":0,"parameters":["I didn't want to believe it, but I feel something of the divine about her..."]},{"code":101,"indent":0,"parameters":["Yarra emo2",0,0,2]},{"code":401,"indent":0,"parameters":["Divine TITS, you mean! Those are amazing!"]},{"code":101,"indent":0,"parameters":["Nalili emo1",5,0,2]},{"code":401,"indent":0,"parameters":["I know! It looks like that dress is actually compressing, not boosting, so I can only imagine them!"]},{"code":111,"indent":0,"parameters":[0,263,0]},{"code":101,"indent":1,"parameters":["Varia emo",5,0,2]},{"code":401,"indent":1,"parameters":["Perhaps speaking about her breasts is not a good way to make a first impression."]},{"code":0,"indent":1,"parameters":[]},{"code":411,"indent":0,"parameters":[]},{"code":101,"indent":1,"parameters":["Varia emo",4,0,2]},{"code":401,"indent":1,"parameters":["You sure you want to lead by talking about her tits like that?"]},{"code":0,"indent":1,"parameters":[]},{"code":412,"indent":0,"parameters":[]},{"code":101,"indent":0,"parameters":["Nalili emo1",3,0,2]},{"code":401,"indent":0,"parameters":["But we're complimenting them..."]},{"code":101,"indent":0,"parameters":["Tertia emo",5,0,2]},{"code":401,"indent":0,"parameters":["...it doesn't matter..."]},{"code":101,"indent":0,"parameters":["Yarra emo2",0,0,2]},{"code":401,"indent":0,"parameters":["Vindication!"]},{"code":101,"indent":0,"parameters":["Tertia emo",0,0,2]},{"code":401,"indent":0,"parameters":["..."]},{"code":101,"indent":0,"parameters":["1 Simon dark",0,0,2]},{"code":401,"indent":0,"parameters":["Riala, is she what I think she is?"]},{"code":101,"indent":0,"parameters":["Riala emo",5,0,2]},{"code":401,"indent":0,"parameters":["There's no doubt in my mind. This is a goddess."]},{"code":101,"indent":0,"parameters":["1 Simon dark",0,0,2]},{"code":401,"indent":0,"parameters":["Has something been done to her? If there's some kind of binding spell, could we remove it?"]},{"code":101,"indent":0,"parameters":["Tertia emo",0,0,2]},{"code":401,"indent":0,"parameters":["...I'm not bound."]},{"code":101,"indent":0,"parameters":["Aka emo2",5,0,2]},{"code":401,"indent":0,"parameters":["It seems like you want to be left alone, but I'm afraid we're here looking for the goddess Tertia."]},{"code":101,"indent":0,"parameters":["Tertia emo",5,0,2]},{"code":401,"indent":0,"parameters":["...that's me."]},{"code":101,"indent":0,"parameters":["1 Simon dark",1,0,2]},{"code":401,"indent":0,"parameters":["Tertia, we're sorry to disturb you, but we're here on behalf of the dwarves of Eustrin."]},{"code":101,"indent":0,"parameters":["Tertia emo",5,0,2]},{"code":401,"indent":0,"parameters":["..."]},{"code":101,"indent":0,"parameters":["Carina emo",5,0,2]},{"code":401,"indent":0,"parameters":["I can't say this is what I expected."]},{"code":101,"indent":0,"parameters":["Tertia emo",0,0,2]},{"code":401,"indent":0,"parameters":["You are... an Incubus King..."]},{"code":101,"indent":0,"parameters":["1 Simon dark",0,0,2]},{"code":401,"indent":0,"parameters":["..."]},{"code":101,"indent":0,"parameters":["Robin blond emo",0,0,2]},{"code":401,"indent":0,"parameters":["There's no point dissembling. She seems very perceptive, despite how she acts."]},{"code":101,"indent":0,"parameters":["1 Simon dark2",6,0,2]},{"code":401,"indent":0,"parameters":["Yes, I'm an Incubus King. We'd like to have a forthright conversation with you, but..."]},{"code":101,"indent":0,"parameters":["Tertia emo",5,0,2]},{"code":401,"indent":0,"parameters":["This is... tiresome... just take me..."]},{"code":101,"indent":0,"parameters":["1 Simon dark",0,0,2]},{"code":401,"indent":0,"parameters":["That isn't my intention. We only want to talk."]},{"code":101,"indent":0,"parameters":["Tertia emo",0,0,2]},{"code":401,"indent":0,"parameters":["..."]},{"code":101,"indent":0,"parameters":["Yarra emo",0,0,2]},{"code":401,"indent":0,"parameters":["Hey, wait a minute... are you actually just horny? Is that what you want?"]},{"code":101,"indent":0,"parameters":["Tertia emo",0,0,2]},{"code":401,"indent":0,"parameters":["..."]},{"code":101,"indent":0,"parameters":["Yarra emo2",6,0,2]},{"code":401,"indent":0,"parameters":["Our Simon doesn't jump just anyone, but I'll give you a little something if you want..."]},{"code":224,"indent":0,"parameters":[[255,0,255,255],60,true]},{"code":101,"indent":0,"parameters":["Tertia emo",7,0,2]},{"code":401,"indent":0,"parameters":["Oh fuck, yes! Take me! Fuck me now!"]},{"code":101,"indent":0,"parameters":["Yarra emo",3,0,2]},{"code":401,"indent":0,"parameters":["Uh... I just tried to give her a pleasant little thrill, honest."]},{"code":101,"indent":0,"parameters":["Aka emo2",7,0,2]},{"code":401,"indent":0,"parameters":["What. The. Fuck."]},{"code":101,"indent":0,"parameters":["Tertia emo",7,0,2]},{"code":401,"indent":0,"parameters":["I've been waiting so long for an Incubus King! Please, make me your slut!"]},{"code":101,"indent":0,"parameters":["1 Simon dark2",3,0,2]},{"code":401,"indent":0,"parameters":["...liar."]},{"code":101,"indent":0,"parameters":["Tertia emo",0,0,2]},{"code":401,"indent":0,"parameters":["..."]},{"code":101,"indent":0,"parameters":["Yarra emo",3,0,2]},{"code":401,"indent":0,"parameters":["Wait a minute, that was just an act?"]},{"code":101,"indent":0,"parameters":["Tertia emo",0,0,2]},{"code":401,"indent":0,"parameters":["..."]},{"code":101,"indent":0,"parameters":["Nalili emo2",0,0,2]},{"code":401,"indent":0,"parameters":["Completely faked. I couldn't tell the difference... but why?"]},{"code":101,"indent":0,"parameters":["Tertia emo",5,0,2]},{"code":401,"indent":0,"parameters":["..."]},{"code":101,"indent":0,"parameters":["Riala emo",5,0,2]},{"code":401,"indent":0,"parameters":["If I understand correctly, Tertia is old... extremely old. She makes the other goddesses we've met seem like infants."]},{"code":101,"indent":0,"parameters":["Yarra emo",5,0,2]},{"code":401,"indent":0,"parameters":["She knows about Incubus Kings and her essence has definitely been sexually active. She must have served Incubus Kings before."]},{"code":101,"indent":0,"parameters":["1 Simon dark2",6,0,2]},{"code":401,"indent":0,"parameters":["I think I might be able to guess. She knows Incubus Kings want to dominate goddesses and frequently expect certain sexual scripts."]},{"code":101,"indent":0,"parameters":["1 Simon dark",0,0,2]},{"code":401,"indent":0,"parameters":["For whatever reason, she's decided to just copy those scripts instead of struggling. Am I right?"]},{"code":101,"indent":0,"parameters":["Tertia emo",0,0,2]},{"code":401,"indent":0,"parameters":["..."]},{"code":101,"indent":0,"parameters":["Tertia emo",7,0,2]},{"code":401,"indent":0,"parameters":["Oh, fuck, you saw through me! That's so fucking hot! Just fuck me now!"]},{"code":101,"indent":0,"parameters":["1 Simon dark",2,0,2]},{"code":401,"indent":0,"parameters":["..."]},{"code":101,"indent":0,"parameters":["Yarra emo",5,0,2]},{"code":401,"indent":0,"parameters":["I feel like we're being mocked."]},{"code":101,"indent":0,"parameters":["Tertia emo",5,0,2]},{"code":401,"indent":0,"parameters":["...I swam in the molten core of our world, washed by tides of liquid metal."]},{"code":101,"indent":0,"parameters":["Tertia emo",0,0,2]},{"code":401,"indent":0,"parameters":["I have witnessed generation upon generation change until the last would not be recognized by the first."]},{"code":101,"indent":0,"parameters":["Tertia emo",0,0,2]},{"code":401,"indent":0,"parameters":["I have seen the fall of empires built with the dust of empires long forgotten. "]},{"code":101,"indent":0,"parameters":["Tertia emo",7,0,2]},{"code":401,"indent":0,"parameters":["But holy shit, your penis is a larger size than average! Fuck my brains out!"]},{"code":101,"indent":0,"parameters":["Yarra emo2",1,0,2]},{"code":401,"indent":0,"parameters":["Yeah, we're definitely being mocked."]},{"code":101,"indent":0,"parameters":["Nalili emo1",3,0,2]},{"code":401,"indent":0,"parameters":["I like his dick though..."]},{"code":101,"indent":0,"parameters":["1 Simon dark",0,0,2]},{"code":401,"indent":0,"parameters":["Is she stalling for some sort of countermeasure? I don't care if she defends herself, but if she's preparing an attack..."]},{"code":101,"indent":0,"parameters":["Robin blond emo",5,0,2]},{"code":401,"indent":0,"parameters":["I can't sense any preparations. She seems to be magically inert."]},{"code":101,"indent":0,"parameters":["Riala emo",5,0,2]},{"code":401,"indent":0,"parameters":["Removing her sexuality like an Unperson would be theoretically within her power."]},{"code":101,"indent":0,"parameters":["Riala emo",0,0,2]},{"code":401,"indent":0,"parameters":["Yet she doesn't seem to have done anything to reduce her vulnerability to sexual magic."]},{"code":101,"indent":0,"parameters":["Tertia emo",0,0,2]},{"code":401,"indent":0,"parameters":["Why would I? Put me in your harem and do what you like with my body for a few years or a few centuries."]},{"code":101,"indent":0,"parameters":["Tertia emo",5,0,2]},{"code":401,"indent":0,"parameters":["Eventually your reign will end. Your corpse will become earth and your power will rejoin the flow of the Tower."]},{"code":101,"indent":0,"parameters":["1 Simon dark",0,0,2]},{"code":401,"indent":0,"parameters":["Do you approach every Incubus King this way?"]},{"code":101,"indent":0,"parameters":["Tertia emo",0,0,2]},{"code":401,"indent":0,"parameters":["..."]},{"code":101,"indent":0,"parameters":["1 Simon dark",1,0,2]},{"code":401,"indent":0,"parameters":["Well, at least she spoke to us honestly."]},{"code":101,"indent":0,"parameters":["Carina emo",2,0,2]},{"code":401,"indent":0,"parameters":["Why are you just sitting here doing nothing? Your people need you!"]},{"code":101,"indent":0,"parameters":["Tertia emo",0,0,2]},{"code":401,"indent":0,"parameters":["..."]},{"code":101,"indent":0,"parameters":["Tertia emo",4,0,2]},{"code":401,"indent":0,"parameters":["...I can do so little."]},{"code":101,"indent":0,"parameters":["1 Simon dark",0,0,2]},{"code":401,"indent":0,"parameters":["We have no interest in harming you, we just want to help the dwarves. Will you speak to us?"]},{"code":101,"indent":0,"parameters":["Tertia emo",5,0,2]},{"code":401,"indent":0,"parameters":["..."]},{"code":101,"indent":0,"parameters":["1 Simon dark",7,0,2]},{"code":401,"indent":0,"parameters":["Very well. I won't touch you sexually, but we need your power. We need to take steps to force you to assist."]},{"code":101,"indent":0,"parameters":["Aka emo2",4,0,2]},{"code":401,"indent":0,"parameters":["Are you sure?"]},{"code":101,"indent":0,"parameters":["1 Simon dark",0,0,2]},{"code":401,"indent":0,"parameters":["She's too powerful to be ignored. I'm not letting dwarves die because she wants to be left alone."]},{"code":101,"indent":0,"parameters":["Riala emo",0,0,2]},{"code":401,"indent":0,"parameters":["It would be easier for you to take her, but given how little she's resisting, we can probably bind her."]},{"code":101,"indent":0,"parameters":["Tertia emo",0,0,2]},{"code":401,"indent":0,"parameters":["...what do you need?"]},{"code":101,"indent":0,"parameters":["1 Simon dark",1,0,2]},{"code":401,"indent":0,"parameters":["If you're willing to listen, let me tell you of the threats the world currently faces..."]},{"code":221,"indent":0,"parameters":[]},{"code":230,"indent":0,"parameters":[60]},{"code":222,"indent":0,"parameters":[]},{"code":101,"indent":0,"parameters":["Tertia emo",5,0,2]},{"code":401,"indent":0,"parameters":["You are... different than the usual..."]},{"code":101,"indent":0,"parameters":["Tertia emo",0,0,2]},{"code":401,"indent":0,"parameters":["It would be better if you fully embraced the shards within you. You could become a minor god."]},{"code":101,"indent":0,"parameters":["1 Simon dark",0,0,2]},{"code":401,"indent":0,"parameters":["I'd prefer to use them for higher purposes."]},{"code":101,"indent":0,"parameters":["Tertia emo",5,0,2]},{"code":401,"indent":0,"parameters":["...foolish..."]},{"code":101,"indent":0,"parameters":["1 Simon dark2",3,0,2]},{"code":401,"indent":0,"parameters":["Does this mean you'll do nothing to help?"]},{"code":101,"indent":0,"parameters":["Tertia emo",5,0,2]},{"code":401,"indent":0,"parameters":["...so tiring..."]},{"code":101,"indent":0,"parameters":["Tertia emo",0,0,2]},{"code":401,"indent":0,"parameters":["It would be easier if you just fucked me and ordered me to serve you."]},{"code":101,"indent":0,"parameters":["1 Simon dark",0,0,2]},{"code":401,"indent":0,"parameters":["I refuse to do that."]},{"code":101,"indent":0,"parameters":["Tertia emo",5,0,2]},{"code":401,"indent":0,"parameters":["..."]},{"code":101,"indent":0,"parameters":["Yarra emo2",1,0,2]},{"code":401,"indent":0,"parameters":["I was so excited about those tits, but this is turning out really frustrating."]},{"code":101,"indent":0,"parameters":["1 Simon dark",7,0,2]},{"code":401,"indent":0,"parameters":["Extremely so. Place a binding spell so she can't leave, then we'll retreat to discuss this."]},{"code":221,"indent":0,"parameters":[]},{"code":230,"indent":0,"parameters":[60]},{"code":201,"indent":0,"parameters":[0,693,12,10,2,0]},{"code":222,"indent":0,"parameters":[]},{"code":101,"indent":0,"parameters":["1 Simon dark",0,0,2]},{"code":401,"indent":0,"parameters":["I confess, I'm not sure how to proceed here."]},{"code":101,"indent":0,"parameters":["Nalili emo1",1,0,2]},{"code":401,"indent":0,"parameters":["Why not fuck her? She literally asked for it, and if there's ever a justified reason, a goddess is it!"]},{"code":101,"indent":0,"parameters":["Aka emo2",0,0,2]},{"code":401,"indent":0,"parameters":["I don't think you could actually command her true cooperation that way."]},{"code":101,"indent":0,"parameters":["Carina emo",5,0,2]},{"code":401,"indent":0,"parameters":["She seems apathetic, but she isn't entirely. I think we can get through to her."]},{"code":101,"indent":0,"parameters":["Qum D'umpe emo",5,0,2]},{"code":401,"indent":0,"parameters":["Maybe Angry Janine can help? The Beardies would want to know..."]},{"code":101,"indent":0,"parameters":["Yarra emo2",0,0,2]},{"code":401,"indent":0,"parameters":["I think that's a good place to start!"]},{"code":101,"indent":0,"parameters":["Riala emo",5,0,2]},{"code":401,"indent":0,"parameters":["In the short term, we have access to her and no one else does. There's time."]},{"code":101,"indent":0,"parameters":["1 Simon dark",0,0,2]},{"code":401,"indent":0,"parameters":["Alright. Let's go talk to Neranda."]},{"code":101,"indent":0,"parameters":["Robin blond emo",0,0,2]},{"code":401,"indent":0,"parameters":["We should now be able to move to and from this place more easily."]},{"code":121,"indent":0,"parameters":[3727,3727,0]},{"code":123,"indent":0,"parameters":["A",0]},{"code":0,"indent":0,"parameters":[]}]},{"conditions":{"actorId":1,"actorValid":false,"itemId":1,"itemValid":false,"selfSwitchCh":"A","selfSwitchValid":true,"switch1Id":1,"switch1Valid":false,"switch2Id":1,"switch2Valid":false,"variableId":1,"variableValid":false,"variableValue":0},"directionFix":false,"image":{"tileId":0,"characterName":"Tertia char","direction":2,"pattern":1,"characterIndex":0},"moveFrequency":3,"moveRoute":{"list":[{"code":0,"indent":null,"parameters":[]}],"repeat":true,"skippable":false,"wait":false},"moveSpeed":3,"moveType":0,"priorityType":1,"stepAnime":false,"through":false,"trigger":0,"walkAnime":true,"list":[{"code":101,"indent":0,"parameters":["Tertia emo",0,0,2]},{"code":401,"indent":0,"parameters":["..."]},{"code":0,"indent":0,"parameters":[]}]},{"conditions":{"actorId":1,"actorValid":false,"itemId":1,"itemValid":false,"selfSwitchCh":"A","selfSwitchValid":false,"switch1Id":3729,"switch1Valid":true,"switch2Id":1,"switch2Valid":false,"variableId":1,"variableValid":false,"variableValue":0},"directionFix":false,"image":{"tileId":0,"characterName":"Tertia char","direction":2,"pattern":1,"characterIndex":0},"moveFrequency":3,"moveRoute":{"list":[{"code":0,"indent":null,"parameters":[]}],"repeat":true,"skippable":false,"wait":false},"moveSpeed":3,"moveType":0,"priorityType":1,"stepAnime":false,"through":false,"trigger":0,"walkAnime":true,"list":[{"code":101,"indent":0,"parameters":["1 Simon dark",0,0,2]},{"code":401,"indent":0,"parameters":["If you're the goddess of the world itself, how powerful are you?"]},{"code":101,"indent":0,"parameters":["Tertia emo",0,0,2]},{"code":401,"indent":0,"parameters":["There is no single answer... I am both strong and weak."]},{"code":101,"indent":0,"parameters":["1 Simon dark",0,0,2]},{"code":401,"indent":0,"parameters":["Explain."]},{"code":101,"indent":0,"parameters":["Tertia emo",5,0,2]},{"code":401,"indent":0,"parameters":["...I am deeply embedded in the world and the Tower. This is both strength and limitation."]},{"code":101,"indent":0,"parameters":["Tertia emo",0,0,2]},{"code":401,"indent":0,"parameters":["I am not as free to act as an Incubus King, but I can do many things that they cannot."]},{"code":101,"indent":0,"parameters":["1 Simon dark",0,0,2]},{"code":401,"indent":0,"parameters":["Such as? Could you completely stop earthquakes from killing people?"]},{"code":101,"indent":0,"parameters":["Tertia emo",0,0,2]},{"code":401,"indent":0,"parameters":["Not truly... the forces that produce earthquakes are also those that allow for life..."]},{"code":101,"indent":0,"parameters":["Tertia emo",5,0,2]},{"code":401,"indent":0,"parameters":["I am sorry... I am very tired..."]},{"code":101,"indent":0,"parameters":["1 Simon dark",0,0,2]},{"code":401,"indent":0,"parameters":["..."]},{"code":123,"indent":0,"parameters":["B",0]},{"code":0,"indent":0,"parameters":[]}]},{"conditions":{"actorId":1,"actorValid":false,"itemId":1,"itemValid":false,"selfSwitchCh":"B","selfSwitchValid":true,"switch1Id":1,"switch1Valid":false,"switch2Id":1,"switch2Valid":false,"variableId":1,"variableValid":false,"variableValue":0},"directionFix":false,"image":{"tileId":0,"characterName":"Tertia char","direction":2,"pattern":1,"characterIndex":0},"moveFrequency":3,"moveRoute":{"list":[{"code":0,"indent":null,"parameters":[]}],"repeat":true,"skippable":false,"wait":false},"moveSpeed":3,"moveType":0,"priorityType":1,"stepAnime":false,"through":false,"trigger":0,"walkAnime":true,"list":[{"code":111,"indent":0,"parameters":[0,3730,0]},{"code":356,"indent":1,"parameters":["Quest 93 Show Objective 7"]},{"code":101,"indent":1,"parameters":["1 Simon dark",0,0,2]},{"code":401,"indent":1,"parameters":["Here is the situation as I see it, Tertia: we need to keep working with you, but removing you from the Tower will alert Tanurak and other enemies."]},{"code":101,"indent":1,"parameters":["Tertia emo",5,0,2]},{"code":401,"indent":1,"parameters":["You know the option available to you. Just do it and let me help Neranda."]},{"code":101,"indent":1,"parameters":["1 Simon dark2",3,0,2]},{"code":401,"indent":1,"parameters":["That isn't who I am. Riala, can we use purely ascended sexual magic?"]},{"code":230,"indent":1,"parameters":[30]},{"code":205,"indent":1,"parameters":[28,{"list":[{"code":17,"indent":null,"parameters":[]},{"code":0,"indent":null,"parameters":[]}],"repeat":false,"skippable":false,"wait":true}]},{"code":505,"indent":1,"parameters":[{"code":17,"indent":null,"parameters":[]}]},{"code":230,"indent":1,"parameters":[30]},{"code":101,"indent":1,"parameters":["Riala emo",4,0,2]},{"code":401,"indent":1,"parameters":["I'm sorry, Simon, but no. It took us a great deal of study to perfect those techniques."]},{"code":101,"indent":1,"parameters":["Riala emo",5,0,2]},{"code":401,"indent":1,"parameters":["Doing the same with a goddess would be vastly more complex. Our only effective option is using your shard... intuitively."]},{"code":101,"indent":1,"parameters":["1 Simon dark",0,0,2]},{"code":401,"indent":1,"parameters":["...everyone else, please leave us."]},{"code":221,"indent":1,"parameters":[]},{"code":121,"indent":1,"parameters":[3729,3729,1]},{"code":222,"indent":1,"parameters":[]},{"code":101,"indent":1,"parameters":["1 Simon dark",0,0,2]},{"code":401,"indent":1,"parameters":["It seems that we have no other options."]},{"code":101,"indent":1,"parameters":["1 Simon dark",7,0,2]},{"code":401,"indent":1,"parameters":["I will do whatever is necessary to create a better world, but I do not want to take anyone against their will."]},{"code":101,"indent":1,"parameters":["Tertia emo",0,0,2]},{"code":401,"indent":1,"parameters":["It wouldn't be... I've been telling you... to just get it over with..."]},{"code":101,"indent":1,"parameters":["1 Simon dark2",3,0,2]},{"code":401,"indent":1,"parameters":["No. I had hoped that we could come to some agreement that would be positive for both of us."]},{"code":101,"indent":1,"parameters":["Tertia emo",0,0,2]},{"code":401,"indent":1,"parameters":["...what do you mean?"]},{"code":101,"indent":1,"parameters":["1 Simon dark",0,0,2]},{"code":401,"indent":1,"parameters":["Surely there's some form of pleasure that isn't tedious to you. We can do anything you want, so what would you choose?"]},{"code":101,"indent":1,"parameters":["Tertia emo",3,0,2]},{"code":401,"indent":1,"parameters":["You... you would ask me what I want?"]},{"code":101,"indent":1,"parameters":["Tertia emo",7,0,2]},{"code":401,"indent":1,"parameters":["Oh, fuck, no one has ever done that before! Fuck me now, you benevolent man!"]},{"code":101,"indent":1,"parameters":["1 Simon dark2",6,0,2]},{"code":401,"indent":1,"parameters":["That isn't going to work on me anymore. Is that really such a common approach among Incubus Kings?"]},{"code":101,"indent":1,"parameters":["Tertia emo",0,0,2]},{"code":401,"indent":1,"parameters":["I have seen a great many things. Some think themselves more benevolent than others, or apply more overt force."]},{"code":101,"indent":1,"parameters":["Tertia emo",5,0,2]},{"code":401,"indent":1,"parameters":["Some forced me to bind them, spank them... it doesn't matter, they still violated my will."]},{"code":101,"indent":1,"parameters":["1 Simon dark",1,0,2]},{"code":401,"indent":1,"parameters":["As grim as that is, you seem to have found a spark of humor in it."]},{"code":101,"indent":1,"parameters":["Tertia emo",0,0,2]},{"code":401,"indent":1,"parameters":["One of my aspects is being a goddess of fertility, but yes. Sex is intrinsically quite silly at times."]},{"code":101,"indent":1,"parameters":["1 Simon dark",0,0,2]},{"code":401,"indent":1,"parameters":["I think there's an inherent absurdity in many of the things we want most."]},{"code":101,"indent":1,"parameters":["Tertia emo",0,0,2]},{"code":401,"indent":1,"parameters":["Possibly."]},{"code":101,"indent":1,"parameters":["1 Simon dark",0,0,2]},{"code":401,"indent":1,"parameters":["Of all the Incubus Kings you've experienced, which one would you say was your least favorite?"]},{"code":101,"indent":1,"parameters":["Tertia emo",5,0,2]},{"code":401,"indent":1,"parameters":["Hmm... many were cruel, but pain and humiliation quickly grow tedious and they all blend together."]},{"code":101,"indent":1,"parameters":["Tertia emo",0,0,2]},{"code":401,"indent":1,"parameters":["There was one... he always called me \"Mommy\" and required me to change his diapers. The horrors of motherhood without any of the joys."]},{"code":101,"indent":1,"parameters":["1 Simon dark",1,0,2]},{"code":401,"indent":1,"parameters":["Were the diapers a fetish, or did he need to wear them all the time?"]},{"code":101,"indent":1,"parameters":["Tertia emo",5,0,2]},{"code":401,"indent":1,"parameters":["I would... really rather not think about it."]},{"code":101,"indent":1,"parameters":["1 Simon dark",0,0,2]},{"code":401,"indent":1,"parameters":["You seem to be speaking more easily than before."]},{"code":101,"indent":1,"parameters":["Tertia emo",0,0,2]},{"code":401,"indent":1,"parameters":["I was... accustomed to silence. But you have woken me, and you are not disagreeable to speak with."]},{"code":101,"indent":1,"parameters":["1 Simon dark",0,0,2]},{"code":401,"indent":1,"parameters":["..."]},{"code":101,"indent":1,"parameters":["Tertia emo",0,0,2]},{"code":401,"indent":1,"parameters":["..."]},{"code":101,"indent":1,"parameters":["1 Simon dark",0,0,2]},{"code":401,"indent":1,"parameters":["I'm waiting for you to scream about how I'm the first man to have a real conversation with you."]},{"code":101,"indent":1,"parameters":["Tertia emo",1,0,2]},{"code":401,"indent":1,"parameters":["Huhu."]},{"code":101,"indent":1,"parameters":["Tertia emo",0,0,2]},{"code":401,"indent":1,"parameters":["I think your plans and efforts are likely to come to nothing over any meaningful span of time, but I don't find them unpleasant."]},{"code":101,"indent":1,"parameters":["Tertia emo",5,0,2]},{"code":401,"indent":1,"parameters":["It would be better for you to simply indulge."]},{"code":101,"indent":1,"parameters":["Tertia emo",0,0,2]},{"code":401,"indent":1,"parameters":["Use the power to become a benevolent tyrant, have sex with your lovers, and make the world slightly better for a time."]},{"code":101,"indent":1,"parameters":["1 Simon dark",0,0,2]},{"code":401,"indent":1,"parameters":["Meeting you has only convinced me more deeply that something needs to fundamentally change."]},{"code":101,"indent":1,"parameters":["Tertia emo",0,0,2]},{"code":401,"indent":1,"parameters":["I doubt that you can bring that change... but I am willing to lend myself to your work."]},{"code":101,"indent":1,"parameters":["1 Simon dark2",6,0,2]},{"code":401,"indent":1,"parameters":["I'll do what I must, but I would really rather not be with an apathetic partner. Is there any way this could be something you actually want?"]},{"code":101,"indent":1,"parameters":["Tertia emo",5,0,2]},{"code":401,"indent":1,"parameters":["..."]},{"code":101,"indent":1,"parameters":["Tertia emo",0,0,2]},{"code":401,"indent":1,"parameters":["No mental manipulation. It has all been done before, and it would only make things very tedious for both of us."]},{"code":101,"indent":1,"parameters":["1 Simon dark",0,0,2]},{"code":401,"indent":1,"parameters":["That's not a problem."]},{"code":101,"indent":1,"parameters":["Tertia emo",0,0,2]},{"code":401,"indent":1,"parameters":["I would... rather not do anything involving my hips. Not at first. And if I used my hands it would be... less than enthusiastic."]},{"code":101,"indent":1,"parameters":["Tertia emo",0,0,2]},{"code":401,"indent":1,"parameters":["I am very tired of Incubus Kings forcing their way into my throat, especially when they somehow confuse it with a vagina."]},{"code":101,"indent":1,"parameters":["1 Simon dark",7,0,2]},{"code":401,"indent":1,"parameters":["If you want it to be over quickly, I could just force my power and finish while barely touching you."]},{"code":101,"indent":1,"parameters":["Tertia emo",5,0,2]},{"code":401,"indent":1,"parameters":["Well, this truly IS a first... I don't think I remember any Incubus Kings who were this eager to be rid of me."]},{"code":101,"indent":1,"parameters":["Tertia emo",0,0,2]},{"code":401,"indent":1,"parameters":["You forcing yourself through something sounds unappealing. If you really want me to care, I need to see you care."]},{"code":101,"indent":1,"parameters":["1 Simon dark",0,0,2]},{"code":401,"indent":1,"parameters":["You haven't mentioned your breasts at all."]},{"code":101,"indent":1,"parameters":["Tertia emo",5,0,2]},{"code":401,"indent":1,"parameters":["Ah. You... like those, don't you? I've seen your harem."]},{"code":101,"indent":1,"parameters":["Tertia emo",0,0,2]},{"code":401,"indent":1,"parameters":["That could work. So long as you don't feel the need to overinflate your penis or use it as a bludgeon for some reason."]},{"code":101,"indent":1,"parameters":["1 Simon dark",0,0,2]},{"code":401,"indent":1,"parameters":["I don't really have any interest in either. But is this something you want, or just a compromise?"]},{"code":101,"indent":1,"parameters":["Tertia emo",1,0,2]},{"code":401,"indent":1,"parameters":["I am... willing to entertain the idea. A discussion like this truly is new to me."]},{"code":101,"indent":1,"parameters":["1 Simon dark2",6,0,2]},{"code":401,"indent":1,"parameters":["I won't lie: I would like to see you embrace some pleasure. Not falsely, but carrying all your history with you."]},{"code":101,"indent":1,"parameters":["Tertia emo",5,0,2]},{"code":401,"indent":1,"parameters":["I have been somewhat dismissive. The truth is, I feel the smallest element of kinship with you."]},{"code":101,"indent":1,"parameters":["Tertia emo",0,0,2]},{"code":401,"indent":1,"parameters":["Though you are young by my standards, you know something of age and weariness. That is a spark that might be kindled into something more."]},{"code":101,"indent":1,"parameters":["Tertia emo",1,0,2]},{"code":401,"indent":1,"parameters":["I... would not mind if that began with a pleasant absurdity."]},{"code":101,"indent":1,"parameters":["1 Simon dark",1,0,2]},{"code":401,"indent":1,"parameters":["I'm glad to hear you say that, Tertia."]},{"code":121,"indent":1,"parameters":[3731,3731,0]},{"code":101,"indent":1,"parameters":["Yarra emo2",7,0,2]},{"code":401,"indent":1,"parameters":["Oh my fucking god, titfuck already!"]},{"code":101,"indent":1,"parameters":["Tertia emo",7,0,2]},{"code":401,"indent":1,"parameters":["Fuck my titpussy! Having a penis in the vague proximity of my nipples is so fucking orgasmic!"]},{"code":101,"indent":1,"parameters":["Yarra emo2",6,0,2]},{"code":401,"indent":1,"parameters":["You mock, but I'll take it."]},{"code":205,"indent":1,"parameters":[-1,{"list":[{"code":18,"indent":null,"parameters":[]},{"code":0,"indent":null,"parameters":[]}],"repeat":false,"skippable":false,"wait":true}]},{"code":505,"indent":1,"parameters":[{"code":18,"indent":null,"parameters":[]}]},{"code":101,"indent":1,"parameters":["1 Simon dark",4,0,2]},{"code":401,"indent":1,"parameters":["Heh. Yarra, can you give us some privacy?"]},{"code":101,"indent":1,"parameters":["Yarra emo2",0,0,2]},{"code":401,"indent":1,"parameters":["Only because I trust you!"]},{"code":121,"indent":1,"parameters":[3731,3731,1]},{"code":101,"indent":1,"parameters":["Tertia emo",0,0,2]},{"code":401,"indent":1,"parameters":["...that is somewhat new as well. But we can discuss it later."]},{"code":101,"indent":1,"parameters":["Tertia emo",1,0,2]},{"code":401,"indent":1,"parameters":["For now, let us see if this can work after all..."]},{"code":221,"indent":1,"parameters":[]},{"code":117,"indent":1,"parameters":[340]},{"code":356,"indent":1,"parameters":["AddCommonEventMenu 340"]},{"code":121,"indent":1,"parameters":[3734,3734,0]},{"code":101,"indent":1,"parameters":["Aka emo2",5,0,2]},{"code":401,"indent":1,"parameters":["Well, it seems our work with goddesses is off to a strange start."]},{"code":101,"indent":1,"parameters":["Yarra emo2",0,0,2]},{"code":401,"indent":1,"parameters":["Titfucking is a great start, even if I didn't get to see it!"]},{"code":101,"indent":1,"parameters":["Tertia emo",0,0,2]},{"code":401,"indent":1,"parameters":["Succubus... do you not want to see me becoming the moaning creature I mock?"]},{"code":101,"indent":1,"parameters":["Yarra emo",0,0,2]},{"code":401,"indent":1,"parameters":["Nope. I want to see you give in to pleasure, but I've come to realize that pleasure takes many forms."]},{"code":101,"indent":1,"parameters":["Yarra emo2",0,0,2]},{"code":401,"indent":1,"parameters":["You don't have to break. I'm happy to see you melt, so long as you're enjoying yourself!"]},{"code":101,"indent":1,"parameters":["Tertia emo",0,0,2]},{"code":401,"indent":1,"parameters":["..."]},{"code":101,"indent":1,"parameters":["1 Simon dark",0,0,2]},{"code":401,"indent":1,"parameters":["Can we move Tertia now?"]},{"code":101,"indent":1,"parameters":["Riala emo",0,0,2]},{"code":401,"indent":1,"parameters":["It will require all our mages working together to securely move her pocket of the Tower next to our own."]},{"code":101,"indent":1,"parameters":["Robin blond emo",0,0,2]},{"code":401,"indent":1,"parameters":["Perhaps in the meantime, we could take her to our recent find? That might spark some memories."]},{"code":101,"indent":1,"parameters":["Riala emo",1,0,2]},{"code":401,"indent":1,"parameters":["A lovely idea. We'll return to Eustrin first, leave Neranda in her chambers, then be on our way."]},{"code":230,"indent":1,"parameters":[60]},{"code":101,"indent":1,"parameters":["Neranda emo1",0,0,2]},{"code":401,"indent":1,"parameters":["I know you want to go uncover the secrets of the universe, but something has come up while we were with Tertia."]},{"code":101,"indent":1,"parameters":["1 Simon dark",0,0,2]},{"code":401,"indent":1,"parameters":["What is it?"]},{"code":101,"indent":1,"parameters":["Neranda emo1",4,0,2]},{"code":401,"indent":1,"parameters":["Captain Palina has responded to my request for a clandestine meeting. That could bode well for us."]},{"code":101,"indent":1,"parameters":["Neranda emo1",3,0,2]},{"code":401,"indent":1,"parameters":["But she and I can easily converse with one another. Without you..."]},{"code":101,"indent":1,"parameters":["1 Simon dark",0,0,2]},{"code":401,"indent":1,"parameters":["I understand. We'll deal with this first."]},{"code":101,"indent":1,"parameters":["Neranda emo1",3,0,2]},{"code":401,"indent":1,"parameters":["The meeting will take place in the outer tunnels near the main Aram entrance."]},{"code":201,"indent":1,"parameters":[0,142,33,5,2,0]},{"code":222,"indent":1,"parameters":[]},{"code":0,"indent":1,"parameters":[]},{"code":411,"indent":0,"parameters":[]},{"code":101,"indent":1,"parameters":["Tertia emo",5,0,2]},{"code":401,"indent":1,"parameters":["..."]},{"code":0,"indent":1,"parameters":[]},{"code":412,"indent":0,"parameters":[]},{"code":0,"indent":0,"parameters":[]}]}],"x":12,"y":6},
{"id":22,"name":"EV022","note":"","pages":[{"conditions":{"actorId":1,"actorValid":false,"itemId":1,"itemValid":false,"selfSwitchCh":"A","selfSwitchValid":false,"switch1Id":3727,"switch1Valid":true,"switch2Id":1,"switch2Valid":false,"variableId":1,"variableValid":false,"variableValue":0},"directionFix":true,"image":{"tileId":0,"characterName":"!Flame","direction":4,"pattern":1,"characterIndex":0},"moveFrequency":3,"moveRoute":{"list":[{"code":0,"indent":null,"parameters":[]}],"repeat":true,"skippable":false,"wait":false},"moveSpeed":3,"moveType":0,"priorityType":1,"stepAnime":true,"through":false,"trigger":0,"walkAnime":true,"list":[{"code":101,"indent":0,"parameters":["Robin blond emo",0,0,2]},{"code":401,"indent":0,"parameters":["Now that we've untangled the path, we can return to Eustrin directly. Should we?"]},{"code":102,"indent":0,"parameters":[["Yes","No"],1,0,2,0]},{"code":402,"indent":0,"parameters":[0,"Yes"]},{"code":221,"indent":1,"parameters":[]},{"code":201,"indent":1,"parameters":[0,356,53,17,2,0]},{"code":223,"indent":1,"parameters":[[0,0,0,0],1,true]},{"code":222,"indent":1,"parameters":[]},{"code":0,"indent":1,"parameters":[]},{"code":402,"indent":0,"parameters":[1,"No"]},{"code":0,"indent":1,"parameters":[]},{"code":404,"indent":0,"parameters":[]},{"code":0,"indent":0,"parameters":[]}]},{"conditions":{"actorId":1,"actorValid":false,"itemId":1,"itemValid":false,"selfSwitchCh":"A","selfSwitchValid":false,"switch1Id":3729,"switch1Valid":true,"switch2Id":1,"switch2Valid":false,"variableId":1,"variableValid":false,"variableValue":0},"directionFix":true,"image":{"tileId":0,"characterName":"!Flame","direction":4,"pattern":1,"characterIndex":0},"moveFrequency":3,"moveRoute":{"list":[{"code":0,"indent":null,"parameters":[]}],"repeat":true,"skippable":false,"wait":false},"moveSpeed":3,"moveType":0,"priorityType":1,"stepAnime":true,"through":false,"trigger":0,"walkAnime":true,"list":[{"code":101,"indent":0,"parameters":["1 Simon dark",0,0,2]},{"code":401,"indent":0,"parameters":["We can't return until we've figured this out."]},{"code":0,"indent":0,"parameters":[]}]}],"x":8,"y":4},
{"id":23,"name":"EV023","note":"","pages":[{"conditions":{"actorId":1,"actorValid":false,"itemId":1,"itemValid":false,"selfSwitchCh":"A","selfSwitchValid":false,"switch1Id":3728,"switch1Valid":true,"switch2Id":1,"switch2Valid":false,"variableId":1,"variableValid":false,"variableValue":0},"directionFix":false,"image":{"tileId":0,"characterName":"","direction":2,"pattern":0,"characterIndex":0},"moveFrequency":3,"moveRoute":{"list":[{"code":0,"indent":null,"parameters":[]}],"repeat":true,"skippable":false,"wait":false},"moveSpeed":3,"moveType":0,"priorityType":0,"stepAnime":false,"through":false,"trigger":3,"walkAnime":true,"list":[{"code":101,"indent":0,"parameters":["Neranda emo1",0,0,2]},{"code":401,"indent":0,"parameters":["This is Tertia?"]},{"code":101,"indent":0,"parameters":["Tertia emo",0,0,2]},{"code":401,"indent":0,"parameters":["...one of the \\c[10]Dwurun\\c[0]."]},{"code":101,"indent":0,"parameters":["Neranda emo1",3,0,2]},{"code":401,"indent":0,"parameters":["It's \\c[10]Dwarren\\c[0]."]},{"code":101,"indent":0,"parameters":["Tertia emo",5,0,2]},{"code":401,"indent":0,"parameters":["Ah... sometimes I can keep up with the drift of words, sometimes not..."]},{"code":101,"indent":0,"parameters":["Neranda emo1",0,0,2]},{"code":401,"indent":0,"parameters":["It doesn't matter what we're called, it matters that we're suffering."]},{"code":101,"indent":0,"parameters":["Tertia emo",5,0,2]},{"code":401,"indent":0,"parameters":["..."]},{"code":101,"indent":0,"parameters":["Neranda emo1",3,0,2]},{"code":401,"indent":0,"parameters":["Are you just some woman calling herself Tertia? Or are you the Tertia of the living stone, the goddess we memorialize?"]},{"code":101,"indent":0,"parameters":["Tertia emo",0,0,2]},{"code":401,"indent":0,"parameters":["...once I was..."]},{"code":101,"indent":0,"parameters":["Tertia emo",5,0,2]},{"code":401,"indent":0,"parameters":["...long ago..."]},{"code":101,"indent":0,"parameters":["Neranda emo1",5,0,2]},{"code":401,"indent":0,"parameters":["Then why did you abandon us? We dwindle, we suffer, and we face extinction. Did you want this?"]},{"code":101,"indent":0,"parameters":["Tertia emo",4,0,2]},{"code":401,"indent":0,"parameters":["I did not want such things... but you do not understand how the passage of ages wearies me..."]},{"code":101,"indent":0,"parameters":["Tertia emo",5,0,2]},{"code":401,"indent":0,"parameters":["The most ardent of worshippers still fade. Those I protect die. Whether I act or stand back, your people still dwindle..."]},{"code":101,"indent":0,"parameters":["Tertia emo",0,0,2]},{"code":401,"indent":0,"parameters":["My actions change nothing in the end. There is... no purpose to them."]},{"code":101,"indent":0,"parameters":["Neranda emo2",3,0,2]},{"code":401,"indent":0,"parameters":["I don't give a shit about your apathy, you self-centered bitch!"]},{"code":101,"indent":0,"parameters":["Tertia emo",3,0,2]},{"code":401,"indent":0,"parameters":["..."]},{"code":101,"indent":0,"parameters":["Neranda emo2",7,0,2]},{"code":401,"indent":0,"parameters":["People's entire lives hang on your inaction and you expect us to care about your fucking feelings?"]},{"code":101,"indent":0,"parameters":["Neranda emo1",5,0,2]},{"code":401,"indent":0,"parameters":["You act like you're full of ancient wisdom, but your wisdom is as good as idiotic lies to me."]},{"code":101,"indent":0,"parameters":["Tertia emo",5,0,2]},{"code":401,"indent":0,"parameters":["Such anger... it has been a long time... but always so fleeting..."]},{"code":205,"indent":0,"parameters":[24,{"list":[{"code":4,"indent":null,"parameters":[]},{"code":0,"indent":null,"parameters":[]}],"repeat":false,"skippable":false,"wait":true}]},{"code":505,"indent":0,"parameters":[{"code":4,"indent":null,"parameters":[]}]},{"code":212,"indent":0,"parameters":[21,1,true]},{"code":101,"indent":0,"parameters":["Neranda emo2",7,0,2]},{"code":401,"indent":0,"parameters":["It doesn't matter if my anger is boring to you!"]},{"code":101,"indent":0,"parameters":["Neranda emo1",3,0,2]},{"code":401,"indent":0,"parameters":["If you abandoned the \\c[10]Dwarren\\c[0] to sulk here, I will urge Simon to eliminate or enslave you and use your power to do some good."]},{"code":101,"indent":0,"parameters":["Tertia emo",0,0,2]},{"code":401,"indent":0,"parameters":["..."]},{"code":101,"indent":0,"parameters":["Tertia emo",4,0,2]},{"code":401,"indent":0,"parameters":["Queen Neranda IV... I can feel the weight of your crown, and your sorrow at the losses of your people."]},{"code":101,"indent":0,"parameters":["Tertia emo",5,0,2]},{"code":401,"indent":0,"parameters":["Even if nothing is truly changed... you are right. In respect for your passion, I will help your generation."]},{"code":101,"indent":0,"parameters":["Neranda emo1",3,0,2]},{"code":401,"indent":0,"parameters":["You will? Just like that?"]},{"code":101,"indent":0,"parameters":["Tertia emo",1,0,2]},{"code":401,"indent":0,"parameters":["I have loved many of you. To love is to hurt, but... I can carry more pain."]},{"code":101,"indent":0,"parameters":["Carina emo",3,0,2]},{"code":401,"indent":0,"parameters":["I can't believe she actually got through to Tertia..."]},{"code":101,"indent":0,"parameters":["Yarra emo2",0,0,2]},{"code":401,"indent":0,"parameters":["Whoo! Go Neranda!"]},{"code":101,"indent":0,"parameters":["Neranda emo1",0,0,2]},{"code":401,"indent":0,"parameters":["If you're really going to cooperate, then begin by answering a question of mine: did you create the \\c[10]Dwarren\\c[0]?"]},{"code":101,"indent":0,"parameters":["Tertia emo",5,0,2]},{"code":401,"indent":0,"parameters":["It is so difficult to remember so many things... but my early memories are clear enough..."]},{"code":101,"indent":0,"parameters":["Tertia emo",0,0,2]},{"code":401,"indent":0,"parameters":["I did not create you, nor did I bear a particular love for your people. I am the goddess of the world itself."]},{"code":101,"indent":0,"parameters":["Tertia emo",1,0,2]},{"code":401,"indent":0,"parameters":["But your people took greater care to understand me. When I heard their words, I came to love them in turn."]},{"code":101,"indent":0,"parameters":["Neranda emo1",3,0,2]},{"code":401,"indent":0,"parameters":["And you abandoned us because of this apathy?"]},{"code":101,"indent":0,"parameters":["Tertia emo",5,0,2]},{"code":401,"indent":0,"parameters":["My mind is so full, memories overwritten countless times... though I want to help you, it is difficult."]},{"code":101,"indent":0,"parameters":["Tertia emo",0,0,2]},{"code":401,"indent":0,"parameters":["I am old. Older than you can know. My memories are as stones wandering the bottom of the ocean."]},{"code":101,"indent":0,"parameters":["Riala emo",1,0,2]},{"code":401,"indent":0,"parameters":["Can we help you retrieve those memories?"]},{"code":101,"indent":0,"parameters":["Tertia emo",5,0,2]},{"code":401,"indent":0,"parameters":["...perhaps..."]},{"code":213,"indent":0,"parameters":[24,8,true]},{"code":230,"indent":0,"parameters":[30]},{"code":205,"indent":0,"parameters":[24,{"list":[{"code":16,"indent":null,"parameters":[]},{"code":0,"indent":null,"parameters":[]}],"repeat":false,"skippable":false,"wait":true}]},{"code":505,"indent":0,"parameters":[{"code":16,"indent":null,"parameters":[]}]},{"code":230,"indent":0,"parameters":[30]},{"code":101,"indent":0,"parameters":["Neranda emo1",0,0,2]},{"code":401,"indent":0,"parameters":["Everything is moving too quickly for me. While I ponder my questions, would you like to begin?"]},{"code":230,"indent":0,"parameters":[30]},{"code":205,"indent":0,"parameters":[24,{"list":[{"code":19,"indent":null,"parameters":[]},{"code":0,"indent":null,"parameters":[]}],"repeat":false,"skippable":false,"wait":true}]},{"code":505,"indent":0,"parameters":[{"code":19,"indent":null,"parameters":[]}]},{"code":230,"indent":0,"parameters":[30]},{"code":101,"indent":0,"parameters":["Neranda emo2",1,0,2]},{"code":401,"indent":0,"parameters":["You WILL cooperate, won't you?"]},{"code":101,"indent":0,"parameters":["Tertia emo",6,0,2]},{"code":401,"indent":0,"parameters":["I said that I would."]},{"code":205,"indent":0,"parameters":[24,{"list":[{"code":1,"indent":null,"parameters":[]},{"code":19,"indent":null,"parameters":[]},{"code":0,"indent":null,"parameters":[]}],"repeat":false,"skippable":false,"wait":false}]},{"code":505,"indent":0,"parameters":[{"code":1,"indent":null,"parameters":[]}]},{"code":505,"indent":0,"parameters":[{"code":19,"indent":null,"parameters":[]}]},{"code":205,"indent":0,"parameters":[-1,{"list":[{"code":4,"indent":null,"parameters":[]},{"code":0,"indent":null,"parameters":[]}],"repeat":false,"skippable":false,"wait":true}]},{"code":505,"indent":0,"parameters":[{"code":4,"indent":null,"parameters":[]}]},{"code":101,"indent":0,"parameters":["1 Simon dark",0,0,2]},{"code":401,"indent":0,"parameters":["Even fragmentary memories could be useful to us. You said that you remember earlier memories more clearly?"]},{"code":101,"indent":0,"parameters":["Tertia emo",0,0,2]},{"code":401,"indent":0,"parameters":["Those that made an impression. I remember those days, and recent years of solitude..."]},{"code":101,"indent":0,"parameters":["Tertia emo",5,0,2]},{"code":401,"indent":0,"parameters":["In between lies a murky abyss."]},{"code":101,"indent":0,"parameters":["1 Simon dark",0,0,2]},{"code":401,"indent":0,"parameters":["Surely you can answer this: are you a mortal who obtained a divine shard?"]},{"code":101,"indent":0,"parameters":["Tertia emo",5,0,2]},{"code":401,"indent":0,"parameters":["...some goddesses are, some are not. I cannot remember for certain which I am."]},{"code":101,"indent":0,"parameters":["Carina emo",0,0,2]},{"code":401,"indent":0,"parameters":["Some goddesses aren't former mortals? What does that mean?"]},{"code":101,"indent":0,"parameters":["Tertia emo",5,0,2]},{"code":401,"indent":0,"parameters":["It is difficult to explain. The Tower is the natural balance... when something is imbalanced, new beings will naturally arise."]},{"code":101,"indent":0,"parameters":["Tertia emo",0,0,2]},{"code":401,"indent":0,"parameters":["If power lies alone for too long, it may form into a goddess to fill a void in the world."]},{"code":101,"indent":0,"parameters":["1 Simon dark2",6,0,2]},{"code":401,"indent":0,"parameters":["Does the Tower also manifest other beings?"]},{"code":101,"indent":0,"parameters":["Tertia emo",5,0,2]},{"code":401,"indent":0,"parameters":["...can't remember..."]},{"code":101,"indent":0,"parameters":["1 Simon dark",0,0,2]},{"code":401,"indent":0,"parameters":["Are there pure Incubus Kings, formed from nothing?"]},{"code":101,"indent":0,"parameters":["Tertia emo",0,0,2]},{"code":401,"indent":0,"parameters":["...I'm not sure..."]},{"code":101,"indent":0,"parameters":["1 Simon dark2",3,0,2]},{"code":401,"indent":0,"parameters":["Then the current goddesses, which are they?"]},{"code":101,"indent":0,"parameters":["Tertia emo",4,0,2]},{"code":401,"indent":0,"parameters":["I... cannot tell if I remember those who have passed away, or those who still exist."]},{"code":101,"indent":0,"parameters":["Riala emo",0,0,2]},{"code":401,"indent":0,"parameters":["Surely we could help stir your memories in some way."]},{"code":101,"indent":0,"parameters":["Tertia emo",0,0,2]},{"code":401,"indent":0,"parameters":["I am insulated from everything here. But if I were to venture out and encounter others, I am sure that some memories would return."]},{"code":101,"indent":0,"parameters":["Robin blond emo",0,0,2]},{"code":401,"indent":0,"parameters":["Would removing her run the risk of Tanurak noticing?"]},{"code":101,"indent":0,"parameters":["Riala emo",0,0,2]},{"code":401,"indent":0,"parameters":["It seems unlikely, but since it's not magically impossible... I think it would be safer to assume he might."]},{"code":101,"indent":0,"parameters":["Tertia emo",5,0,2]},{"code":401,"indent":0,"parameters":["Oh, that name..."]},{"code":101,"indent":0,"parameters":["Tertia emo",6,0,2]},{"code":401,"indent":0,"parameters":["He might not have the capacity to overturn the order of reality, but where some cause pain for years, he harmed for millennia."]},{"code":101,"indent":0,"parameters":["1 Simon dark",0,0,2]},{"code":401,"indent":0,"parameters":["Do you remember more about who he is or what he wants?"]},{"code":101,"indent":0,"parameters":["Tertia emo",5,0,2]},{"code":401,"indent":0,"parameters":["...I'm sorry, but again, I cannot."]},{"code":111,"indent":0,"parameters":[0,263,0]},{"code":101,"indent":1,"parameters":["Varia emo",0,0,2]},{"code":401,"indent":1,"parameters":["...I had expected meeting a goddess to be more momentous."]},{"code":101,"indent":1,"parameters":["Tertia emo",0,0,2]},{"code":401,"indent":1,"parameters":["I am sorry."]},{"code":101,"indent":1,"parameters":["Varia emo",0,0,2]},{"code":401,"indent":1,"parameters":["I have a question of my own: what do you know of how the Tower controls destiny?"]},{"code":0,"indent":1,"parameters":[]},{"code":411,"indent":0,"parameters":[]},{"code":101,"indent":1,"parameters":["Varia emo",7,0,2]},{"code":401,"indent":1,"parameters":["Can't say this is what I expected, from meeting a goddess."]},{"code":101,"indent":1,"parameters":["Tertia emo",0,0,2]},{"code":401,"indent":1,"parameters":["I am sorry."]},{"code":101,"indent":1,"parameters":["Varia emo",2,0,2]},{"code":401,"indent":1,"parameters":["You'd better be able to answer this: how does the Tower control destiny?"]},{"code":0,"indent":1,"parameters":[]},{"code":412,"indent":0,"parameters":[]},{"code":101,"indent":0,"parameters":["Tertia emo",5,0,2]},{"code":401,"indent":0,"parameters":["That is... a very old system. Unchanged for most of my life. I'm sorry, but I remember little of it."]},{"code":101,"indent":0,"parameters":["1 Simon dark",3,0,2]},{"code":401,"indent":0,"parameters":["But if it's a system, it could be manipulated?"]},{"code":101,"indent":0,"parameters":["Tertia emo",0,0,2]},{"code":401,"indent":0,"parameters":["...likely..."]},{"code":101,"indent":0,"parameters":["Aka emo2",5,0,2]},{"code":401,"indent":0,"parameters":["Okay, this is getting frustrating. Why don't we find a way to jog her memory instead of bashing our heads against the wall?"]},{"code":101,"indent":0,"parameters":["Riala emo",0,0,2]},{"code":401,"indent":0,"parameters":["Simon, I suggest we make camp here, call your wife, and consider our options."]},{"code":101,"indent":0,"parameters":["1 Simon dark",0,0,2]},{"code":401,"indent":0,"parameters":["Agreed."]},{"code":221,"indent":0,"parameters":[]},{"code":121,"indent":0,"parameters":[3728,3728,1]},{"code":121,"indent":0,"parameters":[3729,3729,0]},{"code":230,"indent":0,"parameters":[60]},{"code":222,"indent":0,"parameters":[]},{"code":123,"indent":0,"parameters":["A",0]},{"code":0,"indent":0,"parameters":[]}]},{"conditions":{"actorId":1,"actorValid":false,"itemId":1,"itemValid":false,"selfSwitchCh":"A","selfSwitchValid":true,"switch1Id":1,"switch1Valid":false,"switch2Id":1,"switch2Valid":false,"variableId":1,"variableValid":false,"variableValue":0},"directionFix":false,"image":{"tileId":0,"characterName":"","direction":2,"pattern":0,"characterIndex":0},"moveFrequency":3,"moveRoute":{"list":[{"code":0,"indent":null,"parameters":[]}],"repeat":true,"skippable":false,"wait":false},"moveSpeed":3,"moveType":0,"priorityType":0,"stepAnime":false,"through":false,"trigger":0,"walkAnime":true,"list":[{"code":0,"indent":0,"parameters":[]}]}],"x":1,"y":0},
{"id":24,"name":"Temp Neranda","note":"","pages":[{"conditions":{"actorId":1,"actorValid":false,"itemId":1,"itemValid":false,"selfSwitchCh":"A","selfSwitchValid":false,"switch1Id":3728,"switch1Valid":true,"switch2Id":1,"switch2Valid":false,"variableId":1,"variableValid":false,"variableValue":0},"directionFix":false,"image":{"tileId":0,"characterName":"Neranda","direction":8,"pattern":1,"characterIndex":0},"moveFrequency":3,"moveRoute":{"list":[{"code":0,"indent":null,"parameters":[]}],"repeat":true,"skippable":false,"wait":false},"moveSpeed":3,"moveType":0,"priorityType":1,"stepAnime":false,"through":false,"trigger":0,"walkAnime":true,"list":[{"code":0,"indent":0,"parameters":[]}]}],"x":12,"y":8},
{"id":25,"name":"EV025","note":"","pages":[{"conditions":{"actorId":1,"actorValid":false,"itemId":1,"itemValid":false,"selfSwitchCh":"A","selfSwitchValid":false,"switch1Id":3729,"switch1Valid":true,"switch2Id":1,"switch2Valid":false,"variableId":1,"variableValid":false,"variableValue":0},"directionFix":false,"image":{"tileId":0,"characterName":"$Qum Nude","direction":2,"pattern":1,"characterIndex":0},"moveFrequency":3,"moveRoute":{"list":[{"code":0,"indent":null,"parameters":[]}],"repeat":true,"skippable":false,"wait":false},"moveSpeed":3,"moveType":0,"priorityType":1,"stepAnime":false,"through":false,"trigger":0,"walkAnime":true,"list":[{"code":101,"indent":0,"parameters":["Qum D'umpe emo",0,0,2]},{"code":401,"indent":0,"parameters":["Umm... Cumdump is not very much help here. Earthy Sparkle is very confusing."]},{"code":101,"indent":0,"parameters":["1 Simon dark",1,0,2]},{"code":401,"indent":0,"parameters":["That's alright, Qum. I just wanted to hear your thoughts."]},{"code":101,"indent":0,"parameters":["Qum D'umpe emo",1,0,2]},{"code":401,"indent":0,"parameters":["Cumdump thinks Earthy Sparkle is actually nice, she is just sleepy. Cumdump wants to hug her."]},{"code":101,"indent":0,"parameters":["Qum D'umpe emo",5,0,2]},{"code":401,"indent":0,"parameters":["But Earthy Sparkle is very big and would be hard to hug."]},{"code":101,"indent":0,"parameters":["Yarra emo2",6,0,2]},{"code":401,"indent":0,"parameters":["That bigness definitely makes SOME things hard..."]},{"code":101,"indent":0,"parameters":["Qum D'umpe emo",6,0,2]},{"code":401,"indent":0,"parameters":["They are very big and pretty tits!"]},{"code":101,"indent":0,"parameters":["Qum D'umpe emo",1,0,2]},{"code":401,"indent":0,"parameters":["But Cumdump does not mean that. Earthy Sparkle has lots and lots and lots of memories."]},{"code":101,"indent":0,"parameters":["Qum D'umpe emo",0,0,2]},{"code":401,"indent":0,"parameters":["Lots and lots and lots and lots and lots..."]},{"code":101,"indent":0,"parameters":["1 Simon dark",0,0,2]},{"code":401,"indent":0,"parameters":["Yes, I understand. She's older than I can truly grasp, and that seems to have taken a toll on her."]},{"code":101,"indent":0,"parameters":["Qum D'umpe emo",1,0,2]},{"code":401,"indent":0,"parameters":["But Cumdump thinks that she would still like a hug. Maybe even a sexy hug."]},{"code":101,"indent":0,"parameters":["1 Simon dark",1,0,2]},{"code":401,"indent":0,"parameters":["Hopefully, Qum. Hopefully."]},{"code":123,"indent":0,"parameters":["A",0]},{"code":0,"indent":0,"parameters":[]}]},{"conditions":{"actorId":1,"actorValid":false,"itemId":1,"itemValid":false,"selfSwitchCh":"A","selfSwitchValid":true,"switch1Id":3729,"switch1Valid":true,"switch2Id":1,"switch2Valid":false,"variableId":1,"variableValid":false,"variableValue":0},"directionFix":false,"image":{"tileId":0,"characterName":"$Qum Nude","direction":2,"pattern":1,"characterIndex":0},"moveFrequency":3,"moveRoute":{"list":[{"code":0,"indent":null,"parameters":[]}],"repeat":true,"skippable":false,"wait":false},"moveSpeed":3,"moveType":0,"priorityType":1,"stepAnime":false,"through":false,"trigger":0,"walkAnime":true,"list":[{"code":101,"indent":0,"parameters":["Qum D'umpe emo",0,0,2]},{"code":401,"indent":0,"parameters":["Cumdump will try hard to do a thinking but Scary Simon Wife or Earthy Sparkle will do better thinking."]},{"code":0,"indent":0,"parameters":[]}]}],"x":16,"y":9},
{"id":26,"name":"Wendis","note":"","pages":[{"conditions":{"actorId":1,"actorValid":false,"itemId":1,"itemValid":false,"selfSwitchCh":"A","selfSwitchValid":false,"switch1Id":3729,"switch1Valid":true,"switch2Id":1,"switch2Valid":false,"variableId":1,"variableValid":false,"variableValue":0},"directionFix":false,"image":{"tileId":0,"characterName":"Wendis char","direction":8,"pattern":1,"characterIndex":0},"moveFrequency":3,"moveRoute":{"list":[{"code":0,"indent":null,"parameters":[]}],"repeat":true,"skippable":false,"wait":false},"moveSpeed":3,"moveType":0,"priorityType":1,"stepAnime":false,"through":false,"trigger":0,"walkAnime":true,"list":[{"code":101,"indent":0,"parameters":["Wendis blond emo1",0,0,2]},{"code":401,"indent":0,"parameters":["My good news may not equal finding a long-lost goddess, but I do have some:"]},{"code":101,"indent":0,"parameters":["Wendis blond emo2",6,0,2]},{"code":401,"indent":0,"parameters":["I've completed the preparations for my new body! Once we gather all the ingredients, it can be complete!"]},{"code":101,"indent":0,"parameters":["1 Simon dark",5,0,2]},{"code":401,"indent":0,"parameters":["Even with Tertia standing behind me, you have no idea how much it means to hear that."]},{"code":101,"indent":0,"parameters":["Wendis blond emo1",4,0,2]},{"code":401,"indent":0,"parameters":["But the existence of Tertia is obviously a much bigger issue in the scheme of things. I've been holding back, but do you want me to talk to her?"]},{"code":101,"indent":0,"parameters":["1 Simon dark",0,0,2]},{"code":401,"indent":0,"parameters":["Yes, I think we should."]},{"code":221,"indent":0,"parameters":[]},{"code":230,"indent":0,"parameters":[60]},{"code":201,"indent":0,"parameters":[0,693,11,7,8,0]},{"code":203,"indent":0,"parameters":[26,0,12,7,8]},{"code":222,"indent":0,"parameters":[]},{"code":101,"indent":0,"parameters":["Wendis blond emo2",1,0,2]},{"code":401,"indent":0,"parameters":["So... you're Tertia herself, are you?"]},{"code":101,"indent":0,"parameters":["Tertia emo",6,0,2]},{"code":401,"indent":0,"parameters":["Show your true self."]},{"code":224,"indent":0,"parameters":[[0,255,0,255],60,true]},{"code":123,"indent":0,"parameters":["A",0]},{"code":101,"indent":0,"parameters":["Wendis blondT emo1",0,0,2]},{"code":401,"indent":0,"parameters":["My, it seems that you're perceptive."]},{"code":101,"indent":0,"parameters":["Wendis blondT emo2",7,0,2]},{"code":401,"indent":0,"parameters":["Is my form as tedious to you as everything else?"]},{"code":101,"indent":0,"parameters":["Tertia emo",0,0,2]},{"code":401,"indent":0,"parameters":["It is not unheard of for mortals to become abominations of hatred within the Tower... but it is... not common..."]},{"code":101,"indent":0,"parameters":["Wendis blondT emo1",3,0,2]},{"code":401,"indent":0,"parameters":["Abomination of hatred? What a rude thing to say to a lady!"]},{"code":101,"indent":0,"parameters":["Tertia emo",1,0,2]},{"code":401,"indent":0,"parameters":["...hee..."]},{"code":101,"indent":0,"parameters":["Wendis blondT emo1",0,0,2]},{"code":401,"indent":0,"parameters":["I wanted to ask you about this body of yours. It's real, not a projection, yet strangely potent."]},{"code":101,"indent":0,"parameters":["Tertia emo",0,0,2]},{"code":401,"indent":0,"parameters":["Mmm... true. I had... mostly forgotten."]},{"code":101,"indent":0,"parameters":["Tertia emo",5,0,2]},{"code":401,"indent":0,"parameters":["I am not a mortal body carrying divine power, my body IS divine power."]},{"code":101,"indent":0,"parameters":["Wendis blondT emo1",5,0,2]},{"code":401,"indent":0,"parameters":["So I don't suppose it would be easy to let you stay here and project yourself outside."]},{"code":101,"indent":0,"parameters":["Tertia emo",5,0,2]},{"code":401,"indent":0,"parameters":["...probably... wouldn't work..."]},{"code":101,"indent":0,"parameters":["Wendis blondT emo2",0,0,2]},{"code":401,"indent":0,"parameters":["That's a shame, because it was my best idea."]},{"code":101,"indent":0,"parameters":["Tertia emo",0,0,2]},{"code":401,"indent":0,"parameters":["It would be easiest to bind me fully, then move all of me as well as my seat of power."]},{"code":101,"indent":0,"parameters":["Wendis blondT emo1",3,0,2]},{"code":401,"indent":0,"parameters":["That... is no easy feat you suggest. Even if I could apply my full power to this..."]},{"code":101,"indent":0,"parameters":["Tertia emo",5,0,2]},{"code":401,"indent":0,"parameters":["..."]},{"code":101,"indent":0,"parameters":["1 Simon dark",0,0,2]},{"code":401,"indent":0,"parameters":["She doesn't mean via arcane magic, she's suggesting that I dominate her."]},{"code":101,"indent":0,"parameters":["Wendis blondT emo1",5,0,2]},{"code":401,"indent":0,"parameters":["Wouldn't that be even more obvious?"]},{"code":101,"indent":0,"parameters":["Tertia emo",5,0,2]},{"code":401,"indent":0,"parameters":["Not when done by a subtle Incubus King. Our powers are naturally suited to one another."]},{"code":101,"indent":0,"parameters":["Wendis blondT emo1",1,0,2]},{"code":401,"indent":0,"parameters":["How so? You could potentially save us years of research into the nature of the shards!"]},{"code":101,"indent":0,"parameters":["Tertia emo",0,0,2]},{"code":401,"indent":0,"parameters":["...can't remember..."]},{"code":101,"indent":0,"parameters":["Wendis blondT emo1",7,0,2]},{"code":401,"indent":0,"parameters":["Simon, this is going to require patience I don't have."]},{"code":101,"indent":0,"parameters":["1 Simon dark",0,0,2]},{"code":401,"indent":0,"parameters":["I understand. We'll handle the rest."]},{"code":221,"indent":0,"parameters":[]},{"code":230,"indent":0,"parameters":[60]},{"code":201,"indent":0,"parameters":[0,693,13,13,2,0]},{"code":203,"indent":0,"parameters":[26,0,13,14,8]},{"code":121,"indent":0,"parameters":[3730,3730,0]},{"code":222,"indent":0,"parameters":[]},{"code":101,"indent":0,"parameters":["Wendis blondT emo1",0,0,2]},{"code":401,"indent":0,"parameters":["For the record, I think her solution would work. If you dominate her, you could... draw her power under yours, so to speak."]},{"code":101,"indent":0,"parameters":["1 Simon dark",0,0,2]},{"code":401,"indent":0,"parameters":["I had wanted to avoid that."]},{"code":101,"indent":0,"parameters":["Wendis blondT emo2",1,0,2]},{"code":401,"indent":0,"parameters":["She has centuries of defenses, but I don't think she's beyond reach. Just talk to her!"]},{"code":101,"indent":0,"parameters":["Wendis blondT emo2",7,0,2]},{"code":401,"indent":0,"parameters":["Given how she's the most experienced woman you've ever met, I imagine she's open to discussion."]},{"code":0,"indent":0,"parameters":[]}]},{"conditions":{"actorId":1,"actorValid":false,"itemId":1,"itemValid":false,"selfSwitchCh":"A","selfSwitchValid":true,"switch1Id":3729,"switch1Valid":true,"switch2Id":1,"switch2Valid":false,"variableId":1,"variableValid":false,"variableValue":0},"directionFix":false,"image":{"tileId":0,"characterName":"Wendis char","direction":8,"pattern":1,"characterIndex":4},"moveFrequency":3,"moveRoute":{"list":[{"code":0,"indent":null,"parameters":[]}],"repeat":true,"skippable":false,"wait":false},"moveSpeed":3,"moveType":0,"priorityType":1,"stepAnime":false,"through":false,"trigger":0,"walkAnime":true,"list":[{"code":101,"indent":0,"parameters":["Wendis blondT emo1",0,0,2]},{"code":401,"indent":0,"parameters":["Her divine body is interesting, but not something I'd pursue. The shard you've given me is sufficient."]},{"code":0,"indent":0,"parameters":[]}]}],"x":13,"y":14},
{"id":27,"name":"Neranda","note":"","pages":[{"conditions":{"actorId":1,"actorValid":false,"itemId":1,"itemValid":false,"selfSwitchCh":"A","selfSwitchValid":false,"switch1Id":3729,"switch1Valid":true,"switch2Id":1,"switch2Valid":false,"variableId":1,"variableValid":false,"variableValue":0},"directionFix":false,"image":{"tileId":0,"characterName":"Neranda","direction":6,"pattern":1,"characterIndex":0},"moveFrequency":3,"moveRoute":{"list":[{"code":0,"indent":null,"parameters":[]}],"repeat":true,"skippable":false,"wait":false},"moveSpeed":3,"moveType":0,"priorityType":1,"stepAnime":false,"through":false,"trigger":0,"walkAnime":true,"list":[{"code":101,"indent":0,"parameters":["Neranda emo1",3,0,2]},{"code":401,"indent":0,"parameters":["..."]},{"code":101,"indent":0,"parameters":["1 Simon dark",0,0,2]},{"code":401,"indent":0,"parameters":["How are you feeling?"]},{"code":101,"indent":0,"parameters":["Neranda emo1",0,0,2]},{"code":401,"indent":0,"parameters":["I'm not sure. In a sense, learning that Tertia is real changes nothing."]},{"code":101,"indent":0,"parameters":["Neranda emo1",6,0,2]},{"code":401,"indent":0,"parameters":["I want to believe her power could help the \\c[10]Dwarren\\c[0], but we no longer trust in the divine."]},{"code":101,"indent":0,"parameters":["1 Simon dark2",6,0,2]},{"code":401,"indent":0,"parameters":["One thing you can trust is that she embodies power. It may be difficult, but we're taking a significant step forward."]},{"code":101,"indent":0,"parameters":["Neranda emo1",3,0,2]},{"code":401,"indent":0,"parameters":["Simon... if she really refuses to cooperate, I want you to fuck her. Force her to help my people."]},{"code":101,"indent":0,"parameters":["1 Simon dark",1,0,2]},{"code":401,"indent":0,"parameters":["I don't think it will come to that, thanks to you talking sense into her."]},{"code":101,"indent":0,"parameters":["Neranda emo1",2,0,2]},{"code":401,"indent":0,"parameters":["I met Tertia herself and lectured her. Some of my childhood tutors would feel very validated."]},{"code":101,"indent":0,"parameters":["Neranda emo1",0,0,2]},{"code":401,"indent":0,"parameters":["But my mind does not like such changes. You know this. I leave it in your hands."]},{"code":101,"indent":0,"parameters":["1 Simon dark",4,0,2]},{"code":401,"indent":0,"parameters":["I will do everything I can to be worthy of that trust."]},{"code":122,"indent":0,"parameters":[157,157,1,0,2]},{"code":123,"indent":0,"parameters":["A",0]},{"code":0,"indent":0,"parameters":[]}]},{"conditions":{"actorId":1,"actorValid":false,"itemId":1,"itemValid":false,"selfSwitchCh":"A","selfSwitchValid":true,"switch1Id":3729,"switch1Valid":true,"switch2Id":1,"switch2Valid":false,"variableId":1,"variableValid":false,"variableValue":0},"directionFix":false,"image":{"tileId":0,"characterName":"Neranda","direction":6,"pattern":1,"characterIndex":0},"moveFrequency":3,"moveRoute":{"list":[{"code":0,"indent":null,"parameters":[]}],"repeat":true,"skippable":false,"wait":false},"moveSpeed":3,"moveType":0,"priorityType":1,"stepAnime":false,"through":false,"trigger":0,"walkAnime":true,"list":[{"code":101,"indent":0,"parameters":["Neranda emo1",0,0,2]},{"code":401,"indent":0,"parameters":["It's a trivial question, but I wonder why she's so tall when \\c[10]Dwarren\\c[0] are so short."]},{"code":0,"indent":0,"parameters":[]}]}],"x":7,"y":18},
{"id":28,"name":"Riala","note":"","pages":[{"conditions":{"actorId":1,"actorValid":false,"itemId":1,"itemValid":false,"selfSwitchCh":"A","selfSwitchValid":false,"switch1Id":3729,"switch1Valid":true,"switch2Id":1,"switch2Valid":false,"variableId":1,"variableValid":false,"variableValue":0},"directionFix":false,"image":{"tileId":0,"characterName":"Riala char","direction":6,"pattern":1,"characterIndex":0},"moveFrequency":3,"moveRoute":{"list":[{"code":0,"indent":null,"parameters":[]}],"repeat":true,"skippable":false,"wait":false},"moveSpeed":3,"moveType":0,"priorityType":1,"stepAnime":false,"through":false,"trigger":0,"walkAnime":true,"list":[{"code":101,"indent":0,"parameters":["Riala emo",0,0,2]},{"code":401,"indent":0,"parameters":["I believe this place was once a lush garden, but neglect has left it to wither."]},{"code":101,"indent":0,"parameters":["1 Simon dark",0,0,2]},{"code":401,"indent":0,"parameters":["What do you observe about her divine power, in objective terms?"]},{"code":101,"indent":0,"parameters":["Riala emo",1,0,2]},{"code":401,"indent":0,"parameters":["She's strong. If goddesses are like Incubus Kings, I would say she possesses a major shard."]},{"code":101,"indent":0,"parameters":["1 Simon dark",0,0,2]},{"code":401,"indent":0,"parameters":["And the others?"]},{"code":101,"indent":0,"parameters":["Riala emo",0,0,2]},{"code":401,"indent":0,"parameters":["I suspect all those who proclaim themselves goddesses do as well. The small fragments... who can say?"]},{"code":101,"indent":0,"parameters":["1 Simon dark",0,0,2]},{"code":401,"indent":0,"parameters":["I've felt a compulsion toward her ever since we arrived. I would like to see what can be done about that."]},{"code":101,"indent":0,"parameters":["Riala emo",0,0,2]},{"code":401,"indent":0,"parameters":["Never fear, I'm already working on finding the boundaries of what can be done."]},{"code":101,"indent":0,"parameters":["Riala emo",5,0,2]},{"code":401,"indent":0,"parameters":["This is many times more complex than anything we've done before, however..."]},{"code":123,"indent":0,"parameters":["A",0]},{"code":0,"indent":0,"parameters":[]}]},{"conditions":{"actorId":1,"actorValid":false,"itemId":1,"itemValid":false,"selfSwitchCh":"A","selfSwitchValid":true,"switch1Id":3729,"switch1Valid":true,"switch2Id":1,"switch2Valid":false,"variableId":1,"variableValid":false,"variableValue":0},"directionFix":false,"image":{"tileId":0,"characterName":"Riala char","direction":6,"pattern":1,"characterIndex":0},"moveFrequency":3,"moveRoute":{"list":[{"code":0,"indent":null,"parameters":[]}],"repeat":true,"skippable":false,"wait":false},"moveSpeed":3,"moveType":0,"priorityType":1,"stepAnime":false,"through":false,"trigger":0,"walkAnime":true,"list":[{"code":101,"indent":0,"parameters":["Riala emo",0,0,2]},{"code":401,"indent":0,"parameters":["Your idea of a pure Incubus King was fascinating. I wonder what such a being would be like..."]},{"code":0,"indent":0,"parameters":[]}]}],"x":16,"y":5},
{"id":29,"name":"Temp Yarra","note":"","pages":[{"conditions":{"actorId":1,"actorValid":false,"itemId":1,"itemValid":false,"selfSwitchCh":"A","selfSwitchValid":false,"switch1Id":3731,"switch1Valid":true,"switch2Id":1,"switch2Valid":false,"variableId":1,"variableValid":false,"variableValue":0},"directionFix":false,"image":{"tileId":0,"characterName":"$Yarra Nude","direction":4,"pattern":1,"characterIndex":0},"moveFrequency":3,"moveRoute":{"list":[{"code":0,"indent":null,"parameters":[]}],"repeat":true,"skippable":false,"wait":false},"moveSpeed":3,"moveType":0,"priorityType":1,"stepAnime":false,"through":false,"trigger":0,"walkAnime":true,"list":[{"code":0,"indent":0,"parameters":[]}]}],"x":17,"y":4},
{"id":30,"name":"EV030","note":"","pages":[{"conditions":{"actorId":1,"actorValid":false,"itemId":1,"itemValid":false,"selfSwitchCh":"A","selfSwitchValid":false,"switch1Id":1,"switch1Valid":false,"switch2Id":1,"switch2Valid":false,"variableId":1,"variableValid":false,"variableValue":0},"directionFix":false,"image":{"tileId":0,"characterName":"","direction":2,"pattern":0,"characterIndex":0},"moveFrequency":3,"moveRoute":{"list":[{"code":0,"indent":null,"parameters":[]}],"repeat":true,"skippable":false,"wait":false},"moveSpeed":3,"moveType":0,"priorityType":0,"stepAnime":false,"through":false,"trigger":1,"walkAnime":true,"list":[{"code":101,"indent":0,"parameters":["Nalili emo1",2,0,2]},{"code":401,"indent":0,"parameters":["No fucking way! We've walked far enough!"]},{"code":205,"indent":0,"parameters":[-1,{"list":[{"code":4,"indent":null,"parameters":[]},{"code":0,"indent":null,"parameters":[]}],"repeat":false,"skippable":false,"wait":true}]},{"code":505,"indent":0,"parameters":[{"code":4,"indent":null,"parameters":[]}]},{"code":0,"indent":0,"parameters":[]}]}],"x":21,"y":18},
{"id":31,"name":"Blocker","note":"","pages":[{"conditions":{"actorId":1,"actorValid":false,"itemId":1,"itemValid":false,"selfSwitchCh":"A","selfSwitchValid":false,"switch1Id":1,"switch1Valid":false,"switch2Id":1,"switch2Valid":false,"variableId":1,"variableValid":false,"variableValue":0},"directionFix":false,"image":{"tileId":0,"characterName":"","direction":2,"pattern":0,"characterIndex":0},"moveFrequency":3,"moveRoute":{"list":[{"code":0,"indent":null,"parameters":[]}],"repeat":true,"skippable":false,"wait":false},"moveSpeed":3,"moveType":0,"priorityType":1,"stepAnime":false,"through":false,"trigger":0,"walkAnime":true,"list":[{"code":0,"indent":0,"parameters":[]}]}],"x":5,"y":7},
{"id":32,"name":"Blocker","note":"","pages":[{"conditions":{"actorId":1,"actorValid":false,"itemId":1,"itemValid":false,"selfSwitchCh":"A","selfSwitchValid":false,"switch1Id":1,"switch1Valid":false,"switch2Id":1,"switch2Valid":false,"variableId":1,"variableValid":false,"variableValue":0},"directionFix":false,"image":{"tileId":0,"characterName":"","direction":2,"pattern":0,"characterIndex":0},"moveFrequency":3,"moveRoute":{"list":[{"code":0,"indent":null,"parameters":[]}],"repeat":true,"skippable":false,"wait":false},"moveSpeed":3,"moveType":0,"priorityType":1,"stepAnime":false,"through":false,"trigger":0,"walkAnime":true,"list":[{"code":0,"indent":0,"parameters":[]}]}],"x":5,"y":8}
]
}