{
"autoplayBgm":false,"autoplayBgs":false,"battleback1Name":"","battleback2Name":"","bgm":{"name":"","pan":0,"pitch":100,"volume":100},"bgs":{"name":"","pan":0,"pitch":100,"volume":80},"disableDashing":false,"displayName":"","encounterList":[],"encounterStep":30,"height":15,"note":"","parallaxLoopX":false,"parallaxLoopY":false,"parallaxName":"","parallaxShow":false,"parallaxSx":0,"parallaxSy":0,"scrollType":0,"specifyBattleback":false,"tilesetId":90,"width":17,"data":[0,0,0,0,0,0,0,0,0,0,0,0,0,0,0,0,0,0,0,0,0,0,0,0,0,0,0,0,0,0,0,0,0,0,0,0,0,0,0,6883,6881,6881,6881,6881,6881,6885,0,0,0,0,0,0,0,0,0,0,6880,5506,5506,5506,5506,5506,6880,0,0,0,0,0,0,0,0,0,0,6880,5512,5512,5512,5512,5512,6880,0,0,0,0,0,0,0,0,0,0,6880,1558,1558,1558,1558,1558,6880,0,0,0,0,0,0,0,0,0,0,6880,1558,1558,1558,1558,1558,6880,0,0,0,0,0,0,0,0,0,0,6880,1558,1558,1558,1558,1558,6880,0,0,0,0,0,0,0,0,0,0,6880,1558,1558,1558,1558,1558,6880,0,0,0,0,0,0,0,0,0,0,6889,6881,6893,1558,6891,6881,6887,0,0,0,0,0,0,0,0,0,0,5507,5506,5506,5506,5506,5506,5510,0,0,0,0,0,0,0,0,0,0,5513,5512,5512,5512,5512,5512,5516,0,0,0,0,0,0,0,0,0,0,0,0,0,0,0,0,0,0,0,0,0,0,0,0,0,0,0,0,0,0,0,0,0,0,0,0,0,0,0,0,0,0,0,0,0,0,0,0,0,0,0,0,0,0,0,0,0,0,0,0,0,0,0,0,0,0,0,0,0,0,0,0,0,0,0,0,0,0,0,0,0,0,0,0,0,0,0,0,0,0,0,0,0,0,0,0,0,0,0,0,0,0,0,0,0,0,0,0,0,0,0,0,0,0,0,0,0,0,0,0,0,0,0,0,0,0,0,0,0,0,0,0,0,0,0,0,0,0,0,0,0,0,0,0,0,0,0,0,0,0,0,0,0,0,0,0,0,0,0,0,0,0,0,0,0,0,3198,0,0,0,0,0,0,0,0,0,0,0,0,0,0,0,0,0,0,0,0,0,0,0,0,0,0,0,0,0,0,0,0,0,0,0,0,0,0,0,0,0,0,0,0,0,0,0,0,0,0,0,0,0,0,0,0,0,0,0,0,0,0,0,0,0,0,0,0,0,0,0,0,0,0,0,0,0,0,0,0,0,0,0,0,0,0,0,0,0,0,0,0,0,0,0,0,0,0,0,0,0,0,0,0,0,0,0,0,0,0,0,0,0,0,0,0,0,0,0,0,0,0,0,0,0,0,0,0,0,0,0,0,0,0,0,0,0,0,0,0,0,0,0,0,0,0,0,0,0,0,0,0,0,0,0,0,0,0,0,0,0,0,0,0,0,0,0,0,0,0,0,0,0,0,0,0,0,0,0,0,0,0,0,0,0,0,0,0,0,0,0,0,0,0,0,0,0,0,0,0,0,0,0,0,0,0,0,0,0,0,0,0,0,0,0,0,0,0,0,0,0,0,0,0,0,0,0,0,0,0,0,0,0,0,0,0,0,0,0,0,0,0,0,0,0,0,0,0,0,0,0,0,0,0,0,0,0,0,0,0,0,0,0,0,0,0,0,0,0,0,0,0,0,0,0,0,0,0,0,0,0,0,0,0,0,0,0,0,0,0,0,0,0,0,0,0,0,0,0,0,0,0,0,0,0,0,0,0,0,0,0,0,0,0,0,0,0,0,0,0,0,0,0,0,0,0,0,0,0,0,0,0,0,0,0,0,0,0,0,0,0,0,0,0,0,0,0,0,0,0,0,0,0,0,0,0,0,0,0,0,0,0,0,0,0,0,0,0,0,0,0,0,0,0,0,0,0,0,0,0,0,0,0,0,0,0,0,0,0,0,0,0,0,0,0,0,0,0,0,0,0,0,0,0,0,0,0,0,0,0,0,0,0,0,0,0,0,0,0,0,0,0,0,0,0,0,0,0,0,0,0,0,0,0,0,0,0,0,0,0,0,0,0,0,0,0,0,0,0,0,0,0,0,0,0,0,0,708,0,716,0,0,0,0,0,0,0,0,0,0,0,0,0,291,0,0,0,417,0,0,0,0,0,0,0,0,0,0,0,0,299,0,0,0,425,0,0,0,0,0,0,0,0,0,0,0,0,0,0,0,0,0,0,0,0,0,0,0,0,0,0,0,0,0,146,0,0,0,154,0,0,0,0,0,0,0,0,0,0,0,0,146,0,0,0,154,0,0,0,0,0,0,0,0,0,0,0,0,0,0,0,0,0,0,0,0,0,0,0,0,0,0,0,0,0,0,0,0,0,0,0,0,0,0,0,0,0,0,0,0,0,0,0,0,0,0,0,0,0,0,0,0,0,0,0,0,0,0,0,0,0,0,0,0,0,0,0,0,0,0,0,0,0,0,0,0,0,0,0,0,0,0,0,0,0,0,0,0,0,0,0,0,0,0,0,0,0,0,0,0,0,0,0,0,0,0,0,0,0,0,0,0,0,0,0,0,0,0,0,0,0,0,0,0,0,0,0,0,0,0,0,0,0,0,0,0,0,0,0,0,0,0,0,0,0,0,0,0,0,0,0,0,0,0,0,0,0,0,0,0,0,0,0,0,0,0,0,0,0,0,0,0,0,0,0,0,0,0,0,0,0,0,0,0,0,0,0,0,0,0,0,0,0,0,0,5,0,0,0,0,0,0,0,0,0,0,0,0,0,0,0,0,5,0,0,0,0,0,0,0,0,0,0,0,0,0,0,0,0,5,0,0,0,0,0,0,0,0,0,0,0,0,0,0,0,0,5,0,0,0,0,0,0,0,0,0,0,0,0,0,0,0,0,0,0,0,0,0,0,0,0,0,0,0,0,0,0,0,0,0,0,0,0,0,0,0,0,0,0,0,0,0,0,0,0,0,0,0,0,0,0,0,0,0,0,0,0,0,0,0,0,0,0,0,0,0,0,0,0,0,0,0,0,0,0,0,0,0,0,0,0,0,0,0,0,0,0,0,0,0,0,0,0,0,0,0,0,0,0,0,0,0,0,0,0,0,0,0,0,0,0,0,0,0,0,0,0,0,0,0,0,0,0,0,0,0,0,0,0,0,0,0,0,0,0,0,0,0,0,0,0,0,0,0,0,0,0,0,0,0,0,0,0,0,0,0,0,0,0,0,0,0,0,0,0,0,0,0,0,0,0,0,0,0,0,0,0,0,0,0,0,0,0,0,0,0,0,0,0,0,0,0,0,0,0,0,0,0,0,0,0,0,0,0,0,0,0,0,0,0,0,0,0,0,0,0,0,0,0,0,0,0,0,0,0,0,0,0,0,0,0,0,0,0,0,0,0,0,0,0,0,0,0,0,0,0,0,0,0,0,0,0,0,0,0,0,0,0,0,0,0,0,0,0,0,0,0,0,0,0,0,0,0,0,0,0,0,0,0,0,0,0,0,0,0,0,0,0,0,0,0,0,0,0,0,0,0,0,0,0,0,0,0,0,0,0,0,0,0,0,0,0,0,0,0,0,0,0,0,0,0,0,0,0,0,0,0,0,0,0,0,0,0,0,0,0,0,0,0,0,0,0,0,0,0,0,0,0,0,0,0,0,0,0,0,0,0,0,0,0,0,0,0,0],"events":[null,{"id":1,"name":"EV001","note":"","pages":[{"conditions":{"actorId":1,"actorValid":false,"itemId":1,"itemValid":false,"selfSwitchCh":"A","selfSwitchValid":false,"switch1Id":1,"switch1Valid":false,"switch2Id":1,"switch2Valid":false,"variableId":1,"variableValid":false,"variableValue":0},"directionFix":false,"image":{"tileId":0,"characterName":"","direction":2,"pattern":0,"characterIndex":0},"moveFrequency":3,"moveRoute":{"list":[{"code":0,"indent":null,"parameters":[]}],"repeat":true,"skippable":false,"wait":false},"moveSpeed":3,"moveType":0,"priorityType":0,"stepAnime":false,"through":false,"trigger":1,"walkAnime":true,"list":[{"code":250,"indent":0,"parameters":[{"name":"Move","pan":0,"pitch":100,"volume":80}]},{"code":201,"indent":0,"parameters":[0,542,6,21,8,0]},{"code":0,"indent":0,"parameters":[]}]}],"x":8,"y":9},{"id":2,"name":"Renna","note":"","pages":[{"conditions":{"actorId":1,"actorValid":false,"itemId":1,"itemValid":false,"selfSwitchCh":"A","selfSwitchValid":false,"switch1Id":2899,"switch1Valid":true,"switch2Id":1,"switch2Valid":false,"variableId":1,"variableValid":false,"variableValue":0},"directionFix":false,"image":{"tileId":0,"characterName":"Y Stenai NPCs","direction":4,"pattern":1,"characterIndex":6},"moveFrequency":3,"moveRoute":{"list":[{"code":0,"indent":null,"parameters":[]}],"repeat":true,"skippable":false,"wait":false},"moveSpeed":3,"moveType":0,"priorityType":1,"stepAnime":false,"through":false,"trigger":0,"walkAnime":true,"list":[{"code":101,"indent":0,"parameters":["Y Stenai NPC 7",0,0,2]},{"code":401,"indent":0,"parameters":["..."]},{"code":101,"indent":0,"parameters":["Yarra emo2",0,0,2]},{"code":401,"indent":0,"parameters":["Hey there! You're Princess Reletima's maid, right?"]},{"code":101,"indent":0,"parameters":["Y Stenai NPC 7",6,0,2]},{"code":401,"indent":0,"parameters":["Did she send you after me? I am... merely choosing the best ingredients..."]},{"code":101,"indent":0,"parameters":["Iris emo",1,0,2]},{"code":401,"indent":0,"parameters":["Nothing like that. We just felt sorry for you, your work being so little appreciated."]},{"code":101,"indent":0,"parameters":["Y Stenai NPC 7",0,0,2]},{"code":401,"indent":0,"parameters":["..."]},{"code":101,"indent":0,"parameters":["Y Stenai NPC 7",2,0,2]},{"code":401,"indent":0,"parameters":["Princess Reletima is a noblewoman of high standing. She deserves luxuries appropriate to her station."]},{"code":101,"indent":0,"parameters":["Yarra emo2",1,0,2]},{"code":401,"indent":0,"parameters":["Do you really believe that? Maybe I misjudged you."]},{"code":101,"indent":0,"parameters":["Y Stenai NPC 7",0,0,2]},{"code":401,"indent":0,"parameters":["Princess Reletima is my employer. It would be improper of me to offer any judgment of her, in public or in private."]},{"code":101,"indent":0,"parameters":["Iris emo",1,0,2]},{"code":401,"indent":0,"parameters":["That's admirable loyalty."]},{"code":101,"indent":0,"parameters":["Yarra emo",5,0,2]},{"code":401,"indent":0,"parameters":["Yeah, but I want it to be loyalty to US. These things would be solved so easily if Simon could just bang people..."]},{"code":101,"indent":0,"parameters":["Y Stenai NPC 7",4,0,2]},{"code":401,"indent":0,"parameters":["You... surely you do not mean...?"]},{"code":101,"indent":0,"parameters":["Iris emo",0,0,2]},{"code":401,"indent":0,"parameters":["Please don't worry. We understand that what might be appropriate for succubi would be a crime in other cases."]},{"code":101,"indent":0,"parameters":["Y Stenai NPC 7",6,0,2]},{"code":401,"indent":0,"parameters":["I see..."]},{"code":101,"indent":0,"parameters":["Yarra emo",0,0,2]},{"code":401,"indent":0,"parameters":["I just want you to be happy. Can you tell me with a straight face that you enjoy working for Princess Reletima?"]},{"code":101,"indent":0,"parameters":["Y Stenai NPC 7",1,0,2]},{"code":401,"indent":0,"parameters":["It is an honor to work for such a respected noble family!"]},{"code":101,"indent":0,"parameters":["Iris emo",4,0,2]},{"code":401,"indent":0,"parameters":["And you feel good about how you're treated?"]},{"code":101,"indent":0,"parameters":["Y Stenai NPC 7",3,0,2]},{"code":401,"indent":0,"parameters":["P-Princess Reletima deserves luxuries fitting her position..."]},{"code":101,"indent":0,"parameters":["Yarra emo2",0,0,2]},{"code":401,"indent":0,"parameters":["She's almost cracking! "]},{"code":101,"indent":0,"parameters":["Yarra emo2",6,0,2]},{"code":401,"indent":0,"parameters":["Ooh, I'd love to see that calm crack with pleasure instead of unhappiness..."]},{"code":101,"indent":0,"parameters":["Iris emo",2,0,2]},{"code":401,"indent":0,"parameters":["Yarra, that's enough. You're stepping over the line."]},{"code":101,"indent":0,"parameters":["Yarra emo",5,0,2]},{"code":401,"indent":0,"parameters":["..."]},{"code":101,"indent":0,"parameters":["Y Stenai NPC 7",0,0,2]},{"code":401,"indent":0,"parameters":["..."]},{"code":101,"indent":0,"parameters":["Iris emo",0,0,2]},{"code":401,"indent":0,"parameters":["Tell me, how long have you been Reletima's personal assistant?"]},{"code":101,"indent":0,"parameters":["Y Stenai NPC 7",0,0,2]},{"code":401,"indent":0,"parameters":["Four and a half years."]},{"code":101,"indent":0,"parameters":["Iris emo",6,0,2]},{"code":401,"indent":0,"parameters":["You must be very skilled, to have stayed in her good graces for so long. I wish that such competence would be rewarded."]},{"code":101,"indent":0,"parameters":["Y Stenai NPC 7",0,0,2]},{"code":401,"indent":0,"parameters":["...thank you. May I ask your name?"]},{"code":101,"indent":0,"parameters":["Iris emo",1,0,2]},{"code":401,"indent":0,"parameters":["My name is Iris."]},{"code":101,"indent":0,"parameters":["Y Stenai NPC 7",1,0,2]},{"code":401,"indent":0,"parameters":["My name is Renna."]},{"code":101,"indent":0,"parameters":["Y Stenai NPC 7",0,0,2]},{"code":401,"indent":0,"parameters":["I am afraid that I really must be going now."]},{"code":221,"indent":0,"parameters":[]},{"code":121,"indent":0,"parameters":[2900,2900,0]},{"code":123,"indent":0,"parameters":["A",0]},{"code":222,"indent":0,"parameters":[]},{"code":101,"indent":0,"parameters":["Yarra emo",4,0,2]},{"code":401,"indent":0,"parameters":["Sorry, Iris. I really do just want her to be happy, though..."]},{"code":101,"indent":0,"parameters":["Iris emo2",6,0,2]},{"code":401,"indent":0,"parameters":["Lustlord, just imagining someone taking her from Reletima and making her happy makes me so wet."]},{"code":101,"indent":0,"parameters":["Yarra emo2",0,0,2]},{"code":401,"indent":0,"parameters":["Aha! So you were just holding back!"]},{"code":101,"indent":0,"parameters":["Iris emo",1,0,2]},{"code":401,"indent":0,"parameters":["One has to be practical about such things. I don't think Renna is receptive to a direct approach."]},{"code":101,"indent":0,"parameters":["Yarra emo2",6,0,2]},{"code":401,"indent":0,"parameters":["Then we play the long game..."]},{"code":101,"indent":0,"parameters":["Iris emo",0,0,2]},{"code":401,"indent":0,"parameters":["I doubt we can convince her at the moment, though. Let's leave her alone for now."]},{"code":122,"indent":0,"parameters":[258,258,1,0,1]},{"code":0,"indent":0,"parameters":[]}]},{"conditions":{"actorId":1,"actorValid":false,"itemId":1,"itemValid":false,"selfSwitchCh":"A","selfSwitchValid":true,"switch1Id":1,"switch1Valid":false,"switch2Id":1,"switch2Valid":false,"variableId":1,"variableValid":false,"variableValue":0},"directionFix":false,"image":{"tileId":0,"characterName":"","direction":2,"pattern":0,"characterIndex":0},"moveFrequency":3,"moveRoute":{"list":[{"code":0,"indent":null,"parameters":[]}],"repeat":true,"skippable":false,"wait":false},"moveSpeed":3,"moveType":0,"priorityType":0,"stepAnime":false,"through":false,"trigger":0,"walkAnime":true,"list":[{"code":0,"indent":0,"parameters":[]}]},{"conditions":{"actorId":1,"actorValid":false,"itemId":1,"itemValid":false,"selfSwitchCh":"A","selfSwitchValid":false,"switch1Id":3301,"switch1Valid":true,"switch2Id":1,"switch2Valid":false,"variableId":1,"variableValid":false,"variableValue":0},"directionFix":false,"image":{"tileId":0,"characterName":"","direction":2,"pattern":0,"characterIndex":0},"moveFrequency":3,"moveRoute":{"list":[{"code":0,"indent":null,"parameters":[]}],"repeat":true,"skippable":false,"wait":false},"moveSpeed":3,"moveType":0,"priorityType":0,"stepAnime":false,"through":false,"trigger":0,"walkAnime":true,"list":[{"code":0,"indent":0,"parameters":[]}]}],"x":7,"y":7},{"id":3,"name":"EV003","note":"","pages":[{"conditions":{"actorId":1,"actorValid":false,"itemId":1,"itemValid":false,"selfSwitchCh":"A","selfSwitchValid":false,"switch1Id":3313,"switch1Valid":true,"switch2Id":1,"switch2Valid":false,"variableId":1,"variableValid":false,"variableValue":0},"directionFix":false,"image":{"tileId":0,"characterName":"","direction":2,"pattern":0,"characterIndex":0},"moveFrequency":3,"moveRoute":{"list":[{"code":0,"indent":null,"parameters":[]}],"repeat":true,"skippable":false,"wait":false},"moveSpeed":3,"moveType":0,"priorityType":0,"stepAnime":false,"through":false,"trigger":3,"walkAnime":true,"list":[{"code":101,"indent":0,"parameters":["Iris emo",0,0,2]},{"code":401,"indent":0,"parameters":["Tell me, has the palace been more involved with trade recently?"]},{"code":101,"indent":0,"parameters":["Y DS_Halfling",5,0,2]},{"code":401,"indent":0,"parameters":["Yes! How did you know?"]},{"code":101,"indent":0,"parameters":["Iris emo",5,0,2]},{"code":401,"indent":0,"parameters":["Lucky induction. Now, I'd like to talk about the details..."]},{"code":221,"indent":0,"parameters":[]},{"code":230,"indent":0,"parameters":[60]},{"code":222,"indent":0,"parameters":[]},{"code":101,"indent":0,"parameters":["Megail emo2",0,0,2]},{"code":401,"indent":0,"parameters":["That work is actually important. You can't have Feremina ignore it."]},{"code":101,"indent":0,"parameters":["Iris emo",1,0,2]},{"code":401,"indent":0,"parameters":["No, but now that I understand the obstacles, I can teach her to delegate the work better."]},{"code":101,"indent":0,"parameters":["Megail emo2",1,0,2]},{"code":401,"indent":0,"parameters":["Good thought. I'll see if I can't help a bit."]},{"code":122,"indent":0,"parameters":[282,282,1,0,1]},{"code":123,"indent":0,"parameters":["A",0]},{"code":0,"indent":0,"parameters":[]}]},{"conditions":{"actorId":1,"actorValid":false,"itemId":1,"itemValid":false,"selfSwitchCh":"A","selfSwitchValid":true,"switch1Id":1,"switch1Valid":false,"switch2Id":1,"switch2Valid":false,"variableId":1,"variableValid":false,"variableValue":0},"directionFix":false,"image":{"tileId":0,"characterName":"","direction":2,"pattern":0,"characterIndex":0},"moveFrequency":3,"moveRoute":{"list":[{"code":0,"indent":null,"parameters":[]}],"repeat":true,"skippable":false,"wait":false},"moveSpeed":3,"moveType":0,"priorityType":0,"stepAnime":false,"through":false,"trigger":0,"walkAnime":true,"list":[{"code":0,"indent":0,"parameters":[]}]}],"x":0,"y":0},{"id":4,"name":"EV004","note":"","pages":[{"conditions":{"actorId":1,"actorValid":false,"itemId":1,"itemValid":false,"selfSwitchCh":"A","selfSwitchValid":false,"switch1Id":1,"switch1Valid":false,"switch2Id":1,"switch2Valid":false,"variableId":1,"variableValid":false,"variableValue":0},"directionFix":false,"image":{"tileId":0,"characterName":"Y DS_chara01","direction":2,"pattern":1,"characterIndex":5},"moveFrequency":3,"moveRoute":{"list":[{"code":0,"indent":null,"parameters":[]}],"repeat":true,"skippable":false,"wait":false},"moveSpeed":3,"moveType":0,"priorityType":1,"stepAnime":false,"through":false,"trigger":0,"walkAnime":true,"list":[{"code":101,"indent":0,"parameters":["Y DS_Halfling",5,0,2]},{"code":401,"indent":0,"parameters":["Come on in, the bread is hot out of the oven! Our pastries are especially good for tired mages!"]},{"code":302,"indent":0,"parameters":[0,39,0,0,true]},{"code":111,"indent":0,"parameters":[0,2887,1]},{"code":101,"indent":1,"parameters":["Y DS_Halfling",5,0,2]},{"code":401,"indent":1,"parameters":["We have special pastries available for those allied with Princess Feremina!"]},{"code":0,"indent":1,"parameters":[]},{"code":412,"indent":0,"parameters":[]},{"code":0,"indent":0,"parameters":[]}]},{"conditions":{"actorId":1,"actorValid":false,"itemId":1,"itemValid":false,"selfSwitchCh":"A","selfSwitchValid":false,"switch1Id":3601,"switch1Valid":true,"switch2Id":1,"switch2Valid":false,"variableId":1,"variableValid":false,"variableValue":0},"directionFix":false,"image":{"tileId":0,"characterName":"Y DS_chara01","direction":2,"pattern":1,"characterIndex":5},"moveFrequency":3,"moveRoute":{"list":[{"code":0,"indent":null,"parameters":[]}],"repeat":true,"skippable":false,"wait":false},"moveSpeed":3,"moveType":0,"priorityType":1,"stepAnime":false,"through":false,"trigger":0,"walkAnime":true,"list":[{"code":101,"indent":0,"parameters":["Y DS_Halfling",5,0,2]},{"code":401,"indent":0,"parameters":["We have wonderful pastries for mages... or anyone with a sweet tooth!"]},{"code":302,"indent":0,"parameters":[0,39,0,0,true]},{"code":0,"indent":0,"parameters":[]}]}],"x":8,"y":5}]
}
