{
"autoplayBgm":true,"autoplayBgs":false,"battleback1Name":"","battleback2Name":"","bgm":{"name":"Mountaintop","pan":0,"pitch":100,"volume":100},"bgs":{"name":"","pan":0,"pitch":100,"volume":80},"disableDashing":false,"displayName":"","encounterList":[],"encounterStep":30,"height":13,"note":"","parallaxLoopX":false,"parallaxLoopY":false,"parallaxName":"SeaofClouds","parallaxShow":true,"parallaxSx":0,"parallaxSy":0,"scrollType":0,"specifyBattleback":false,"tilesetId":2,"width":17,
"data":[1544,1544,1544,1544,1544,1544,1544,1544,1544,1544,1544,1544,1544,1544,1544,1544,1544,1544,1544,1544,1544,1544,1544,1544,1544,1544,1544,1544,1544,1544,1544,1544,1544,1544,1544,1544,1544,1544,1544,1544,1544,1544,1544,1544,1544,1544,1544,1544,1544,1544,1544,1544,1544,1544,1544,1544,1544,1544,1544,1544,1544,1544,1544,1544,1544,1544,1544,1544,1544,1544,1544,1544,1544,1544,1544,1544,1544,1544,1544,1544,1544,1544,1544,1544,1544,1544,1544,1544,1544,1544,1544,1544,1624,1625,1626,1544,1544,1544,1544,1544,1544,1544,1544,1544,1544,1544,1544,1544,1544,1632,1633,1634,1544,1544,1544,1544,1544,1544,1544,1544,1544,1544,1544,1544,1544,1544,1640,1641,1642,1544,1544,1544,1544,1544,1544,1544,1544,1544,1544,1544,1544,1544,1544,1648,1649,1650,1544,1544,1544,1544,1544,1544,1544,1544,1544,1544,1544,1544,1544,1544,1648,1649,1650,1544,1544,1544,1544,1544,1624,1625,1544,1544,1544,1544,1544,1544,1544,1648,1649,1650,1544,1544,1544,1544,1544,1632,1633,1544,1544,1544,1544,1544,1544,1544,1648,1649,1650,1544,1544,1544,1544,1544,1640,1641,1544,1544,1544,1624,1625,1626,1544,1648,1649,1650,1544,1544,1544,1544,1544,1648,1649,0,0,0,0,0,0,0,0,0,0,0,0,0,0,0,0,0,0,0,0,0,0,0,0,0,0,0,0,0,0,0,0,0,0,0,0,0,0,0,0,0,0,0,0,0,0,0,0,0,0,0,0,0,0,0,0,0,0,0,0,0,0,0,0,0,0,0,0,0,0,0,0,0,0,0,0,0,0,0,0,0,0,0,0,0,0,0,0,0,0,0,0,0,0,0,0,0,0,0,0,0,0,0,0,0,0,0,0,0,0,0,0,0,0,0,0,0,0,0,0,0,0,0,0,0,0,0,0,0,0,0,0,0,0,0,0,0,0,0,0,0,0,0,0,0,0,0,0,0,0,0,0,0,0,0,0,0,0,0,0,0,0,0,0,0,0,0,0,0,0,0,0,0,0,0,0,0,0,0,0,0,0,0,0,0,0,0,0,0,0,0,0,0,0,0,0,0,0,0,0,0,0,0,0,0,0,0,0,0,0,0,0,0,0,0,0,0,0,0,0,0,0,0,0,0,0,0,0,0,0,0,0,0,0,0,0,0,0,0,0,0,0,0,0,0,0,0,0,0,0,0,0,0,0,0,0,0,0,0,0,0,0,0,0,0,0,0,0,0,0,0,0,0,0,0,0,0,0,0,0,0,0,0,0,0,0,0,0,0,0,0,0,0,0,0,0,0,0,0,0,0,0,0,0,0,0,0,0,0,0,0,0,0,0,0,0,0,0,0,0,0,0,0,0,0,0,0,0,0,0,0,0,0,0,0,0,0,0,0,0,0,0,0,0,0,0,0,0,0,0,0,0,0,0,0,0,0,0,0,0,0,0,0,0,0,0,0,0,0,0,0,0,0,0,0,0,0,0,0,0,0,0,0,0,0,0,0,0,0,0,0,0,0,0,0,0,0,0,0,0,0,0,0,0,0,0,0,0,0,0,0,0,0,0,0,0,0,0,0,0,0,0,0,0,0,0,0,0,0,0,0,0,0,0,0,0,0,0,0,0,0,0,0,0,0,0,0,0,0,0,0,0,0,0,0,0,0,0,0,0,0,0,0,0,0,0,0,0,0,0,0,0,0,0,0,0,0,0,0,0,0,0,0,0,0,0,0,0,0,0,0,0,0,0,0,0,0,0,0,0,0,0,0,0,0,0,0,0,0,0,0,0,0,0,0,0,0,0,0,0,0,0,0,0,0,0,0,0,0,0,0,0,0,0,0,0,0,0,0,0,0,0,0,0,0,0,0,0,0,0,0,0,0,0,0,0,0,0,0,0,0,0,0,0,0,0,0,0,0,0,0,0,0,0,0,0,0,0,0,0,0,0,0,0,0,0,0,0,0,0,0,0,0,0,0,0,0,0,0,0,0,0,0,0,0,0,0,0,0,0,0,0,0,0,0,0,0,0,0,0,0,0,0,0,0,0,0,0,0,0,0,0,0,0,0,0,0,0,0,0,0,0,0,0,0,0,0,0,0,0,0,0,0,0,0,0,0,0,0,0,0,0,0,0,0,0,0,0,0,0,0,0,0,0,0,0,0,0,0,0,0,0,0,0,0,0,0,0,0,0,0,0,0,0,0,0,0,0,0,0,0,0,0,0,0,0,0,0,0,0,0,0,0,0,0,0,0,0,0,0,0,0,0,0,0,0,0,0,0,0,0,0,0,0,0,0,0,0,0,0,0,0,0,0,0,0,0,0,0,0,0,0,0,0,0,0,0,0,0,0,0,0,0,0,0,0,0,0,0,0,0,0,0,0,0,0,0,0,0,0,0,0,0,0,0,0,0,0,0,0,0,0,0,0,0,0,0,0,0,0,0,0,0,0,0,0,0,0,0,0,0,0,0,0,0,0,0,0,0,0,0,0,0,0,0,0,0,0,0,0,0,0,0,0,0,0,0,0,0,0,0,0,0,0,0,0,0,0,0,0,0,0,0,0,0,0,0,0,0,0,0,0,0,0,0,0,0,0,0,0,0,0,0,0,0,0,0,0,0,0,0,0,0,0,0,0,0,0,0,0,0,0,0,0,0,0,0,0,0,0,0,0,0,0,0,0,0,0,0,0,0,0,0,0,0,0,0,0,0,0,0,0,0,0,0,0,0,0,0,0,0,0,0,0,0,0,0,0,0,0,0,0,0,0,0,0,0,0,0,0,0,0,0,0,0,0,0,0,0,0,0,0,0,0,0,0,0,0,0,0,0,0,0,0,0,0,0,0,0,0,0,0,0,0,0,0,0,0,0,0,0,0,0,0,0,0,0,0,0,0,0,0,0,0,0,0,0,0,0,0,0,0,0,0,0,0,0,0,0,0,0,0,0,0,0,0,0,0,0,0,0,0,0,0,0,0,0,0,0,0,0,0,0,0,0,0,0,0,0,0,0,0,0,0,0,0,0,0,0,0,0,0,0,0,0,0,0,0,0,0,0,0,0,0,0,0,0,0,0,0,0,0,0,0,0,0,0,0,0,0,0,0,0,0,0,0,0,0,0,0,0,0,0,0,0],
"events":[
null,
{"id":1,"name":"EV001","note":"","pages":[{"conditions":{"actorId":1,"actorValid":false,"itemId":1,"itemValid":false,"selfSwitchCh":"A","selfSwitchValid":false,"switch1Id":1,"switch1Valid":false,"switch2Id":1,"switch2Valid":false,"variableId":1,"variableValid":false,"variableValue":0},"directionFix":false,"image":{"tileId":0,"characterName":"","direction":2,"pattern":0,"characterIndex":0},"moveFrequency":3,"moveRoute":{"list":[{"code":0,"indent":null,"parameters":[]}],"repeat":true,"skippable":false,"wait":false},"moveSpeed":3,"moveType":0,"priorityType":0,"stepAnime":false,"through":false,"trigger":3,"walkAnime":true,"list":[{"code":108,"indent":0,"parameters":["AFFECTION CHANGES"]},{"code":122,"indent":0,"parameters":[169,169,2,0,5]},{"code":122,"indent":0,"parameters":[158,158,1,0,5]},{"code":122,"indent":0,"parameters":[159,159,1,0,1]},{"code":122,"indent":0,"parameters":[119,119,1,0,5]},{"code":122,"indent":0,"parameters":[131,131,1,0,1]},{"code":122,"indent":0,"parameters":[135,135,1,0,5]},{"code":122,"indent":0,"parameters":[152,152,1,0,5]},{"code":122,"indent":0,"parameters":[153,153,1,0,5]},{"code":108,"indent":0,"parameters":["MISC"]},{"code":281,"indent":0,"parameters":[0]},{"code":108,"indent":0,"parameters":["EXP CALCULATIONS"]},{"code":122,"indent":0,"parameters":[7,7,0,0,70]},{"code":122,"indent":0,"parameters":[6,6,0,3,3,2,0]},{"code":122,"indent":0,"parameters":[7,7,2,1,6]},{"code":111,"indent":0,"parameters":[1,7,0,1,3]},{"code":122,"indent":1,"parameters":[7,7,3,0,17000]},{"code":315,"indent":1,"parameters":[0,0,0,1,7,false]},{"code":0,"indent":1,"parameters":[]},{"code":411,"indent":0,"parameters":[]},{"code":111,"indent":1,"parameters":[1,6,0,74,1]},{"code":315,"indent":2,"parameters":[0,0,0,0,3000,false]},{"code":0,"indent":2,"parameters":[]},{"code":411,"indent":1,"parameters":[]},{"code":111,"indent":2,"parameters":[1,6,0,73,1]},{"code":315,"indent":3,"parameters":[0,0,0,0,6000,false]},{"code":0,"indent":3,"parameters":[]},{"code":411,"indent":2,"parameters":[]},{"code":111,"indent":3,"parameters":[1,6,0,72,1]},{"code":315,"indent":4,"parameters":[0,0,0,0,9000,false]},{"code":0,"indent":4,"parameters":[]},{"code":411,"indent":3,"parameters":[]},{"code":111,"indent":4,"parameters":[1,6,0,71,1]},{"code":315,"indent":5,"parameters":[0,0,0,0,12000,false]},{"code":0,"indent":5,"parameters":[]},{"code":411,"indent":4,"parameters":[]},{"code":111,"indent":5,"parameters":[1,6,0,70,1]},{"code":315,"indent":6,"parameters":[0,0,0,0,15000,false]},{"code":0,"indent":6,"parameters":[]},{"code":411,"indent":5,"parameters":[]},{"code":0,"indent":6,"parameters":[]},{"code":412,"indent":5,"parameters":[]},{"code":0,"indent":5,"parameters":[]},{"code":412,"indent":4,"parameters":[]},{"code":0,"indent":4,"parameters":[]},{"code":412,"indent":3,"parameters":[]},{"code":0,"indent":3,"parameters":[]},{"code":412,"indent":2,"parameters":[]},{"code":0,"indent":2,"parameters":[]},{"code":412,"indent":1,"parameters":[]},{"code":0,"indent":1,"parameters":[]},{"code":412,"indent":0,"parameters":[]},{"code":108,"indent":0,"parameters":["KEY ITEMS"]},{"code":126,"indent":0,"parameters":[97,1,0,1]},{"code":126,"indent":0,"parameters":[98,1,0,99]},{"code":126,"indent":0,"parameters":[100,1,0,99]},{"code":126,"indent":0,"parameters":[106,1,0,1]},{"code":108,"indent":0,"parameters":["QUEST CLEANUP"]},{"code":356,"indent":0,"parameters":["Quest 70 Complete Objective 5"]},{"code":356,"indent":0,"parameters":["Quest Set Completed 70"]},{"code":356,"indent":0,"parameters":["Quest Remove 73 to 81"]},{"code":356,"indent":0,"parameters":["Quest Remove 71, 83, 84, 85"]},{"code":101,"indent":0,"parameters":["Tanurak emo",0,0,2]},{"code":401,"indent":0,"parameters":["The world used to be so freely flowing and easily manipulated... it's become so unpleasantly stable..."]},{"code":101,"indent":0,"parameters":["Tanurak emo",1,0,2]},{"code":401,"indent":0,"parameters":["Whatever THIS is, it's a central part of the whole pattern."]},{"code":101,"indent":0,"parameters":["Tanurak emo",3,0,2]},{"code":401,"indent":0,"parameters":["...there we go."]},{"code":205,"indent":0,"parameters":[-1,{"list":[{"code":39,"indent":null,"parameters":[]},{"code":0,"indent":null,"parameters":[]}],"repeat":false,"skippable":false,"wait":true}]},{"code":505,"indent":0,"parameters":[{"code":39,"indent":null,"parameters":[]}]},{"code":222,"indent":0,"parameters":[]},{"code":101,"indent":0,"parameters":["Tanurak emo",0,0,2]},{"code":401,"indent":0,"parameters":["Well, well, well... I can't say that I expected exactly this."]},{"code":230,"indent":0,"parameters":[30]},{"code":205,"indent":0,"parameters":[2,{"list":[{"code":18,"indent":null,"parameters":[]},{"code":0,"indent":null,"parameters":[]}],"repeat":false,"skippable":false,"wait":true}]},{"code":505,"indent":0,"parameters":[{"code":18,"indent":null,"parameters":[]}]},{"code":230,"indent":0,"parameters":[30]},{"code":101,"indent":0,"parameters":["Prologue emo",3,0,2]},{"code":401,"indent":0,"parameters":["..."]},{"code":205,"indent":0,"parameters":[3,{"list":[{"code":37,"indent":null,"parameters":[]},{"code":2,"indent":null,"parameters":[]},{"code":0,"indent":null,"parameters":[]}],"repeat":false,"skippable":false,"wait":true}]},{"code":505,"indent":0,"parameters":[{"code":37,"indent":null,"parameters":[]}]},{"code":505,"indent":0,"parameters":[{"code":2,"indent":null,"parameters":[]}]},{"code":101,"indent":0,"parameters":["Tanurak emo",3,0,2]},{"code":401,"indent":0,"parameters":["The untouchable Ivala, reduced to this. I can imagine how pleased you are with your little Church, hmm?"]},{"code":101,"indent":0,"parameters":["Prologue emo",0,0,2]},{"code":401,"indent":0,"parameters":["...Tanurak. You still exist."]},{"code":101,"indent":0,"parameters":["Tanurak emo",6,0,2]},{"code":401,"indent":0,"parameters":["Surprised? So was everyone else, but now things will get interesting."]},{"code":101,"indent":0,"parameters":["Prologue emo",1,0,2]},{"code":401,"indent":0,"parameters":["You're wrong. I believe you'll find the world has passed into a new era in which your meddling is obsolete."]},{"code":101,"indent":0,"parameters":["Tanurak emo",1,0,2]},{"code":401,"indent":0,"parameters":["I admit that the true world powers are... reaching rather higher than I expected."]},{"code":101,"indent":0,"parameters":["Tanurak emo",2,0,2]},{"code":401,"indent":0,"parameters":["I didn't realize the Anak had become so obsessed with balance, and you..."]},{"code":101,"indent":0,"parameters":["Tanurak emo",6,0,2]},{"code":401,"indent":0,"parameters":["Well, those obscurations are still rather impressive, but I think I begin to see the shape of things now."]},{"code":101,"indent":0,"parameters":["Prologue emo",3,0,2]},{"code":401,"indent":0,"parameters":["As before, your mastery of the subtle arts is unmatched."]},{"code":101,"indent":0,"parameters":["Prologue emo",0,0,2]},{"code":401,"indent":0,"parameters":["And yet I find them... less subtle than I remembered. Are you still so confident, after seeing the current world?"]},{"code":101,"indent":0,"parameters":["Tanurak emo",3,0,2]},{"code":401,"indent":0,"parameters":["Of course. Multiple strong Incubus Kings, the possibility for so many young ones, goddesses becoming active again, more Tower walkers..."]},{"code":101,"indent":0,"parameters":["Tanurak emo",7,0,2]},{"code":401,"indent":0,"parameters":["I have more toys than ever before! I can't wait to burn them all to consecrate a new era!"]},{"code":205,"indent":0,"parameters":[2,{"list":[{"code":3,"indent":null,"parameters":[]},{"code":0,"indent":null,"parameters":[]}],"repeat":false,"skippable":false,"wait":true}]},{"code":505,"indent":0,"parameters":[{"code":3,"indent":null,"parameters":[]}]},{"code":101,"indent":0,"parameters":["Prologue emo",3,0,2]},{"code":401,"indent":0,"parameters":["I disagree. The Incubus Kings are mostly just noise, and the goddesses are just pieces on the board."]},{"code":101,"indent":0,"parameters":["Prologue emo",3,0,2]},{"code":401,"indent":0,"parameters":["And those who walk the Tower have dwindled to a few relevant agents, forces of stability, and irrelevant beings of chaos..."]},{"code":101,"indent":0,"parameters":["Prologue emo",2,0,2]},{"code":401,"indent":0,"parameters":["Like you."]},{"code":101,"indent":0,"parameters":["Tanurak emo",4,0,2]},{"code":401,"indent":0,"parameters":["You're arrogant, for a goddess that's little more than a blind prisoner."]},{"code":101,"indent":0,"parameters":["Prologue emo",1,0,2]},{"code":401,"indent":0,"parameters":["It's true that I was blind... until now. You came here to take information from me, but you brought me a great deal of information as well."]},{"code":101,"indent":0,"parameters":["Prologue emo",5,0,2]},{"code":401,"indent":0,"parameters":["For so long, I could only hope that what I'd set into motion would be enough. I was beginning to doubt."]},{"code":101,"indent":0,"parameters":["Prologue emo",3,0,2]},{"code":401,"indent":0,"parameters":["Now, I think there's a chance. The world certainly won't fall into your chaos, though it may become something more benevolent and more terrible."]},{"code":230,"indent":0,"parameters":[30]},{"code":205,"indent":0,"parameters":[3,{"list":[{"code":18,"indent":null,"parameters":[]},{"code":0,"indent":null,"parameters":[]}],"repeat":false,"skippable":false,"wait":true}]},{"code":505,"indent":0,"parameters":[{"code":18,"indent":null,"parameters":[]}]},{"code":230,"indent":0,"parameters":[30]},{"code":101,"indent":0,"parameters":["Tanurak emo",0,0,2]},{"code":401,"indent":0,"parameters":["..."]},{"code":101,"indent":0,"parameters":["Tanurak emo",3,0,2]},{"code":401,"indent":0,"parameters":["You can fake confidence, but the truth is that you're completely helpless. Your captor has left you vulnerable to my manipulations."]},{"code":101,"indent":0,"parameters":["Prologue emo",3,0,2]},{"code":401,"indent":0,"parameters":["That would be true. There are few options left available to me..."]},{"code":205,"indent":0,"parameters":[2,{"list":[{"code":2,"indent":null,"parameters":[]},{"code":16,"indent":null,"parameters":[]},{"code":0,"indent":null,"parameters":[]}],"repeat":false,"skippable":false,"wait":true}]},{"code":505,"indent":0,"parameters":[{"code":2,"indent":null,"parameters":[]}]},{"code":505,"indent":0,"parameters":[{"code":16,"indent":null,"parameters":[]}]},{"code":212,"indent":0,"parameters":[2,75,true]},{"code":101,"indent":0,"parameters":["Prologue emo",7,0,2]},{"code":401,"indent":0,"parameters":["But one of them is to notify my captor of your presence."]},{"code":230,"indent":0,"parameters":[30]},{"code":205,"indent":0,"parameters":[3,{"list":[{"code":17,"indent":null,"parameters":[]},{"code":0,"indent":null,"parameters":[]}],"repeat":false,"skippable":false,"wait":true}]},{"code":505,"indent":0,"parameters":[{"code":17,"indent":null,"parameters":[]}]},{"code":230,"indent":0,"parameters":[30]},{"code":101,"indent":0,"parameters":["Tanurak emo",4,0,2]},{"code":401,"indent":0,"parameters":["Oh, you bitch! The most this will do is slow down the beginning of my new era!"]},{"code":101,"indent":0,"parameters":["Prologue emo",7,0,2]},{"code":401,"indent":0,"parameters":["No. This is the end."]},{"code":223,"indent":0,"parameters":[[-255,-255,-255,0],60,true]},{"code":221,"indent":0,"parameters":[]},{"code":223,"indent":0,"parameters":[[0,0,0,0],1,true]},{"code":231,"indent":0,"parameters":[1,"chapter5",0,0,0,0,100,100,255,0]},{"code":222,"indent":0,"parameters":[]},{"code":230,"indent":0,"parameters":[180]},{"code":221,"indent":0,"parameters":[]},{"code":235,"indent":0,"parameters":[1]},{"code":121,"indent":0,"parameters":[3601,3601,0]},{"code":121,"indent":0,"parameters":[3602,3602,0]},{"code":201,"indent":0,"parameters":[0,494,17,22,0,0]},{"code":123,"indent":0,"parameters":["A",0]},{"code":0,"indent":0,"parameters":[]}]},{"conditions":{"actorId":1,"actorValid":false,"itemId":1,"itemValid":false,"selfSwitchCh":"A","selfSwitchValid":true,"switch1Id":1,"switch1Valid":false,"switch2Id":1,"switch2Valid":false,"variableId":1,"variableValid":false,"variableValue":0},"directionFix":false,"image":{"tileId":0,"characterName":"","direction":2,"pattern":0,"characterIndex":0},"moveFrequency":3,"moveRoute":{"list":[{"code":0,"indent":null,"parameters":[]}],"repeat":true,"skippable":false,"wait":false},"moveSpeed":3,"moveType":0,"priorityType":0,"stepAnime":false,"through":false,"trigger":0,"walkAnime":true,"list":[{"code":0,"indent":0,"parameters":[]}]}],"x":0,"y":0},
{"id":2,"name":"Qum All Along!","note":"","pages":[{"conditions":{"actorId":1,"actorValid":false,"itemId":1,"itemValid":false,"selfSwitchCh":"A","selfSwitchValid":false,"switch1Id":1,"switch1Valid":false,"switch2Id":1,"switch2Valid":false,"variableId":1,"variableValid":false,"variableValue":0},"directionFix":false,"image":{"tileId":0,"characterName":"Spiritual","direction":2,"pattern":1,"characterIndex":6},"moveFrequency":3,"moveRoute":{"list":[{"code":0,"indent":null,"parameters":[]}],"repeat":true,"skippable":false,"wait":false},"moveSpeed":3,"moveType":0,"priorityType":1,"stepAnime":false,"through":false,"trigger":0,"walkAnime":true,"list":[{"code":0,"indent":0,"parameters":[]}]}],"x":8,"y":6},
{"id":3,"name":"Tanurak","note":"","pages":[{"conditions":{"actorId":1,"actorValid":false,"itemId":1,"itemValid":false,"selfSwitchCh":"A","selfSwitchValid":false,"switch1Id":1,"switch1Valid":false,"switch2Id":1,"switch2Valid":false,"variableId":1,"variableValid":false,"variableValue":0},"directionFix":false,"image":{"tileId":0,"characterName":"Tanurak char","direction":4,"pattern":1,"characterIndex":3},"moveFrequency":3,"moveRoute":{"list":[{"code":0,"indent":null,"parameters":[]}],"repeat":true,"skippable":false,"wait":false},"moveSpeed":3,"moveType":0,"priorityType":1,"stepAnime":false,"through":false,"trigger":0,"walkAnime":true,"list":[{"code":0,"indent":0,"parameters":[]}]}],"x":13,"y":6}
]
}