{
"autoplayBgm":true,"autoplayBgs":false,"battleback1Name":"","battleback2Name":"","bgm":{"name":"Templar Order (holy)","pan":0,"pitch":100,"volume":100},"bgs":{"name":"","pan":0,"pitch":100,"volume":80},"disableDashing":false,"displayName":"","encounterList":[],"encounterStep":30,"height":17,"note":"","parallaxLoopX":false,"parallaxLoopY":false,"parallaxName":"","parallaxShow":false,"parallaxSx":0,"parallaxSy":0,"scrollType":0,"specifyBattleback":false,"tilesetId":2,"width":17,"data":[6128,6132,6156,6166,6514,6518,6512,6512,6512,6512,6512,6515,6514,6168,6156,6136,6128,6156,6166,6514,6518,6512,6516,6512,6512,6512,6512,6512,6513,6512,6515,6514,6168,6156,6514,6518,6512,6516,6512,6516,6520,6520,6520,6520,6520,6513,6512,6513,6512,6515,6514,6512,6516,6512,6516,6520,6524,2995,2993,2993,2993,2997,6521,6520,6513,6512,6513,6512,6512,6516,6520,6524,2994,2981,2999,2850,2836,2852,3001,2982,2996,6521,6520,6513,6512,6520,6524,2994,2980,2965,2998,2850,2817,2816,2818,2852,3000,2970,2980,2996,6521,6520,2980,2980,2961,2960,2984,2850,2817,2816,2816,2816,2818,2852,2976,2960,2962,2980,2980,2960,2960,2960,2960,2984,2832,2816,2816,2816,2816,2816,2840,2976,2960,2960,2960,2960,2960,2960,2960,2960,2984,2856,2824,2816,2816,2816,2820,2854,2976,2960,2960,2960,2960,6164,2960,2960,2960,2962,2996,2856,2824,2816,2820,2854,2994,2961,2960,2960,2960,6162,6152,2960,2960,2960,2960,2962,2996,2832,2816,2840,2994,2961,2960,2960,2960,2960,6144,6130,6164,2960,2960,2960,2960,2984,2832,2816,2840,2976,2960,2960,2960,2960,6162,6129,6128,6152,2960,2960,2960,2960,2984,2832,2816,2840,2976,2960,2960,2960,2960,6144,6128,6128,6152,2960,2960,2960,2960,2984,2832,2816,2840,2976,2960,2960,2960,2960,6144,6128,6128,6152,2960,2960,2960,2960,2984,2832,2816,2840,2976,2960,2960,2960,2960,6144,6128,6128,6130,6128,6128,6128,6132,6156,6156,6156,6156,6156,6136,6128,6128,6128,6129,6128,6128,6128,6128,6132,6156,6166,6514,6514,6514,6514,6514,6168,6156,6136,6128,6128,6128,0,0,0,0,0,0,0,0,0,0,0,0,0,0,0,0,0,0,0,0,0,0,0,0,0,0,0,0,0,0,0,0,0,0,0,0,0,0,0,0,0,0,0,0,0,0,0,0,0,0,0,0,0,0,0,0,0,0,0,0,0,0,0,0,0,0,0,0,0,0,0,0,0,0,0,3042,3028,3044,0,0,0,0,0,0,0,0,0,0,0,0,0,3042,3009,3008,3010,3044,0,0,0,0,0,0,0,0,0,0,0,3042,3009,3008,3008,3008,3010,3044,0,0,0,0,0,0,0,0,0,0,3024,3008,3008,3008,3008,3008,3032,0,0,0,0,0,0,0,0,0,0,3048,3016,3008,3008,3008,3012,3046,0,0,0,0,0,0,0,0,0,0,0,3048,3016,3008,3012,3046,0,0,0,0,0,0,0,0,0,0,0,0,0,3024,3008,3032,0,0,0,0,0,0,0,0,0,0,0,0,0,0,3024,3008,3032,0,0,0,0,0,0,0,0,0,0,0,0,0,0,3024,3008,3032,0,0,0,0,0,0,0,0,0,0,0,0,0,0,3024,3008,3032,0,0,0,0,0,0,0,0,0,0,0,0,0,0,3024,3008,3032,0,0,0,0,0,0,0,0,0,0,0,0,0,0,0,0,0,0,0,0,0,0,0,0,0,0,0,0,0,0,0,0,0,0,0,0,0,0,0,0,0,0,0,0,0,0,0,0,0,0,0,0,0,0,0,0,0,0,0,0,0,0,0,0,0,0,0,0,0,0,0,0,0,0,0,0,0,0,0,0,0,0,0,0,0,0,0,0,0,0,0,0,0,0,0,0,0,0,0,0,0,0,0,0,0,0,0,0,0,0,0,0,0,0,0,0,0,0,0,0,0,0,0,0,0,0,0,0,0,0,0,0,0,0,0,0,0,0,0,0,0,0,0,0,0,0,0,0,0,0,0,0,0,0,0,0,0,0,0,0,0,0,0,0,0,0,0,0,0,0,0,0,0,0,0,0,0,0,0,0,0,0,0,0,0,0,0,0,0,0,0,0,0,0,0,0,0,0,0,0,0,0,0,0,0,0,0,0,0,0,0,0,0,0,0,0,0,0,0,0,0,0,0,0,0,0,0,0,0,0,0,0,0,0,0,0,0,0,0,0,0,0,0,0,0,0,0,0,0,0,0,0,0,0,0,0,0,0,0,0,0,0,0,0,0,0,0,0,0,0,0,0,0,0,0,0,0,0,0,0,0,0,0,0,0,0,0,0,0,0,0,0,0,0,0,0,0,0,0,0,0,0,0,0,0,0,0,0,0,0,0,0,0,0,0,0,0,0,0,0,0,0,0,0,0,0,0,0,0,0,0,0,0,0,0,0,0,0,0,0,0,0,0,0,0,0,0,0,0,0,0,0,0,0,0,0,0,0,0,0,0,0,0,0,0,0,0,0,0,0,0,0,0,0,0,0,0,0,0,0,0,0,0,0,0,0,0,953,0,0,0,954,0,0,0,0,0,0,0,0,0,0,0,953,961,0,0,0,962,954,0,0,0,0,0,0,0,0,0,0,961,0,0,0,0,0,962,0,0,0,0,0,0,0,0,0,0,0,0,0,0,0,0,0,0,0,0,0,0,0,0,0,0,0,0,0,0,0,0,0,0,0,0,0,0,0,0,0,0,0,0,953,0,0,0,0,0,954,0,0,0,0,0,0,0,0,0,0,961,953,0,0,0,954,962,0,0,0,0,0,0,0,0,0,0,0,961,0,0,0,962,0,0,0,0,0,0,0,0,0,0,0,0,0,0,0,0,0,0,0,0,0,0,0,0,0,0,0,0,0,0,0,0,0,0,0,0,0,0,0,0,0,0,0,0,0,0,0,0,0,0,0,0,0,0,0,0,0,0,0,0,0,0,0,0,0,0,0,0,0,0,0,0,0,0,0,0,0,0,0,0,0,0,0,0,0,0,0,0,0,0,0,0,0,0,0,0,0,0,0,0,0,0,0,0,0,0,0,0,0,0,0,0,0,0,0,0,0,0,0,0,0,0,0,0,0,0,0,0,0,0,0,0,0,0,0,0,0,0,0,0,0,0,0,0,0,0,0,0,0,0,0,0,0,0,0,0,0,0,0,0,0,0,0,0,0,5,0,0,0,0,0,0,0,0,0,0,0,0,0,0,5,0,0,0,0,0,0,0,0,0,0,0,0,0,0,5,0,0,0,0,0,0,0,0,0,0,0,0,0,0,0,0,0,0,0,0,0,0,0,0,0,0,0,0,0,0,0,0,0,0,0,0,0,0,0,0,0,0,0,0,0,0,0,0,0,0,0,0,0,0,0,0,0,0,0,0,0,0,0,0,0,0,0,0,0,0,0,0,0,0,0,0,0,0,0,0,0,0,0,5,0,0,0,0,0,0,0,0,0,0,0,0,0,0,0,0,0,0,0,0,0,0,0,0,0,0,0,0,0,0,0,0,0,0,5,0,0,0,0,0,0,0,0,0,0,0,0,0,0,0,0,5,0,0,0,0,0,0,0,0,0,0,0,0,0,0,0,0,5,0,0,0,0,0,0,0,0,0,0,0,0,0,0,0,0,0,0,0,0,0,0,0,0,0,0,0,0,0,0,0,0,0,0,0,0,0,0,0,0,0,0,0,0,0,0,0,0,0,0,0,0,0,0,0,0,0,0,0,0,0,0,0,0,0,0,0,0,0,0,0,0,0,0,0,0,0,0,0,0,0,0,0,0,0,0,0,0,0,0,0,0,0,0,0,0,0,0,0,0,0,0,0,0,0,0,0,0,0,0,0,0,0,0,0,0,0,0,0,0,0,0,0,0,0,0,0,0,0,0,0,0,0,0,0,0,0,0,0,0,0,0,0,0,0,0,0,0,0,0,0,0,0,0,0,0,0,0,0,0,0,0,0,0,0,0,0,0,0,0,0,0,0,0,0,0,0,0,0,0,0,0,0,0,0,0,0,0,0,0,0,0,0,0,0,0,0,0,0,0,0,0,0,0,0,0,0,0,0,0,0,0,0,0,0,0,0,0,0,0,0,0,0,0,0,0,0,0,0,0,0,0,0,0,0,0,0,0,0,0,0,0,0,0,0,0,0,0,0,0,0,0,0,0,0,0,0,0,0,0,0,0,0,0,0,0,0,0,0,0,0,0,0,0,0,0,0,0,0,0,0,0,0,0,0,0,0,0,0,0,0,0,0,0,0,0,0,0,0,0,0,0,0,0,0,0,0,0,0,0,0,0,0,0,0,0,0,0,0,0,0,0,0,0,0,0,0,0,0,0,0,0,0,0,0,0,0],"events":[null,{"id":1,"name":"EV001","note":"","pages":[{"conditions":{"actorId":1,"actorValid":false,"itemId":1,"itemValid":false,"selfSwitchCh":"A","selfSwitchValid":false,"switch1Id":1,"switch1Valid":false,"switch2Id":1,"switch2Valid":false,"variableId":1,"variableValid":false,"variableValue":0},"directionFix":false,"image":{"tileId":0,"characterName":"$divinecrystal","direction":2,"pattern":0,"characterIndex":0},"moveFrequency":3,"moveRoute":{"list":[{"code":0,"indent":null,"parameters":[]}],"repeat":true,"skippable":false,"wait":false},"moveSpeed":3,"moveType":0,"priorityType":1,"stepAnime":false,"through":false,"trigger":0,"walkAnime":true,"list":[{"code":0,"indent":0,"parameters":[]}]}],"x":8,"y":8}]
}
