[
null,
{"id":1,"expanded":true,"name":"Castle","order":4,"parentId":3,"scrollX":720.8888888888889,"scrollY":445.77777777777777},
{"id":2,"expanded":false,"name":"6: Wastelands Border","order":135,"parentId":0,"scrollX":728,"scrollY":396},
{"id":3,"expanded":false,"name":"Prologue","order":1,"parentId":0,"scrollX":1786.909090909091,"scrollY":972},
{"id":4,"expanded":false,"name":"Incubus King's Castle","order":5,"parentId":1,"scrollX":720.8888888888889,"scrollY":396},
{"id":5,"expanded":false,"name":"Introduction","order":2,"parentId":3,"scrollX":1092,"scrollY":594},
{"id":6,"expanded":false,"name":"Withered Mountain","order":3,"parentId":3,"scrollX":1786.909090909091,"scrollY":972},
{"id":7,"expanded":true,"name":"Opening Credits","order":8,"parentId":3,"scrollX":728,"scrollY":396},
{"id":8,"expanded":false,"name":"Abandoned Shore","order":9,"parentId":7,"scrollX":819,"scrollY":445.5},
{"id":9,"expanded":false,"name":"Alonon","order":10,"parentId":7,"scrollX":819,"scrollY":445.5},
{"id":10,"expanded":false,"name":"Incubus King","order":11,"parentId":7,"scrollX":720.8888888888889,"scrollY":396},
{"id":11,"expanded":false,"name":"Xerces","order":12,"parentId":7,"scrollX":819,"scrollY":445.5},
{"id":12,"expanded":false,"name":"Mountaintop","order":13,"parentId":7,"scrollX":728,"scrollY":396},
{"id":13,"expanded":false,"name":"Estaven","order":14,"parentId":7,"scrollX":272,"scrollY":208},
{"id":14,"expanded":false,"name":"Castle Boss Room","order":15,"parentId":7,"scrollX":811,"scrollY":445.5},
{"id":15,"expanded":false,"name":"1: Feroholm","order":16,"parentId":0,"scrollX":819,"scrollY":445.5},
{"id":16,"expanded":true,"name":"Feroholm","order":17,"parentId":15,"scrollX":811,"scrollY":437.5},
{"id":17,"expanded":false,"name":"Feroholm Bar","order":18,"parentId":16,"scrollX":728,"scrollY":396},
{"id":18,"expanded":false,"name":"Simon's House","order":19,"parentId":16,"scrollX":819,"scrollY":445.5},
{"id":19,"expanded":false,"name":"Feroholm Church of Ivala","order":20,"parentId":16,"scrollX":810.6666666666666,"scrollY":480.44444444444446},
{"id":20,"expanded":false,"name":"1: Delgar Forest","order":23,"parentId":0,"scrollX":819,"scrollY":445.5},
{"id":21,"expanded":false,"name":"Bounty Hunter Camp","order":24,"parentId":20,"scrollX":1081.3333333333333,"scrollY":606},
{"id":22,"expanded":false,"name":"Western Delgar Forest","order":25,"parentId":20,"scrollX":1081.3333333333333,"scrollY":606},
{"id":23,"expanded":false,"name":"Cavern","order":26,"parentId":20,"scrollX":1318.6666666666667,"scrollY":1816.6666666666667},
{"id":24,"expanded":false,"name":"Western Delgar Forest: Downriver","order":27,"parentId":20,"scrollX":1081.3333333333333,"scrollY":846},
{"id":25,"expanded":false,"name":"Western Delgar Forest: Clearing","order":28,"parentId":20,"scrollX":1092,"scrollY":594},
{"id":26,"expanded":false,"name":"2: Merchant Camp","order":31,"parentId":0,"scrollX":1092,"scrollY":594},
{"id":27,"expanded":false,"name":"Ardoheim Roadside","order":32,"parentId":26,"scrollX":659.3333333333334,"scrollY":445.6666666666667},
{"id":28,"expanded":false,"name":"Merchant Camp","order":33,"parentId":26,"scrollX":811,"scrollY":994.5},
{"id":29,"expanded":false,"name":"Megail's Tent","order":34,"parentId":28,"scrollX":728,"scrollY":396},
{"id":30,"expanded":true,"name":"Reval's Tent","order":35,"parentId":28,"scrollX":728,"scrollY":396},
{"id":31,"expanded":false,"name":"Liquor Merchant's Tent","order":38,"parentId":28,"scrollX":819,"scrollY":445.5},
{"id":32,"expanded":false,"name":"Merchant Camp HQ","order":39,"parentId":28,"scrollX":819,"scrollY":445.5},
{"id":33,"expanded":false,"name":"Merchant Camp Hall","order":40,"parentId":28,"scrollX":720.8888888888889,"scrollY":396},
{"id":34,"expanded":false,"name":"Slaver House","order":36,"parentId":30,"scrollX":819,"scrollY":445.5},
{"id":35,"expanded":false,"name":"Slaver House Exterior","order":37,"parentId":30,"scrollX":819,"scrollY":445.5},
{"id":36,"expanded":false,"name":"3: Stineford","order":41,"parentId":0,"scrollX":1092,"scrollY":594},
{"id":37,"expanded":false,"name":"Stineford Regional Map","order":42,"parentId":36,"scrollX":1092,"scrollY":594},
{"id":38,"expanded":true,"name":"Ransacked Farm","order":43,"parentId":36,"scrollX":1092,"scrollY":594},
{"id":39,"expanded":true,"name":"Stineford","order":48,"parentId":36,"scrollX":1092,"scrollY":594},
{"id":40,"expanded":false,"name":"Ransacked Barn","order":44,"parentId":38,"scrollX":1092,"scrollY":594},
{"id":41,"expanded":true,"name":"Ransacked Farmhouse","order":45,"parentId":38,"scrollX":1092,"scrollY":594},
{"id":42,"expanded":false,"name":"Ransacked Warehouse","order":47,"parentId":38,"scrollX":1092,"scrollY":594},
{"id":43,"expanded":true,"name":"Outlying Areas","order":75,"parentId":36,"scrollX":819,"scrollY":445.5},
{"id":44,"expanded":true,"name":"Market District","order":49,"parentId":39,"scrollX":1081.3333333333333,"scrollY":594},
{"id":45,"expanded":true,"name":"Noble District","order":60,"parentId":39,"scrollX":1081.3333333333333,"scrollY":594},
{"id":46,"expanded":true,"name":"Slums","order":67,"parentId":39,"scrollX":1081.3333333333333,"scrollY":963.3333333333334},
{"id":47,"expanded":false,"name":"Pale Orchid","order":50,"parentId":44,"scrollX":1092,"scrollY":594},
{"id":48,"expanded":true,"name":"Keeper's Tavern","order":51,"parentId":44,"scrollX":1092,"scrollY":594},
{"id":49,"expanded":false,"name":"Stineford Shops","order":54,"parentId":44,"scrollX":819,"scrollY":445.5},
{"id":50,"expanded":false,"name":"Stineford Clothing Store","order":59,"parentId":44,"scrollX":819,"scrollY":445.5},
{"id":51,"expanded":false,"name":"Stineford Weapon Store","order":55,"parentId":44,"scrollX":1092,"scrollY":594},
{"id":52,"expanded":false,"name":"Stineford Armor Store","order":56,"parentId":44,"scrollX":819,"scrollY":445.5},
{"id":53,"expanded":false,"name":"Thaumaturgical Academy 2F","order":77,"parentId":64,"scrollX":811,"scrollY":445.5},
{"id":54,"expanded":true,"name":"Blue Rose","order":57,"parentId":44,"scrollX":1092,"scrollY":594},
{"id":55,"expanded":false,"name":"Gilded Lily","order":61,"parentId":45,"scrollX":1092,"scrollY":594},
{"id":56,"expanded":false,"name":"Stineford Bank","order":62,"parentId":45,"scrollX":811,"scrollY":994.5},
{"id":57,"expanded":true,"name":"Stineford Cathedral","order":63,"parentId":45,"scrollX":1081.3333333333333,"scrollY":750},
{"id":58,"expanded":false,"name":"The Crimson Cape","order":65,"parentId":45,"scrollX":1092,"scrollY":594},
{"id":59,"expanded":false,"name":"Nameless Stineford Bar","order":68,"parentId":46,"scrollX":1092,"scrollY":594},
{"id":60,"expanded":false,"name":"Stineford Whorehouse","order":69,"parentId":46,"scrollX":1092,"scrollY":594},
{"id":61,"expanded":true,"name":"Stineford Sex Store","order":70,"parentId":46,"scrollX":1092,"scrollY":594},
{"id":62,"expanded":false,"name":"Stineford Abandoned House","order":72,"parentId":46,"scrollX":720.8888888888889,"scrollY":564},
{"id":63,"expanded":false,"name":"Stineford Warehouse","order":73,"parentId":46,"scrollX":1081.3333333333333,"scrollY":620.6666666666666},
{"id":64,"expanded":true,"name":"Academy","order":76,"parentId":43,"scrollX":1092,"scrollY":594},
{"id":65,"expanded":true,"name":"Corrupted Mine Entrance","order":83,"parentId":43,"scrollX":1092,"scrollY":594},
{"id":66,"expanded":true,"name":"Succubus Tower","order":86,"parentId":43,"scrollX":1092,"scrollY":594},
{"id":67,"expanded":false,"name":"Stineford Region Glade","order":92,"parentId":43,"scrollX":819,"scrollY":445.5},
{"id":68,"expanded":false,"name":"The Blue Rose 2F","order":58,"parentId":54,"scrollX":1092,"scrollY":594},
{"id":69,"expanded":false,"name":"Keeper's Tavern Cellar","order":52,"parentId":48,"scrollX":819,"scrollY":445.5},
{"id":70,"expanded":false,"name":"Thaumaturgical Library","order":78,"parentId":64,"scrollX":811,"scrollY":445.5},
{"id":71,"expanded":false,"name":"Thaumaturgical Academy Offices","order":79,"parentId":64,"scrollX":811,"scrollY":445.5},
{"id":72,"expanded":false,"name":"Thaumaturgical Laboratory","order":80,"parentId":64,"scrollX":811,"scrollY":445.5},
{"id":73,"expanded":false,"name":"Thaumaturgical Lecture Halls","order":81,"parentId":64,"scrollX":811,"scrollY":445.5},
{"id":74,"expanded":false,"name":"Stineford Tunnels","order":74,"parentId":46,"scrollX":1138,"scrollY":741.5},
{"id":75,"expanded":false,"name":"Corrupted Mine","order":84,"parentId":65,"scrollX":1081.3333333333333,"scrollY":594},
{"id":76,"expanded":false,"name":"4: Devil's Pass","order":96,"parentId":0,"scrollX":1092,"scrollY":594},
{"id":77,"expanded":false,"name":"Academy Exterior","order":82,"parentId":64,"scrollX":819,"scrollY":445.5},
{"id":78,"expanded":false,"name":"Succubus Tower 2F","order":87,"parentId":66,"scrollX":811,"scrollY":445.5},
{"id":79,"expanded":false,"name":"Succubus Tower 3F","order":88,"parentId":66,"scrollX":811,"scrollY":445.5},
{"id":80,"expanded":false,"name":"Succubus Tower 4F","order":89,"parentId":66,"scrollX":811,"scrollY":445.5},
{"id":81,"expanded":false,"name":"Succubus Tower 5F","order":90,"parentId":66,"scrollX":811,"scrollY":514.5},
{"id":82,"expanded":false,"name":"Devil's Gate","order":97,"parentId":76,"scrollX":2278.6666666666665,"scrollY":1432.6666666666667},
{"id":83,"expanded":false,"name":"Devil's Pass: Camp","order":98,"parentId":76,"scrollX":811,"scrollY":574.5},
{"id":84,"expanded":false,"name":"Incubus King Cache","order":99,"parentId":76,"scrollX":811,"scrollY":2586.5},
{"id":85,"expanded":true,"name":"Deep Tunnels","order":100,"parentId":76,"scrollX":811,"scrollY":489.5},
{"id":86,"expanded":false,"name":"Deep Cache","order":101,"parentId":85,"scrollX":811,"scrollY":1138.5},
{"id":87,"expanded":false,"name":"5: Yhilin","order":102,"parentId":0,"scrollX":728,"scrollY":396},
{"id":88,"expanded":false,"name":"Ari-Yhilina Outskirts","order":103,"parentId":87,"scrollX":1109,"scrollY":1011.5},
{"id":89,"expanded":true,"name":"Ari-Yhilina","order":107,"parentId":87,"scrollX":819,"scrollY":445.5},
{"id":90,"expanded":true,"name":"Merchant Quarter","order":108,"parentId":89,"scrollX":1109,"scrollY":762.5},
{"id":91,"expanded":false,"name":"The Court","order":113,"parentId":89,"scrollX":811,"scrollY":637.5},
{"id":92,"expanded":true,"name":"Yhilin Palace","order":117,"parentId":89,"scrollX":811,"scrollY":825.5},
{"id":93,"expanded":false,"name":"Miners' Junction","order":124,"parentId":87,"scrollX":819,"scrollY":445.5},
{"id":94,"expanded":false,"name":"Yhilin Cathedral","order":126,"parentId":87,"scrollX":811,"scrollY":994.5},
{"id":95,"expanded":false,"name":"Archon Inn","order":109,"parentId":90,"scrollX":811,"scrollY":445.5},
{"id":96,"expanded":false,"name":"Yhilini Bank","order":111,"parentId":90,"scrollX":720.8888888888889,"scrollY":754.2222222222222},
{"id":97,"expanded":false,"name":"Premium Steel","order":112,"parentId":90,"scrollX":811,"scrollY":445.5},
{"id":98,"expanded":false,"name":"Megail's Room","order":110,"parentId":95,"scrollX":819,"scrollY":445.5},
{"id":99,"expanded":false,"name":"Royal Chambers","order":118,"parentId":92,"scrollX":811,"scrollY":1481.5},
{"id":100,"expanded":false,"name":"Throne Room","order":119,"parentId":92,"scrollX":811,"scrollY":706.5},
{"id":101,"expanded":false,"name":"Practical Rooms","order":120,"parentId":92,"scrollX":811,"scrollY":1530.5},
{"id":102,"expanded":false,"name":"Secret Tunnels","order":121,"parentId":92,"scrollX":811,"scrollY":437.5},
{"id":103,"expanded":false,"name":"Tunnel Entrance","order":122,"parentId":92,"scrollX":811,"scrollY":514.5},
{"id":104,"expanded":false,"name":"Sarai's Room","order":127,"parentId":94,"scrollX":819,"scrollY":445.5},
{"id":105,"expanded":false,"name":"House of Petitions","order":114,"parentId":91,"scrollX":811,"scrollY":445.5},
{"id":106,"expanded":false,"name":"Guard Bar","order":115,"parentId":91,"scrollX":811,"scrollY":466.5},
{"id":107,"expanded":false,"name":"Reval's Compound","order":104,"parentId":88,"scrollX":811,"scrollY":714.5},
{"id":108,"expanded":false,"name":"Reval's Compound B","order":105,"parentId":107,"scrollX":811,"scrollY":437.5},
{"id":109,"expanded":false,"name":"Reval's Compound C","order":106,"parentId":107,"scrollX":811,"scrollY":714.5},
{"id":110,"expanded":false,"name":"Yhilini Manor","order":116,"parentId":91,"scrollX":811,"scrollY":472.5},
{"id":111,"expanded":false,"name":"CHAPTER TWO","order":129,"parentId":0,"scrollX":728,"scrollY":396},
{"id":112,"expanded":false,"name":"Camp","order":130,"parentId":111,"scrollX":720.8888888888889,"scrollY":610.2222222222222},
{"id":113,"expanded":false,"name":"Merchant's Pass","order":132,"parentId":111,"scrollX":811,"scrollY":1145.5},
{"id":114,"expanded":false,"name":"Ardoheim Council Chamber","order":133,"parentId":111,"scrollX":819,"scrollY":445.5},
{"id":115,"expanded":true,"name":"6: Feroholm Regional Map","order":21,"parentId":15,"scrollX":819,"scrollY":445.5},
{"id":116,"expanded":false,"name":"6: Orc Shrine","order":22,"parentId":115,"scrollX":819,"scrollY":445.5},
{"id":117,"expanded":false,"name":"Feroholm Outskirts","order":134,"parentId":111,"scrollX":819,"scrollY":445.5},
{"id":118,"expanded":true,"name":"6: Varia Forest","order":29,"parentId":20,"scrollX":1798.6666666666667,"scrollY":583.3333333333334},
{"id":119,"expanded":false,"name":"6: Varia's Hideout","order":30,"parentId":118,"scrollX":1081.3333333333333,"scrollY":594},
{"id":120,"expanded":false,"name":"Incubus King's Castle 2F","order":6,"parentId":1,"scrollX":720.8888888888889,"scrollY":522.2222222222222},
{"id":121,"expanded":false,"name":"Incubus King's Castle 3F","order":7,"parentId":1,"scrollX":720.8888888888889,"scrollY":388.8888888888889},
{"id":122,"expanded":false,"name":"Watchtower","order":136,"parentId":2,"scrollX":819,"scrollY":445.5},
{"id":123,"expanded":false,"name":"Wastelands Area Map","order":137,"parentId":2,"scrollX":728,"scrollY":396},
{"id":124,"expanded":false,"name":"Dark Ruin","order":138,"parentId":123,"scrollX":720.8888888888889,"scrollY":445.77777777777777},
{"id":125,"expanded":false,"name":"Explosives Pass","order":142,"parentId":123,"scrollX":811,"scrollY":1334.5},
{"id":126,"expanded":false,"name":"Succubus Village","order":143,"parentId":123,"scrollX":811,"scrollY":445.5},
{"id":127,"expanded":false,"name":"Blasted Zone","order":146,"parentId":130,"scrollX":272,"scrollY":208},
{"id":128,"expanded":false,"name":"Crypt 1F","order":139,"parentId":124,"scrollX":811,"scrollY":720.5},
{"id":129,"expanded":false,"name":"High Pass","order":144,"parentId":123,"scrollX":819,"scrollY":445.5},
{"id":130,"expanded":true,"name":"Seed of Corruption Zone","order":145,"parentId":123,"scrollX":272,"scrollY":208},
{"id":131,"expanded":false,"name":"Split the Party","order":147,"parentId":0,"scrollX":1081.3333333333333,"scrollY":656.6666666666666},
{"id":132,"expanded":false,"name":"Crypt 2F","order":140,"parentId":124,"scrollX":811,"scrollY":720.5},
{"id":133,"expanded":false,"name":"Crypt B1","order":141,"parentId":124,"scrollX":811,"scrollY":445.5},
{"id":134,"expanded":false,"name":"Hard Pass","order":149,"parentId":135,"scrollX":811,"scrollY":1954.5},
{"id":135,"expanded":false,"name":"7: Megail's Route","order":148,"parentId":0,"scrollX":1092,"scrollY":594},
{"id":136,"expanded":false,"name":"Campfire #1","order":150,"parentId":135,"scrollX":819,"scrollY":445.5},
{"id":137,"expanded":false,"name":"Bandit Pass","order":151,"parentId":135,"scrollX":1589,"scrollY":437.5},
{"id":138,"expanded":false,"name":"Campfire #2","order":152,"parentId":135,"scrollX":819,"scrollY":445.5},
{"id":139,"expanded":true,"name":"Aram Desert","order":153,"parentId":135,"scrollX":3989,"scrollY":4362.5},
{"id":140,"expanded":false,"name":"Campfire #3","order":155,"parentId":135,"scrollX":819,"scrollY":445.5},
{"id":141,"expanded":true,"name":"Eustrin Entrance","order":156,"parentId":135,"scrollX":811,"scrollY":706.5},
{"id":142,"expanded":false,"name":"Eustrin: Exterior Tunnels","order":157,"parentId":141,"scrollX":811,"scrollY":454.5},
{"id":143,"expanded":false,"name":"Bounty Hunter Office","order":154,"parentId":139,"scrollX":720.8888888888889,"scrollY":396},
{"id":144,"expanded":false,"name":"7: Aka's Route","order":158,"parentId":0,"scrollX":819,"scrollY":445.5},
{"id":145,"expanded":false,"name":"Secret Tunnels 2","order":123,"parentId":92,"scrollX":811,"scrollY":1386.5},
{"id":146,"expanded":false,"name":"House Jade","order":164,"parentId":147,"scrollX":811,"scrollY":2058.5},
{"id":147,"expanded":true,"name":"Ari-Yhilina Square","order":159,"parentId":144,"scrollX":811,"scrollY":445.5},
{"id":148,"expanded":true,"name":"Abandoned Bar","order":171,"parentId":156,"scrollX":819,"scrollY":445.5},
{"id":149,"expanded":false,"name":"Kingsmen Bar","order":175,"parentId":156,"scrollX":819,"scrollY":445.5},
{"id":150,"expanded":false,"name":"Domain of Magic","order":165,"parentId":147,"scrollX":811,"scrollY":802.5},
{"id":151,"expanded":false,"name":"Cathedral Library","order":128,"parentId":94,"scrollX":811,"scrollY":900.5},
{"id":152,"expanded":true,"name":"House Rose","order":160,"parentId":147,"scrollX":811,"scrollY":464.5},
{"id":153,"expanded":false,"name":"Halfling Manor","order":161,"parentId":152,"scrollX":811,"scrollY":1340.5},
{"id":154,"expanded":false,"name":"Magic Shop","order":162,"parentId":152,"scrollX":819,"scrollY":445.5},
{"id":155,"expanded":false,"name":"Fancy Store","order":163,"parentId":152,"scrollX":811,"scrollY":466.5},
{"id":156,"expanded":true,"name":"Ari-Yhilina Slums","order":170,"parentId":144,"scrollX":1589,"scrollY":991.5},
{"id":157,"expanded":false,"name":"Slums Shop","order":173,"parentId":156,"scrollX":819,"scrollY":445.5},
{"id":158,"expanded":false,"name":"Magic Shop 3","order":174,"parentId":156,"scrollX":819,"scrollY":445.5},
{"id":159,"expanded":false,"name":"Queensmen Bar","order":176,"parentId":156,"scrollX":819,"scrollY":445.5},
{"id":160,"expanded":false,"name":"Big Man's House","order":177,"parentId":156,"scrollX":819,"scrollY":445.5},
{"id":161,"expanded":true,"name":"Mage Cult Shed","order":178,"parentId":156,"scrollX":819,"scrollY":445.5},
{"id":162,"expanded":false,"name":"Fighting Pits","order":172,"parentId":148,"scrollX":819,"scrollY":445.5},
{"id":163,"expanded":true,"name":"Order of Thaumaturgy","order":166,"parentId":147,"scrollX":811,"scrollY":1763.5},
{"id":164,"expanded":false,"name":"7: Mine Internal","order":125,"parentId":93,"scrollX":1618,"scrollY":1357.5},
{"id":165,"expanded":false,"name":"Trials 1","order":167,"parentId":163,"scrollX":811,"scrollY":445.5},
{"id":166,"expanded":false,"name":"Trials 2","order":168,"parentId":163,"scrollX":811,"scrollY":754.5},
{"id":167,"expanded":false,"name":"Trials 3","order":169,"parentId":163,"scrollX":811,"scrollY":1378.5},
{"id":168,"expanded":false,"name":"Mage Cult Tunnels","order":179,"parentId":161,"scrollX":811,"scrollY":1196.5},
{"id":169,"expanded":false,"name":"7: Yarra's Route","order":180,"parentId":0,"scrollX":819,"scrollY":445.5},
{"id":170,"expanded":true,"name":"Rodak Approach","order":181,"parentId":169,"scrollX":809,"scrollY":445.5},
{"id":171,"expanded":true,"name":"Lustlord's Palace Grounds","order":183,"parentId":169,"scrollX":809,"scrollY":866.5},
{"id":172,"expanded":false,"name":"Lustlord's Palace: Western Chambers","order":184,"parentId":171,"scrollX":811,"scrollY":944.5},
{"id":173,"expanded":false,"name":"Lustlord's Palace: Eastern Chambers","order":185,"parentId":171,"scrollX":811,"scrollY":437.5},
{"id":174,"expanded":false,"name":"Throne Room - Yarra","order":182,"parentId":170,"scrollX":811,"scrollY":605.5},
{"id":175,"expanded":false,"name":"Main Hall","order":186,"parentId":171,"scrollX":1107,"scrollY":677.5},
{"id":176,"expanded":true,"name":"Lustlord's Palace","order":187,"parentId":171,"scrollX":2524,"scrollY":437.5},
{"id":177,"expanded":false,"name":"Event Arena","order":191,"parentId":169,"scrollX":811,"scrollY":445.5},
{"id":178,"expanded":true,"name":"Succubus Race","order":192,"parentId":177,"scrollX":811,"scrollY":445.5},
{"id":179,"expanded":false,"name":"Parallax","order":193,"parentId":178,"scrollX":544,"scrollY":1932},
{"id":180,"expanded":false,"name":"Launch Field","order":194,"parentId":178,"scrollX":819,"scrollY":445.5},
{"id":181,"expanded":false,"name":"Fheliel Entrance","order":188,"parentId":176,"scrollX":817,"scrollY":438.5},
{"id":182,"expanded":false,"name":"Lustlord's Palace: Underground Tunnels","order":190,"parentId":171,"scrollX":1371,"scrollY":4362.5},
{"id":183,"expanded":true,"name":"Succubus Village","order":201,"parentId":169,"scrollX":811,"scrollY":754.5},
{"id":184,"expanded":false,"name":"Succubus Rooms","order":202,"parentId":183,"scrollX":811,"scrollY":628.5},
{"id":185,"expanded":false,"name":"Arena Tunnels","order":195,"parentId":177,"scrollX":811,"scrollY":1765.5},
{"id":186,"expanded":true,"name":"Succubus Hunt","order":196,"parentId":177,"scrollX":1109,"scrollY":1002.5},
{"id":187,"expanded":false,"name":"Frozen Grove","order":203,"parentId":183,"scrollX":819,"scrollY":445.5},
{"id":188,"expanded":false,"name":"Orc Pit","order":189,"parentId":176,"scrollX":811,"scrollY":525.5},
{"id":189,"expanded":true,"name":"Endgames Caverns","order":199,"parentId":177,"scrollX":1301,"scrollY":1482.5},
{"id":190,"expanded":false,"name":"Hunt Beginning","order":197,"parentId":186,"scrollX":819,"scrollY":445.5},
{"id":191,"expanded":false,"name":"Endgames Mountain","order":200,"parentId":189,"scrollX":1109,"scrollY":522.5},
{"id":192,"expanded":false,"name":"Hunt End","order":198,"parentId":186,"scrollX":819,"scrollY":445.5},
{"id":193,"expanded":false,"name":"7: Simon's Route","order":204,"parentId":0,"scrollX":728,"scrollY":396},
{"id":194,"expanded":true,"name":"Orgasmic Palace","order":205,"parentId":193,"scrollX":811,"scrollY":1680.5},
{"id":195,"expanded":false,"name":"Orgasmic Palace 2F","order":206,"parentId":194,"scrollX":811,"scrollY":863.5},
{"id":196,"expanded":false,"name":"Orgasmic Palace 3F","order":207,"parentId":194,"scrollX":811,"scrollY":2070.5},
{"id":197,"expanded":false,"name":"Orgasmic Palace 4F","order":208,"parentId":194,"scrollX":720.8888888888889,"scrollY":445.77777777777777},
{"id":198,"expanded":false,"name":"Orgasmic Palace B1","order":209,"parentId":194,"scrollX":811,"scrollY":906.5},
{"id":199,"expanded":false,"name":"8: Janine's Retreat","order":222,"parentId":0,"scrollX":728,"scrollY":396},
{"id":200,"expanded":true,"name":"Outside Locations","order":210,"parentId":193,"scrollX":817,"scrollY":438.5},
{"id":201,"expanded":false,"name":"Sparring Yards","order":211,"parentId":200,"scrollX":811,"scrollY":445.5},
{"id":202,"expanded":true,"name":"Orgasmic Capital","order":213,"parentId":193,"scrollX":1408,"scrollY":430.5},
{"id":203,"expanded":true,"name":"Other Locations","order":219,"parentId":193,"scrollX":817,"scrollY":438.5},
{"id":204,"expanded":false,"name":"Crypt","order":212,"parentId":200,"scrollX":809,"scrollY":438.5},
{"id":205,"expanded":false,"name":"Orgasmic Emporium","order":214,"parentId":202,"scrollX":809,"scrollY":521.5},
{"id":206,"expanded":false,"name":"Obnoxious Clearing","order":220,"parentId":203,"scrollX":809,"scrollY":1001.5},
{"id":207,"expanded":true,"name":"Crimson Bordello","order":215,"parentId":202,"scrollX":809,"scrollY":445.5},
{"id":208,"expanded":false,"name":"Cafe","order":217,"parentId":202,"scrollX":817,"scrollY":438.5},
{"id":209,"expanded":false,"name":"Fighting Ring","order":218,"parentId":202,"scrollX":817,"scrollY":438.5},
{"id":210,"expanded":false,"name":"Smuggling Quest","order":221,"parentId":203,"scrollX":809,"scrollY":994.5},
{"id":211,"expanded":false,"name":"8: Ardford","order":226,"parentId":0,"scrollX":728,"scrollY":396},
{"id":212,"expanded":true,"name":"Janine's Retreat","order":223,"parentId":199,"scrollX":720.8888888888889,"scrollY":1044},
{"id":213,"expanded":false,"name":"Janine's Retreat 1F","order":224,"parentId":212,"scrollX":720.8888888888889,"scrollY":836.8888888888889},
{"id":214,"expanded":false,"name":"Janine's Retreat 2F","order":225,"parentId":212,"scrollX":720.8888888888889,"scrollY":795.1111111111111},
{"id":215,"expanded":false,"name":"Camp Interior","order":131,"parentId":112,"scrollX":819,"scrollY":445.5},
{"id":216,"expanded":false,"name":"Bordello Room","order":216,"parentId":207,"scrollX":817,"scrollY":438.5},
{"id":217,"expanded":true,"name":"Ardford Castle","order":227,"parentId":211,"scrollX":1696.888888888889,"scrollY":2554.222222222222},
{"id":218,"expanded":true,"name":"City Regions","order":233,"parentId":211,"scrollX":728,"scrollY":396},
{"id":219,"expanded":false,"name":"Ardford Castle: Private Rooms","order":232,"parentId":217,"scrollX":1177.7777777777778,"scrollY":388.8888888888889},
{"id":220,"expanded":false,"name":"Ardford Castle: Council Chamber","order":228,"parentId":217,"scrollX":720.8888888888889,"scrollY":396},
{"id":221,"expanded":false,"name":"Ardford Castle: Garden","order":231,"parentId":217,"scrollX":720.8888888888889,"scrollY":710.6666666666666},
{"id":222,"expanded":false,"name":"Ardford Castle: Council Chamber","order":229,"parentId":220,"scrollX":720.8888888888889,"scrollY":1044},
{"id":223,"expanded":true,"name":"Ardford Area","order":257,"parentId":211,"scrollX":728,"scrollY":396},
{"id":224,"expanded":true,"name":"Ardan Rest Stop","order":258,"parentId":223,"scrollX":720.8888888888889,"scrollY":764},
{"id":225,"expanded":false,"name":"Ardan Rest Stop Interior","order":259,"parentId":224,"scrollX":728,"scrollY":396},
{"id":226,"expanded":true,"name":"Royal District","order":234,"parentId":218,"scrollX":911.1111111111111,"scrollY":2011.111111111111},
{"id":227,"expanded":true,"name":"Religious District","order":237,"parentId":218,"scrollX":1390.2857142857142,"scrollY":868.2857142857142},
{"id":228,"expanded":true,"name":"Military District","order":242,"parentId":218,"scrollX":720.8888888888889,"scrollY":667.1111111111111},
{"id":229,"expanded":true,"name":"Ardford Business District","order":248,"parentId":218,"scrollX":1199.111111111111,"scrollY":2155.1111111111113},
{"id":230,"expanded":false,"name":"Ardford Embassies","order":235,"parentId":226,"scrollX":720.8888888888889,"scrollY":420},
{"id":231,"expanded":false,"name":"Ardford Embassies","order":236,"parentId":226,"scrollX":1404,"scrollY":763.7142857142857},
{"id":232,"expanded":false,"name":"Ardford Cathedral","order":238,"parentId":227,"scrollX":720.8888888888889,"scrollY":1132.888888888889},
{"id":233,"expanded":false,"name":"Ivalan Bank","order":239,"parentId":227,"scrollX":1404,"scrollY":763.7142857142857},
{"id":234,"expanded":false,"name":"Ardford Royal Retreat","order":240,"parentId":227,"scrollX":1199.111111111111,"scrollY":764},
{"id":235,"expanded":false,"name":"Order of Holy Knights","order":241,"parentId":227,"scrollX":720.8888888888889,"scrollY":764},
{"id":236,"expanded":false,"name":"Blademasters Guild","order":243,"parentId":228,"scrollX":720.8888888888889,"scrollY":660},
{"id":237,"expanded":true,"name":"Ardford Military Offices","order":244,"parentId":228,"scrollX":272,"scrollY":304},
{"id":238,"expanded":true,"name":"Ardford Guardhouse","order":246,"parentId":228,"scrollX":720.8888888888889,"scrollY":396},
{"id":239,"expanded":false,"name":"Ardan Bank","order":249,"parentId":229,"scrollX":720.8888888888889,"scrollY":901.7777777777778},
{"id":240,"expanded":false,"name":"Ardford Merchant's Guild","order":250,"parentId":229,"scrollX":720.8888888888889,"scrollY":555.1111111111111},
{"id":241,"expanded":true,"name":"Ardford Naval Guild","order":251,"parentId":229,"scrollX":720.8888888888889,"scrollY":396},
{"id":242,"expanded":false,"name":"Ardford Castle: Council Chamber","order":230,"parentId":220,"scrollX":720.8888888888889,"scrollY":427.1111111111111},
{"id":243,"expanded":false,"name":"Ardford Military Offices 2F","order":245,"parentId":237,"scrollX":720.8888888888889,"scrollY":516},
{"id":244,"expanded":false,"name":"The Silver Stump","order":253,"parentId":229,"scrollX":720.8888888888889,"scrollY":804},
{"id":245,"expanded":false,"name":"Ardford Walls Foundation","order":247,"parentId":238,"scrollX":720.8888888888889,"scrollY":396},
{"id":246,"expanded":false,"name":"Givini Poorhouse","order":254,"parentId":229,"scrollX":1199.111111111111,"scrollY":1531.111111111111},
{"id":247,"expanded":true,"name":"Abandoned Quarry","order":260,"parentId":223,"scrollX":720.8888888888889,"scrollY":2921.3333333333335},
{"id":248,"expanded":false,"name":"The Hole","order":261,"parentId":247,"scrollX":1390.2222222222222,"scrollY":764},
{"id":249,"expanded":false,"name":"Ardford: Hidden Port","order":252,"parentId":241,"scrollX":720.8888888888889,"scrollY":396},
{"id":250,"expanded":true,"name":"Gardens of Steam","order":262,"parentId":223,"scrollX":959.1111111111111,"scrollY":764},
{"id":251,"expanded":false,"name":"Ardford Bathhouse","order":263,"parentId":250,"scrollX":720.8888888888889,"scrollY":564},
{"id":252,"expanded":false,"name":"Ardford Honeymoon Suite","order":264,"parentId":250,"scrollX":720.8888888888889,"scrollY":396},
{"id":253,"expanded":true,"name":"Ardford Region: Empty Lot","order":265,"parentId":223,"scrollX":1199.111111111111,"scrollY":1156},
{"id":254,"expanded":true,"name":"The Unforge","order":269,"parentId":223,"scrollX":1390.2222222222222,"scrollY":1188},
{"id":255,"expanded":false,"name":"Unforge B1","order":270,"parentId":254,"scrollX":1938.6666666666667,"scrollY":718.6666666666666},
{"id":256,"expanded":false,"name":"CHAPTER THREE","order":272,"parentId":0,"scrollX":728,"scrollY":396},
{"id":257,"expanded":false,"name":"Mountaintop","order":273,"parentId":256,"scrollX":819,"scrollY":445.5},
{"id":258,"expanded":false,"name":"Ardford: War Vaults","order":271,"parentId":223,"scrollX":728,"scrollY":396},
{"id":259,"expanded":false,"name":"9: Battle for Yhilin","order":275,"parentId":0,"scrollX":728,"scrollY":396},
{"id":260,"expanded":false,"name":"Yhilini Orc Cavern","order":276,"parentId":259,"scrollX":720.8888888888889,"scrollY":396},
{"id":261,"expanded":false,"name":"Ari-Relhana","order":277,"parentId":259,"scrollX":720.8888888888889,"scrollY":388.8888888888889},
{"id":262,"expanded":false,"name":"Battlefield HQ","order":278,"parentId":259,"scrollX":720.8888888888889,"scrollY":445.77777777777777},
{"id":263,"expanded":true,"name":"Battlefield","order":279,"parentId":259,"scrollX":720.8888888888889,"scrollY":480.44444444444446},
{"id":264,"expanded":false,"name":"Ambush Path","order":280,"parentId":263,"scrollX":272,"scrollY":208},
{"id":265,"expanded":false,"name":"Throne Room - Battle","order":286,"parentId":259,"scrollX":720.8888888888889,"scrollY":396},
{"id":266,"expanded":false,"name":"Elven Segment","order":283,"parentId":263,"scrollX":288,"scrollY":208},
{"id":267,"expanded":false,"name":"Hidden Stronghold","order":287,"parentId":259,"scrollX":720.8888888888889,"scrollY":388.8888888888889},
{"id":268,"expanded":false,"name":"Throne Room - Aftermath","order":288,"parentId":259,"scrollX":720.8888888888889,"scrollY":467.1111111111111},
{"id":269,"expanded":false,"name":"Airship","order":281,"parentId":263,"scrollX":272,"scrollY":256},
{"id":270,"expanded":false,"name":"Healers' Clearing","order":282,"parentId":263,"scrollX":272,"scrollY":208},
{"id":271,"expanded":false,"name":"Kingsmen Bar","order":284,"parentId":263,"scrollX":728,"scrollY":396},
{"id":272,"expanded":false,"name":"Yhilin Outskirts","order":285,"parentId":263,"scrollX":728,"scrollY":396},
{"id":273,"expanded":false,"name":"Throne Room - Aftermath","order":289,"parentId":259,"scrollX":720.8888888888889,"scrollY":680.4444444444445},
{"id":274,"expanded":false,"name":"King's Bedroom","order":290,"parentId":259,"scrollX":720.8888888888889,"scrollY":396},
{"id":275,"expanded":false,"name":"10: New Yhilin","order":291,"parentId":0,"scrollX":540.6666666666666,"scrollY":327},
{"id":276,"expanded":true,"name":"Ari-Yhilina Outskirts","order":292,"parentId":275,"scrollX":811,"scrollY":437.5},
{"id":277,"expanded":true,"name":"Merchant Quarter","order":294,"parentId":275,"scrollX":720.8888888888889,"scrollY":811.1111111111111},
{"id":278,"expanded":true,"name":"Archon Inn","order":295,"parentId":277,"scrollX":720.8888888888889,"scrollY":804},
{"id":279,"expanded":false,"name":"Yhilini Bank","order":297,"parentId":277,"scrollX":720.8888888888889,"scrollY":871.5555555555555},
{"id":280,"expanded":false,"name":"Premium Steel","order":298,"parentId":277,"scrollX":720.8888888888889,"scrollY":613.7777777777778},
{"id":281,"expanded":true,"name":"The Court","order":299,"parentId":275,"scrollX":720.8888888888889,"scrollY":804},
{"id":282,"expanded":false,"name":"House of Petitions","order":300,"parentId":281,"scrollX":720.8888888888889,"scrollY":708},
{"id":283,"expanded":false,"name":"Guard Bar","order":303,"parentId":281,"scrollX":720.8888888888889,"scrollY":396},
{"id":284,"expanded":true,"name":"Yhilin Palace","order":306,"parentId":275,"scrollX":720.8888888888889,"scrollY":852},
{"id":285,"expanded":false,"name":"Royal Chambers","order":307,"parentId":284,"scrollX":720.6666666666666,"scrollY":1473.6666666666667},
{"id":286,"expanded":false,"name":"Throne Room","order":308,"parentId":284,"scrollX":540.6666666666666,"scrollY":855},
{"id":287,"expanded":false,"name":"Practical Rooms","order":309,"parentId":284,"scrollX":1199.3333333333333,"scrollY":1579},
{"id":288,"expanded":true,"name":"Secret Tunnels 3","order":310,"parentId":284,"scrollX":1081.3333333333333,"scrollY":1337},
{"id":289,"expanded":false,"name":"Miners' Junction","order":313,"parentId":275,"scrollX":728,"scrollY":396},
{"id":290,"expanded":false,"name":"Yhilin Cathedral","order":314,"parentId":275,"scrollX":720.8888888888889,"scrollY":396},
{"id":291,"expanded":false,"name":"Cathedral Library","order":316,"parentId":290,"scrollX":720.8888888888889,"scrollY":960.4444444444445},
{"id":292,"expanded":false,"name":"Sarai's Room","order":315,"parentId":290,"scrollX":728,"scrollY":396},
{"id":293,"expanded":false,"name":"Ari-Yhilina Square","order":319,"parentId":275,"scrollX":720.8888888888889,"scrollY":859.1111111111111},
{"id":294,"expanded":false,"name":"Rose District","order":320,"parentId":293,"scrollX":720.8888888888889,"scrollY":396},
{"id":295,"expanded":false,"name":"Fancy Store","order":323,"parentId":294,"scrollX":720.8888888888889,"scrollY":516},
{"id":296,"expanded":false,"name":"House Jade","order":326,"parentId":293,"scrollX":1151.111111111111,"scrollY":688.4444444444445},
{"id":297,"expanded":false,"name":"House Rose","order":321,"parentId":294,"scrollX":720.8888888888889,"scrollY":396},
{"id":298,"expanded":false,"name":"Magic Shop","order":322,"parentId":294,"scrollX":728,"scrollY":396},
{"id":299,"expanded":false,"name":"Domain of Magic","order":327,"parentId":293,"scrollX":720.8888888888889,"scrollY":852},
{"id":300,"expanded":true,"name":"Order of Thaumaturgy","order":328,"parentId":293,"scrollX":720.8888888888889,"scrollY":1955.111111111111},
{"id":301,"expanded":false,"name":"Ari-Yhilina Slums","order":332,"parentId":275,"scrollX":1020,"scrollY":1171.6666666666667},
{"id":302,"expanded":false,"name":"Slums Shop","order":336,"parentId":301,"scrollX":728,"scrollY":396},
{"id":303,"expanded":false,"name":"Magic Shop 3","order":337,"parentId":301,"scrollX":272,"scrollY":240},
{"id":304,"expanded":false,"name":"Abandoned Bar","order":333,"parentId":301,"scrollX":540.6666666666666,"scrollY":420.3333333333333},
{"id":305,"expanded":false,"name":"Fighting Pits","order":334,"parentId":304,"scrollX":720.8888888888889,"scrollY":396},
{"id":306,"expanded":true,"name":"Kingsmen Bar","order":338,"parentId":301,"scrollX":728,"scrollY":396},
{"id":307,"expanded":false,"name":"Queensmen Bar","order":340,"parentId":301,"scrollX":728,"scrollY":396},
{"id":308,"expanded":false,"name":"Big Man's House","order":343,"parentId":275,"scrollX":728,"scrollY":396},
{"id":309,"expanded":false,"name":"Mage Cult Shed","order":345,"parentId":275,"scrollX":819,"scrollY":445.5},
{"id":310,"expanded":false,"name":"Mage Cult Tunnels","order":346,"parentId":309,"scrollX":1021,"scrollY":782.5},
{"id":311,"expanded":false,"name":"Incubus King","order":274,"parentId":256,"scrollX":720.8888888888889,"scrollY":396},
{"id":312,"expanded":false,"name":"Trials New","order":329,"parentId":300,"scrollX":720.8888888888889,"scrollY":714.2222222222222},
{"id":313,"expanded":false,"name":"11: Elven Forests","order":347,"parentId":0,"scrollX":819,"scrollY":445.5},
{"id":314,"expanded":false,"name":"NAP HQ","order":381,"parentId":347,"scrollX":720.8888888888889,"scrollY":584.4444444444445},
{"id":315,"expanded":false,"name":"Gryndine River","order":349,"parentId":313,"scrollX":1120,"scrollY":969.3333333333334},
{"id":316,"expanded":false,"name":"Twisted Glen","order":350,"parentId":313,"scrollX":720.8888888888889,"scrollY":1947.111111111111},
{"id":317,"expanded":false,"name":"Lynine HQ","order":354,"parentId":324,"scrollX":728,"scrollY":396},
{"id":318,"expanded":false,"name":"Research","order":311,"parentId":288,"scrollX":540.6666666666666,"scrollY":327},
{"id":319,"expanded":false,"name":"Ivala's Glade","order":373,"parentId":313,"scrollX":720.8888888888889,"scrollY":564},
{"id":320,"expanded":false,"name":"Tree Template","order":365,"parentId":325,"scrollX":720.8888888888889,"scrollY":396},
{"id":321,"expanded":true,"name":"Sylvan Regional Map","order":351,"parentId":313,"scrollX":819,"scrollY":445.5},
{"id":322,"expanded":false,"name":"Orilise HQ","order":366,"parentId":325,"scrollX":720.8888888888889,"scrollY":396},
{"id":323,"expanded":false,"name":"Darghelon Entrance","order":348,"parentId":313,"scrollX":720.8888888888889,"scrollY":396},
{"id":324,"expanded":true,"name":"Theltiar","order":353,"parentId":313,"scrollX":751.1111111111111,"scrollY":388.8888888888889},
{"id":325,"expanded":true,"name":"Denmiel","order":364,"parentId":313,"scrollX":1057.7777777777778,"scrollY":766.6666666666666},
{"id":326,"expanded":false,"name":"The Mother's Nest","order":355,"parentId":324,"scrollX":728,"scrollY":396},
{"id":327,"expanded":false,"name":"Theltiar Market House","order":356,"parentId":324,"scrollX":336,"scrollY":240},
{"id":328,"expanded":false,"name":"Rental Office","order":357,"parentId":324,"scrollX":336,"scrollY":240},
{"id":329,"expanded":false,"name":"Dead House B1","order":360,"parentId":331,"scrollX":720.8888888888889,"scrollY":484.8888888888889},
{"id":330,"expanded":false,"name":"Flowhouse","order":358,"parentId":324,"scrollX":336,"scrollY":240},
{"id":331,"expanded":true,"name":"Dead House","order":359,"parentId":324,"scrollX":720.8888888888889,"scrollY":396},
{"id":332,"expanded":false,"name":"Boughs of Protection","order":367,"parentId":325,"scrollX":320,"scrollY":320},
{"id":333,"expanded":false,"name":"Denmiel Barterhouse","order":368,"parentId":325,"scrollX":320,"scrollY":320},
{"id":334,"expanded":false,"name":"The Unshaded Oak","order":369,"parentId":325,"scrollX":320,"scrollY":320},
{"id":335,"expanded":true,"name":"Old Theltiar","order":361,"parentId":331,"scrollX":720.8888888888889,"scrollY":516},
{"id":336,"expanded":false,"name":"Denmiel Archives","order":370,"parentId":325,"scrollX":720.8888888888889,"scrollY":660},
{"id":337,"expanded":true,"name":"Elevated House","order":371,"parentId":325,"scrollX":720.8888888888889,"scrollY":396},
{"id":338,"expanded":false,"name":"Dead House B2","order":363,"parentId":331,"scrollX":728,"scrollY":396},
{"id":339,"expanded":false,"name":"Warehouse Cellar","order":362,"parentId":335,"scrollX":720.8888888888889,"scrollY":396},
{"id":340,"expanded":false,"name":"Elevated House 2F","order":372,"parentId":337,"scrollX":320,"scrollY":320},
{"id":341,"expanded":false,"name":"Secluded Glade","order":374,"parentId":313,"scrollX":728,"scrollY":396},
{"id":342,"expanded":false,"name":"Forest of the First Root","order":375,"parentId":313,"scrollX":811,"scrollY":1119.5},
{"id":343,"expanded":false,"name":"Prelate's Room","order":317,"parentId":290,"scrollX":728,"scrollY":396},
{"id":344,"expanded":false,"name":"Safehouse Path","order":318,"parentId":290,"scrollX":728,"scrollY":396},
{"id":345,"expanded":false,"name":"Slum House of Petitions","order":344,"parentId":308,"scrollX":728,"scrollY":396},
{"id":346,"expanded":false,"name":"The Warrior's Ring","order":335,"parentId":304,"scrollX":720.8888888888889,"scrollY":396},
{"id":347,"expanded":true,"name":"Zirantia Plaza","order":380,"parentId":353,"scrollX":1593.7777777777778,"scrollY":584.4444444444445},
{"id":348,"expanded":false,"name":"Zirantian Road","order":377,"parentId":353,"scrollX":272,"scrollY":208},
{"id":349,"expanded":true,"name":"Palace Entrance","order":378,"parentId":353,"scrollX":720.8888888888889,"scrollY":858.2222222222222},
{"id":350,"expanded":false,"name":"Royal Palace","order":379,"parentId":349,"scrollX":720.8888888888889,"scrollY":388.8888888888889},
{"id":351,"expanded":false,"name":"Unnamed Zirantian Bar","order":383,"parentId":347,"scrollX":720.8888888888889,"scrollY":396},
{"id":352,"expanded":true,"name":"Zirantian Ruins Entrance","order":389,"parentId":353,"scrollX":720.8888888888889,"scrollY":420},
{"id":353,"expanded":false,"name":"12: Zirantia","order":376,"parentId":0,"scrollX":728,"scrollY":396},
{"id":354,"expanded":false,"name":"14: Third Arclent War","order":423,"parentId":0,"scrollX":540.6666666666666,"scrollY":327},
{"id":355,"expanded":false,"name":"Maranite Camp","order":411,"parentId":382,"scrollX":720.8888888888889,"scrollY":396},
{"id":356,"expanded":false,"name":"Eustrin B5","order":402,"parentId":380,"scrollX":2162.6666666666665,"scrollY":1027.111111111111},
{"id":357,"expanded":false,"name":"War Headquarters","order":424,"parentId":354,"scrollX":540.6666666666666,"scrollY":356.3333333333333},
{"id":358,"expanded":false,"name":"Seeds of Corruption","order":432,"parentId":354,"scrollX":728,"scrollY":396},
{"id":359,"expanded":false,"name":"Gasm Falls","order":493,"parentId":402,"scrollX":720.8888888888889,"scrollY":2839.5555555555557},
{"id":360,"expanded":false,"name":"Aram Events","order":441,"parentId":354,"scrollX":728,"scrollY":396},
{"id":361,"expanded":true,"name":"Wynn Exterior","order":386,"parentId":353,"scrollX":720.8888888888889,"scrollY":396},
{"id":362,"expanded":false,"name":"Wynn B1","order":387,"parentId":361,"scrollX":720.8888888888889,"scrollY":538.2222222222222},
{"id":363,"expanded":false,"name":"Wynn B2","order":388,"parentId":361,"scrollX":720.8888888888889,"scrollY":467.1111111111111},
{"id":364,"expanded":false,"name":"NUP HQ","order":382,"parentId":347,"scrollX":720.8888888888889,"scrollY":396},
{"id":365,"expanded":false,"name":"Zirantian Ruins","order":390,"parentId":352,"scrollX":959.1111111111111,"scrollY":511.55555555555554},
{"id":366,"expanded":false,"name":"Incubus Ruins B3","order":395,"parentId":369,"scrollX":720.8888888888889,"scrollY":396},
{"id":367,"expanded":true,"name":"Remote Zirantian Ruin","order":384,"parentId":347,"scrollX":728,"scrollY":396},
{"id":368,"expanded":false,"name":"Remote Zirantian Ruin","order":385,"parentId":367,"scrollX":720.8888888888889,"scrollY":708},
{"id":369,"expanded":true,"name":"Incubus Ruins","order":392,"parentId":353,"scrollX":728,"scrollY":396},
{"id":370,"expanded":false,"name":"Incubus Ruins B1","order":393,"parentId":369,"scrollX":720.8888888888889,"scrollY":591.5555555555555},
{"id":371,"expanded":false,"name":"Incubus Ruins B2","order":394,"parentId":369,"scrollX":1679.111111111111,"scrollY":513.3333333333334},
{"id":372,"expanded":false,"name":"Zirantian Ruins Inner Chamber","order":391,"parentId":352,"scrollX":720.8888888888889,"scrollY":484.8888888888889},
{"id":373,"expanded":true,"name":"Ordeal of the Claw","order":396,"parentId":353,"scrollX":728,"scrollY":396},
{"id":374,"expanded":false,"name":"Ordeal of the Claw","order":397,"parentId":373,"scrollX":720.8888888888889,"scrollY":388.8888888888889},
{"id":375,"expanded":false,"name":"Training Ground","order":312,"parentId":288,"scrollX":1092,"scrollY":594},
{"id":376,"expanded":false,"name":"Wynn's Room","order":296,"parentId":278,"scrollX":728,"scrollY":396},
{"id":377,"expanded":false,"name":"Negotiation Hall","order":304,"parentId":281,"scrollX":720.8888888888889,"scrollY":388.8888888888889},
{"id":378,"expanded":false,"name":"Final Trial","order":330,"parentId":300,"scrollX":720.8888888888889,"scrollY":548.8888888888889},
{"id":379,"expanded":false,"name":"13: Eustrin/Aram","order":399,"parentId":0,"scrollX":1092,"scrollY":594},
{"id":380,"expanded":true,"name":"Eustrin: Hidden Entrance","order":400,"parentId":379,"scrollX":1092,"scrollY":594},
{"id":381,"expanded":false,"name":"Eustrin B4","order":401,"parentId":380,"scrollX":1081.3333333333333,"scrollY":1816.6666666666667},
{"id":382,"expanded":false,"name":"Western Aram Desert","order":409,"parentId":379,"scrollX":1120,"scrollY":760.6666666666666},
{"id":383,"expanded":false,"name":"Blight Tunnels","order":410,"parentId":382,"scrollX":1208,"scrollY":388.8888888888889},
{"id":384,"expanded":false,"name":"Eustrin B6","order":403,"parentId":380,"scrollX":2162.6666666666665,"scrollY":1452.6666666666667},
{"id":385,"expanded":false,"name":"Eustrin B8","order":404,"parentId":380,"scrollX":1081.3333333333333,"scrollY":1452.6666666666667},
{"id":386,"expanded":true,"name":"Aramite Fort","order":414,"parentId":388,"scrollX":720.8888888888889,"scrollY":396},
{"id":387,"expanded":false,"name":"Eustrin B9","order":405,"parentId":380,"scrollX":1081.3333333333333,"scrollY":942},
{"id":388,"expanded":false,"name":"Misc","order":413,"parentId":379,"scrollX":728,"scrollY":396},
{"id":389,"expanded":false,"name":"Regional Map","order":417,"parentId":388,"scrollX":728,"scrollY":396},
{"id":390,"expanded":false,"name":"Aramite Fort","order":415,"parentId":386,"scrollX":720.8888888888889,"scrollY":405.77777777777777},
{"id":391,"expanded":false,"name":"Aramite Courtyard","order":416,"parentId":386,"scrollX":720.8888888888889,"scrollY":396},
{"id":392,"expanded":false,"name":"Aramite Hideout","order":412,"parentId":382,"scrollX":728,"scrollY":396},
{"id":393,"expanded":false,"name":"Southern Tunnels","order":406,"parentId":380,"scrollX":1318.6666666666667,"scrollY":583.3333333333334},
{"id":394,"expanded":false,"name":"Border Camp","order":418,"parentId":388,"scrollX":720.8888888888889,"scrollY":848.4444444444445},
{"id":395,"expanded":false,"name":"Canlin Abbey","order":442,"parentId":360,"scrollX":720.8888888888889,"scrollY":640.4444444444445},
{"id":396,"expanded":false,"name":"Aramite Forest","order":443,"parentId":360,"scrollX":800,"scrollY":760.4444444444445},
{"id":397,"expanded":true,"name":"Cache Exterior","order":457,"parentId":400,"scrollX":720.8888888888889,"scrollY":400.44444444444446},
{"id":398,"expanded":false,"name":"Entrance Tunnel","order":490,"parentId":402,"scrollX":640,"scrollY":720},
{"id":399,"expanded":false,"name":"Yarra's Tunnel","order":491,"parentId":402,"scrollX":272,"scrollY":1066},
{"id":400,"expanded":false,"name":"Stineford Events","order":451,"parentId":354,"scrollX":728,"scrollY":396},
{"id":401,"expanded":false,"name":"Ardoheim Events","order":468,"parentId":354,"scrollX":728,"scrollY":396},
{"id":402,"expanded":false,"name":"IKD Events","order":489,"parentId":354,"scrollX":728,"scrollY":396},
{"id":403,"expanded":false,"name":"Arclent Map","order":425,"parentId":357,"scrollX":728,"scrollY":396},
{"id":404,"expanded":false,"name":"Givini Tunnels","order":501,"parentId":402,"scrollX":352,"scrollY":352},
{"id":405,"expanded":false,"name":"Aram Seed","order":433,"parentId":358,"scrollX":728,"scrollY":396},
{"id":406,"expanded":false,"name":"Ardoheim Seed","order":434,"parentId":358,"scrollX":728,"scrollY":396},
{"id":407,"expanded":false,"name":"Zirantia Seed","order":435,"parentId":358,"scrollX":272,"scrollY":208},
{"id":408,"expanded":false,"name":"Yhilin Seed 2","order":436,"parentId":358,"scrollX":728,"scrollY":396},
{"id":409,"expanded":false,"name":"Aram Seed 2","order":437,"parentId":358,"scrollX":728,"scrollY":396},
{"id":410,"expanded":false,"name":"Ardoheim Seed 2","order":438,"parentId":358,"scrollX":728,"scrollY":396},
{"id":411,"expanded":false,"name":"Zirantia Seed 2","order":439,"parentId":358,"scrollX":728,"scrollY":396},
{"id":412,"expanded":true,"name":"Thaumaturgical Academy","order":452,"parentId":400,"scrollX":720.8888888888889,"scrollY":612},
{"id":413,"expanded":false,"name":"Ardoheim - Vhala","order":440,"parentId":358,"scrollX":720.8888888888889,"scrollY":396},
{"id":414,"expanded":true,"name":"Headquarters","order":522,"parentId":0,"scrollX":767.3333333333334,"scrollY":421},
{"id":415,"expanded":false,"name":"Elleani's Estate","order":566,"parentId":521,"scrollX":728,"scrollY":396},
{"id":416,"expanded":true,"name":"Givini Mage Guild","order":567,"parentId":521,"scrollX":720.8888888888889,"scrollY":480.44444444444446},
{"id":417,"expanded":false,"name":"Givini Camps","order":570,"parentId":521,"scrollX":720.8888888888889,"scrollY":396},
{"id":418,"expanded":false,"name":"Empty Site","order":572,"parentId":521,"scrollX":728,"scrollY":396},
{"id":419,"expanded":true,"name":"Military District","order":469,"parentId":401,"scrollX":640,"scrollY":352},
{"id":420,"expanded":false,"name":"Battleground","order":476,"parentId":401,"scrollX":704,"scrollY":480},
{"id":421,"expanded":false,"name":"Thaumaturgical Academy Offices","order":453,"parentId":412,"scrollX":272,"scrollY":336},
{"id":422,"expanded":false,"name":"Thaumaturgical Laboratory","order":454,"parentId":412,"scrollX":720.8888888888889,"scrollY":396},
{"id":423,"expanded":false,"name":"Thaumaturgical Lecture Halls","order":455,"parentId":412,"scrollX":720.8888888888889,"scrollY":396},
{"id":424,"expanded":false,"name":"Academy Exterior","order":456,"parentId":412,"scrollX":720.8888888888889,"scrollY":420},
{"id":425,"expanded":false,"name":"Blademasters Guild","order":470,"parentId":419,"scrollX":400,"scrollY":400},
{"id":426,"expanded":false,"name":"Ardford Military Offices","order":471,"parentId":419,"scrollX":272,"scrollY":304},
{"id":427,"expanded":false,"name":"Castle Interior","order":472,"parentId":419,"scrollX":728,"scrollY":396},
{"id":428,"expanded":false,"name":"Border Fort","order":477,"parentId":401,"scrollX":272,"scrollY":208},
{"id":429,"expanded":false,"name":"Beseiged Church","order":478,"parentId":401,"scrollX":272,"scrollY":208},
{"id":430,"expanded":false,"name":"Cache Interior","order":458,"parentId":397,"scrollX":728,"scrollY":396},
{"id":431,"expanded":false,"name":"Incubus King","order":492,"parentId":402,"scrollX":720.8888888888889,"scrollY":660},
{"id":432,"expanded":true,"name":"Stineford Regional Map","order":459,"parentId":400,"scrollX":728,"scrollY":396},
{"id":433,"expanded":false,"name":"Academy HQ","order":460,"parentId":432,"scrollX":720.8888888888889,"scrollY":396},
{"id":434,"expanded":false,"name":"Stineford Battlefield","order":461,"parentId":432,"scrollX":728,"scrollY":396},
{"id":435,"expanded":false,"name":"Aramite Cavern","order":444,"parentId":396,"scrollX":720.8888888888889,"scrollY":400.44444444444446},
{"id":436,"expanded":false,"name":"Aram Battleground","order":445,"parentId":360,"scrollX":800,"scrollY":760},
{"id":437,"expanded":false,"name":"Yhilin Palace","order":426,"parentId":357,"scrollX":720.8888888888889,"scrollY":688.4444444444445},
{"id":438,"expanded":false,"name":"Ari-Yhilina Square","order":427,"parentId":357,"scrollX":720.8888888888889,"scrollY":416.44444444444446},
{"id":439,"expanded":false,"name":"Givini Tunnels","order":494,"parentId":359,"scrollX":352,"scrollY":352},
{"id":440,"expanded":false,"name":"Orc Tunnels","order":495,"parentId":359,"scrollX":480,"scrollY":580},
{"id":441,"expanded":false,"name":"The Pink Sheets","order":496,"parentId":359,"scrollX":288,"scrollY":272},
{"id":442,"expanded":false,"name":"The Gushing Quim","order":497,"parentId":359,"scrollX":272,"scrollY":272},
{"id":443,"expanded":false,"name":"Armor Shack","order":498,"parentId":359,"scrollX":272,"scrollY":256},
{"id":444,"expanded":false,"name":"Tower of Mist","order":499,"parentId":402,"scrollX":720.8888888888889,"scrollY":396},
{"id":445,"expanded":false,"name":"Tower of Mist 2F","order":500,"parentId":444,"scrollX":720.8888888888889,"scrollY":756},
{"id":446,"expanded":true,"name":"Feroholm","order":464,"parentId":400,"scrollX":656,"scrollY":400},
{"id":447,"expanded":false,"name":"Simon's House","order":465,"parentId":446,"scrollX":272,"scrollY":208},
{"id":448,"expanded":false,"name":"Feroholm Church of Ivala","order":466,"parentId":446,"scrollX":640,"scrollY":480},
{"id":449,"expanded":true,"name":"Regional Map","order":479,"parentId":401,"scrollX":272,"scrollY":208},
{"id":450,"expanded":false,"name":"Ancient Ruin","order":574,"parentId":521,"scrollX":720.8888888888889,"scrollY":420},
{"id":451,"expanded":false,"name":"Ardan Cloister","order":480,"parentId":449,"scrollX":272,"scrollY":208},
{"id":452,"expanded":false,"name":"Barrier Border","order":481,"parentId":449,"scrollX":272,"scrollY":208},
{"id":453,"expanded":false,"name":"Cavalry Scene","order":482,"parentId":449,"scrollX":272,"scrollY":208},
{"id":454,"expanded":false,"name":"Unsuccubi Fight 1","order":483,"parentId":449,"scrollX":272,"scrollY":208},
{"id":455,"expanded":false,"name":"Unsuccubi Fight 2","order":484,"parentId":449,"scrollX":272,"scrollY":208},
{"id":456,"expanded":false,"name":"Ardford Royal Retreat","order":473,"parentId":419,"scrollX":720.8888888888889,"scrollY":388.8888888888889},
{"id":457,"expanded":false,"name":"Ardford Castle: Private Rooms","order":474,"parentId":419,"scrollX":720.8888888888889,"scrollY":400.44444444444446},
{"id":458,"expanded":false,"name":"Riala Location","order":485,"parentId":449,"scrollX":720.8888888888889,"scrollY":396},
{"id":459,"expanded":false,"name":"King's Bedroom","order":428,"parentId":357,"scrollX":720.8888888888889,"scrollY":396},
{"id":460,"expanded":false,"name":"Balia's Room","order":429,"parentId":357,"scrollX":720.8888888888889,"scrollY":396},
{"id":461,"expanded":true,"name":"Western Ardan Mountains","order":486,"parentId":401,"scrollX":720.8888888888889,"scrollY":760.4444444444445},
{"id":462,"expanded":false,"name":"Ardford Military Offices 2F","order":475,"parentId":419,"scrollX":720.8888888888889,"scrollY":396},
{"id":463,"expanded":false,"name":"Unsuccubus Cave","order":487,"parentId":461,"scrollX":720.8888888888889,"scrollY":416.44444444444446},
{"id":464,"expanded":false,"name":"IK Point","order":488,"parentId":401,"scrollX":272,"scrollY":208},
{"id":465,"expanded":false,"name":"Bloody Spire","order":502,"parentId":402,"scrollX":720.8888888888889,"scrollY":396},
{"id":466,"expanded":true,"name":"Final Pass","order":446,"parentId":360,"scrollX":800,"scrollY":388.8888888888889},
{"id":467,"expanded":false,"name":"Incubus Castle","order":505,"parentId":402,"scrollX":3882.6666666666665,"scrollY":1355.111111111111},
{"id":468,"expanded":false,"name":"Incubus Summit","order":506,"parentId":467,"scrollX":272,"scrollY":400},
{"id":469,"expanded":false,"name":"Altina Pass","order":447,"parentId":466,"scrollX":728,"scrollY":396},
{"id":470,"expanded":false,"name":"Bloody Pit","order":503,"parentId":465,"scrollX":272,"scrollY":208},
{"id":471,"expanded":false,"name":"HQ Campfire","order":448,"parentId":466,"scrollX":728,"scrollY":396},
{"id":472,"expanded":false,"name":"War Headquarters","order":430,"parentId":357,"scrollX":540.6666666666666,"scrollY":689.6666666666666},
{"id":473,"expanded":false,"name":"Bloody Spire Area","order":504,"parentId":465,"scrollX":272,"scrollY":208},
{"id":474,"expanded":false,"name":"Watchtower","order":467,"parentId":400,"scrollX":400,"scrollY":272},
{"id":475,"expanded":false,"name":"Zirantian Location","order":508,"parentId":488,"scrollX":272,"scrollY":208},
{"id":476,"expanded":false,"name":"Palace Entrance","order":509,"parentId":488,"scrollX":720.8888888888889,"scrollY":480.44444444444446},
{"id":477,"expanded":false,"name":"Zirantian Border","order":510,"parentId":488,"scrollX":728,"scrollY":396},
{"id":478,"expanded":false,"name":"Incubus King","order":511,"parentId":488,"scrollX":720.8888888888889,"scrollY":396},
{"id":479,"expanded":false,"name":"Corrupted Mine Entrance","order":462,"parentId":432,"scrollX":272,"scrollY":208},
{"id":480,"expanded":false,"name":"Tower Exterior","order":463,"parentId":432,"scrollX":728,"scrollY":396},
{"id":481,"expanded":true,"name":"HQ Campfire II","order":449,"parentId":360,"scrollX":272,"scrollY":208},
{"id":482,"expanded":false,"name":"Confrontation Area","order":450,"parentId":481,"scrollX":728,"scrollY":396},
{"id":483,"expanded":false,"name":"Queen's Room","order":512,"parentId":488,"scrollX":720.8888888888889,"scrollY":396},
{"id":484,"expanded":false,"name":"Ginasta Scene","order":513,"parentId":488,"scrollX":272,"scrollY":208},
{"id":485,"expanded":false,"name":"Conference Chamber","order":515,"parentId":488,"scrollX":720.8888888888889,"scrollY":964.8888888888889},
{"id":486,"expanded":false,"name":"Throne Room","order":514,"parentId":488,"scrollX":720.8888888888889,"scrollY":396},
{"id":487,"expanded":false,"name":"Throne Room","order":517,"parentId":488,"scrollX":720.8888888888889,"scrollY":415.55555555555554},
{"id":488,"expanded":false,"name":"Aftermath","order":507,"parentId":354,"scrollX":728,"scrollY":396},
{"id":489,"expanded":false,"name":"Graveyard","order":516,"parentId":488,"scrollX":720.8888888888889,"scrollY":492.8888888888889},
{"id":490,"expanded":false,"name":"Research","order":518,"parentId":488,"scrollX":272,"scrollY":208},
{"id":491,"expanded":false,"name":"Riala's Shrine","order":519,"parentId":488,"scrollX":728,"scrollY":396},
{"id":492,"expanded":false,"name":"CHAPTER FOUR","order":520,"parentId":0,"scrollX":728,"scrollY":396},
{"id":493,"expanded":false,"name":"Interstitial","order":521,"parentId":492,"scrollX":720.8888888888889,"scrollY":420},
{"id":494,"expanded":true,"name":"Headquarters Courtyard","order":525,"parentId":414,"scrollX":804.6666666666666,"scrollY":1133.6666666666667},
{"id":495,"expanded":false,"name":"Headquarters Control Room","order":523,"parentId":414,"scrollX":1786.909090909091,"scrollY":972},
{"id":496,"expanded":false,"name":"War Monument","order":573,"parentId":418,"scrollX":728,"scrollY":396},
{"id":497,"expanded":false,"name":"Headquarters B1","order":524,"parentId":414,"scrollX":1769.4545454545455,"scrollY":972},
{"id":498,"expanded":false,"name":"Chalice States","order":534,"parentId":0,"scrollX":1092,"scrollY":594},
{"id":499,"expanded":false,"name":"New Givini","order":553,"parentId":0,"scrollX":819,"scrollY":445.5},
{"id":500,"expanded":false,"name":"Tak'Kan","order":579,"parentId":0,"scrollX":728,"scrollY":396},
{"id":501,"expanded":true,"name":"Tak'Kan Regional Map","order":580,"parentId":500,"scrollX":272,"scrollY":208},
{"id":502,"expanded":true,"name":"Tarran'Kan","order":587,"parentId":500,"scrollX":272,"scrollY":208},
{"id":503,"expanded":false,"name":"Cee'Kan","order":598,"parentId":500,"scrollX":720.8888888888889,"scrollY":656.4444444444445},
{"id":504,"expanded":true,"name":"Tarran'Kan","order":588,"parentId":502,"scrollX":480,"scrollY":480},
{"id":505,"expanded":true,"name":"Tarran'Kan Slum","order":593,"parentId":502,"scrollX":512,"scrollY":480},
{"id":506,"expanded":false,"name":"Illustrious Booze Shack","order":596,"parentId":510,"scrollX":272,"scrollY":272},
{"id":507,"expanded":false,"name":"Orc Pools","order":589,"parentId":504,"scrollX":272,"scrollY":336},
{"id":508,"expanded":false,"name":"Imp Offices","order":590,"parentId":504,"scrollX":272,"scrollY":272},
{"id":509,"expanded":false,"name":"Hall of Mental Strength","order":591,"parentId":504,"scrollX":400,"scrollY":272},
{"id":510,"expanded":true,"name":"Booze Shack","order":595,"parentId":505,"scrollX":272,"scrollY":272},
{"id":511,"expanded":false,"name":"Tak'Kan Immigration Office","order":594,"parentId":505,"scrollX":336,"scrollY":272},
{"id":512,"expanded":false,"name":"Helvanna","order":535,"parentId":498,"scrollX":720.8888888888889,"scrollY":1524},
{"id":513,"expanded":false,"name":"Gasm Falls","order":541,"parentId":498,"scrollX":720.8888888888889,"scrollY":2964},
{"id":514,"expanded":false,"name":"Givini Tunnels","order":542,"parentId":513,"scrollX":720.8888888888889,"scrollY":660},
{"id":515,"expanded":false,"name":"Orc Tunnels","order":543,"parentId":513,"scrollX":720.8888888888889,"scrollY":560.4444444444445},
{"id":516,"expanded":false,"name":"The Pink Sheets","order":544,"parentId":513,"scrollX":720.8888888888889,"scrollY":420},
{"id":517,"expanded":false,"name":"The Gushing Quim","order":545,"parentId":513,"scrollX":720.8888888888889,"scrollY":396},
{"id":518,"expanded":false,"name":"Armor Shack","order":546,"parentId":513,"scrollX":728,"scrollY":396},
{"id":519,"expanded":false,"name":"Tower of Mist","order":547,"parentId":513,"scrollX":720.8888888888889,"scrollY":396},
{"id":520,"expanded":true,"name":"Givino Vinai","order":554,"parentId":499,"scrollX":272,"scrollY":208},
{"id":521,"expanded":true,"name":"New Givini Regional Map","order":565,"parentId":499,"scrollX":728,"scrollY":396},
{"id":522,"expanded":false,"name":"Tarran'Kan Slum II","order":597,"parentId":502,"scrollX":512,"scrollY":480},
{"id":523,"expanded":false,"name":"The Sheltered Cove","order":599,"parentId":503,"scrollX":336,"scrollY":272},
{"id":524,"expanded":false,"name":"Cee'Kan Naval Offices","order":600,"parentId":503,"scrollX":272,"scrollY":240},
{"id":525,"expanded":false,"name":"Fheliel's Crown","order":601,"parentId":503,"scrollX":272,"scrollY":240},
{"id":526,"expanded":false,"name":"The Lonely Sailor","order":602,"parentId":503,"scrollX":728,"scrollY":396},
{"id":527,"expanded":false,"name":"Bloody Spire","order":581,"parentId":501,"scrollX":480,"scrollY":918},
{"id":528,"expanded":false,"name":"Tak'Kan Wilds","order":582,"parentId":501,"scrollX":720.8888888888889,"scrollY":1295.5555555555557},
{"id":529,"expanded":false,"name":"Kanese Mines","order":583,"parentId":501,"scrollX":272,"scrollY":208},
{"id":530,"expanded":false,"name":"Lonely Ruin","order":585,"parentId":501,"scrollX":728,"scrollY":396},
{"id":531,"expanded":false,"name":"Temple of the Lustlord","order":536,"parentId":512,"scrollX":720.8888888888889,"scrollY":396},
{"id":532,"expanded":true,"name":"Helvanna Cathedral","order":537,"parentId":512,"scrollX":720.8888888888889,"scrollY":520.4444444444445},
{"id":533,"expanded":false,"name":"House of Love","order":539,"parentId":512,"scrollX":720.8888888888889,"scrollY":400.44444444444446},
{"id":534,"expanded":false,"name":"The Steaming Chalice","order":540,"parentId":512,"scrollX":720.8888888888889,"scrollY":400.44444444444446},
{"id":535,"expanded":false,"name":"Gasm Falls Jewelry Shop","order":548,"parentId":513,"scrollX":728,"scrollY":396},
{"id":536,"expanded":false,"name":"Gasm Falls Equipment Shop","order":549,"parentId":513,"scrollX":272,"scrollY":208},
{"id":537,"expanded":false,"name":"Gasm Falls Ornaments","order":550,"parentId":513,"scrollX":272,"scrollY":208},
{"id":538,"expanded":false,"name":"Potions and More!","order":551,"parentId":513,"scrollX":272,"scrollY":208},
{"id":539,"expanded":false,"name":"Ancient Ruin","order":575,"parentId":450,"scrollX":720.8888888888889,"scrollY":388.8888888888889},
{"id":540,"expanded":false,"name":"Ancient Ruin","order":576,"parentId":450,"scrollX":720.8888888888889,"scrollY":924.8888888888889},
{"id":541,"expanded":false,"name":"16: Stenai","order":621,"parentId":0,"scrollX":819,"scrollY":445.5},
{"id":542,"expanded":true,"name":"Central Endel","order":622,"parentId":541,"scrollX":811,"scrollY":654.5},
{"id":543,"expanded":false,"name":"Mana Forest","order":631,"parentId":541,"scrollX":811,"scrollY":994.5},
{"id":544,"expanded":false,"name":"Stenai Palace","order":623,"parentId":542,"scrollX":811,"scrollY":445.5},
{"id":545,"expanded":true,"name":"Givino Vinai Square","order":555,"parentId":520,"scrollX":720.8888888888889,"scrollY":396},
{"id":546,"expanded":false,"name":"Givino Vinai Court","order":561,"parentId":520,"scrollX":720.8888888888889,"scrollY":756},
{"id":547,"expanded":false,"name":"Givini Equipment Shop","order":556,"parentId":545,"scrollX":720.8888888888889,"scrollY":396},
{"id":548,"expanded":false,"name":"Givini Fashion Shop","order":557,"parentId":545,"scrollX":720.8888888888889,"scrollY":396},
{"id":549,"expanded":true,"name":"Givini Teahouse","order":558,"parentId":545,"scrollX":304,"scrollY":272},
{"id":550,"expanded":false,"name":"The King's Abode","order":560,"parentId":545,"scrollX":304,"scrollY":272},
{"id":551,"expanded":false,"name":"Givini Teahouse B1","order":559,"parentId":549,"scrollX":720.8888888888889,"scrollY":396},
{"id":552,"expanded":false,"name":"Givini Camp Offices","order":571,"parentId":417,"scrollX":720.8888888888889,"scrollY":396},
{"id":553,"expanded":false,"name":"Research","order":528,"parentId":414,"scrollX":1081.3333333333333,"scrollY":594},
{"id":554,"expanded":false,"name":"Givini Mage Guildhall","order":568,"parentId":416,"scrollX":720.8888888888889,"scrollY":396},
{"id":555,"expanded":false,"name":"Givini Chapel","order":569,"parentId":416,"scrollX":720.8888888888889,"scrollY":396},
{"id":556,"expanded":false,"name":"Teleportation Chamber","order":527,"parentId":414,"scrollX":1786.909090909091,"scrollY":972},
{"id":557,"expanded":false,"name":"The Tower","order":603,"parentId":0,"scrollX":1092,"scrollY":594},
{"id":558,"expanded":false,"name":"Tower Entrance","order":604,"parentId":557,"scrollX":720.8888888888889,"scrollY":2971.1111111111113},
{"id":559,"expanded":false,"name":"Wedding Chapel","order":305,"parentId":281,"scrollX":720.8888888888889,"scrollY":662.6666666666666},
{"id":560,"expanded":false,"name":"Ari-Yhilina Slums","order":341,"parentId":301,"scrollX":1679.111111111111,"scrollY":1366.6666666666667},
{"id":561,"expanded":false,"name":"Lustlord's Rest","order":339,"parentId":306,"scrollX":336,"scrollY":240},
{"id":562,"expanded":false,"name":"Tower of the Divine","order":342,"parentId":301,"scrollX":811,"scrollY":562.5},
{"id":563,"expanded":true,"name":"Tower HQ","order":529,"parentId":414,"scrollX":1081.3333333333333,"scrollY":1086},
{"id":564,"expanded":false,"name":"Tower Region","order":531,"parentId":563,"scrollX":1081.3333333333333,"scrollY":594},
{"id":565,"expanded":false,"name":"Ari-Yhilina Mercenary Offices","order":293,"parentId":276,"scrollX":720.6666666666666,"scrollY":531},
{"id":566,"expanded":false,"name":"Fancy Store","order":325,"parentId":294,"scrollX":720.8888888888889,"scrollY":396},
{"id":567,"expanded":false,"name":"Rose District Storehouse","order":324,"parentId":294,"scrollX":1151.111111111111,"scrollY":719.5555555555555},
{"id":568,"expanded":false,"name":"House of Petitions","order":301,"parentId":282,"scrollX":720.8888888888889,"scrollY":396},
{"id":569,"expanded":false,"name":"Southwestern Tunnels","order":407,"parentId":380,"scrollX":1398.2222222222222,"scrollY":388.8888888888889},
{"id":570,"expanded":false,"name":"House of Petitions","order":302,"parentId":282,"scrollX":720.8888888888889,"scrollY":396},
{"id":571,"expanded":false,"name":"Suitors","order":563,"parentId":546,"scrollX":728,"scrollY":396},
{"id":572,"expanded":false,"name":"Givino Vinai: Courtly Chambers","order":562,"parentId":546,"scrollX":2207.1111111111113,"scrollY":964.8888888888889},
{"id":573,"expanded":false,"name":"Warehouse Ruin","order":577,"parentId":521,"scrollX":720.8888888888889,"scrollY":480.44444444444446},
{"id":574,"expanded":false,"name":"Givini Ballroom","order":564,"parentId":546,"scrollX":720.8888888888889,"scrollY":804},
{"id":575,"expanded":false,"name":"Holy Plane","order":607,"parentId":557,"scrollX":811,"scrollY":517.5},
{"id":576,"expanded":false,"name":"Order of Silence HQ Lot","order":266,"parentId":253,"scrollX":1199.111111111111,"scrollY":764},
{"id":577,"expanded":false,"name":"Order of Silence HQ","order":267,"parentId":253,"scrollX":720.8888888888889,"scrollY":660},
{"id":578,"expanded":false,"name":"Twisted Space","order":605,"parentId":557,"scrollX":720.8888888888889,"scrollY":1044},
{"id":579,"expanded":false,"name":"Twisted Space Calm","order":606,"parentId":557,"scrollX":720.8888888888889,"scrollY":396},
{"id":580,"expanded":false,"name":"15: Erosian Prelude","order":611,"parentId":0,"scrollX":728,"scrollY":396},
{"id":581,"expanded":false,"name":"Tak'Kan Hall of Order","order":592,"parentId":504,"scrollX":720.8888888888889,"scrollY":460},
{"id":582,"expanded":true,"name":"Ramasta","order":419,"parentId":379,"scrollX":1088,"scrollY":1291.111111111111},
{"id":583,"expanded":false,"name":"Zirantian Road","order":612,"parentId":580,"scrollX":728,"scrollY":396},
{"id":584,"expanded":false,"name":"Order of Thaumaturgy Guildhall","order":331,"parentId":300,"scrollX":720.8888888888889,"scrollY":795.1111111111111},
{"id":585,"expanded":false,"name":"Ramasta Sanctum","order":420,"parentId":582,"scrollX":720.8888888888889,"scrollY":396},
{"id":586,"expanded":false,"name":"Aramite Tower Foundation","order":616,"parentId":580,"scrollX":720.8888888888889,"scrollY":1064.4444444444443},
{"id":587,"expanded":false,"name":"Kanese Tower Foundation","order":614,"parentId":580,"scrollX":720.8888888888889,"scrollY":753.3333333333334},
{"id":588,"expanded":false,"name":"Unperson Aramite HQ","order":421,"parentId":582,"scrollX":720.8888888888889,"scrollY":396},
{"id":589,"expanded":false,"name":"The Leaky Bucket","order":422,"parentId":582,"scrollX":720.8888888888889,"scrollY":396},
{"id":590,"expanded":false,"name":"Zirantian Tower Foundation","order":615,"parentId":580,"scrollX":1048.888888888889,"scrollY":768.4444444444445},
{"id":591,"expanded":false,"name":"Yhilini Tower Foundation","order":613,"parentId":580,"scrollX":720.8888888888889,"scrollY":388.8888888888889},
{"id":592,"expanded":false,"name":"Placid Tower","order":617,"parentId":580,"scrollX":811,"scrollY":445.5},
{"id":593,"expanded":false,"name":"Estaven","order":618,"parentId":580,"scrollX":272,"scrollY":208},
{"id":594,"expanded":false,"name":"Fucklord Confrontation","order":619,"parentId":580,"scrollX":720.8888888888889,"scrollY":396},
{"id":595,"expanded":false,"name":"Fucklord Confrontation II","order":620,"parentId":580,"scrollX":728,"scrollY":396},
{"id":596,"expanded":false,"name":"Headquarters Holding Cells","order":526,"parentId":494,"scrollX":1786.909090909091,"scrollY":972},
{"id":597,"expanded":false,"name":"Zirantian Village","order":398,"parentId":353,"scrollX":728,"scrollY":396},
{"id":598,"expanded":false,"name":"Endel Guest House","order":624,"parentId":542,"scrollX":728,"scrollY":396},
{"id":599,"expanded":false,"name":"Gawnfall","order":640,"parentId":621,"scrollX":811,"scrollY":672.5},
{"id":600,"expanded":true,"name":"High Priestess Chambers","order":643,"parentId":621,"scrollX":811,"scrollY":437.5},
{"id":601,"expanded":true,"name":"Gawnfall Guest Chambers","order":645,"parentId":621,"scrollX":811,"scrollY":445.5},
{"id":602,"expanded":false,"name":"Main Chamber","order":642,"parentId":622,"scrollX":811,"scrollY":445.5},
{"id":603,"expanded":false,"name":"Gawnfall Secondary Chambers","order":647,"parentId":621,"scrollX":320,"scrollY":400},
{"id":604,"expanded":false,"name":"Gawnfall Lodge","order":648,"parentId":621,"scrollX":368,"scrollY":304},
{"id":605,"expanded":false,"name":"High Priestesses","order":646,"parentId":601,"scrollX":304,"scrollY":208},
{"id":606,"expanded":false,"name":"Endel Enchantments","order":625,"parentId":542,"scrollX":728,"scrollY":396},
{"id":607,"expanded":false,"name":"Gifts of Endel","order":626,"parentId":542,"scrollX":272,"scrollY":240},
{"id":608,"expanded":false,"name":"Bounty of Endel","order":627,"parentId":542,"scrollX":272,"scrollY":240},
{"id":609,"expanded":false,"name":"Endel Item Shop","order":628,"parentId":542,"scrollX":272,"scrollY":240},
{"id":610,"expanded":false,"name":"Threads of Endel","order":629,"parentId":542,"scrollX":728,"scrollY":396},
{"id":611,"expanded":false,"name":"Endel Remedies","order":630,"parentId":542,"scrollX":728,"scrollY":396},
{"id":612,"expanded":false,"name":"Endel Military Harbor","order":632,"parentId":543,"scrollX":720.8888888888889,"scrollY":396},
{"id":613,"expanded":true,"name":"Stenai: Teleportation Site","order":633,"parentId":543,"scrollX":819,"scrollY":445.5},
{"id":614,"expanded":false,"name":"Tower Depths","order":637,"parentId":541,"scrollX":1043,"scrollY":5882.5},
{"id":615,"expanded":false,"name":"Stenai Crystal Mine","order":635,"parentId":543,"scrollX":811,"scrollY":754.5},
{"id":616,"expanded":false,"name":"Stenai: Teleportation Site","order":634,"parentId":613,"scrollX":819,"scrollY":445.5},
{"id":617,"expanded":false,"name":"Stenai Tower","order":636,"parentId":543,"scrollX":811,"scrollY":514.5},
{"id":618,"expanded":false,"name":"Erosia","order":638,"parentId":541,"scrollX":728,"scrollY":396},
{"id":619,"expanded":false,"name":"Doom King's Palace","order":552,"parentId":498,"scrollX":720.8888888888889,"scrollY":396},
{"id":620,"expanded":false,"name":"Tower Mine","order":530,"parentId":563,"scrollX":811,"scrollY":1980.5},
{"id":621,"expanded":false,"name":"17: Council of Gawnfall","order":639,"parentId":0,"scrollX":819,"scrollY":445.5},
{"id":622,"expanded":true,"name":"Gawnfall Memorial Chambers","order":641,"parentId":621,"scrollX":811,"scrollY":658.5},
{"id":623,"expanded":false,"name":"Erosian Cavern","order":654,"parentId":627,"scrollX":400,"scrollY":640},
{"id":624,"expanded":true,"name":"Forest of Flickering Leaves","order":667,"parentId":642,"scrollX":1081.3333333333333,"scrollY":583.3333333333334},
{"id":625,"expanded":true,"name":"Kyangan","order":680,"parentId":642,"scrollX":1081.3333333333333,"scrollY":1134},
{"id":626,"expanded":true,"name":"Erosian War Camp","order":657,"parentId":642,"scrollX":1081.3333333333333,"scrollY":594},
{"id":627,"expanded":true,"name":"Erosian Pass","order":653,"parentId":642,"scrollX":480,"scrollY":480},
{"id":628,"expanded":false,"name":"Erosian Temple","order":668,"parentId":624,"scrollX":400,"scrollY":432},
{"id":629,"expanded":false,"name":"Fuck Palace: Entrance","order":659,"parentId":642,"scrollX":1092,"scrollY":594},
{"id":630,"expanded":false,"name":"Erosian Mountaintop","order":658,"parentId":626,"scrollX":819,"scrollY":445.5},
{"id":631,"expanded":false,"name":"Twisted Space","order":608,"parentId":557,"scrollX":811,"scrollY":994.5},
{"id":632,"expanded":false,"name":"Final Issues Projection","order":644,"parentId":600,"scrollX":819,"scrollY":445.5},
{"id":633,"expanded":false,"name":"Erosia","order":649,"parentId":621,"scrollX":272,"scrollY":208},
{"id":634,"expanded":false,"name":"Elven Ruin","order":352,"parentId":321,"scrollX":728,"scrollY":396},
{"id":635,"expanded":false,"name":"Sarai's Headquarters","order":578,"parentId":521,"scrollX":720.8888888888889,"scrollY":400.44444444444446},
{"id":636,"expanded":false,"name":"Orri's Restaurant","order":255,"parentId":229,"scrollX":720.8888888888889,"scrollY":420},
{"id":637,"expanded":false,"name":"Helvanna Cathedral Rooms","order":538,"parentId":532,"scrollX":720.8888888888889,"scrollY":396},
{"id":638,"expanded":false,"name":"Kanese Farm","order":586,"parentId":501,"scrollX":272,"scrollY":208},
{"id":639,"expanded":false,"name":"Ardford Ornaments","order":256,"parentId":229,"scrollX":720.8888888888889,"scrollY":396},
{"id":640,"expanded":true,"name":"Aramite Tower","order":609,"parentId":557,"scrollX":1081.3333333333333,"scrollY":662},
{"id":641,"expanded":false,"name":"Erosia","order":610,"parentId":640,"scrollX":819,"scrollY":445.5},
{"id":642,"expanded":false,"name":"18: Erosian War","order":650,"parentId":0,"scrollX":1092,"scrollY":594},
{"id":643,"expanded":false,"name":"Succubus Bar","order":95,"parentId":43,"scrollX":819,"scrollY":445.5},
{"id":644,"expanded":false,"name":"IKD Assault","order":431,"parentId":357,"scrollX":546,"scrollY":297},
null,
null,
null,
null,
null,
null,
null,
{"id":652,"expanded":true,"name":"Tower Crossroads","order":651,"parentId":642,"scrollX":1081.3333333333333,"scrollY":594},
{"id":653,"expanded":false,"name":"Tower Crossroads","order":652,"parentId":652,"scrollX":1081.3333333333333,"scrollY":720.6666666666666},
{"id":654,"expanded":true,"name":"Fucklord's Tower","order":655,"parentId":642,"scrollX":2433,"scrollY":1336.5},
{"id":655,"expanded":false,"name":"Fucklord's Tower","order":656,"parentId":654,"scrollX":2433,"scrollY":1780.5},
{"id":656,"expanded":false,"name":"Erosian War Camp Region","order":660,"parentId":642,"scrollX":1081.3333333333333,"scrollY":606},
{"id":657,"expanded":true,"name":"Kanese Tower Foundation","order":661,"parentId":642,"scrollX":1081.3333333333333,"scrollY":1192.6666666666667},
{"id":658,"expanded":false,"name":"???","order":662,"parentId":657,"scrollX":819,"scrollY":445.5},
{"id":659,"expanded":true,"name":"Zirantian Waystation","order":663,"parentId":642,"scrollX":480,"scrollY":560},
{"id":660,"expanded":false,"name":"Divine Claw Base","order":664,"parentId":659,"scrollX":528,"scrollY":760},
{"id":661,"expanded":false,"name":"Divine Claw Base","order":665,"parentId":659,"scrollX":1092,"scrollY":594},
{"id":662,"expanded":false,"name":"Sylvan Grove","order":666,"parentId":642,"scrollX":1081.3333333333333,"scrollY":594},
{"id":663,"expanded":true,"name":"Royal Palace","order":669,"parentId":642,"scrollX":880,"scrollY":760},
{"id":664,"expanded":false,"name":"Zirantian Village","order":671,"parentId":663,"scrollX":272,"scrollY":208},
{"id":665,"expanded":false,"name":"Zirantia Royal Chambers","order":670,"parentId":663,"scrollX":1092,"scrollY":594},
{"id":666,"expanded":false,"name":"Ardan Cathedral","order":672,"parentId":663,"scrollX":272,"scrollY":288},
{"id":667,"expanded":false,"name":"Palace Entrance","order":673,"parentId":663,"scrollX":1081.3333333333333,"scrollY":594},
{"id":668,"expanded":false,"name":"Bloody Spire","order":674,"parentId":663,"scrollX":480,"scrollY":760},
{"id":669,"expanded":false,"name":"The Tower","order":675,"parentId":663,"scrollX":272,"scrollY":208},
{"id":670,"expanded":false,"name":"Ghenalese Battlefield","order":676,"parentId":663,"scrollX":272,"scrollY":208},
{"id":671,"expanded":false,"name":"The Tower","order":677,"parentId":663,"scrollX":819,"scrollY":445.5},
{"id":672,"expanded":false,"name":"Gryndine River","order":678,"parentId":642,"scrollX":1081.3333333333333,"scrollY":640.6666666666666},
{"id":673,"expanded":false,"name":"Ghenalese Battlefield","order":679,"parentId":642,"scrollX":1081.3333333333333,"scrollY":594},
{"id":674,"expanded":false,"name":"Erosian War Camp","order":681,"parentId":625,"scrollX":1081.3333333333333,"scrollY":606},
{"id":675,"expanded":false,"name":"Fuck Palace","order":682,"parentId":642,"scrollX":1081.3333333333333,"scrollY":2103.3333333333335},
{"id":676,"expanded":false,"name":"CHAPTER FIVE","order":683,"parentId":0,"scrollX":1092,"scrollY":594},
{"id":677,"expanded":false,"name":"Ginasta Scene","order":684,"parentId":676,"scrollX":272,"scrollY":208},
{"id":678,"expanded":false,"name":"Mountaintop","order":685,"parentId":676,"scrollX":1092,"scrollY":594},
{"id":679,"expanded":false,"name":"Deepwilds Shrine","order":686,"parentId":676,"scrollX":1081.3333333333333,"scrollY":739.3333333333334},
{"id":680,"expanded":false,"name":"Crystal of Ivala","order":687,"parentId":676,"scrollX":1092,"scrollY":594},
{"id":681,"expanded":false,"name":"Stineford Estate","order":66,"parentId":45,"scrollX":1081.3333333333333,"scrollY":1420.6666666666667},
{"id":682,"expanded":false,"name":"Stineford Region Border","order":93,"parentId":43,"scrollX":1092,"scrollY":594},
{"id":683,"expanded":false,"name":"Tower Mine","order":85,"parentId":65,"scrollX":1081.3333333333333,"scrollY":627.3333333333334},
{"id":684,"expanded":false,"name":"Succubus Tower B1","order":91,"parentId":66,"scrollX":1081.3333333333333,"scrollY":1422},
{"id":685,"expanded":false,"name":"Stineford Sex Store","order":71,"parentId":61,"scrollX":728,"scrollY":396},
{"id":686,"expanded":false,"name":"Merchant's Pass","order":94,"parentId":43,"scrollX":1081.3333333333333,"scrollY":594},
{"id":687,"expanded":false,"name":"Ransacked Farmhouse","order":46,"parentId":41,"scrollX":1092,"scrollY":594},
{"id":688,"expanded":false,"name":"Keeper's Tavern Basement","order":53,"parentId":48,"scrollX":811,"scrollY":840.5},
{"id":689,"expanded":false,"name":"Stineford Cathedral","order":64,"parentId":57,"scrollX":1081.3333333333333,"scrollY":750},
{"id":690,"expanded":false,"name":"A Rocky Path","order":688,"parentId":676,"scrollX":2694.6666666666665,"scrollY":3068.6666666666665},
{"id":691,"expanded":false,"name":"Deep Tunnels","order":408,"parentId":380,"scrollX":1081.3333333333333,"scrollY":594},
{"id":692,"expanded":false,"name":"A Lonely Path","order":689,"parentId":676,"scrollX":1081.3333333333333,"scrollY":4216.666666666667},
{"id":693,"expanded":false,"name":"Garden of Earth","order":690,"parentId":676,"scrollX":1092,"scrollY":594},
{"id":694,"expanded":false,"name":"Kanese Mines","order":584,"parentId":529,"scrollX":640,"scrollY":640},
{"id":695,"expanded":false,"name":"Erosia","order":691,"parentId":0,"scrollX":1092,"scrollY":594},
{"id":696,"expanded":true,"name":"Ryoken","order":692,"parentId":695,"scrollX":560,"scrollY":840},
{"id":697,"expanded":true,"name":"Kyangan","order":697,"parentId":695,"scrollX":640,"scrollY":576},
{"id":698,"expanded":true,"name":"Fuck Palace","order":693,"parentId":696,"scrollX":960,"scrollY":1160},
{"id":699,"expanded":false,"name":"Erosian Temple","order":699,"parentId":695,"scrollX":400,"scrollY":432},
{"id":700,"expanded":false,"name":"Fuck Palace: Entrance","order":694,"parentId":698,"scrollX":272,"scrollY":336},
{"id":701,"expanded":false,"name":"Former War Camp","order":700,"parentId":695,"scrollX":400,"scrollY":400},
{"id":702,"expanded":false,"name":"Ghenalon","order":701,"parentId":0,"scrollX":272,"scrollY":208},
{"id":703,"expanded":false,"name":"Tatseni","order":712,"parentId":0,"scrollX":272,"scrollY":208},
{"id":704,"expanded":false,"name":"Garden of Earth","order":532,"parentId":563,"scrollX":1092,"scrollY":594},
{"id":705,"expanded":true,"name":"Kaant","order":702,"parentId":702,"scrollX":592,"scrollY":720},
{"id":706,"expanded":true,"name":"Basanai","order":713,"parentId":703,"scrollX":640,"scrollY":592},
{"id":707,"expanded":false,"name":"Hall of Mortality","order":533,"parentId":414,"scrollX":1081.3333333333333,"scrollY":606},
{"id":708,"expanded":false,"name":"Arms of Kaant","order":703,"parentId":705,"scrollX":272,"scrollY":208},
{"id":709,"expanded":false,"name":"Forges of Ghenalon","order":704,"parentId":705,"scrollX":272,"scrollY":208},
{"id":710,"expanded":false,"name":"Enchantery","order":705,"parentId":705,"scrollX":272,"scrollY":208},
{"id":711,"expanded":false,"name":"Ornaments and Augments","order":706,"parentId":705,"scrollX":272,"scrollY":208},
{"id":712,"expanded":false,"name":"Finery of Kaant","order":707,"parentId":705,"scrollX":272,"scrollY":208},
{"id":713,"expanded":false,"name":"House of Illusion","order":708,"parentId":705,"scrollX":272,"scrollY":208},
{"id":714,"expanded":false,"name":"Ghenalese General Store","order":709,"parentId":705,"scrollX":272,"scrollY":208},
{"id":715,"expanded":false,"name":"The Queen's Grove","order":710,"parentId":705,"scrollX":272,"scrollY":208},
{"id":716,"expanded":false,"name":"Ghenalon Palace","order":711,"parentId":702,"scrollX":432,"scrollY":400},
{"id":717,"expanded":false,"name":"Order of Silence Basement","order":268,"parentId":253,"scrollX":728,"scrollY":396},
{"id":718,"expanded":false,"name":"Hall of Tatseni","order":714,"parentId":706,"scrollX":336,"scrollY":336},
{"id":719,"expanded":false,"name":"Basanai Armory","order":715,"parentId":706,"scrollX":336,"scrollY":400},
{"id":720,"expanded":false,"name":"Local Basanai Shop","order":716,"parentId":706,"scrollX":272,"scrollY":256},
{"id":721,"expanded":false,"name":"Stones of Basanai","order":717,"parentId":706,"scrollX":304,"scrollY":272},
{"id":722,"expanded":false,"name":"The Bar of Seni","order":718,"parentId":706,"scrollX":304,"scrollY":272},
{"id":723,"expanded":false,"name":"Tatseni Port Authority","order":719,"parentId":706,"scrollX":272,"scrollY":240},
{"id":724,"expanded":false,"name":"Hall of Ryoken","order":695,"parentId":696,"scrollX":400,"scrollY":416},
{"id":725,"expanded":false,"name":"Kyangan Inn","order":698,"parentId":697,"scrollX":400,"scrollY":272},
{"id":726,"expanded":false,"name":"Ryoken Military HQ","order":696,"parentId":696,"scrollX":400,"scrollY":272}
]